{"hash":"f5f6bf98bd95e769321482904cbbd488f77922fd","data":{"records":{"id":"mvvm","name":"mvvm","belongsTo":{"totalCount":54,"pageInfo":{"totalPages":6,"currentPage":1},"edges":[{"node":{"__typename":"Job","id":"72626470912-1001054966032","title":"Ios developer","text":"#вакансия #москва #удаленка #fulltime #IOSdeveloper #swift #middle #senior \n\nКриптериум (https://crypterium.com) \n\nМеждународный финтех стартап (криптофиатные операции).\n\n🟢Что предстоит делать?\n\n🔹Разработка нового функционала мобильного приложения под iOS и исправление существующих недостатков;\n🔹Проведение интеграционных тестов при передаче функционала в тест;\n🔹Участие в принятии технических решений и планировании процесса разработки продукта;\n🔹Участие в CodeReview;\n🔹Покрытие написанного кода UnitTest’ами;\n🔹Участие в проектировании REST API.\n\n🟢Какие skill’s мы хотим видеть в нашем будущем коллеге?\n\n🔹Отличное знание Swift.\n🔹Знание архитектуры MVVM.\n🔹Использование Router, Assemblies, Managers.\n🔹Понимание принципов работы RESTful API и HTTP.\n🔹Знание шаблонов проектирования и умение их применять, придерживаясь принципов SOLID.\n🔹Знание основных алгоритмов и структур данных.\n🔹Умение писать поддерживаемый и тестируемый код.\n🔹Опыт модульного программирования в больших проектах\n🔹Понимание linking библиотек\n\n🟢Что мы готовы предложить будущему коллеге?\n\n🔹По настоящему заряженная команда профессионалов\n🔹Удаленная работа, с возможностью приезжать в офис, гибкое начало рабочего дня (c 9 до 12)\n🔹Возможности профессионально развиваться и расти\n\n📱Контакты:\n@kriskrisych Кристина","markup":[{"type":"hashtag","offset":0,"length":9,"data":"вакансия"},{"type":"hashtag","offset":10,"length":7,"data":"москва"},{"type":"hashtag","offset":18,"length":9,"data":"удаленка"},{"type":"hashtag","offset":28,"length":9,"data":"fulltime"},{"type":"hashtag","offset":38,"length":13,"data":"IOSdeveloper"},{"type":"hashtag","offset":52,"length":6,"data":"swift"},{"type":"hashtag","offset":59,"length":7,"data":"middle"},{"type":"hashtag","offset":67,"length":7,"data":"senior"},{"type":"link","offset":89,"length":22,"data":"https://crypterium.com"},{"type":"handle","offset":1282,"length":12,"data":"kriskrisych"}],"date":"2020-07-03T11:42:08+00:00","link":"tg://resolve?domain=mobile_jobs&post=0","tags":[{"name":"mobile"},{"name":"ios"},{"name":"swift"},{"name":"rest"},{"name":"mvvm"}],"cities":[{"code":"moscow"}],"allowsRemote":true}},{"node":{"__typename":"Job","id":"72622276608-1001054966032","title":"Ios developer","text":"#вакансия #спб #ios #middle #senior #spb #офис #IoT #умныйдом \nMiddle/Senior iOS developer \nReady for Sky 🚀 \nhttps://readyforsky.com/ru/career/ \n📍 полный день, удаленно в СПб/офис м. Нарвская \nМы ищем iOS developer, который будет разрабатывать приложение, использующее данные с IoT-устройств для предоставления пользователям нужных товаров и услуг \n💡 Используем: Swift, Objective-C; Jenkins; GraphQL; RxSwift; MVC, MVVM и Viper \nВ команде: разрабатываем новый функционал приложения, внутренние фреймворки (Private pods), фреймворки для общего доступа; пишем Unit тесты; принимаем участие в создании протоколов работы с умными устройствами; Refactoring и Code-review. \nПредлагаем: \nРаботу в профессиональной команде (team lead, senior, middle), более 300 000 активных пользователей приложения. \nЗП от 130 до 250 тыс. руб. \nПосле исп.срока корпоративный английский \n📬 Пиши: @Rupeka_Natali","markup":[{"type":"hashtag","offset":0,"length":9,"data":"вакансия"},{"type":"hashtag","offset":10,"length":4,"data":"спб"},{"type":"hashtag","offset":15,"length":4,"data":"ios"},{"type":"hashtag","offset":20,"length":7,"data":"middle"},{"type":"hashtag","offset":28,"length":7,"data":"senior"},{"type":"hashtag","offset":36,"length":4,"data":"spb"},{"type":"hashtag","offset":41,"length":5,"data":"офис"},{"type":"hashtag","offset":47,"length":4,"data":"IoT"},{"type":"hashtag","offset":52,"length":9,"data":"умныйдом"},{"type":"bold","offset":63,"length":27,"data":""},{"type":"bold","offset":92,"length":13,"data":""},{"type":"link","offset":110,"length":34,"data":"https://readyforsky.com/ru/career/"},{"type":"bold","offset":203,"length":13,"data":""},{"type":"bold","offset":354,"length":11,"data":""},{"type":"bold","offset":432,"length":10,"data":""},{"type":"bold","offset":671,"length":11,"data":""},{"type":"bold","offset":870,"length":5,"data":""},{"type":"handle","offset":876,"length":14,"data":"Rupeka_Natali"}],"date":"2020-07-03T11:26:33+00:00","link":"tg://resolve?domain=mobile_jobs&post=69258","tags":[{"name":"mobile"},{"name":"ios"},{"name":"swift"},{"name":"objective-c"},{"name":"jenkins"},{"name":"graphql"},{"name":"mvvm"}],"cities":[],"allowsRemote":true}},{"node":{"__typename":"Job","id":"72599207936-1001054966032","title":"Ios разработчик","text":"#вакансия #ios #swift #удаленно #fulltime #middle #senior\n👋 Ищем iOS разработчика для контрактной удаленной работы (500к + скачиваний, app of the day in the app store)\nФормат работы: удаленка\n💵 Зарплата: от 1500 до 2000 usd после налогов\n\nУровень: middle / senior\nКомпания: Remember, https://rmmbr.io/\n\n👩‍🎓 Описание компании:\nЛюди, изучающие новые языки, постоянно забывают слова, которые они перевели или встретили в течении дня. Remember решает эту проблему, помогая людям, запоминать все, что они переводят.\n\n🎯 Что мы ожидаем от вас:\n- уверенное знание Swift\n- знание шаблонов проектирования и умение их применять\n- понимание принципов SOLID\n- умение планировать и приоритезировать работу\n\n👨‍💻 Что нужно делать:\n- Разрабатывать новые фичи, которые помогут тысячам пользователей запоминать слова\n- Участвовать в code review\n- Работать по спринтам\nДля работы мы используем trello, bitbucket, zeplin, slack\nПроект полностью написан на Swift, используется MVVM архитектура, новые модули пишем на VIPER\n\n📍 Как будет проходить процесс выбора кандидата:\n1. От вас CV + примеры кода\n2. Небольшое техническое интервью удаленно\n3. Оплачиваемое тестовое задание\n\n✉️ Контакты: @izvestnaya_lichnost","markup":[{"type":"hashtag","offset":0,"length":9,"data":"вакансия"},{"type":"hashtag","offset":10,"length":4,"data":"ios"},{"type":"hashtag","offset":15,"length":6,"data":"swift"},{"type":"hashtag","offset":22,"length":9,"data":"удаленно"},{"type":"hashtag","offset":32,"length":9,"data":"fulltime"},{"type":"hashtag","offset":42,"length":7,"data":"middle"},{"type":"hashtag","offset":50,"length":7,"data":"senior"},{"type":"link","offset":286,"length":17,"data":"https://rmmbr.io/"},{"type":"handle","offset":1176,"length":20,"data":"izvestnaya_lichnost"}],"date":"2020-07-03T04:32:01+00:00","link":"tg://resolve?domain=mobile_jobs&post=69236","tags":[{"name":"mobile"},{"name":"ios"},{"name":"swift"},{"name":"mvvm"}],"cities":[],"allowsRemote":true}},{"node":{"__typename":"Job","id":"72589770752-1001054966032","title":"Android разработчик","text":"#вакансия #Middle #Android #kotlin #удаленно #parttime #проект                                                                                                         \n\nФормат работы: Удалёнка\nЗанятость: частичная, проектная (0,5 ставки = 20 часов/нед.)\nУсловия: от $700 до $1000 в месяц\nКонтакты: 📲 @ogura86\n\n📚 Требования:\n • Уверенное знание Kotlin и Android SDK\n • Понимание Clean Architecture и принципов SOLID \n • Знание различных принципов построения архитектуры MVC(MVP, MVVM) \n • Умение работать с git \n • RxJava/RxKotlin\n • Знание основ сетевого взаимодействия (Retrofit)\n\n⚡️ Будет плюсом:\n •  Android architecture components: lifecycle-aware components, LiveData, ViewModel, Room\n •  Знакомство с Dagger 2 \n •  Опыт написания custom view\n\n🏖 Условия: \n • Отсутствие бюрократии\n • Свободный график работы \n • Крутой проект в области цифровизации промышленных компаний\n • Еженедельная оплата","markup":[{"type":"hashtag","offset":0,"length":9,"data":"вакансия"},{"type":"hashtag","offset":10,"length":7,"data":"Middle"},{"type":"hashtag","offset":18,"length":8,"data":"Android"},{"type":"hashtag","offset":27,"length":7,"data":"kotlin"},{"type":"hashtag","offset":35,"length":9,"data":"удаленно"},{"type":"hashtag","offset":45,"length":9,"data":"parttime"},{"type":"hashtag","offset":55,"length":7,"data":"проект"},{"type":"bold","offset":169,"length":13,"data":""},{"type":"bold","offset":193,"length":11,"data":""},{"type":"bold","offset":254,"length":8,"data":""},{"type":"bold","offset":288,"length":9,"data":""},{"type":"handle","offset":301,"length":8,"data":"ogura86"},{"type":"bold","offset":313,"length":13,"data":""},{"type":"code","offset":326,"length":3,"data":""},{"type":"code","offset":367,"length":3,"data":""},{"type":"code","offset":418,"length":3,"data":""},{"type":"code","offset":487,"length":3,"data":""},{"type":"code","offset":513,"length":3,"data":""},{"type":"code","offset":532,"length":3,"data":""},{"type":"bold","offset":586,"length":15,"data":""},{"type":"code","offset":601,"length":3,"data":""},{"type":"code","offset":692,"length":3,"data":""},{"type":"code","offset":719,"length":3,"data":""},{"type":"bold","offset":753,"length":11,"data":""},{"type":"code","offset":764,"length":3,"data":""},{"type":"code","offset":789,"length":3,"data":""},{"type":"code","offset":817,"length":3,"data":""},{"type":"code","offset":879,"length":3,"data":""}],"date":"2020-07-02T20:46:47+00:00","link":"tg://resolve?domain=mobile_jobs&post=69227","tags":[{"name":"mobile"},{"name":"android"},{"name":"kotlin"},{"name":"mvvm"},{"name":"git"}],"cities":[],"allowsRemote":true}},{"node":{"__typename":"Job","id":"72537341952-1001054966032","title":"Android разработчик","text":"#вакансия #android #java #kotlin #офис #москва\nм.Бауманская, полная занятость\nБелая з/п 150.000 - 200.000 руб. на руки\nAndroid developer\nУдаленки нет\n\nМы — команда разработки Level.Travel, сложного продукта в сфере путешествий. За последние 8 лет мы с нуля создали и продолжаем развивать решение для онлайн-продажи путешествий. Нашу платформу используют лидеры рынка – Тинькофф Банк, OneTwoTrip, Сбербанк, TripAdvisor, Kayak, АК Барс Банк, Евросеть и многие другие. Компания Level.Travel является резидентом Инновационного центра «Сколково».\n\nОбязанности:\n🔸Разработка приложения со сложным UI в команде разработчиков\n🔸Построение архитектуры\n🔸Реализация клиент-серверного взаимодействия\n🔸Написание тестов\n\nОт Вас:\n🔸От 2-х лет в разработке на Android\n🔸Знание Java/Kotlin на уровне ведущего разработчика\n🔸Знание архитектурных паттернов (MVVM / Clean Architecture), ООП\n🔸Знания цикла работы приложения, управления памятью\n🔸Опыт работы или понимание RxJava, RxAndroid, Retrofit, Dagger2, Android Data Binding\n🔸Понимание Android Architecture Components будет плюсом\n🔸CI / CD\n🔸Все тонкости работы с клиент-серверной архитектурой\n🔸Умение отлаживать приложение, профилирование кода\n\nОт нас: белая зп, официальное трудоустройство, больничные, отпуска. Скидки на изучение английского языка, техника MacBook Pro. Регулярная обратная связь и аттестации. Геймификация процессов и несколько раз в год релокейты поработать в другую страну. Клевый молодой коллектив, интересные ивенты, насыщенная корпоративная жизнь. Пинг-понг, бильярд, кальян и другие развлечения в офисе. Скидки на путешествия)\n\nСвязь по почте : vos@level.travel\nИли тут @Alyask_a","markup":[{"type":"hashtag","offset":0,"length":9,"data":"вакансия"},{"type":"hashtag","offset":10,"length":8,"data":"android"},{"type":"hashtag","offset":19,"length":5,"data":"java"},{"type":"hashtag","offset":25,"length":7,"data":"kotlin"},{"type":"hashtag","offset":33,"length":5,"data":"офис"},{"type":"hashtag","offset":39,"length":7,"data":"москва"},{"type":"bold","offset":78,"length":40,"data":""},{"type":"bold","offset":119,"length":17,"data":""},{"type":"bold","offset":151,"length":76,"data":""},{"type":"bold","offset":544,"length":12,"data":""},{"type":"bold","offset":710,"length":7,"data":""},{"type":"bold","offset":1188,"length":7,"data":""},{"type":"bold","offset":1596,"length":33,"data":""},{"type":"link","offset":1613,"length":16,"data":"mailto:vos@level.travel"},{"type":"bold","offset":1630,"length":17,"data":""},{"type":"handle","offset":1638,"length":9,"data":"Alyask_a"}],"date":"2020-07-02T12:22:40+00:00","link":"tg://resolve?domain=mobile_jobs&post=69177","tags":[{"name":"mobile"},{"name":"android"},{"name":"java"},{"name":"kotlin"},{"name":"mvvm"}],"cities":[{"code":"moscow"}],"allowsRemote":false}},{"node":{"__typename":"Job","id":"72530001920-1001054966032","title":"Ios developer","text":"#вакансия #ios #developer #iosdeveloper #москва #мск \n\nIOS Developer\nКомпания: Азбука Вкуса\nЛокация: Москва, офис\nм. Парк Победы/Кутузовская\nЗанятость: fulltime\nЗ/п: 150-210k ₽ net  \nКонтакты: @observer69\n\nУсловия\n● Официальное оформление с соблюдением ТК РФ;\n● Организация внешнего обучения;\n● Участие в конференциях и хакатонах;\n● ДМС;\n● Возможность работать из дома пару раз в неделю;\n● Комфортный офис в шаговой доступности от м. Парк Победы / Кутузовская;\n● Большая команда IT - профессионалов;\n● Интересные задачи\n\nТребования\n● Имеешь опыт iOS-разработки от 3-х лет;\n● Знаешь и любишь Swift, без вопросов можешь разобраться с кодом на Objective-C;\n● Имеешь опыт интеграции различных социальных сетей в проект;\n● Умеешь работать в AppStoreConnect и developer.apple.com, понимаешь зачем нужны сертификаты;\n● Знаешь принципы SOLID, структуры данных, паттерны проектирования и программирования;\n● Знаешь что таĸое MVC, MVVM, MVP etc. понимаешь их плюсы и\nминуты;\n● Работал с Realm;\nУверенно делаешь сложный UI, знаешь и понимаешь Autolayout, понимаешь когда лучше отказаться от него;\n● Сможешь обьяснить разницу между процессом и потоĸом, знаешь ĸаĸ\nработает многопоточность;\n● Знаком с HTTP, REST, Websocket, JSON и т.д.;\n● Работал с git (терминал или приложение);\n● Умеешь \"гуглить\" и воспринимать информацию на английском;\n● Терпимо относишься ĸ чужому ĸоду, даже если сильно не нравится;\n● Умеешь аргументировано и последовательно отстаивать свою\nпозицию;\n● Сможешь оценить задачу, и выполнить ее в сроĸ;\n● Интересуешься “а ĸаĸ это устроено внутри?”\n\nЗадачи\n1. Развивать и поддерживать существующие приложения;\n2. Проводить code review;\n3. Развивать IOS инфраструктуру в компании;\n4. Активно участвовать в жизни команды.","markup":[{"type":"hashtag","offset":0,"length":9,"data":"вакансия"},{"type":"hashtag","offset":10,"length":4,"data":"ios"},{"type":"hashtag","offset":15,"length":10,"data":"developer"},{"type":"hashtag","offset":26,"length":13,"data":"iosdeveloper"},{"type":"hashtag","offset":40,"length":7,"data":"москва"},{"type":"hashtag","offset":48,"length":4,"data":"мск"},{"type":"bold","offset":55,"length":23,"data":""},{"type":"bold","offset":92,"length":8,"data":""},{"type":"bold","offset":141,"length":10,"data":""},{"type":"bold","offset":161,"length":5,"data":""},{"type":"bold","offset":183,"length":10,"data":""},{"type":"handle","offset":193,"length":11,"data":"observer69"},{"type":"bold","offset":206,"length":8,"data":""},{"type":"bold","offset":521,"length":11,"data":""},{"type":"link","offset":754,"length":19,"data":"http://developer.apple.com"},{"type":"bold","offset":1557,"length":9,"data":""},{"type":"bold","offset":1617,"length":2,"data":""},{"type":"bold","offset":1643,"length":2,"data":""},{"type":"bold","offset":1687,"length":2,"data":""}],"date":"2020-07-02T10:23:24+00:00","link":"tg://resolve?domain=mobile_jobs&post=69170","tags":[{"name":"mobile"},{"name":"ios"},{"name":"dotnet"},{"name":"swift"},{"name":"objective-c"},{"name":"mvvm"},{"name":"realm"},{"name":"rest"},{"name":"websocket"},{"name":"json"},{"name":"git"}],"cities":[{"code":"moscow"}],"allowsRemote":false}},{"node":{"__typename":"Job","id":"72521613312-1001054966032","title":"Android developer","text":"#вакансия #работа #Android #Kotlin #релокация #работавофисе\nAndroid developer📱\n\nГород: Санкт-Петербург\nФормат работы: офис (возможность работать удаленно первое время)\nЗанятость: полная\nЗарплатная вилка: от 140 000 до 170 000;\n\n💻Что нужно делать:\n- Разработка и поддержка приложений для Android (Kotlin);\n- Работа с серверными запросами (REST APi);\n- Разработка архитектуры мобильных приложений (MVC / MVVM / Clean / MVP);\n- Участие в решении задач, связанных с бизнес-логикой;\n- Работа в команде;\n- Участие в планировании (SCRUM).\n\n📋Требования:\n- Уверенные знание Android SDK, Android Architecture Components;\n- Уверенные знания Kotlin/Java;\n- Понимать принципы проектирования SOLID;\n- Знание сетевых протоколов и технологий (HTTP(S), REST API, JSON);\n- Знание и понимание работы WebSocket;\n- Способность самостоятельно анализировать различные форматы передачи данных и определять их структуру;\n- Разбираться с непростыми архитектурными задачами и придумывать интеграционные решения.\n\nПо условиям: оформление по ТК РФ, ДМС после испытательного срока, корпоративные курсы (скорочтение, разработка, английский и пр), развитая корпоративная культура, молодой коллектив. Помогаем с релокацией.\n\nПо всем вопросам: @kvikka20","markup":[{"type":"hashtag","offset":0,"length":9,"data":"вакансия"},{"type":"hashtag","offset":10,"length":7,"data":"работа"},{"type":"hashtag","offset":18,"length":8,"data":"Android"},{"type":"hashtag","offset":27,"length":7,"data":"Kotlin"},{"type":"hashtag","offset":35,"length":10,"data":"релокация"},{"type":"hashtag","offset":46,"length":13,"data":"работавофисе"},{"type":"handle","offset":1213,"length":9,"data":"kvikka20"}],"date":"2020-07-02T09:12:47+00:00","link":"tg://resolve?domain=mobile_jobs&post=69162","tags":[{"name":"mobile"},{"name":"android"},{"name":"kotlin"},{"name":"rest"},{"name":"mvvm"},{"name":"java"},{"name":"json"},{"name":"websocket"}],"cities":[],"allowsRemote":true}},{"node":{"__typename":"Job","id":"72454504448-1001054966032","title":"Ios разработчик","text":"#вакансия #москва #удаленка #fulltime #IOSdeveloper\n\nIOS-разработчик / iOS-программист / iOS developer (Swift)\n\nООО Криптериум (https://crypterium.com)\n\nЗп: 120.000-250.000\n\n\nПривет!\n\nМы команда Crypterium!\n\nМы международный финтех стартап.\n\nМы строим банк будущего, который поддерживает криптофиатные операции.\n\nНаша цель – создание сервиса, который фактически займёт место традиционных банков, по всем возможным банковским операциям!\n\nУ нас сложные, но интересные задачи по созданию крутого и по-настоящему полезного продукта для людей из разных стран по всему миру. Работа у нас- реальная возможность приложить руку к крутому продукту, которым будет пользоваться большое количество людей.\n\nНа данный момент наша компания активно растет и развивается, в связи с этим мы ищем iOS Developer. Нам нужен по-настоящему проактивный и ответственный сотрудник. Задач много, они разные и крайне интересны\n\n🟢Что предстоит делать?\n\n🔹Разработка нового функционала мобильного приложения под iOS и исправление существующих недостатков.\n🔹Проведение интеграционных тестов при передаче функционала в тест.\n🔹Участие в принятии технических решений и планировании процесса разработки продукта.\nВзаимодействие с менеджерами, дизайнерами, бекендерами, тестировщиками.\n🔹Участие в CodeReview.\n🔹Покрытие написанного кода UnitTest’ами.\n🔹Участие в проектировании REST API.\n🔹Ведение задач при помощи Jira.\n\n\n🟢Какие skill’s мы хотим видеть в нашем будущем коллеге?\n\n🔹Отличное знание Swift.\n🔹Знание архитектуры MVVM.\n🔹Использование Router, Assemblies, Managers.\n🔹Понимание принципов работы RESTful API и HTTP.\n🔹Знание шаблонов проектирования и умение их применять, придерживаясь принципов SOLID.\n🔹Знание основных алгоритмов и структур данных.\n🔹Умение писать поддерживаемый и тестируемый код.\n🔹Способность декомпозировать задачи, оценивать их и выдерживать сроки.\n🔹Опыт модульного программирования в больших проектах\n🔹Понимание linking библиотек\n🔹Ответственное выполнение поставленных задач в срок и c максимальным качеством\n\n🟢Что мы готовы предложить будущему коллеге?\n\n🔹По настоящему заряженная команда профессионалов\n🔹Офис м.Тульская\n🔹Удаленная работа, с возможностью приезжать в офис, гибкое начало рабочего дня (c 9 до 12)\n🔹Возможности профессионально развиваться и расти\n\nКонтакты:\n@kriskrisych Кристина","markup":[{"type":"hashtag","offset":0,"length":9,"data":"вакансия"},{"type":"hashtag","offset":10,"length":7,"data":"москва"},{"type":"hashtag","offset":18,"length":9,"data":"удаленка"},{"type":"hashtag","offset":28,"length":9,"data":"fulltime"},{"type":"hashtag","offset":38,"length":13,"data":"IOSdeveloper"},{"type":"link","offset":128,"length":22,"data":"https://crypterium.com"},{"type":"handle","offset":2284,"length":12,"data":"kriskrisych"}],"date":"2020-07-01T11:13:14+00:00","link":"tg://resolve?domain=mobile_jobs&post=69098","tags":[{"name":"mobile"},{"name":"ios"},{"name":"swift"},{"name":"rest"},{"name":"mvvm"}],"cities":[{"code":"moscow"}],"allowsRemote":true}},{"node":{"__typename":"Job","id":"72453455872-1001054966032","title":"Android разработчик","text":"#вакансия #job #Android #remote #удаленка #fulltime #Kotlin #Java\n🔶 Android developer (middle+)\n🔶 BSL (bsl.dev)\n🔶 г. Москва\n🔶 fulltime office/remote\n🔶 ЗП от 1900-2600$\n\n✅ Задачи:  \n• Разработка нового функционала мобильного приложения для сети магазинов;\n• Доработка текущего функционала;\n• Взаимодействие с распределенной командой разработчиков;\n• Проведение Code Review.\n\n✅ Что нужно уметь:\n• Коммерческий опыт на Kotlin;\n• Знание Java;\n• Знание Android SDK (API 21+);\n• Опыт разработки клиент-серверных приложений;\n• Знание современных архитектурных паттернов в разработке (MVP, MVVM, MVI, Clean Architecture и т.д.);\n• Использование стандартного стека технологий: RxJava 2, Dagger 2, Retrofit;\n• Работа по Git Flow в команде.\n\n✅ Что даем взамен:\n• Возможность прокачки hard skills на проектах разного уровня сложности; \n• Команду с сильными разработчиками, product-менеджерами, QA, UX/UI дизайнерами и налаженными процессами;\n• Самореализацию и профессиональный рост, посещение конференций и курсов за счет компании. Расскажите нам о своей профессиональной мечте, возможно мы поможем вам воплотить ее в жизнь;\n• Возможен удаленный формат сотрудничества, или работа в офисе: г. Москва - м. Дмитровская, г. Минск - м. Грушевка\n\n✅Жду ваши резюме и, если есть, вопросы.\nМои контакты: @viktoriya_gw \nhr@bsl.dev","markup":[{"type":"hashtag","offset":0,"length":9,"data":"вакансия"},{"type":"hashtag","offset":10,"length":4,"data":"job"},{"type":"hashtag","offset":15,"length":8,"data":"Android"},{"type":"hashtag","offset":24,"length":7,"data":"remote"},{"type":"hashtag","offset":32,"length":9,"data":"удаленка"},{"type":"hashtag","offset":42,"length":9,"data":"fulltime"},{"type":"hashtag","offset":52,"length":7,"data":"Kotlin"},{"type":"hashtag","offset":60,"length":5,"data":"Java"},{"type":"link","offset":105,"length":7,"data":"http://bsl.dev"},{"type":"handle","offset":1289,"length":13,"data":"viktoriya_gw"},{"type":"link","offset":1304,"length":10,"data":"mailto:hr@bsl.dev"}],"date":"2020-07-01T11:07:13+00:00","link":"tg://resolve?domain=mobile_jobs&post=69097","tags":[{"name":"mobile"},{"name":"android"},{"name":"kotlin"},{"name":"java"},{"name":"mvvm"},{"name":"git"}],"cities":[{"code":"moscow"},{"code":"minsk"}],"allowsRemote":true}},{"node":{"__typename":"Job","id":"72425144320-1001054966032","title":"Mobile программист","text":"#вакансия #middle #senior #iOS #developer #Minsk #Moscow #удаленка #fulltime\n\nГород - Минск или Москва\nФормат работы: #офис или #удаленно\nЗанятость: полная \nЗарплатная вилка: от 2.000$ до 6.000$\n\nКоманда BP Mobile в поисках опытных iOS программистов, для работы над мобильными продуктами!\n\nЖдем в команду людей, у которых:\n-3+ лет опыта в разработке мобильных приложений;\n-Глубокие знания Objective-C и Swift;\n-Уверенные знания Core Data, Rest API, iOS SDK и паттернов MVC/MVVM, знания Realm - плюс;\n-Дополнительно будет плюсом знание С++ и других языков программирования.\n\n У нас: \n-Свобода выбора технологий;\n-Только собственные и разнообразные проекты (одновременно в разработке более 20 продуктов);\n-Курсы английского языка на базе офиса;\n-Медицинская страховка (включает стоматологию);\n-Скидка на паркинг возле офиса;\n-Корпоративы несколько раз в год;\n-5 Sick days в году;\n-Скидка в тренажерный зал и другие бонусы.\nКонтакты: \nemail - nadezhda.kostenevich@bpmobile.com\ntelegram - @nadzzzeya","markup":[{"type":"hashtag","offset":0,"length":9,"data":"вакансия"},{"type":"hashtag","offset":10,"length":7,"data":"middle"},{"type":"hashtag","offset":18,"length":7,"data":"senior"},{"type":"hashtag","offset":26,"length":4,"data":"iOS"},{"type":"hashtag","offset":31,"length":10,"data":"developer"},{"type":"hashtag","offset":42,"length":6,"data":"Minsk"},{"type":"hashtag","offset":49,"length":7,"data":"Moscow"},{"type":"hashtag","offset":57,"length":9,"data":"удаленка"},{"type":"hashtag","offset":67,"length":9,"data":"fulltime"},{"type":"hashtag","offset":118,"length":5,"data":"офис"},{"type":"hashtag","offset":128,"length":9,"data":"удаленно"},{"type":"link","offset":940,"length":33,"data":"mailto:nadezhda.kostenevich@bpmobile.com"},{"type":"handle","offset":985,"length":10,"data":"nadzzzeya"}],"date":"2020-07-01T06:59:55+00:00","link":"tg://resolve?domain=mobile_jobs&post=69070","tags":[{"name":"mobile"},{"name":"ios"},{"name":"objective-c"},{"name":"swift"},{"name":"rest"},{"name":"mvvm"},{"name":"realm"},{"name":"core-data"}],"cities":[{"code":"minsk"},{"code":"moscow"}],"allowsRemote":true}}]}}},"context":{}}