{"hash":"f5f6bf98bd95e769321482904cbbd488f77922fd","data":{"records":{"id":"ios","name":"ios","belongsTo":{"totalCount":194,"pageInfo":{"totalPages":20,"currentPage":10},"edges":[{"node":{"__typename":"Job","id":"103691583488-1001089317451","title":"Qa инженер","text":"QA\n\n#QA #тестировщик #россия #APi\n#ручноетестирование #middle #senior #тестирование #вакансия\nВ нашей молодой концептуальной IT-компании ООО \"Сколопендра\" (www.skolopendra.com) на данный момент открыта позиция QA тестировщика.\nВид деятельности  нашей Компании: ИТ-разработка полного цикла. \nСпециализация: высоконагруженные промышленные системы, процессинги данных, СППР, AI, запуск стартап-идей под ключ, электротехника.\nНаправление деятельности: технологический партнер для внешних заказчиков/собственные Hard&Soft Продукты.\n\n\n\nQA \n\nТребуемые знания, навыки, опыт\n• Знание основных технологий и методов тестирования\n• Понимание процесса разработки и тестирования ПО\n• Хорошие знания в области тест-дизайна\n• Опыт работы с баг-трекинговыми системами (jira)\n• Понимание основных принципов REST API\n• Опыт работы в тестировании от 1,5 лет\n• Высшее образование (предпочтительно техническое)\n\nБудет плюсом:\n• Базовые знания Java будут плюсом\n• Опыт автоматизации тестирования будет плюсом\n• Базовые знания технологии блокчейн и принципов работы бирж будут плюсом\nТакже мы ждем от кандидатов:\n• Умение работать в команде\n• Ответственность, самостоятельность, инициативность\n• Умение работать в условиях большого количества задач, оперативная реакция на задачи\n• Внимание к деталям, способность анализировать информацию\n• Стремление к саморазвитию, обучению, повышению технических компетенций\nФункциональные обязанности:\n• Проведение ручного функционального и регрессионного тестирования\n• Локализация, документирование, проверка дефектов\n• Разработка и актуализация тестовых планов, тестовых сценариев\n• Оценка трудоемкости задач\n• Работа с требованиями и документацией\nЗанятость : фултайм 5/2 на удалёнке \n#iOS\n#Android\n#mobiledevelopment \n#crossplatform #flutter #kotlinnative\n#мобильнаяразработка #вакансия\n\nКомпания ООО “СКОЛОПЕНДРА” (www.skolopendra.com) приглашает целеустремленных и одаренных в наш дружный коллектив. \nДавай вместе делать интересные проекты в современных стеках технологий. А мы предоставим возможности для скорейшего профессионального и личностного роста.\n\nВид деятельности Компании: ИТ-разработка полного цикла. \nСпециализация: высоконагруженные промышленные системы, процессинги данных, СППР, AI, запуск стартап-идей под ключ, электротехника.\nНаправление деятельности: технологический партнер для внешних заказчиков/собственные Hard&Soft Продукты.\n\nОфис: Москва, м.Павелецкая, Космодамианская наб., 52/10\nФормат работы: в офисе/удаленно\nЗанятость: full-time (целевой формат) /part-time (возможный старт)\nЗП: по итогам собеседования вилка от 600-800 рублей в час , 3-х месячный цикл пересмотра grade\nОформление: по ТК\n\nДолжность: Mid/Mid+/Sen\nКонтакты: team@skolopendra.com\nТелеграмм : @Tufelka1","markup":[{"type":"hashtag","offset":4,"length":3,"data":"QA"},{"type":"hashtag","offset":8,"length":12,"data":"тестировщик"},{"type":"hashtag","offset":21,"length":7,"data":"россия"},{"type":"hashtag","offset":29,"length":4,"data":"APi"},{"type":"hashtag","offset":34,"length":19,"data":"ручноетестирование"},{"type":"hashtag","offset":54,"length":7,"data":"middle"},{"type":"hashtag","offset":62,"length":7,"data":"senior"},{"type":"hashtag","offset":70,"length":13,"data":"тестирование"},{"type":"hashtag","offset":84,"length":9,"data":"вакансия"},{"type":"link","offset":156,"length":19,"data":"http://www.skolopendra.com"},{"type":"hashtag","offset":1703,"length":4,"data":"iOS"},{"type":"hashtag","offset":1708,"length":8,"data":"Android"},{"type":"hashtag","offset":1717,"length":18,"data":"mobiledevelopment"},{"type":"hashtag","offset":1737,"length":14,"data":"crossplatform"},{"type":"hashtag","offset":1752,"length":8,"data":"flutter"},{"type":"hashtag","offset":1761,"length":13,"data":"kotlinnative"},{"type":"hashtag","offset":1775,"length":20,"data":"мобильнаяразработка"},{"type":"hashtag","offset":1796,"length":9,"data":"вакансия"},{"type":"link","offset":1835,"length":19,"data":"http://www.skolopendra.com"},{"type":"link","offset":2675,"length":20,"data":"mailto:team@skolopendra.com"},{"type":"handle","offset":2708,"length":9,"data":"Tufelka1"}],"date":"2020-06-25T08:53:27+00:00","link":"tg://resolve?domain=qa_jobs&post=98888","tags":[{"name":"qa"},{"name":"rest"},{"name":"java"},{"name":"ios"},{"name":"android"},{"name":"flutter"}],"cities":[{"code":"moscow"}],"allowsRemote":true}},{"node":{"__typename":"Job","id":"71992082432-1001054966032","title":"Ios developer","text":"#вакансия #job #ios #swift #developer #Новосибирск #Калининград #Кострома #Екатеринбург #Питер #Тюмень \n\nВсем привет! \nОткрыта позиция на должность \n🔥iOS Developer🔥\n\nКомпания: ТЕНЗОР (https://tensor.ru)\nЦентры мобильной разработки:\n📱Новосибирск, \n📱Калининград, \n📱Кострома, \n📱Екатеринбург,\n📱Тюмень, \n📱Санкт-Петербург,\n📱Севастополь \nOffice, full-time\n🔸Оформление по ТК РФ 🔸ДМС со стоматологией🔸курсы иностранных языков🔸корпоративные праздники🔸комфортный офис \nЗП: \nMiddle 110 000-180 000\nSenior 180 000-300 000 на руки\n\nЕсли ты :\n✅ имеешь опыт программирования на Swift;\n✅ знаешь базовые фреймворки iOS SDK(UIKit, Foundation, CoreLocation идр.);\n✅ понимаешь принципы : SOLID, DI;\n✅ знаешь архитектурные паттерны:MVP, VIPER;\n✅ умеешь работать с AutoLayout из кода, StoryBoards, XIB;\n✅ готов к профессиональному развитию\nто пиши нам!!!\nЖдём вопросы и резюме! \n✍️ @kseniyahr\n📨 ke.pomigueva@tensor.ru","markup":[{"type":"hashtag","offset":0,"length":9,"data":"вакансия"},{"type":"hashtag","offset":10,"length":4,"data":"job"},{"type":"hashtag","offset":15,"length":4,"data":"ios"},{"type":"hashtag","offset":20,"length":6,"data":"swift"},{"type":"hashtag","offset":27,"length":10,"data":"developer"},{"type":"hashtag","offset":38,"length":12,"data":"Новосибирск"},{"type":"hashtag","offset":51,"length":12,"data":"Калининград"},{"type":"hashtag","offset":64,"length":9,"data":"Кострома"},{"type":"hashtag","offset":74,"length":13,"data":"Екатеринбург"},{"type":"hashtag","offset":88,"length":6,"data":"Питер"},{"type":"hashtag","offset":95,"length":7,"data":"Тюмень"},{"type":"link","offset":186,"length":17,"data":"https://tensor.ru"},{"type":"handle","offset":873,"length":10,"data":"kseniyahr"},{"type":"link","offset":887,"length":22,"data":"mailto:ke.pomigueva@tensor.ru"}],"date":"2020-06-25T08:37:26+00:00","link":"tg://resolve?domain=mobile_jobs&post=68657","tags":[{"name":"mobile"},{"name":"ios"},{"name":"swift"},{"name":"uikit"}],"cities":[{"code":"novosibirsk"},{"code":"kaliningrad"},{"code":"kostroma"},{"code":"tyumen"},{"code":"sevastopol"}],"allowsRemote":false}},{"node":{"__typename":"Job","id":"71987888128-1001054966032","title":"Ios разработчик","text":"#вакансия #IOS разработчик #ObjectiveC\n\nРабота в офисе или УД\nЗП от 120 000 до 240 000 руб. на руки\nг. Москва\n\nМы ищем коллегу iOS-разработчика в команду, основными задачами которой является разработка приложений для ведущих операторов сотовой связи, компаний в сфере финансов и телекоммуникаций. \n \nДолжностные обязанности: \n∙ Разработка и поддержка новых приложений;\n∙ Поддержка имеющихся приложений;\n∙ Создание библиотек;\n∙ Верстка по макетам с нарезкой. \n \nНеобходимые навыки: \n∙ Опыт работы от 2-х лет;\n∙ Наличие законченных проектов; \n∙ Уверенное знание iOS SDK 7+;\n∙ Опыт разработки кастомных UI; \n∙ Опыт работы с анимацией;\n∙ Опыт работы с push-нотификациями, сетью, базами данных, структурами данных;\n∙ Опыт работы с Git;\n∙ Хорошее знание ООП и паттернов проектирования;\n∙ Умение разбираться в чужом коде. \n \nБудет плюсом: \n∙ Опыт работы с другими языками программирования;\n∙ Опыт работы с MVVM;\n∙ Опыт публикации приложений в App Store;\n∙ Знание классических алгоритмов и структур данных. \n \nМы предлагаем: \n∙ Достойную заработную плату;\n∙ График работы понедельник-пятница 9.00-18.00;\n∙ Дружный коллектив, творческая самостоятельность в работе.\n\nКомпания ИММО – VAS-интегратор, ведущий поставщик сервисов для операторов связи. \nМы сотрудничаем с более чем 60 операторами сотовой связи в 14 странах.\nМы разрабатываем, внедряем и развиваем высокотехнологичные сервисы «под ключ».\nНаши партнеры – операторы мобильной и фиксированной связи, производители мобильных и сетевых устройств нового поколения, ведущие социальные сети, поставщики и производители технологических VAS-решений, Правообладатели (Universal, Sony, Warner, EMI, Disney).\n\ntel: +7(985)896-83-99\nhr@immo.ru","markup":[{"type":"hashtag","offset":0,"length":9,"data":"вакансия"},{"type":"hashtag","offset":10,"length":4,"data":"IOS"},{"type":"hashtag","offset":27,"length":11,"data":"ObjectiveC"},{"type":"link","offset":1653,"length":16,"data":"tel:+7(985)896-83-99"},{"type":"link","offset":1670,"length":10,"data":"mailto:hr@immo.ru"}],"date":"2020-06-25T08:06:29+00:00","link":"tg://resolve?domain=mobile_jobs&post=68653","tags":[{"name":"mobile"},{"name":"ios"},{"name":"git"},{"name":"mvvm"}],"cities":[{"code":"moscow"}],"allowsRemote":false}},{"node":{"__typename":"Job","id":"71978450944-1001054966032","title":"Ios разработчик","text":"#вакансия #Senior #iOS #Swift #удаленка #Кипр #Минск #СПб\n\nГород и адрес офиса: Минск, Санкт-Петербург, Лимассол (Кипр)\nФормат работы: удаленка, либо офис\nЗанятость: полная\nЗарплатная вилка (обязательно): $3000-4000 (на руки)\n\n📍Нахожусь в поиске сильного iOS разработчика для международного стартапа. Ребята создают продукт, который помогает людям заводить новые деловые знакомства, находить бизнес-партнеров и поддерживать контакты.\n\n👉Обязательные навыки: \n\n- Глубокое знание iOS разработки (в том числе для 11+ iOS) и языка Swift (Rx Swift), современных системных и сторонних фреймворков.\n- Опыт работы в команде продуктовой разработки от 3х лет\n- Умение создавать проект с нуля.\n- Опыт разработки коммерческих приложений\n- Умения адекватно оценивать сроки разработки и вовремя сигнализировать о проблемах, мешающих их соблюдению\n- Желание делать полезный продукт, понимание ценности задач разработки для пользователей\n- Плюсом будет опыт работы с протоколом xmpp\n\n📧Контакты: \nEmail: seleznevaem@gmail.com\nTG: @EkaterinaSel","markup":[{"type":"hashtag","offset":0,"length":9,"data":"вакансия"},{"type":"hashtag","offset":10,"length":7,"data":"Senior"},{"type":"hashtag","offset":18,"length":4,"data":"iOS"},{"type":"hashtag","offset":23,"length":6,"data":"Swift"},{"type":"hashtag","offset":30,"length":9,"data":"удаленка"},{"type":"hashtag","offset":40,"length":5,"data":"Кипр"},{"type":"hashtag","offset":46,"length":6,"data":"Минск"},{"type":"hashtag","offset":53,"length":4,"data":"СПб"},{"type":"link","offset":989,"length":21,"data":"mailto:seleznevaem@gmail.com"},{"type":"handle","offset":1015,"length":13,"data":"EkaterinaSel"}],"date":"2020-06-25T06:25:03+00:00","link":"tg://resolve?domain=mobile_jobs&post=68644","tags":[{"name":"mobile"},{"name":"ios"},{"name":"swift"}],"cities":[{"code":"minsk"}],"allowsRemote":true}},{"node":{"__typename":"Job","id":"71945945088-1001054966032","title":"Ios developer","text":"#вакансия #ios #swift #senior #middle #петербург #fulltime\n\niOS Developer (Senior, Middle)\nЗ/п: 2000-3500$\n\nLifestyle Production Group - американская компания, лидер в индустрии видеомаркетинга элитного сегмента \nhttps://lifestyleproduction.com\n\nЧто нужно делать:\nРазработка внутреннего продукта компании в сфере видеоредактирования\n\nДля нас важно: \n 1. Опыт коммерческой разработки\n 2. Практический опыт работы с многопоточностью и autolayout\n 3. Наличие примеров кода\n\nЧто предлагаем:\n 1. Работа над быстро развивающимся, востребованным продуктом в перспективной индустрии\n 2. Работа на иностранный рынок\n 3. Корпоративное оборудование, индивидуальная комплектация рабочего места\n 4. Good energy vibes\n\nКонтакты: @nadipakhomova, nadya@lifestyleproduction.com","markup":[{"type":"hashtag","offset":0,"length":9,"data":"вакансия"},{"type":"hashtag","offset":10,"length":4,"data":"ios"},{"type":"hashtag","offset":15,"length":6,"data":"swift"},{"type":"hashtag","offset":22,"length":7,"data":"senior"},{"type":"hashtag","offset":30,"length":7,"data":"middle"},{"type":"hashtag","offset":38,"length":10,"data":"петербург"},{"type":"hashtag","offset":49,"length":9,"data":"fulltime"},{"type":"bold","offset":60,"length":30,"data":""},{"type":"bold","offset":91,"length":16,"data":""},{"type":"link","offset":213,"length":31,"data":"https://lifestyleproduction.com"},{"type":"bold","offset":246,"length":18,"data":""},{"type":"bold","offset":334,"length":16,"data":""},{"type":"bold","offset":471,"length":16,"data":""},{"type":"handle","offset":715,"length":14,"data":"nadipakhomova"},{"type":"link","offset":731,"length":29,"data":"mailto:nadya@lifestyleproduction.com"}],"date":"2020-06-24T12:40:09+00:00","link":"tg://resolve?domain=mobile_jobs&post=68613","tags":[{"name":"mobile"},{"name":"ios"},{"name":"swift"}],"cities":[],"allowsRemote":false}},{"node":{"__typename":"Job","id":"103594065920-1001089317451","title":"Qa инженер","text":"#вакансия #QA #fulltime #hardware #firmware #петербург #спб #питер #офис\n\nМы — британская 🇬🇧 компания SoterAnalytics, разрабатываем не имеющее аналогов в мире решение для предотвращения травм 🤕 на производстве. Мы делаем небольшой девайс, который цепляется на рубашку 🦺 рабочим👨‍🏭👩‍🏭 и дает обратную связь🔔, если рабочий что-то делает не соблюдая техники безопасности. Среди наших клиентов крупнейшие логистические и горнодобывающие компании, авиакомпании и ритейлеры со всего мира — США, Великобритания, Австралия и пр (к примеру, Amazon, DHL, Coca-Cola). \n\nИщем в команду человека 👨👩 , который понимает, КАК нужно тестировать и ЧТО важно в этом процессе. Тестировать нужно будет много разного — блутус связь с девайсом (BLE, собственный протокол обмена данными, Nordic), мобильные приложения (преимущественно Flutter iOS/Android), веб (React + лендинги на WordPress и пр) и бэкенд (Go), так что скучать не придется. Ищем амбициозного человека, которому будет интересно вникнуть во все детали и наладить процессы тестирования.\n\nМы преимущественно ищем человека с опытом работы 👩‍💻👨‍💻. Но готовы рассматривать кандидатов и без опыта работы 👶, но с горящими глазами.\n\nТакже было бы неплохо, чтобы человек владел английским языком  — часть сотрудников у нас англоязычная;\n\nЗП\n• вилка от 40 000 РУБ 💵 и сильно больше, зависит от уровня кандидата 🤓\n• участие в доле компании\n\nСейчас работаем все еще удаленно, но постепенно возвращаемся в офис. Офис расположен в центре СПб, на ул Рубинштейна.\n\nПишите в личку — @votruk","markup":[{"type":"hashtag","offset":0,"length":9,"data":"вакансия"},{"type":"hashtag","offset":10,"length":3,"data":"QA"},{"type":"hashtag","offset":14,"length":9,"data":"fulltime"},{"type":"hashtag","offset":24,"length":9,"data":"hardware"},{"type":"hashtag","offset":34,"length":9,"data":"firmware"},{"type":"hashtag","offset":44,"length":10,"data":"петербург"},{"type":"hashtag","offset":55,"length":4,"data":"спб"},{"type":"hashtag","offset":60,"length":6,"data":"питер"},{"type":"hashtag","offset":67,"length":5,"data":"офис"},{"type":"handle","offset":1526,"length":7,"data":"votruk"}],"date":"2020-06-24T08:18:41+00:00","link":"tg://resolve?domain=qa_jobs&post=98795","tags":[{"name":"qa"},{"name":"flutter"},{"name":"ios"},{"name":"android"},{"name":"reactjs"},{"name":"wordpress"}],"cities":[],"allowsRemote":true}},{"node":{"__typename":"Job","id":"71920779264-1001054966032","title":"Ios разработчик","text":"#вакансия #IOS #senior #full-time #офис #удаленка \nГород: Санкт-Петербург\nФормат работы: офис и удаленка\nЗанятость: полная \nЗарплатная вилка (обязательно): от 230 000 до 300 000 на руки\n\nКомпания: VOIR - приложение реалистичного диджитал мейкапа с самым большим количеством качественно оцифрованной продукции реальных брендов.\nМы используем компьютерное зрение, нейронные сети и запатентованный 3D рендеринг, чтобы обеспечить реалистичную примерку в дополненной реальности. \nНаше приложение Voir уже имеет более 3 млн. загрузок по всему миру.\n\nАудитория приложения составляет сотни тысяч пользователей по всему миру, и компания уже заключила партнерства с такими брендами как Dior, Sephora, Guerlain. Подробнее о компании можно узнать в статье Forbes и на сайте, а еще лучше скачать приложение.\nВ данный момент мы ищеним Senior IOS Developer'а. \n\nЧто нужно делать:\n\n* Активно участвовать в развитие проекта, общаться с командой, вместе находить крутые решения;\n* Разработка мобильных приложений;\n* Участие в работе над архитектурой, SDK, API;\n* Работа с командой разработчиков, тестировщиков, дизайнеров и специалистов по machine learning.\n\nЧто нам важно:\n\n* Опыт iOS разработки от 3-х лет;\n* Опыт разработки от 5-х лет;\n* Отличное знание Swift, RxSwift;\n* Отличное знание API и фреймворков iOS;\n* Отличные знания Metal, OpenGL, SceneKit, ARkit, CoreML;\n* Фундаментальные знания ООП, архитектур и алгоритмов;\n* Умение проводить комплексный анализ и самостоятельно решать проблемы;\n* Опыт разработки клиент-серверных приложений и работы с сетевыми протоколами;\n* Английский не ниже Intermediate, свободное чтение любой технической документации;\n* Опубликованные приложения, которые создавались с вашим значительным участием;\n* Плюсом будет открытый актуальный код на GitHub или даже в zip-архиве, статьи, выступления на конференциях, пришлите ссылки на них в сопроводительном письме;\n* Любить IOS и понимать гайды и best-practice;\n* Умение аргументированно излагать свою точку зрения.\n\nЧто мы предлагаем: \n\n* Интересные задачи на активно развивающемся проекте с использованием технологий machine learning;\n* Возможность непосредственно влиять на продукт и видеть результат работы;\n* Работу в профессиональной, заряженной команде и драйвовую атмосферу;\n* Гибкий график работы;\n* Белую зарплату, которая зависит только от ваших навыков и опыта;\n* Комфортный офис в 10 минутах ходьбы, от метро Петроградская.\n\nКонтакты: @aartenyan","markup":[{"type":"hashtag","offset":0,"length":9,"data":"вакансия"},{"type":"hashtag","offset":10,"length":4,"data":"IOS"},{"type":"hashtag","offset":15,"length":7,"data":"senior"},{"type":"hashtag","offset":23,"length":5,"data":"full"},{"type":"hashtag","offset":34,"length":5,"data":"офис"},{"type":"hashtag","offset":40,"length":9,"data":"удаленка"},{"type":"link","offset":737,"length":15,"data":"https://www.forbes.ru/tehnologii/381845-didzhital-makiyazh-kak-natalya-vodyanova-podarila-vtoruyu-zhizn-startapu-iz"},{"type":"link","offset":756,"length":5,"data":"http://voir.me/"},{"type":"link","offset":775,"length":19,"data":"https://apps.apple.com/us/app/voir-makeup-selfie-camera/id1226417060"},{"type":"handle","offset":2416,"length":10,"data":"aartenyan"}],"date":"2020-06-24T08:14:26+00:00","link":"tg://resolve?domain=mobile_jobs&post=68589","tags":[{"name":"mobile"},{"name":"ios"},{"name":"swift"},{"name":"opengl"},{"name":"github"},{"name":"machine-learning"}],"cities":[],"allowsRemote":true}},{"node":{"__typename":"Job","id":"71918682112-1001054966032","title":"Ios разработчик","text":"#вакансия #swift #objective-C #ios\n\niOS разработчик удаленно по России \nmiddle/senior\n\nГород : Санкт-Петербург\nФормат работы: офис или удаленно\nЗанятость: Полная\nЗарплатная вилка:  90 000 - 200 000 руб\n\n\nОписание компании:\nВ Blogman мы занимаемся разработкой собственного приложения – платформа для блогеров и рекламодателей. В нашей команде уже более 50 разработчиков и мы продолжаем расти. Сейчас мы ищем инженера с опытом коммерческой разработки под iOS.\nОсновной стек технологий — Swift, Realm, Alamofire. Сейчас мы разрабатываем бизнес-функционал и будем рады новому специалисту в нашей команде, вместе с которым мы будем делать быстрое приложение с отзывчивым и плавным интерфейсом.\n\nМы ожидаем, что у вас есть:\n— Опыт коммерческой разработки мобильных приложений под iOS;\n— Хорошие знания Swift, UIKit;\n— Опыт работы с мобильными БД;\n— Умение работать с Git, Cocoapods.\n\nБудет плюсом, если вы:\n— Разрабатывали клиент-серверные приложения;\n— Умеете работать с WebSocket;\n— Знаете и понимаете архитектуру VIPER;\n— Командный игрок без яркого эгоцентризма;\n— Готовы активно принимать участие в жизни компании и продукта.\n\nРады предложить:\n– Удаленное сотрудничество или комфортный офис на Невском проспекте в 5 минутах ходьбы от ст. м. Маяковская и Владимирская;\n– Желаемый оклад по результатам собеседования;\n– Понятную систему роста зарплаты каждые 6 месяцев, в которой все зависит только от вас;\n– Все необходимые офисные блага вроде вкусного кофе и т.д.\nВас будут окружать адекватные люди, с которыми комфортно решать поставленные задачи. У сотрудников есть общие ценности, такие как стремление к качественному результату, забота о продукте и желание двигаться вперед. Также у нас нет “Начальства”, а есть коллеги. Все взаимодействуют горизонтально и в команде равенство между инженерами, стейкхолдером, продактом и т.д. Все работают бок о бок и делают одно общее дело.\nНазвание компании: Blogman\nКонтакты: @maria_golovina","markup":[{"type":"hashtag","offset":0,"length":9,"data":"вакансия"},{"type":"hashtag","offset":10,"length":6,"data":"swift"},{"type":"hashtag","offset":17,"length":10,"data":"objective"},{"type":"hashtag","offset":30,"length":4,"data":"ios"},{"type":"bold","offset":225,"length":8,"data":""},{"type":"bold","offset":490,"length":2,"data":""},{"type":"bold","offset":497,"length":2,"data":""},{"type":"bold","offset":690,"length":27,"data":""},{"type":"bold","offset":878,"length":22,"data":""},{"type":"bold","offset":1125,"length":16,"data":""},{"type":"handle","offset":1914,"length":15,"data":"maria_golovina"}],"date":"2020-06-24T08:04:26+00:00","link":"tg://resolve?domain=mobile_jobs&post=68587","tags":[{"name":"mobile"},{"name":"ios"},{"name":"swift"},{"name":"objective-c"},{"name":"realm"},{"name":"uikit"},{"name":"git"},{"name":"cocoapods"},{"name":"websocket"}],"cities":[],"allowsRemote":true}},{"node":{"__typename":"Job","id":"71916584960-1001054966032","title":"Ios developer","text":"‼️Вакансия Senior iOS Developer в MNFST‼️\n\n#вакансия #ios #удалённо \nФормат работы: #удалённо\nЗанятость: полная\n💶 З/п: от 200 000 до 230 000 руб. на руки\n\n🏢 Компания: MNFST (mnfst.com)\n\nЧем предстоит заниматься: \n🔸 Разработка и доработка нового функционала iOS-приложения MNFST\n🔸 Поддержка и развитие AR и face tracker\n🔸 Работа над оптимизацией и стабильностью приложения\n\nТребования:\n✔️ Отличное владение языком Swift (не менее двух лет)\n✔️ Опыт коммерческой разработки iOS-приложений (не менее трех лет)\n✔️ Хорошее владение Objective-C\n✔️ Уверенное знание GCD и понимание ARC\n\nПлюсом будет:\n➕ Знание Objective-C Runtime\n➕ Опыт работы с AVFoundation, Vision, ARKit и CoreML\n➕ Опыт разработки Cocoa Touch Frameworks\n\n📨 Резюме и вопросы по вакансии присылайте на talent@mnfst.com или @aderyabin","markup":[{"type":"hashtag","offset":43,"length":9,"data":"вакансия"},{"type":"hashtag","offset":53,"length":4,"data":"ios"},{"type":"hashtag","offset":58,"length":9,"data":"удалённо"},{"type":"bold","offset":69,"length":14,"data":""},{"type":"hashtag","offset":84,"length":9,"data":"удалённо"},{"type":"bold","offset":94,"length":11,"data":""},{"type":"bold","offset":115,"length":5,"data":""},{"type":"bold","offset":159,"length":10,"data":""},{"type":"link","offset":176,"length":9,"data":"http://mnfst.com"},{"type":"bold","offset":188,"length":25,"data":""},{"type":"bold","offset":378,"length":11,"data":""},{"type":"bold","offset":584,"length":14,"data":""},{"type":"link","offset":768,"length":16,"data":"mailto:talent@mnfst.com"},{"type":"handle","offset":789,"length":10,"data":"aderyabin"}],"date":"2020-06-24T07:29:40+00:00","link":"tg://resolve?domain=mobile_jobs&post=68585","tags":[{"name":"mobile"},{"name":"ios"},{"name":"swift"},{"name":"objective-c"},{"name":"cocoa"},{"name":"cocoa-touch"}],"cities":[],"allowsRemote":true}},{"node":{"__typename":"Job","id":"71914487808-1001054966032","title":"Ios developer","text":"#вакансия #developer #iOS #moscow  #fulltime \niOS Developer\nГород: Москва\nФормат работы: офис \nЗанятость: полная\nЗП вилка: 160-290 тысяч \n\ninDriver - международный ride-hailing сервис:\n* 47 млн пользователей в 31 стране мира.\n* Входим в топ-5 мобильных сервисов для заказа поездки по итогам января 2020 года.\n* Офис возле м. Улица 1905 года.\n* Релокация в Москву для иногородних.\n\nОбязанности:\n• Разработка нового функционала приложения\n• Поддержка уже существующего функционала приложения\n• Участие в проектировании архитектуры системы\n\nТребования:\n• Отличное знание Swift и Objective-C\n•Опыт коммерческой iOS-разработки\n• Уверенное знание различных архитектурных подходов\n\nКонтакт для связи: @Liuboushka888","markup":[{"type":"hashtag","offset":0,"length":9,"data":"вакансия"},{"type":"hashtag","offset":10,"length":10,"data":"developer"},{"type":"hashtag","offset":21,"length":4,"data":"iOS"},{"type":"hashtag","offset":26,"length":7,"data":"moscow"},{"type":"hashtag","offset":35,"length":9,"data":"fulltime"},{"type":"handle","offset":694,"length":14,"data":"Liuboushka888"}],"date":"2020-06-24T06:00:18+00:00","link":"tg://resolve?domain=mobile_jobs&post=68583","tags":[{"name":"mobile"},{"name":"ios"},{"name":"swift"},{"name":"objective-c"}],"cities":[{"code":"moscow"}],"allowsRemote":false}}]}}},"context":{}}