{"hash":"f5f6bf98bd95e769321482904cbbd488f77922fd","data":{"records":{"id":"firebase","name":"firebase","belongsTo":{"totalCount":18,"pageInfo":{"totalPages":2,"currentPage":1},"edges":[{"node":{"__typename":"Job","id":"72623325184-1001054966032","title":"Ios разработчик","text":"#вакансия #москва #офис #senior #ios #developer #gamedev #swift \nГород и адрес офиса: Москва, м.Автозаводская \nФормат работы: офис \nЗанятость: полная \nЗарплатная вилка: от 250 000 до 300 000 на руки \n\n\n✅ Senior iOS Developer \n\nОписание вакансии: \n\nМы - успешная команда из 120 человек, которая занимается: \n• разработкой собственных мобильных игр и приложений \n• паблишингом мобильных игр \n• рекламой и маркетингом мобильных приложений (реклама на Facebook, Google и т.д.) \nЗа последние 3 года мы привлекли более 100 млн пользователей в наши собственные мобильные приложения и приложения наших клиентов и партнеров, потратив на это более $80 млн. \n\nУ нас есть все составляющие чтобы делать готовые продукты известными и популярными. Мы ищем сильного и талантливого разработчика для усиления нашей текущей слаженно работающей команды и выведения нашего Fitness & Health iOS приложения Fitingo на лидирующие позиции в мире (уже сейчас приложение занимало позиции ТОП 13 в США и ТОП 6 в Великобритании с более чем 400,000 установок и более чем 45,000 совершенных покупок).\n\n✅Задачи: \n\n•  Разрабатывать новый функционал\n•  Рефакторить и оптимизировать код\n•  Писать код. Больше логики, меньше UI. Например - хранить историю и прогресс; сделать leaderboard по странам; добавить чат, аналитику и a/b тесты; Apple Health, Watch, Music и TV\n•  Участвовать в Code Review\n\nТекущий стек: Swift 5.1, MVPC, AVFoundation, UserNotifications, Realm, StoreKit, Firebase, PushWoosh, Facebook, Python.\n\n✅Требования: \n\n•  Опыт работы разработчиком iOS приложений от 3х лет\n•  Отличное знание Swift\n•  Уверенное знание SOLID и паттернов проектирования\n•  Умение профилировать приложение (Батарейка, утечки и вот это все)\n•  Опыт работы с системой контроля версий\n•  Наличие выпущенных проектов на Swift\n•  Желание делать красивые, интересные и популярные приложения\n\n✅Будет плюсом: \n\n•  Умение/желание писать небольшие серверные скрипты (например на Python)\n•  Умение автоматизировать рутинные процессы\n•  Умение рефакторить код итеративно\n•  Адекватный перфекционизм\n\n\n✅Для вас: \n\n•  Конкурентная заработная плата, выплачивается 2 раза в месяц\n•  Необходимое оборудование для работы\n•  Возможность набрать команду и выстроить всю работу под себя в краткосрочной перспективе\n•  Оформление по ТК РФ, оплачиваемые больничные, 28 дней оплачиваемого отпуска в год\n•  Возможны регулярные бонусы по результатам работы проектов\n•  Собеседование с лицом принимающим решение\n•  Возможность коммуницировать с людьми, которые принимают продуктовые решения\n\n✅О нас: \n\n•  Просторный офис 600 метров на м. Автозаводская (3 минуты от метро и от ТТК на машине) с ультра современным дизайном и кучей ништяков (кухня с вкусняшками, кальяны каждый вечер в дружной кампании, PS4 Pro + 4K TV, аркадные автоматы с Pac-Man, Metal Slug и другими хитами геймдизайна, просторная зона отдыха, 5 переговорных комнат и т д)\n•  Команда из 100 человек занимающаяся паблишингом и маркетингом, готовая сделать продукт успешным после его готовности\n•  Возможность обучаться английскому языку с носителями каждый будний день по утрам\n•  Менторы и инвесторы, создавшие большое количество успешных IT компаний (оборот в 2018 году более 140 млн долларов)\n\nНазвание компании: AppQuantum \n\nКонтакты: \ne-mail: vika@adquantum.com\ntelegram: @wikki13","markup":[{"type":"hashtag","offset":0,"length":9,"data":"вакансия"},{"type":"hashtag","offset":10,"length":7,"data":"москва"},{"type":"hashtag","offset":18,"length":5,"data":"офис"},{"type":"hashtag","offset":24,"length":7,"data":"senior"},{"type":"hashtag","offset":32,"length":4,"data":"ios"},{"type":"hashtag","offset":37,"length":10,"data":"developer"},{"type":"hashtag","offset":48,"length":8,"data":"gamedev"},{"type":"hashtag","offset":57,"length":6,"data":"swift"},{"type":"link","offset":3248,"length":18,"data":"mailto:vika@adquantum.com"},{"type":"handle","offset":3277,"length":8,"data":"wikki13"}],"date":"2020-07-03T11:26:52+00:00","link":"tg://resolve?domain=mobile_jobs&post=69259","tags":[{"name":"mobile"},{"name":"ios"},{"name":"swift"},{"name":"realm"},{"name":"firebase"},{"name":"python"}],"cities":[{"code":"moscow"}],"allowsRemote":false}},{"node":{"__typename":"Job","id":"72577187840-1001054966032","title":"Ios разработчик","text":"#вакансия #iOS #swift #remote #удаленка  #fulltime #джун\n\nИщу на фултайм Junior iOS разработчика, который будет заниматься адаптацией iPhone-only приложения для iPad и MacOS (под чутким руководством лида) \n🔸Продукт: digital workspace https://apps.apple.com/ru/app/togezzer/id1350490541\n💰ЗП $1200 -1700 в месяц\n💡От вас:\n- знание Swift\n- знание iOS SDK, UIKit\n- желательно VIPER и Dependency Injection\n🔗Стэк:\nUIKit\nVIPER\nR.swift\nDI: Dip   \nСоединение: Alamofire, Socket.IO\nХранение: Realm\nПуши/статистика: Firebase\nЛоги: SwiftyBeaver\nCI/Repo: Firebase, Fastlane (with Match), Gitlab\n\n✏️Жду в личку резюме/профиль @lucyfier (будет здорово, если сможете показать свои проекты и примеры кода)","markup":[{"type":"hashtag","offset":0,"length":9,"data":"вакансия"},{"type":"hashtag","offset":10,"length":4,"data":"iOS"},{"type":"hashtag","offset":15,"length":6,"data":"swift"},{"type":"hashtag","offset":22,"length":7,"data":"remote"},{"type":"hashtag","offset":30,"length":9,"data":"удаленка"},{"type":"hashtag","offset":41,"length":9,"data":"fulltime"},{"type":"hashtag","offset":51,"length":5,"data":"джун"},{"type":"bold","offset":73,"length":23,"data":""},{"type":"italic","offset":173,"length":33,"data":""},{"type":"bold","offset":206,"length":9,"data":""},{"type":"link","offset":235,"length":51,"data":"https://apps.apple.com/ru/app/togezzer/id1350490541"},{"type":"bold","offset":312,"length":10,"data":""},{"type":"bold","offset":403,"length":6,"data":""},{"type":"link","offset":465,"length":9,"data":"http://Socket.IO"},{"type":"handle","offset":615,"length":9,"data":"lucyfier"},{"type":"italic","offset":625,"length":66,"data":""}],"date":"2020-07-02T17:22:00+00:00","link":"tg://resolve?domain=mobile_jobs&post=69215","tags":[{"name":"mobile"},{"name":"ios"},{"name":"swift"},{"name":"macos"},{"name":"uikit"},{"name":"realm"},{"name":"firebase"},{"name":"gitlab"}],"cities":[{"code":"lida"}],"allowsRemote":true}},{"node":{"__typename":"Job","id":"72389492736-1001054966032","title":"Ios разработчик","text":"#вакансия #москва #офис #senior #ios #developer #gamedev #swift \nГород и адрес офиса: Москва, м.Автозаводская \nФормат работы: офис \nЗанятость: полная \nЗарплатная вилка: от 250 000 до 300 000 на руки \n\n\n✅ Senior iOS Developer \n\nОписание вакансии: \n\nМы - успешная команда из 120 человек, которая занимается: \n• разработкой собственных мобильных игр и приложений \n• паблишингом мобильных игр \n• рекламой и маркетингом мобильных приложений (реклама на Facebook, Google и т.д.) \nЗа последние 3 года мы привлекли более 100 млн пользователей в наши собственные мобильные приложения и приложения наших клиентов и партнеров, потратив на это более $80 млн. \n\nУ нас есть все составляющие чтобы делать готовые продукты известными и популярными. Мы ищем сильного и талантливого разработчика для усиления нашей текущей слаженно работающей команды и выведения нашего Fitness & Health iOS приложения Fitingo на лидирующие позиции в мире (уже сейчас приложение занимало позиции ТОП 13 в США и ТОП 6 в Великобритании с более чем 400,000 установок и более чем 45,000 совершенных покупок).\n\n✅Задачи: \n\n•  Разрабатывать новый функционал\n•  Рефакторить и оптимизировать код\n•  Писать код. Больше логики, меньше UI. Например - хранить историю и прогресс; сделать leaderboard по странам; добавить чат, аналитику и a/b тесты; Apple Health, Watch, Music и TV\n•  Участвовать в Code Review\n\nТекущий стек: Swift 5.1, MVPC, AVFoundation, UserNotifications, Realm, StoreKit, Firebase, PushWoosh, Facebook, Python.\n\n✅Требования: \n\n•  Опыт работы разработчиком iOS приложений от 3х лет\n•  Отличное знание Swift\n•  Уверенное знание SOLID и паттернов проектирования\n•  Умение профилировать приложение (Батарейка, утечки и вот это все)\n•  Опыт работы с системой контроля версий\n•  Наличие выпущенных проектов на Swift\n•  Желание делать красивые, интересные и популярные приложения\n\n✅Будет плюсом: \n\n•  Умение/желание писать небольшие серверные скрипты (например на Python)\n•  Умение автоматизировать рутинные процессы\n•  Умение рефакторить код итеративно\n•  Адекватный перфекционизм\n\n\n✅Для вас: \n\n•  Конкурентная заработная плата, выплачивается 2 раза в месяц\n•  Необходимое оборудование для работы\n•  Возможность набрать команду и выстроить всю работу под себя в краткосрочной перспективе\n•  Оформление по ТК РФ, оплачиваемые больничные, 28 дней оплачиваемого отпуска в год\n•  Возможны регулярные бонусы по результатам работы проектов\n•  Собеседование с лицом принимающим решение\n•  Возможность коммуницировать с людьми, которые принимают продуктовые решения\n\n✅О нас: \n\n•  Просторный офис 600 метров на м. Автозаводская (3 минуты от метро и от ТТК на машине) с ультра современным дизайном и кучей ништяков (кухня с вкусняшками, кальяны каждый вечер в дружной кампании, PS4 Pro + 4K TV, аркадные автоматы с Pac-Man, Metal Slug и другими хитами геймдизайна, просторная зона отдыха, 5 переговорных комнат и т д)\n•  Команда из 100 человек занимающаяся паблишингом и маркетингом, готовая сделать продукт успешным после его готовности\n•  Возможность обучаться английскому языку с носителями каждый будний день по утрам\n•  Менторы и инвесторы, создавшие большое количество успешных IT компаний (оборот в 2018 году более 140 млн долларов)\n\nНазвание компании: AppQuantum \n\nКонтакты: \ne-mail: vika@adquantum.com\ntelegram: @wikki13","markup":[{"type":"hashtag","offset":0,"length":9,"data":"вакансия"},{"type":"hashtag","offset":10,"length":7,"data":"москва"},{"type":"hashtag","offset":18,"length":5,"data":"офис"},{"type":"hashtag","offset":24,"length":7,"data":"senior"},{"type":"hashtag","offset":32,"length":4,"data":"ios"},{"type":"hashtag","offset":37,"length":10,"data":"developer"},{"type":"hashtag","offset":48,"length":8,"data":"gamedev"},{"type":"hashtag","offset":57,"length":6,"data":"swift"},{"type":"link","offset":3248,"length":18,"data":"mailto:vika@adquantum.com"},{"type":"handle","offset":3277,"length":8,"data":"wikki13"}],"date":"2020-06-30T16:30:31+00:00","link":"tg://resolve?domain=mobile_jobs&post=69036","tags":[{"name":"mobile"},{"name":"ios"},{"name":"swift"},{"name":"realm"},{"name":"firebase"},{"name":"python"}],"cities":[{"code":"moscow"}],"allowsRemote":false}},{"node":{"__typename":"Job","id":"17246978048-1001110946746","title":"Js developer","text":"#Харьков #офис #FullTime #вакансия #Middle #FullStack #Node #Vue \n\nКомпания: Business Process Technologies\nГород: Харьков, Гимназическая Набережная 24\nФормат работы: офис\nЗанятость: полная \nЗарплатная вилка: 2000 - 3500$ (50% налога берем на себя) \n\nОписание вакансии \nВсем привет\nВ продуктовую компанию на наши проекты ищем Middle Full Stack Node\\Vue.JS Developer \nТребования\n— Опыт работы с Vue от 2х лет\n— Опыт работы с SSR (nuxt, gridsome etc.)\n— Опыт работы с node (express || adonis || sails) от 1 года\n— Опыт работы как FullStack от 1,5 лет\n— Понимание принципов ООП, S.O.L.I.D., паттернов разработки и архитектуры приложений\n— Опыт работы с HTML/CSS\n— Опыт работы с GIT\n— Опыт работы с MySQL, MongoDB\n— Английский на уровне чтения тех документации\n\nБудет плюсом\n\n— Опыт работы с tailwindcss, bootstrap или vuetify\n— Опыт работы с firebase\n— Опыт работы с Docker\n\nУДАЛЕННОЕ СОТРУДНИЧЕСТВО НЕ РАССМАТРИВАЕМ\n\nКонтакты:\n@nataliashlyahova \nSkype live:shlyahovanatalia","markup":[{"type":"hashtag","offset":0,"length":8,"data":"Харьков"},{"type":"hashtag","offset":9,"length":5,"data":"офис"},{"type":"hashtag","offset":15,"length":9,"data":"FullTime"},{"type":"hashtag","offset":25,"length":9,"data":"вакансия"},{"type":"hashtag","offset":35,"length":7,"data":"Middle"},{"type":"hashtag","offset":43,"length":10,"data":"FullStack"},{"type":"hashtag","offset":54,"length":5,"data":"Node"},{"type":"hashtag","offset":60,"length":4,"data":"Vue"},{"type":"handle","offset":924,"length":17,"data":"nataliashlyahova"}],"date":"2020-06-30T11:51:49+00:00","link":"tg://resolve?domain=javascript_jobs_feed&post=16448","tags":[{"name":"javascript"},{"name":"nodejs"},{"name":"vuejs"},{"name":"express"},{"name":"html"},{"name":"css"},{"name":"git"},{"name":"mysql"},{"name":"mongodb"},{"name":"bootstrap"},{"name":"firebase"},{"name":"docker"}],"cities":[],"allowsRemote":false}},{"node":{"__typename":"Job","id":"72327626752-1001054966032","title":"Mobile программист","text":"#вакансия #ios #swift #middle\nФормат работы: удаленная\nГород: Киев/Харьков\nЗанятость: полная\nз/п: 2000-3000$\n\nMiddle Ios Swift +RXSwift Developer (Mobile Apps)\n🔥🔥🔥\n\nИщем опытного Ios Swift программиста в продуктовую компанию.\nТребования:\n- 2+ лет в ios разработке (Swift);\n- Солидный бекграунд в OOP и нативной разработке;\n- Понимание всего цикла разработки мобильного приложения;\n- Опыт работы с алгоритмами, базами данных и комплексным анализом ;\n- MVP, MVVM;\n- Опыт работы с реактивным кодом (RXSwift);\n- Интеграция REST API;\n- Опыт с GIT, BitBucket, JIRA;\n\nБудет плюсом:\n- Опыт работы с Firebase, FCM;\n- Знание гайдлайнов и екосистемы ios ;\n- Опыт работы с CocoaPods (Alamofire, PromiseKit, Starscream, - Kingsfisher, RxSwift, DifferenceKit).\n\nЧто мы предлагаем:\n- Дружный коллектив;\n- Удаленный формат работы (на период карантина);\n- Гибгий график;\n- Конкурентную з/п;\n- Личностное и профессиональное развитие.\n📍Писать сюда: @vortex007","markup":[{"type":"hashtag","offset":0,"length":9,"data":"вакансия"},{"type":"hashtag","offset":10,"length":4,"data":"ios"},{"type":"hashtag","offset":15,"length":6,"data":"swift"},{"type":"hashtag","offset":22,"length":7,"data":"middle"},{"type":"bold","offset":110,"length":49,"data":""},{"type":"handle","offset":934,"length":10,"data":"vortex007"}],"date":"2020-06-30T08:51:50+00:00","link":"tg://resolve?domain=mobile_jobs&post=68977","tags":[{"name":"mobile"},{"name":"ios"},{"name":"swift"},{"name":"mvvm"},{"name":"rest"},{"name":"git"},{"name":"firebase"},{"name":"cocoapods"}],"cities":[{"code":"kiev"}],"allowsRemote":true}},{"node":{"__typename":"Job","id":"72308752384-1001054966032","title":"Android разработчик","text":"#вакансия #android #офис #штат #тюмень\n\nИщу Android разработчика (Тюмень) на фултайм в офис.\nКомпания Строительный двор.\n\nЗарплатная вилка 70 000 - 100 000 р./мес. на руки, полностью \"белые\" выплаты, гибкий график, можно периодически работать удаленно, 39-часовая рабочая неделя.\n\nНа текущий момент у нас в работе несколько интересных проектов, один из них – мобильное приложение для формата Дистрибуции. Оно позволяет торговым представителям работать в дистанционном формате, оформляя заказы и выставляя счета.\nСейчас есть большой объем задач по доработке и усовершенствованию этого приложения, а также по добавлению новых функций.\n\nВ первую очередь важно:\nопыт разработки под Android от 2-х лет\nзнание Java (Kotlin будет плюсом);\nпонимание архитектурных паттернов MVP, MVVM, Clean Architecture;\nопыт работы с SQLite, Realm;\nпонимание REST API;\nопыт работы с Git, RxJava 2, Retrofit, FireBase, Dagger2.\n\nБуду рада Вашей обратной связи здесь, по почте oegorova@sdvor.com или в телеграм @ov_egorova","markup":[{"type":"hashtag","offset":0,"length":9,"data":"вакансия"},{"type":"hashtag","offset":10,"length":8,"data":"android"},{"type":"hashtag","offset":19,"length":5,"data":"офис"},{"type":"hashtag","offset":25,"length":5,"data":"штат"},{"type":"hashtag","offset":31,"length":7,"data":"тюмень"},{"type":"link","offset":952,"length":18,"data":"mailto:oegorova@sdvor.com"},{"type":"handle","offset":986,"length":11,"data":"ov_egorova"}],"date":"2020-06-30T06:20:52+00:00","link":"tg://resolve?domain=mobile_jobs&post=68959","tags":[{"name":"mobile"},{"name":"android"},{"name":"java"},{"name":"kotlin"},{"name":"mvvm"},{"name":"sqlite"},{"name":"realm"},{"name":"rest"},{"name":"git"},{"name":"firebase"}],"cities":[{"code":"tyumen"}],"allowsRemote":true}},{"node":{"__typename":"Job","id":"72111620096-1001054966032","title":"Ios разработчик","text":"#вакансия #москва #офис #senior #ios #developer #gamedev #swift \nГород и адрес офиса: Москва, м.Автозаводская \nФормат работы: офис \nЗанятость: полная \nЗарплатная вилка: от 250 000 до 300 000 на руки \n\n\n✅ Senior iOS Developer \n\nОписание вакансии: \n\nМы - успешная команда из 120 человек, которая занимается: \n• разработкой собственных мобильных игр и приложений \n• паблишингом мобильных игр \n• рекламой и маркетингом мобильных приложений (реклама на Facebook, Google и т.д.) \nЗа последние 3 года мы привлекли более 100 млн пользователей в наши собственные мобильные приложения и приложения наших клиентов и партнеров, потратив на это более $80 млн. \n\nУ нас есть все составляющие чтобы делать готовые продукты известными и популярными. Мы ищем сильного и талантливого разработчика для усиления нашей текущей слаженно работающей команды и выведения нашего Fitness & Health iOS приложения Fitingo на лидирующие позиции в мире (уже сейчас приложение занимало позиции ТОП 13 в США и ТОП 6 в Великобритании с более чем 400,000 установок и более чем 45,000 совершенных покупок).\n\n✅Задачи: \n\n•  Разрабатывать новый функционал\n•  Рефакторить и оптимизировать код\n•  Писать код. Больше логики, меньше UI. Например - хранить историю и прогресс; сделать leaderboard по странам; добавить чат, аналитику и a/b тесты; Apple Health, Watch, Music и TV\n•  Участвовать в Code Review\n\nТекущий стек: Swift 5.1, MVPC, AVFoundation, UserNotifications, Realm, StoreKit, Firebase, PushWoosh, Facebook, Python.\n\n✅Требования: \n\n•  Опыт работы разработчиком iOS приложений от 3х лет\n•  Отличное знание Swift\n•  Уверенное знание SOLID и паттернов проектирования\n•  Умение профилировать приложение (Батарейка, утечки и вот это все)\n•  Опыт работы с системой контроля версий\n•  Наличие выпущенных проектов на Swift\n•  Желание делать красивые, интересные и популярные приложения\n\n✅Будет плюсом: \n\n•  Умение/желание писать небольшие серверные скрипты (например на Python)\n•  Умение автоматизировать рутинные процессы\n•  Умение рефакторить код итеративно\n•  Адекватный перфекционизм\n\n\n✅Для вас: \n\n•  Конкурентная заработная плата, выплачивается 2 раза в месяц\n•  Необходимое оборудование для работы\n•  Возможность набрать команду и выстроить всю работу под себя в краткосрочной перспективе\n•  Оформление по ТК РФ, оплачиваемые больничные, 28 дней оплачиваемого отпуска в год\n•  Возможны регулярные бонусы по результатам работы проектов\n•  Собеседование с лицом принимающим решение\n•  Возможность коммуницировать с людьми, которые принимают продуктовые решения\n\n✅О нас: \n\n•  Просторный офис 600 метров на м. Автозаводская (3 минуты от метро и от ТТК на машине) с ультра современным дизайном и кучей ништяков (кухня с вкусняшками, кальяны каждый вечер в дружной кампании, PS4 Pro + 4K TV, аркадные автоматы с Pac-Man, Metal Slug и другими хитами геймдизайна, просторная зона отдыха, 5 переговорных комнат и т д)\n•  Команда из 100 человек занимающаяся паблишингом и маркетингом, готовая сделать продукт успешным после его готовности\n•  Возможность обучаться английскому языку с носителями каждый будний день по утрам\n•  Менторы и инвесторы, создавшие большое количество успешных IT компаний (оборот в 2018 году более 140 млн долларов)\n\nНазвание компании: AppQuantum \n\nКонтакты: \ne-mail: vika@adquantum.com\ntelegram: @wikki13","markup":[{"type":"hashtag","offset":0,"length":9,"data":"вакансия"},{"type":"hashtag","offset":10,"length":7,"data":"москва"},{"type":"hashtag","offset":18,"length":5,"data":"офис"},{"type":"hashtag","offset":24,"length":7,"data":"senior"},{"type":"hashtag","offset":32,"length":4,"data":"ios"},{"type":"hashtag","offset":37,"length":10,"data":"developer"},{"type":"hashtag","offset":48,"length":8,"data":"gamedev"},{"type":"hashtag","offset":57,"length":6,"data":"swift"},{"type":"link","offset":3248,"length":18,"data":"mailto:vika@adquantum.com"},{"type":"handle","offset":3277,"length":8,"data":"wikki13"}],"date":"2020-06-26T16:57:05+00:00","link":"tg://resolve?domain=mobile_jobs&post=68771","tags":[{"name":"mobile"},{"name":"ios"},{"name":"swift"},{"name":"realm"},{"name":"firebase"},{"name":"python"}],"cities":[{"code":"moscow"}],"allowsRemote":false}},{"node":{"__typename":"Job","id":"103550025728-1001089317451","title":"Qa инженер","text":"Специалист по тестированию в Instories \nhttps://instoriesapp.com/\nмобильное приложение для маркетологов, SMM-специалистов и блогеров. \n\n     Тебе предстоит:\nТестировать новые версии продуктов (Android и iOS); \nПроверять качество исправления дефектов;\nПроводить функциональные/smoke/регрессионные тесты;\nПринимать билды перед релизами;\nПроверять дефекты от пользователей на актуальность;\nМониторить отчеты об ошибках и сбоях;\nРаботать над тестовой документацией;\nПредусмотрено активное взаимодействие с командой: разработка, дизайн, продакт-менеджмент, поддержка пользователей.\n\n       Мы ожидаем от успешного кандидата: \n\nОпыт тестирования нативных мобильных приложений от 6 месяцев; \nУмения составлять тестовую документацию;\nПонимание Git-Flow и умение пользоваться git;\nПонимание принципов клиент-серверного взаимодействия;\nРабота с ПО:  Firebase Crashlytics, Android Studio, Xcode, Figma.\n\nЗП от 35к/мес\n#удаленка #вакансия #тестирование #фултайм\n@Instories","markup":[{"type":"link","offset":40,"length":25,"data":"https://instoriesapp.com/"},{"type":"hashtag","offset":907,"length":9,"data":"удаленка"},{"type":"hashtag","offset":917,"length":9,"data":"вакансия"},{"type":"hashtag","offset":927,"length":13,"data":"тестирование"},{"type":"hashtag","offset":941,"length":8,"data":"фултайм"},{"type":"handle","offset":950,"length":10,"data":"Instories"}],"date":"2020-06-23T15:18:30+00:00","link":"tg://resolve?domain=qa_jobs&post=98753","tags":[{"name":"qa"},{"name":"android"},{"name":"ios"},{"name":"git"},{"name":"firebase"},{"name":"xcode"},{"name":"android-studio"}],"cities":[],"allowsRemote":true}},{"node":{"__typename":"Job","id":"71855767552-1001054966032","title":"Ios разработчик","text":"#вакансия #москва #офис #senior #ios #developer #gamedev #swift \nГород и адрес офиса: Москва, м.Автозаводская \nФормат работы: офис \nЗанятость: полная \nЗарплатная вилка: от 250 000 до 300 000 на руки \n\n\n✅ Senior iOS Developer \n\nОписание вакансии: \n\nМы - успешная команда из 120 человек, которая занимается: \n• разработкой собственных мобильных игр и приложений \n• паблишингом мобильных игр \n• рекламой и маркетингом мобильных приложений (реклама на Facebook, Google и т.д.) \nЗа последние 3 года мы привлекли более 100 млн пользователей в наши собственные мобильные приложения и приложения наших клиентов и партнеров, потратив на это более $80 млн. \n\nУ нас есть все составляющие чтобы делать готовые продукты известными и популярными. Мы ищем сильного и талантливого разработчика для усиления нашей текущей слаженно работающей команды и выведения нашего Fitness & Health iOS приложения Fitingo на лидирующие позиции в мире (уже сейчас приложение занимало позиции ТОП 13 в США и ТОП 6 в Великобритании с более чем 400,000 установок и более чем 45,000 совершенных покупок).\n\n✅Задачи: \n\n•  Разрабатывать новый функционал\n•  Рефакторить и оптимизировать код\n•  Писать код. Больше логики, меньше UI. Например - хранить историю и прогресс; сделать leaderboard по странам; добавить чат, аналитику и a/b тесты; Apple Health, Watch, Music и TV\n•  Участвовать в Code Review\n\nТекущий стек: Swift 5.1, MVPC, AVFoundation, UserNotifications, Realm, StoreKit, Firebase, PushWoosh, Facebook, Python.\n\n✅Требования: \n\n•  Опыт работы разработчиком iOS приложений от 3х лет\n•  Отличное знание Swift\n•  Уверенное знание SOLID и паттернов проектирования\n•  Умение профилировать приложение (Батарейка, утечки и вот это все)\n•  Опыт работы с системой контроля версий\n•  Наличие выпущенных проектов на Swift\n•  Желание делать красивые, интересные и популярные приложения\n\n✅Будет плюсом: \n\n•  Умение/желание писать небольшие серверные скрипты (например на Python)\n•  Умение автоматизировать рутинные процессы\n•  Умение рефакторить код итеративно\n•  Адекватный перфекционизм\n\n\n✅Для вас: \n\n•  Конкурентная заработная плата, выплачивается 2 раза в месяц\n•  Необходимое оборудование для работы\n•  Возможность набрать команду и выстроить всю работу под себя в краткосрочной перспективе\n•  Оформление по ТК РФ, оплачиваемые больничные, 28 дней оплачиваемого отпуска в год\n•  Возможны регулярные бонусы по результатам работы проектов\n•  Собеседование с лицом принимающим решение\n•  Возможность коммуницировать с людьми, которые принимают продуктовые решения\n\n✅О нас: \n\n•  Просторный офис 600 метров на м. Автозаводская (3 минуты от метро и от ТТК на машине) с ультра современным дизайном и кучей ништяков (кухня с вкусняшками, кальяны каждый вечер в дружной кампании, PS4 Pro + 4K TV, аркадные автоматы с Pac-Man, Metal Slug и другими хитами геймдизайна, просторная зона отдыха, 5 переговорных комнат и т д)\n•  Команда из 100 человек занимающаяся паблишингом и маркетингом, готовая сделать продукт успешным после его готовности\n•  Возможность обучаться английскому языку с носителями каждый будний день по утрам\n•  Менторы и инвесторы, создавшие большое количество успешных IT компаний (оборот в 2018 году более 140 млн долларов)\n\nНазвание компании: AppQuantum \n\nКонтакты: \ne-mail: vika@adquantum.com\ntelegram: @wikki13","markup":[{"type":"hashtag","offset":0,"length":9,"data":"вакансия"},{"type":"hashtag","offset":10,"length":7,"data":"москва"},{"type":"hashtag","offset":18,"length":5,"data":"офис"},{"type":"hashtag","offset":24,"length":7,"data":"senior"},{"type":"hashtag","offset":32,"length":4,"data":"ios"},{"type":"hashtag","offset":37,"length":10,"data":"developer"},{"type":"hashtag","offset":48,"length":8,"data":"gamedev"},{"type":"hashtag","offset":57,"length":6,"data":"swift"},{"type":"link","offset":3248,"length":18,"data":"mailto:vika@adquantum.com"},{"type":"handle","offset":3277,"length":8,"data":"wikki13"}],"date":"2020-06-23T10:28:34+00:00","link":"tg://resolve?domain=mobile_jobs&post=68527","tags":[{"name":"mobile"},{"name":"ios"},{"name":"swift"},{"name":"realm"},{"name":"firebase"},{"name":"python"}],"cities":[{"code":"moscow"}],"allowsRemote":false}},{"node":{"__typename":"Job","id":"103501791232-1001089317451","title":"Qa engineer","text":"#вакансия #Москва #fulltime #офис #qa #mobile\nКомпания: FunCorp\nВакансия:  QA mobile engineer\nОпыт работы: от 2-х лет\nЗарплата: 100 000 - 130 000 р. на руки\nМесторасположение: Москва, м. Белорусская\nЗанятость: fulltime, офис.\nNB! Удаленный вариант работы после выхода из карантина, к сожалению, не рассматриваем\nКонтактные данные: @chrschredinger или kristina@fun.co\n\nТребования\n- опыт тестирования мобильных приложений (iOS, Android) от года\n- опыт использования сниффера (Charles или Fiddler / Wireshark / Mitmproxy)\n- опыт работы с Android Studio / XCode\n- опыт работы с Firebase\n\nОбязанности\n- ручное тестирование (функциональное / регрессионное / исследовательское)\n- написание тестовых сценариев\n- тесная работа с менеджерами и разработчиками проекта\n\nУсловия\n- ДМС, включая стоматологию\n- бонусная система\n- обеды и ужины в офисе\n- бюджет на обучение и на фитнес\n- оплата участия в российских и зарубежных конференциях\n- отличный офис на м. Белорусская (БЦ «Белая площадь)","markup":[{"type":"hashtag","offset":0,"length":9,"data":"вакансия"},{"type":"hashtag","offset":10,"length":7,"data":"Москва"},{"type":"hashtag","offset":18,"length":9,"data":"fulltime"},{"type":"hashtag","offset":28,"length":5,"data":"офис"},{"type":"hashtag","offset":34,"length":3,"data":"qa"},{"type":"hashtag","offset":38,"length":7,"data":"mobile"},{"type":"bold","offset":46,"length":10,"data":""},{"type":"bold","offset":64,"length":10,"data":""},{"type":"bold","offset":94,"length":13,"data":""},{"type":"bold","offset":118,"length":10,"data":""},{"type":"bold","offset":157,"length":19,"data":""},{"type":"bold","offset":199,"length":10,"data":""},{"type":"underline","offset":226,"length":86,"data":""},{"type":"bold","offset":312,"length":19,"data":""},{"type":"handle","offset":331,"length":15,"data":"chrschredinger"},{"type":"link","offset":351,"length":15,"data":"mailto:kristina@fun.co"},{"type":"bold","offset":368,"length":11,"data":""},{"type":"bold","offset":584,"length":12,"data":""},{"type":"bold","offset":758,"length":8,"data":""}],"date":"2020-06-23T07:54:11+00:00","link":"tg://resolve?domain=qa_jobs&post=98707","tags":[{"name":"qa"},{"name":"mobile"},{"name":"ios"},{"name":"android"},{"name":"xcode"},{"name":"firebase"},{"name":"android-studio"}],"cities":[{"code":"moscow"}],"allowsRemote":false}}]}}},"context":{}}