{"hash":"f34fd2c444a074f4e0e67d525015a008ef8e766f","data":{"records":{"id":"soap","name":"soap","belongsTo":{"totalCount":20,"pageInfo":{"totalPages":2,"currentPage":2},"edges":[{"node":{"__typename":"Job","id":"1409286144-1001091028994","title":"Java разработчик","text":"#вакансия #москва #java #middle #senior\n\nКомпания Альфа Страхование в поисках Java-разработчика на внутренние проекты (Москва).\n\n💰Заработная вилка: 200 000 ₽ — 300 000 ₽ (в зависимости от опыта)\n\n🔸Проект «АльфаПартнерс»\nСистема для партнеров компании для продажи страховок. Некое B2B решение, которое используют сотрудники наших партнёров, чтобы продавать страховки.\n\nТехнологии:\n▪️Java 8\n▪️[legacy часть] — Java Core, Weblogic + Oracle (LiquidBase)\n▪️[новая часть] — Spring Boot , Tomcat + Mongo + Vaadin 14\n\n————-\n\n🔸Проект «Продуктовая фабрика»\nПишется с нуля.\n\nТехнологии:\n▪️Java 8\n▪️Vaadin\n▪️Spring Framework (IoC, Data, Security, Web)\n▪️Spring Boot\n▪️Spring Cloud REST, SOAP, Docker SQL (PostgreSQL)\n▪️[тестирование] — JUnit, Mockito, spring tests, test containers\n\n————-\n\n🔸Проект «РСА 2.0 (Шина)»\n\nТехнологии:\n▪️Java 8/11\n▪️Spring Boot\n▪️Rest API\n▪️JUnit\n▪️PostgreSQL\n▪️ActiveMQ\n▪️Redis\n\n————-\n\n🔸Проект «Альфа NEXT»\n\nТехнологии:\n▪️Java 8/11\n▪️Spring Boot\n▪️Camunda\n▪️JUnit\n▪️PostgreSQL\n▪️k8s\n▪️cloud-native\n\n========\n\n🔸🔸🔸\nУсловия\n▫️ График работы: 5/2 (гибкое начало дня)\n▫️ Работа в профессиональной команде разработчиков, которая готова делиться знаниями и опытом\n▫️ Удобное расположение офиса – м. Шаболовская (7 минут пешком от метро)\n▫️ Оформление по ТК РФ\n🔸🔸🔸\n\nКонтакты\n▪️Telegram: @ruslan_mart","markup":[{"type":"hashtag","offset":0,"length":9,"data":"вакансия"},{"type":"hashtag","offset":10,"length":7,"data":"москва"},{"type":"hashtag","offset":18,"length":5,"data":"java"},{"type":"hashtag","offset":24,"length":7,"data":"middle"},{"type":"hashtag","offset":32,"length":7,"data":"senior"},{"type":"bold","offset":50,"length":17,"data":""},{"type":"bold","offset":149,"length":21,"data":""},{"type":"bold","offset":207,"length":13,"data":""},{"type":"italic","offset":222,"length":148,"data":""},{"type":"bold","offset":370,"length":12,"data":""},{"type":"italic","offset":394,"length":12,"data":""},{"type":"italic","offset":455,"length":11,"data":""},{"type":"bold","offset":529,"length":19,"data":""},{"type":"italic","offset":550,"length":17,"data":""},{"type":"bold","offset":567,"length":12,"data":""},{"type":"italic","offset":711,"length":12,"data":""},{"type":"bold","offset":791,"length":14,"data":""},{"type":"bold","offset":808,"length":12,"data":""},{"type":"bold","offset":915,"length":10,"data":""},{"type":"bold","offset":928,"length":12,"data":""},{"type":"bold","offset":1036,"length":8,"data":""},{"type":"bold","offset":1284,"length":9,"data":""},{"type":"handle","offset":1305,"length":12,"data":"ruslan_mart"}],"date":"2020-04-02T12:23:30+00:00","link":"tg://resolve?domain=jvmjobs&post=1344","tags":[{"name":"java"},{"name":"jvm"},{"name":"oracle"},{"name":"spring"},{"name":"tomcat"},{"name":"web"},{"name":"cloud"},{"name":"rest"},{"name":"soap"},{"name":"docker"},{"name":"sql"},{"name":"postgresql"},{"name":"junit"},{"name":"redis"},{"name":"spring-boot"}],"cities":[{"code":"moscow"}],"allowsRemote":false}},{"node":{"__typename":"Job","id":"1405091840-1001091028994","title":"Java разработчик","text":"Вакансия: #java #spring #hibernate \nКомпания: #MTS\nЛокация: #Санкт-Петербург #Горьковская\nФормат работы: #работавофисе + иногда возможно удаленно работать\n✔️ЗП: 140-180 net (в замисимости от знаний и опыта)\nКонтакт: @alina_katkova почта: avkatko2@mts.ru\n\nВ рамках реализации платформы по обеспечению контроля, наблюдаемости и безопасности API (API gateway) ищем в команду Java разработчика.\n\nЦель продукта — предоставить командам средство управления жизненным циклом API и контроль передаваемых данных в соответствии с требованиями безопасности.\nЧто нужно делать: \n- Заниматься разработкой компонентов обработки и управления трафиком HTTP/S (веб-сервисы);\n- Реализовывать правила управления жизненным циклом API (Rest/SOAP);\n- Участвовать в разработке архитектуры и согласовании сценариев использования продукта.\nНаш стек:\n- Spring (boot, MVC, JPA), Hibernate, Liquibase;\n- Java 8 - 11;\n- Java 8 (Collections, I/O);\n- Multithreading (synchronization, java.util.concurrent);\n- PostgreSQL;\n- RabbitMQ;\n- Hazelcast;\n- Netflix (eureka, zuul, microservices);\n- ElasticSearch;\n- Docker;\n- Kubernetes;Git;\n- Maven;\n- Linux.\nУсловия:\n-штат, все по ТК РФ\n-премия 20% от годового оклада сверху\n-соц.пакет\n-удаленка на время карантина :)","markup":[{"type":"hashtag","offset":10,"length":5,"data":"java"},{"type":"hashtag","offset":16,"length":7,"data":"spring"},{"type":"hashtag","offset":24,"length":10,"data":"hibernate"},{"type":"hashtag","offset":46,"length":4,"data":"MTS"},{"type":"hashtag","offset":60,"length":6,"data":"Санкт"},{"type":"hashtag","offset":77,"length":12,"data":"Горьковская"},{"type":"hashtag","offset":105,"length":13,"data":"работавофисе"},{"type":"handle","offset":216,"length":14,"data":"alina_katkova"},{"type":"link","offset":238,"length":15,"data":"mailto:avkatko2@mts.ru"},{"type":"bold","offset":546,"length":16,"data":""},{"type":"bold","offset":813,"length":10,"data":""},{"type":"bold","offset":1117,"length":7,"data":""}],"date":"2020-04-01T06:15:37+00:00","link":"tg://resolve?domain=jvmjobs&post=1340","tags":[{"name":"java"},{"name":"jvm"},{"name":"spring"},{"name":"hibernate"},{"name":"dotnet"},{"name":"rest"},{"name":"soap"},{"name":"jpa"},{"name":"postgresql"},{"name":"rabbitmq"},{"name":"elasticsearch"},{"name":"docker"},{"name":"kubernetes"},{"name":"git"},{"name":"maven"},{"name":"linux"},{"name":"spring-boot"}],"cities":[],"allowsRemote":true}},{"node":{"__typename":"Job","id":"23929552896-1001075660570","title":"Php developer","text":"#вакансия #Moscow #php #laravel #fulltime #office \n\n📌Вакансия: #PHP Middle developer\n📌Город: #Москва (м. Ботанический сад)\n📌ЗП: 150К net (готовы рассмотреть ваши ожидания)\n📌Занятость: полная / офис \n📌Компания: АСНА (https://www.asna.ru/)\n\n✅АСНА - крупнейшее объединение аптечных сетей в России и странах СНГ. Это экосистема сервисов и продуктов, нацеленная на улучшение и развитие фармацевтического рынка России.\n\n👆Задачи:\n• создание и развитие b2c и b2b web-проектов компании;\n• участие в командной работе по разработке крупных\n• создание новых проектов компании с нуля;\n• оптимизация существующего PHP-кода и SQL-запросов.\n\n👍Что мы готовы предложить:\n• официальная (белая) заработная плата и мы соблюдаем ТК РФ.\n• переход на удаленку через 6 месяцев работы в компании; \n• мы обеспечим Вам комфортное рабочее место, мощное железо и два монитора J.\n• у нас нет бюрократии, плюс Вы сможете сами выбрать удобное время начала дня.\n• мы профессионально развиваем наших сотрудников – отправляем на курсы и профильные конференции.\n• мы следим за питанием наших сотрудников и компенсируем обеды.\n• мы даем возможность вносить свои идеи!\n• до нашего офиса можно дойти пешком от м. «Ботанический сад».\n\n🔥Наши ожидания:\n• опыт разработки на PHP от 1 года;\n• обязательно знание фреймворка Laravel;\n• опыт создания интеграционных решений с обменом информацией (JSON, XML, SOAP);\n• опыт проектирования БД и оптимизации SQL-запросов;\n• написание кода с комментариями в стиле phpDoc;\n• написание Unit тестов;\n• умение писать отказоустойчивые надежные автоматизированные системы;\n• навыки работы с *nix-системами;\n• опыт командной разработки с использованием системы контроля версий Git или Mercurial.\n\nКонтакты:\n@prynik95 \npatokova.nastya95@mail.ru","markup":[{"type":"hashtag","offset":0,"length":9,"data":"вакансия"},{"type":"hashtag","offset":10,"length":7,"data":"Moscow"},{"type":"hashtag","offset":18,"length":4,"data":"php"},{"type":"hashtag","offset":23,"length":8,"data":"laravel"},{"type":"hashtag","offset":32,"length":9,"data":"fulltime"},{"type":"hashtag","offset":42,"length":7,"data":"office"},{"type":"hashtag","offset":64,"length":4,"data":"PHP"},{"type":"hashtag","offset":95,"length":7,"data":"Москва"},{"type":"link","offset":221,"length":20,"data":"https://www.asna.ru/"},{"type":"handle","offset":1705,"length":9,"data":"prynik95"},{"type":"link","offset":1716,"length":25,"data":"mailto:patokova.nastya95@mail.ru"}],"date":"2020-03-25T07:00:53+00:00","link":"tg://resolve?domain=php_jobs&post=22821","tags":[{"name":"php"},{"name":"laravel"},{"name":"dotnet"},{"name":"web"},{"name":"sql"},{"name":"json"},{"name":"xml"},{"name":"soap"},{"name":"git"},{"name":"mercurial"}],"cities":[{"code":"moscow"}],"allowsRemote":false}},{"node":{"__typename":"Job","id":"23911727104-1001075660570","title":"Php developer","text":"#вакансия #Moscow #php #laravel #fulltime #office \n\n📌Вакансия: #PHP Middle developer\n📌Город: #Москва (м. Ботанический сад)\n📌ЗП: 150К net (готовы рассмотреть ваши ожидания)\n📌Занятость: полная/ офис \n📌Компания: АСНА (https://www.asna.ru/)\n\n✅АСНА - крупнейшее объединение аптечных сетей в России и странах СНГ. Это экосистема сервисов и продуктов, нацеленная на улучшение и развитие фармацевтического рынка России.\n\n👆Задачи:\n• создание и развитие b2c и b2b web-проектов компании;\n• участие в командной работе по разработке крупных\n• создание новых проектов компании с нуля;\n• оптимизация существующего PHP-кода и SQL-запросов.\n\n👍Что мы готовы предложить:\n• официальная («белая») заработная плата и мы соблюдаем ТК РФ.\n• переход на удаленку через 6 месяцев работы в компании; \n• мы обеспечим Вам комфортное рабочее место, мощное железо и два монитора J.\n• у нас нет бюрократии, плюс Вы сможете сами выбрать удобное время начала дня.\n• мы профессионально развиваем наших сотрудников – отправляем на курсы и профильные конференции.\n• мы следим за питанием наших сотрудников и компенсируем обеды.\n• мы даем возможность вносить свои идеи!\n• до нашего офиса можно дойти пешком от м. «Ботанический сад».\n\n🔥Наши ожидания:\n• опыт разработки на PHP от 1 года;\n• обязательно знание фреймворка Laravel;\n• опыт создания интеграционных решений с обменом информацией (JSON, XML, SOAP);\n• опыт проектирования БД и оптимизации SQL-запросов;\n• написание кода с комментариями в стиле phpDoc;\n• написание Unit тестов;\n• умение писать отказоустойчивые надежные автоматизированные системы;\n• навыки работы с *nix-системами;\n• опыт командной разработки с использованием системы контроля версий Git или Mercurial.\n\n🤝Контакты: @Kate_Guseva","markup":[{"type":"hashtag","offset":0,"length":9,"data":"вакансия"},{"type":"hashtag","offset":10,"length":7,"data":"Moscow"},{"type":"hashtag","offset":18,"length":4,"data":"php"},{"type":"hashtag","offset":23,"length":8,"data":"laravel"},{"type":"hashtag","offset":32,"length":9,"data":"fulltime"},{"type":"hashtag","offset":42,"length":7,"data":"office"},{"type":"hashtag","offset":64,"length":4,"data":"PHP"},{"type":"hashtag","offset":95,"length":7,"data":"Москва"},{"type":"link","offset":220,"length":20,"data":"https://www.asna.ru/"},{"type":"handle","offset":1708,"length":12,"data":"Kate_Guseva"}],"date":"2020-03-24T10:16:52+00:00","link":"tg://resolve?domain=php_jobs&post=22804","tags":[{"name":"php"},{"name":"laravel"},{"name":"dotnet"},{"name":"web"},{"name":"sql"},{"name":"json"},{"name":"xml"},{"name":"soap"},{"name":"git"},{"name":"mercurial"}],"cities":[{"code":"moscow"}],"allowsRemote":false}},{"node":{"__typename":"Job","id":"1374683136-1001091028994","title":"Java разработчик","text":"#fulltime #офис\n#backend #Москва\n#высоконагруженные_сервисы\n#вакансия\n#Middle_Java_dev\nвилка для middle от 180 net (и выше зависит от уровня)\n\nпозиция Middle Java dev\nО проекте:\n•Высоконагруженные сервисы\n•Разработка виртуальной мобильной связи\nЗадачи:\nРазработка нового backend функционала;\nСтек:\n • Java Core (Collection, NIO, Multithreading)  \n • Java SE (Spring), Java EE; Java 8 (Concurrency, NIO, Spring);\n • JDBC БД (Oracle);\n • Опыт работы JSON, XML, RESTful API, HTTP, SOAP, MQ; \n • Linux\nМЫ ПРЕДЛАГАЕМ:\n •  Сильная команда разработчиков\n •  Официальное оформление (ДМС, английский, спорт)\n •  Офис в центре Москвы\n •  Профессиональное развитие и участие в разработке серьезного продукта.\n\n\nКонтакты: @BetterCallOl","markup":[{"type":"hashtag","offset":0,"length":9,"data":"fulltime"},{"type":"hashtag","offset":10,"length":5,"data":"офис"},{"type":"hashtag","offset":16,"length":8,"data":"backend"},{"type":"hashtag","offset":25,"length":7,"data":"Москва"},{"type":"hashtag","offset":33,"length":26,"data":"высоконагруженные_сервисы"},{"type":"hashtag","offset":60,"length":9,"data":"вакансия"},{"type":"hashtag","offset":70,"length":16,"data":"Middle_Java_dev"},{"type":"bold","offset":167,"length":10,"data":""},{"type":"bold","offset":245,"length":7,"data":""},{"type":"bold","offset":292,"length":6,"data":""},{"type":"bold","offset":498,"length":14,"data":""},{"type":"handle","offset":710,"length":13,"data":"BetterCallOl"}],"date":"2020-03-24T07:51:42+00:00","link":"tg://resolve?domain=jvmjobs&post=1311","tags":[{"name":"java"},{"name":"jvm"},{"name":"dotnet"},{"name":"spring"},{"name":"jdbc"},{"name":"oracle"},{"name":"json"},{"name":"xml"},{"name":"soap"},{"name":"linux"}],"cities":[{"code":"moscow"}],"allowsRemote":false}},{"node":{"__typename":"Job","id":"1930428416-1001134745498","title":"Devops инженер","text":"#вакансия #Москва #офис #полная занятость\nБанк ВТБ (ПАО) ищет DevOps инженера в отдел внедрения\nФормат работы: #офис #полнаязанятость\n\nЗадачи: \n👉разработка скриптов автоматизированного развертывания ПО на контурах банка;\n👉автоматизации процессов администрирования;\n👉владение новых подходов разработки автоматизации. \n\nТребования:\n👉опыт работы DevOps инженером от 2х лет;\n👉опыт работы с Git, Bitbucket;\n👉выстраивание процессов CI/CD с помощью Jenkins, Gitlab CI и TeamCity;\n👉экспертные навыки написания скриптов bash, powershell, python;\n👉 администрирование linux/unix, windows;\n👉  владение Ansible и Groovy;\n👉  опыт работа с Rest API, SOAP;\n👉 опыт работы с MsSQL Oracle, PostrgeSQL;\n👉 наличие опыта автоматизации бизнес-процессов и рутинных операций;\n👉  знание инструментов микросервисной архитектуры.\n \nУсловия:\n👉офис м.Алексеевская;\n👉заработная плата от 180 000 до 240 000;\n👉ДМС, спортивная жизнь;\n👉проффесиональное обучение и развитие.\n\nБолее подробно о вакансиях можно узнать у меня. Мои контакты @Nchugreeva\n+7 9264549707\nChugreeva@vtb.ru\n\n—\n\n👉 Обсуждение вакансии в чате @devops_jobs","markup":[{"type":"hashtag","offset":0,"length":9,"data":"вакансия"},{"type":"hashtag","offset":10,"length":7,"data":"Москва"},{"type":"hashtag","offset":18,"length":5,"data":"офис"},{"type":"hashtag","offset":24,"length":7,"data":"полная"},{"type":"hashtag","offset":111,"length":5,"data":"офис"},{"type":"hashtag","offset":117,"length":16,"data":"полнаязанятость"},{"type":"handle","offset":1018,"length":11,"data":"Nchugreeva"},{"type":"link","offset":1030,"length":13,"data":"tel:+7 9264549707"},{"type":"link","offset":1044,"length":16,"data":"mailto:Chugreeva@vtb.ru"},{"type":"handle","offset":1095,"length":12,"data":"devops_jobs"}],"date":"2020-03-23T13:20:40+00:00","link":"tg://resolve?domain=devops_jobs_feed&post=1841","tags":[{"name":"git"},{"name":"jenkins"},{"name":"gitlab"},{"name":"bash"},{"name":"powershell"},{"name":"python"},{"name":"linux"},{"name":"unix"},{"name":"windows"},{"name":"ansible"},{"name":"groovy"},{"name":"rest"},{"name":"soap"},{"name":"sql-server"},{"name":"oracle"}],"cities":[{"code":"moscow"}],"allowsRemote":false}},{"node":{"__typename":"Job","id":"1917845504-1001134745498","title":"Devops инженер","text":"#вакансия #devOps #Москва #офис \n\nГород: Москва \\ м. Кутузовская \nЗанятость: полная \nФормат работы: офис \nЗарплатная вилка: от 230 000 до 260000 рублей на руки \n\nОписание: Команда «Интеллектуальной системы управления» Сбербанка ищет Dev.Ops-инженера. Ты поможешь нам в разработке системы, которая анализирует бизнес-показатели и формирует задания для менеджеров по развитию подчиненных.\n\nЗадачи:\nразработка инструментов сборки и развертывания ПО\n\nЧто нужно:\n∙ опыт работы с Jenkins(Groovy), liquibase, Ansible, Docker, Kubernetes, OpenShift\n∙ знание форматов JSON, Yaml, XML\n∙ общее понимание стека протоколов TCP/IP, HTTP, HTTPS, REST, SOAP\n∙ опыт использования системы управления задачами, например в Atlassian Jira\n\nНазвание компании: Сбербанк \nКонтакты : @vsevkosmo\n\n—\n\n👉 Обсуждение вакансии в чате @devops_jobs","markup":[{"type":"hashtag","offset":0,"length":9,"data":"вакансия"},{"type":"hashtag","offset":10,"length":7,"data":"devOps"},{"type":"hashtag","offset":18,"length":7,"data":"Москва"},{"type":"hashtag","offset":26,"length":5,"data":"офис"},{"type":"handle","offset":759,"length":10,"data":"vsevkosmo"},{"type":"handle","offset":804,"length":12,"data":"devops_jobs"}],"date":"2020-03-19T06:43:45+00:00","link":"tg://resolve?domain=devops_jobs_feed&post=1829","tags":[{"name":"jenkins"},{"name":"groovy"},{"name":"ansible"},{"name":"docker"},{"name":"kubernetes"},{"name":"json"},{"name":"yaml"},{"name":"xml"},{"name":"rest"},{"name":"soap"}],"cities":[{"code":"moscow"}],"allowsRemote":false}},{"node":{"__typename":"Job","id":"212860928-1001352129329","title":"Golang разработчик","text":"#вакансия #backend #developer\nВсем привет! Я рекрутер из компании СофтТелематика и мы собираем wow команду golang разработчиков. \nФормат работы: fulltime, офис, гибкий график\nЛокация: Москва, Савеловская\nЗП: до 300 000 net +бонусы\n\nМы занимаемся заказной разработкой и делаем большие информационные системы, У нас стартовал новый проект \"Умная дорога\" для транспортных магистралей и мы существенно расширяем команду разработки. \n\nЧто надо будет кодить:\n - backend проекта, фактически с нуля\n - интеграции с разнообразным периферийным оборудованием (метеостанции, камеры, шлагбаумы, весы и пр.)\n\nЧто хотим от будущего коллеги: \n- Уверенные знания Go и опыт разработки от года. \n- Опыт серверной асинхронной / многопоточной разработки\n- Опыт работы с ClickHouse, PostgreSQL,MySSQL, in-memory базами, системами обмена сообщений (RabbitMQ)\n- Опыт интеграции с API сторонних Web-сервисов. Приветствуется опыт интеграции оборудования\n- Знание и понимание о HTTP, CoAP, MQTT, gRPC, REST, JSON, SOAP, XML\n- Опыт работы с протоколом SNMP\n- Понимание особенностей микросервисной архитектуры\n- Адекватно выбирать инструменты и находить золотую середину\n- будет круто если есть опыт работы в сфере автоматизации транспортных систем.\n\nЧто предлагаем:\n- высокую зарплату;\n- официальное оформление и соблюдение ТК;\n- ДМС со стоматологией после испытательного;\n- гибкий график и отсутствие бюрократии;\n-  отличный коллектив;\n- возможность обучения и развития;\n- и конечно крутой социально значимый проект. \nВакансий открыто несколько - от уровня миддл до лидовых. \nПисать мне в личку @tivalkin\n Автор @TiValkin","markup":[{"type":"hashtag","offset":0,"length":9,"data":"вакансия"},{"type":"hashtag","offset":10,"length":8,"data":"backend"},{"type":"hashtag","offset":19,"length":10,"data":"developer"},{"type":"handle","offset":1568,"length":9,"data":"tivalkin"},{"type":"handle","offset":1585,"length":9,"data":"TiValkin"}],"date":"2020-01-28T14:15:31+00:00","link":"tg://resolve?domain=gogetajobfeed&post=203","tags":[{"name":"go"},{"name":"dotnet"},{"name":"postgresql"},{"name":"rabbitmq"},{"name":"web"},{"name":"rest"},{"name":"json"},{"name":"soap"},{"name":"xml"}],"cities":[{"code":"moscow"}],"allowsRemote":false}},{"node":{"__typename":"Job","id":"204472320-1001352129329","title":"Go разработчик","text":"#вакансия #СПБ #fulltime \nНазвание компании: Devim \nНазвание вакансии: Tech Lead \nЗарплатная вилка (после налогов в стандартной валюте расчетов компании): 250 000-380 000 RUB\nДоступна ли удалённая работа: Нет, офис, полный день.\nГород: Санкт-Петербург \nСписок языков, которые необходимо знать: Русский, Английский \n\nTechStack: PHP, Go, PostgreSQL, RabbitMQ, GRPC, Consul, Docker, Redis, Prometheus, Gitlab-CI, Kubernetes.\n • умение работать в условиях постоянных изменений, быстрая реакция на них и коммуникация с командой;\n\n • менторство;\n\n • умение понятно ставить задачи внутри разработки, четко отслеживать процесс их выполнения;\n\n • умеете писать чистый, понятный и поддерживаемый код на PHP и Go, чтобы оценивать код, который пишет команда;\n\n • опытом работы с транспортами (от SOAP до MQ);\n\n • проектирование распределенных систем.\n\nДано: 6 бэкендеров (Go+PHP), техдолг, лёгкая франкенштейнщина на бэке, бизнес хочет всё вчера, команда хочет рефачить, CTO хочет жить.\nНадо: команда х2 в течение полугода, roadmap работы с техдолгом, единый архитектурный подход для разработки нового функционала, баланс между “срочно в релиз” и “ну давайте мы еще полгодика порефачим, а там посмотрим”, счастье, мир и дружбомагия. Тех Лиду кодить не нужно, но нужно понимать, что кодят ребята, и может ли это отхлебнуть в будущем. А вот лидить, менторить и структурировать команду очень нужно.\nКонтактное лицо: Полина - @polina_vel\n Автор @polina_vel","markup":[{"type":"hashtag","offset":0,"length":9,"data":"вакансия"},{"type":"hashtag","offset":10,"length":4,"data":"СПБ"},{"type":"hashtag","offset":15,"length":9,"data":"fulltime"},{"type":"handle","offset":1410,"length":11,"data":"polina_vel"},{"type":"handle","offset":1429,"length":11,"data":"polina_vel"}],"date":"2020-01-14T19:17:01+00:00","link":"tg://resolve?domain=gogetajobfeed&post=195","tags":[{"name":"go"},{"name":"php"},{"name":"postgresql"},{"name":"rabbitmq"},{"name":"docker"},{"name":"redis"},{"name":"gitlab"},{"name":"kubernetes"},{"name":"soap"}],"cities":[],"allowsRemote":true}},{"node":{"__typename":"Job","id":"65011712-1001375797688","title":".net разработчик","text":"#вакансия #vbnet #net #backend\n#Москва, м. Белорусская, #fulltime, #офис\n#Вознаграждение: 150-200 тыс. руб net + премии (+20% к окладу), соц. пакет.\n\n🎯Back-end разработчик / Back-end Developer (VB.NET, .NET)\n\nКоллеги, добрый день! \n\nНаходимся в поисках разработчика/архитектора для поддержки и развития функциональности финансово-биллинговой системы Elite 3E, путем доработок программного продукта (на базе VB.NET, .NET), и участия в проектах по внедрению новых модулей, интеграции с прочими системами компании (DMS, CRM).\n\nТекущий язык программирования нашей системы на 90% похож на VB.NET (но работает вне рамок .NET среды разработки т.к. среда разработки от вендора системы).\nВ среднесрочной перспективе систему полностью переведут на .NET и в обязанности будет входить работа именно с .NET и его фрейморками, средой разработки и т.д.\n\n#Требования: \n🧩Отличные знания и практический опыт VB.NET, VBA, .NET, MS SQL, WEB API (REST, SOAP);\n🧩Хорошие знания и практический опыт XML и XSLT-преобразований;\n🧩Хороший практический опыт работы с Entity Framework (или иными современными ORM);\n🧩Умение продумывать и проектировать архитектуру программных приложений, знание принципов ООП, популярных паттернов проектирования, принципов SOLID\n\nБуду рад ответить на вопросы и пояснить детали вакансии. Хорошего дня!\n\nПолное описание по ссылкам:\nhttps://lnkd.in/dPE_Trc\nhttps://lnkd.in/dxfVQRz\n\nКонтакты для связи:\nabelov@alrud.com\n+7 (926) 470-97-21 (telegram, whatsapp)","markup":[{"type":"bold","offset":0,"length":16,"data":""},{"type":"hashtag","offset":0,"length":9,"data":"вакансия"},{"type":"hashtag","offset":10,"length":6,"data":"vbnet"},{"type":"hashtag","offset":17,"length":4,"data":"net"},{"type":"bold","offset":17,"length":4,"data":""},{"type":"bold","offset":22,"length":16,"data":""},{"type":"hashtag","offset":22,"length":8,"data":"backend"},{"type":"hashtag","offset":31,"length":7,"data":"Москва"},{"type":"hashtag","offset":56,"length":9,"data":"fulltime"},{"type":"bold","offset":56,"length":9,"data":""},{"type":"bold","offset":67,"length":21,"data":""},{"type":"hashtag","offset":67,"length":5,"data":"офис"},{"type":"hashtag","offset":73,"length":15,"data":"Вознаграждение"},{"type":"bold","offset":152,"length":58,"data":""},{"type":"link","offset":195,"length":6,"data":"http://VB.NET"},{"type":"link","offset":408,"length":6,"data":"http://VB.NET"},{"type":"link","offset":585,"length":6,"data":"http://VB.NET"},{"type":"hashtag","offset":840,"length":11,"data":"Требования"},{"type":"link","offset":892,"length":6,"data":"http://VB.NET"},{"type":"link","offset":1338,"length":23,"data":"https://lnkd.in/dPE_Trc"},{"type":"link","offset":1362,"length":23,"data":"https://lnkd.in/dxfVQRz"},{"type":"link","offset":1407,"length":16,"data":"mailto:abelov@alrud.com"},{"type":"link","offset":1424,"length":18,"data":"tel:+7 (926) 470-97-21"}],"date":"2019-12-14T19:59:03+00:00","link":"tg://resolve?domain=DotNetRuJobsFeed&post=62","tags":[{"name":"dotnet"},{"name":"csharp"},{"name":"vba"},{"name":"sql"},{"name":"web"},{"name":"rest"},{"name":"soap"},{"name":"xml"},{"name":"xslt"},{"name":"orm"},{"name":"entity-framework"}],"cities":[{"code":"moscow"}],"allowsRemote":false}}]}}},"context":{}}