{"hash":"f34fd2c444a074f4e0e67d525015a008ef8e766f","data":{"records":{"id":"ruby","name":"ruby","belongsTo":{"totalCount":13,"pageInfo":{"totalPages":2,"currentPage":2},"edges":[{"node":{"__typename":"Job","id":"628097024-1001089319619","title":"Ruby разработчик","text":"#вакансия #Senior #Ruby #Rails #Севастополь #офис \n\nгород: Севастополь\nкомпания: SoftLight\nформат работы: офис, fulltime \n\nКратко о нас: \n\nНа протяжении 13 лет наша команда создает кастомные web/mobile applications и design. \nПриглашаем присоединиться к нашей команде Senior RoR разработчика с опытом проектирования и разработки высоконагруженных B2С web applications. \n\nОбязанности:\nПроектирование и разработка серверной части на RoR framework.\n\nПроект - очень сложная и большая финансовая платформа для получения инвестиций, займов etc. на уровне больших компаний (UK). \nОбласть проекта - fintech\n\nТребования: \n\nПрактический опыт работы с RoR/Sinatra/Padrino frameworks от 5 лет \nПрактический опыт работы с PostgreSQL и SQL в целом\nОпыт работы с Redis/Memcached, RSpec\nCистема контроля версий - Git\nБазовые знания Frontend - HTML, CSS, JavaScript/jQuery\nПонимание принципов и шаблонов проектирования сложных систем\nПонимание специфики и опыт работы с highload системами\nАнглийский язык - желательно (Intermediate+), но не обязательно \n\nПлюсом будет:\nОпыт работы с большими объемами данных (сотни GB)\nElasticSearch, MongoDB\nRabbitMQ/Kafka\nДругие технологии JVM/Elixir\nОпыт работы с распределенными системами\n \nМы предлагаем:\n\n- Офис с видом на море и бухту\n- Большая команда опытных разработчиков\n- Бессрочный проект (UK) \n- Сильная проектная команда включая менеджера \n- Бесплатные курсы английского для всех сотрудников\n- Необходимый environment (Mac, PC etc.)\n- Пятидневная рабочая неделя, гибкое начало дня ( с 9-10 до 18-19), госпраздники - выходные\n- Оформление ИП (с нашей стороны бухгалтерское сопровождение + gross) \n- Корпоративный отдых за счет компании\n- Пакет релокации (оплачиваем трансфер в Севастополь и аренду жилья 2 месяца) \n\nВилка: 2800-4000$ net \n\nemail: @MikeHR","markup":[{"type":"hashtag","offset":0,"length":9,"data":"вакансия"},{"type":"hashtag","offset":10,"length":7,"data":"Senior"},{"type":"hashtag","offset":18,"length":5,"data":"Ruby"},{"type":"hashtag","offset":24,"length":6,"data":"Rails"},{"type":"hashtag","offset":31,"length":12,"data":"Севастополь"},{"type":"hashtag","offset":44,"length":5,"data":"офис"},{"type":"handle","offset":1777,"length":7,"data":"MikeHR"}],"date":"2020-01-27T12:08:06+00:00","link":"tg://resolve?domain=rubyjob&post=0","tags":[{"name":"ruby"},{"name":"ruby-on-rails"},{"name":"web"},{"name":"mobile"},{"name":"postgresql"},{"name":"sql"},{"name":"redis"},{"name":"git"},{"name":"html"},{"name":"css"},{"name":"javascript"},{"name":"jquery"},{"name":"elasticsearch"},{"name":"mongodb"},{"name":"rabbitmq"},{"name":"kafka"},{"name":"jvm"},{"name":"elixir"},{"name":"dotnet"}],"cities":[{"code":"sevastopol"}],"allowsRemote":false}},{"node":{"__typename":"Job","id":"205520896-1001352129329","title":"Golang developer","text":"Всем опять привет. Продолжаем искать того самого гошника 🙂\n\nМисс Кутёж, [9 Jan 2020, 16:09:20]:\n#вакансия\n\nGolang backend developer в питерский офис компании Cryptopay (СПб).\n\nУже больше 5 лет Cryptopay помогает людям со всего мира распоряжаться своими криптоактивами. Мы - сильная, слаженная команда, но внезапно потеряли golang-бойца.\n\nЧто нужно будет делать:\n🔸Разработка сервисов для использования их в основном приложении\n🔸Поддержка существующих продуктов на Golang\n🔸Сопровождение проекта от оценки до поддержки\n\nНаши ожидания:\n🔸Отличные знания Golang\n🔸Хорошие знания PostgreSQL\n🔸Опыт работы с: Redis, RabbitMQ, ELK\n🔸Опыт работы с: Docker\n🔸Умение работать с чужим кодом\n🔸Отличная самоорганизация\n\nБудет плюсом:\n🔸Знание/Умение читать код Ruby и Ruby on Rails\n🔸Опыт работы с gRPC\n🔸Опыт работы с NATS\n🔸Опыт профилирования Golang приложений\n🔸Наличие опыта работы с криптовалютами\nОпыт работы с Ansible\n🔸Английский язык, чтобы было комфортней общаться с европейским офисом\n\nТехническая составляющая проекта:\n\nНаш кошелек сейчас проходит этап роста - мы разделяем монолитный проект на микросервисы, переходим на SPA, оптимизируем AWS инфраструктуру. \n\nНаш стэк - #Ruby #RoR #GoLang #PostgreSQL #Sidekiq #Redis #Elasticsearch #gRPC #NATS.\n\nОчень большим плюс будет наличие опыта в финтехе / крипто индустрии.\n\nЗарплата: от 200к на руки (смотрим кандидатов разного уровня, потолка нет) Пусть будут условные 300.\nВозможна удаленная работа после прохождения испытательного срока.\n\nКонтакты: @gonzogirl\n\nIlya Kaznacheev🥤, [9 Jan 2020, 16:30:34 (09.01.2020, 16:30:41)]:\nЧто, все ещё никто не может пройти ваш тест?)))\n Автор @gonzogirl","markup":[{"type":"hashtag","offset":97,"length":9,"data":"вакансия"},{"type":"hashtag","offset":1177,"length":5,"data":"Ruby"},{"type":"hashtag","offset":1183,"length":4,"data":"RoR"},{"type":"hashtag","offset":1188,"length":7,"data":"GoLang"},{"type":"hashtag","offset":1196,"length":11,"data":"PostgreSQL"},{"type":"hashtag","offset":1208,"length":8,"data":"Sidekiq"},{"type":"hashtag","offset":1217,"length":6,"data":"Redis"},{"type":"hashtag","offset":1224,"length":14,"data":"Elasticsearch"},{"type":"hashtag","offset":1239,"length":5,"data":"gRPC"},{"type":"hashtag","offset":1245,"length":5,"data":"NATS"},{"type":"handle","offset":1501,"length":10,"data":"gonzogirl"},{"type":"handle","offset":1634,"length":10,"data":"gonzogirl"}],"date":"2020-01-17T14:02:05+00:00","link":"tg://resolve?domain=gogetajobfeed&post=196","tags":[{"name":"go"},{"name":"postgresql"},{"name":"redis"},{"name":"rabbitmq"},{"name":"docker"},{"name":"ruby"},{"name":"ruby-on-rails"},{"name":"ansible"},{"name":"amazon-web-services"},{"name":"elasticsearch"}],"cities":[],"allowsRemote":true}},{"node":{"__typename":"Job","id":"199229440-1001352129329","title":"Golang developer","text":"#вакансия\n\nGolang backend developer в питерский офис компании Cryptopay (СПб).\n\nУже больше 5 лет Cryptopay помогает людям со всего мира распоряжаться своими криптоактивами. Мы - сильная, слаженная команда, но внезапно потеряли golang-бойца.\n\nЧто нужно будет делать:\n🔸Разработка сервисов для использования их в основном приложении\n🔸Поддержка существующих продуктов на Golang\n🔸Сопровождение проекта от оценки до поддержки\n\nНаши ожидания:\n🔸Отличные знания Golang\n🔸Хорошие знания PostgreSQL\n🔸Опыт работы с: Redis, RabbitMQ, ELK\n🔸Опыт работы с: Docker\n🔸Умение работать с чужим кодом\n🔸Отличная самоорганизация\n\nБудет плюсом:\n🔸Знание/Умение читать код Ruby и Ruby on Rails\n🔸Опыт работы с gRPC\n🔸Опыт работы с NATS\n🔸Опыт профилирования Golang приложений\n🔸Наличие опыта работы с криптовалютами\nОпыт работы с Ansible\n🔸Английский язык, чтобы было комфортней общаться с европейским офисом\n\nТехническая составляющая проекта:\n\nНаш кошелек сейчас проходит этап роста - мы разделяем монолитный проект на микросервисы, переходим на SPA, оптимизируем AWS инфраструктуру. \n\nНаш стэк - #Ruby #RoR #GoLang #PostgreSQL #Sidekiq #Redis #Elasticsearch #gRPC #NATS.\n\nОчень большим плюс будет наличие опыта в финтехе / крипто индустрии.\n\nЗарплата: от 200к на руки (смотрим кандидатов разного уровня, потолка нет) Пусть будут условные 300.\nВозможна удаленная работа после прохождения испытательного срока.\n\nКонтакты: @gonzogirl\n Автор @gonzogirl","markup":[{"type":"hashtag","offset":0,"length":9,"data":"вакансия"},{"type":"hashtag","offset":1080,"length":5,"data":"Ruby"},{"type":"hashtag","offset":1086,"length":4,"data":"RoR"},{"type":"hashtag","offset":1091,"length":7,"data":"GoLang"},{"type":"hashtag","offset":1099,"length":11,"data":"PostgreSQL"},{"type":"hashtag","offset":1111,"length":8,"data":"Sidekiq"},{"type":"hashtag","offset":1120,"length":6,"data":"Redis"},{"type":"hashtag","offset":1127,"length":14,"data":"Elasticsearch"},{"type":"hashtag","offset":1142,"length":5,"data":"gRPC"},{"type":"hashtag","offset":1148,"length":5,"data":"NATS"},{"type":"handle","offset":1404,"length":10,"data":"gonzogirl"},{"type":"handle","offset":1422,"length":10,"data":"gonzogirl"}],"date":"2020-01-10T08:50:26+00:00","link":"tg://resolve?domain=gogetajobfeed&post=190","tags":[{"name":"go"},{"name":"postgresql"},{"name":"redis"},{"name":"rabbitmq"},{"name":"docker"},{"name":"ruby"},{"name":"ruby-on-rails"},{"name":"ansible"},{"name":"amazon-web-services"},{"name":"elasticsearch"}],"cities":[],"allowsRemote":true}}]}}},"context":{}}