{"hash":"f5f6bf98bd95e769321482904cbbd488f77922fd","data":{"records":{"id":"reactjs","name":"reactjs","belongsTo":{"totalCount":182,"pageInfo":{"totalPages":19,"currentPage":2},"edges":[{"node":{"__typename":"Job","id":"17325621248-1001110946746","title":"Js developer","text":"#вакансия #frontend #react  #senior #мbycr #офис #fulltime #релокация в литву #минск\n\nПозиция – Frontend developer (senior)\n\nКомпания – ThiNKT Digital\n\nЛокация – Работать в Литве. Возможна релокация из РБ\n\nЗанятость – полная, офис, гибкое время начала дня\n\nОплата: от 2 000 до 3 400 евро на руки\n\nРелокационный пакет - оплата 1 мес аренды кв и переезд\n\n The Role \n• Discuss the client‘s needs to propose the best solution • Develop responsive web applications • Keep up to date with terminology, concepts and best practices for coding web applications • Work closely with colleagues to constantly innovate product functionality and design • Architect customer-centric front-end part of the solution • Collaborate with Venture Managers and engage with development teams \n   We offer\n • Participation in a dynamic startup solving challenges in the energy sector & beyond • Responsibility over a wide portfolio of products  • Access to large network of startups & corporates through our various partnerships • A great international exposure, and a diverse team with extensive & rich experiences  • Competitive compensation package & flexible work schedule  \n \n       Your Background \n● Solid foundation in web application front-end development ● You know what are the best UI & UX practices ● Experience with front-end programming languages such as HTML, CSS,  Javascript, ReactJS, etc ● Experience in software process models such as Agile / Scrum / etc ● Well-rounded interpersonal and communication skills to work in flexible teams ● You are Problem solver, and very interested in technology-related entrepreneurial start-up projects. ● Relevant experience with Node or other backend programming languages would be a plus ● Experience with Azure or Amazon Web Service (AWS) would be a huge plus ● Relevant experience 3-5 years ● Required language: English \n \n \n\n\n\n☎️ Контакты для обсуждения вакансии:\n\ntelegram @veroneko","markup":[{"type":"hashtag","offset":0,"length":9,"data":"вакансия"},{"type":"hashtag","offset":10,"length":9,"data":"frontend"},{"type":"hashtag","offset":20,"length":6,"data":"react"},{"type":"hashtag","offset":28,"length":7,"data":"senior"},{"type":"hashtag","offset":36,"length":6,"data":"мbycr"},{"type":"hashtag","offset":43,"length":5,"data":"офис"},{"type":"hashtag","offset":49,"length":9,"data":"fulltime"},{"type":"hashtag","offset":59,"length":10,"data":"релокация"},{"type":"hashtag","offset":78,"length":6,"data":"минск"},{"type":"handle","offset":1910,"length":9,"data":"veroneko"}],"date":"2020-07-02T16:31:22+00:00","link":"tg://resolve?domain=javascript_jobs_feed&post=16523","tags":[{"name":"javascript"},{"name":"reactjs"},{"name":"web"},{"name":"ms-access"},{"name":"html"},{"name":"css"},{"name":"nodejs"},{"name":"azure"},{"name":"amazon-web-services"}],"cities":[{"code":"minsk"}],"allowsRemote":false}},{"node":{"__typename":"Job","id":"17324572672-1001110946746","title":"Js developer","text":"#вакансия #frontend #react  #senior #мbycr #офис #fulltime #релокация в литву #минск\n\nПозиция – Frontend developer (senior)\n\nКомпания – ThiNKT Digital\n\nЛокация – Литва\n\nЗанятость – полная, офис, гибкое время начала дня\n\nОплата: от 2 000 до 3400 евро на руки\n\nРелокационный пакет - оплата 1 мес аренды кв и переезд\n\n The Role • Discuss the client‘s needs to propose the best solution • Develop responsive web applications • Keep up to date with terminology, concepts and best practices for coding web applications • Work closely with colleagues to constantly innovate product functionality and design • Architect customer-centric front-end part of the solution • Collaborate with Venture Managers and engage with development teams \n   We offer • Participation in a dynamic startup solving challenges in the energy sector & beyond • Responsibility over a wide portfolio of products  • Access to large network of startups & corporates through our various partnerships • A great international exposure, and a diverse team with extensive & rich experiences  • Competitive compensation package & flexible work schedule  \n \n       Your Background ● Solid foundation in web application front-end development ● You know what are the best UI & UX practices ● Experience with front-end programming languages such as HTML, CSS,  Javascript, ReactJS, etc ● Experience in software process models such as Agile / Scrum / etc ● Well-rounded interpersonal and communication skills to work in flexible teams ● You are Problem solver, and very interested in technology-related entrepreneurial start-up projects. ● Relevant experience with Node or other backend programming languages would be a plus ● Experience with Azure or Amazon Web Service (AWS) would be a huge plus ● Relevant experience 3-5 years ● Required language: English \n \n \n\n\n\n☎️ Контакты для обсуждения вакансии:\n\ntelegram @codebor\n\ne-mail ybb@quadcom.ru","markup":[{"type":"hashtag","offset":0,"length":9,"data":"вакансия"},{"type":"hashtag","offset":10,"length":9,"data":"frontend"},{"type":"hashtag","offset":20,"length":6,"data":"react"},{"type":"hashtag","offset":28,"length":7,"data":"senior"},{"type":"hashtag","offset":36,"length":6,"data":"мbycr"},{"type":"hashtag","offset":43,"length":5,"data":"офис"},{"type":"hashtag","offset":49,"length":9,"data":"fulltime"},{"type":"hashtag","offset":59,"length":10,"data":"релокация"},{"type":"hashtag","offset":78,"length":6,"data":"минск"},{"type":"handle","offset":1869,"length":8,"data":"codebor"},{"type":"link","offset":1886,"length":14,"data":"mailto:ybb@quadcom.ru"}],"date":"2020-07-02T16:29:51+00:00","link":"tg://resolve?domain=javascript_jobs_feed&post=16522","tags":[{"name":"javascript"},{"name":"reactjs"},{"name":"web"},{"name":"ms-access"},{"name":"html"},{"name":"css"},{"name":"nodejs"},{"name":"azure"},{"name":"amazon-web-services"}],"cities":[{"code":"minsk"}],"allowsRemote":false}},{"node":{"__typename":"Job","id":"17322475520-1001110946746","title":"Javascript разработчик","text":"#вакансия #frontend #react #typescript #middle #senior #москва #офис #fulltime\n\nПозиция – Frontend developer (Middle)\n\nКомпания – Quadcom\n\nЛокация – Москва, м. Ботанический сад\n\nЗанятость – полная, офис, гибкое время начала дня\n\nОплата: от 110 000 до 150 000 рублей на руки\n\n\n\nМы ищем талантливого фронтенд-разработчика в нашу не очень большую, но дружную команду. Если ты легко осваиваешь новые технологии, любишь чистый и красивый код, знаешь алгоритмы и готов развиваться, то мы очень хотим тебя к себе!\n\nМы разрабатываем различные сервисы и интерфейсы для внутреннего и внешнего использования. У нас есть как большие проекты, так и маленькие. Начиная с 2014 года с небольшой команды мы развились до довольно большой компании и развиваемся дальше\n\nБазируемся в уютном бизнес-центре Ультрамарин, недалеко от метро Ботанический сад и ВДНХ. У нас гибкий рабочий график, современный офис и отличное оборудование для работы.\n\n\n\n✅ Необходимые навыки:\n\n• Знание Javascript и ES6+, React + Redux\n\n• Уверенные знания HTML, CSS/SASS/LESS, опыт кроссбраузерной верстки\n\n• Опыт работы в команде с использованием Git и любого системой управления задачами\n\n\n\n✅ Плюсом будет:\n\n• Опыт работы с RestAPI\n\n• Знакомство с TypeScript\n\n• Знание алгоритмов и структур данных\n\n\n\n✅ Мы предлагаем:\n\nРаботу в успешной, растущей компании\n\nКарьерный и профессиональный рост\n\nУютный офис\n\nОтсутствие какого-либо дресс-кода\n\nСвободный график\n\nАдекватное руководство\n\n\n\nЗП от 110 000 до 150 000 рублей на руки\n\nпо итогам собеседования и испытательного срока\n\n\n\n☎️ Контакты для обсуждения вакансии:\n\ntelegram @codebor\n\ne-mail ybb@quadcom.ru\n\n\n\nДля желающих мы подготовили небольшое интересное задание\nhttps://github.com/walborn/test-backend-jwt/blob/master/task.md","markup":[{"type":"hashtag","offset":0,"length":9,"data":"вакансия"},{"type":"hashtag","offset":10,"length":9,"data":"frontend"},{"type":"hashtag","offset":20,"length":6,"data":"react"},{"type":"hashtag","offset":27,"length":11,"data":"typescript"},{"type":"hashtag","offset":39,"length":7,"data":"middle"},{"type":"hashtag","offset":47,"length":7,"data":"senior"},{"type":"hashtag","offset":55,"length":7,"data":"москва"},{"type":"hashtag","offset":63,"length":5,"data":"офис"},{"type":"hashtag","offset":69,"length":9,"data":"fulltime"},{"type":"handle","offset":1579,"length":8,"data":"codebor"},{"type":"link","offset":1596,"length":14,"data":"mailto:ybb@quadcom.ru"},{"type":"link","offset":1671,"length":63,"data":"https://github.com/walborn/test-backend-jwt/blob/master/task.md"}],"date":"2020-07-02T16:28:50+00:00","link":"tg://resolve?domain=javascript_jobs_feed&post=16520","tags":[{"name":"javascript"},{"name":"reactjs"},{"name":"typescript"},{"name":"redux"},{"name":"html"},{"name":"css"},{"name":"sass"},{"name":"git"},{"name":"github"},{"name":"jwt"},{"name":"react-redux"}],"cities":[{"code":"moscow"}],"allowsRemote":false}},{"node":{"__typename":"Job","id":"1773142016-1001091028994","title":"Java разработчик","text":"#спб #офис #java #middle #senior\n\nМесто работы: Санкт-Петербург, м. Лиговский проспект\nКомпания: Санкт-Петербургский Информационно аналитический центр\nФормат работы: офис ( на текущий момент удаленно)\nЗанятость: полная, гибкое начало дня\nЗарплатная вилка: до 200 на руки, 100% белая\n\n«Санкт-Петербургский Информационно-аналитический центр» с 1980 года улучшает качество жизни петербуржцев, автоматизируя городские процессы и государственные органы. В портфолио компании - 50 действующих проектов в Санкт-Петербурге и других регионах. Наши проекты побеждают в общероссийских и международных конкурсах.\n\nСодержание работы:\n- Требуется Java разработчик в Agile команду разработки государственных информационных систем.\n\nОбязанности:\n- Проектирование, разработка и развитие информационных систем с использованием технологий: Java, Postgres/Oracle, ElasticSearch, Spring Boot, Kafka, React, Ansible, Docker, Kubernetes, Jenkins и других\n\nТребования:\n- опыт веб-разработки на Java от 3-х лет;\n- знание ООП, SQL;\n- опыт разработки моделей БД;\n- умение думать и желание развиваться;\n- умение и желание решать сложные технические задачи;\n- высшее техническое образование;\n- знание английского языка (уровень чтения профессиональной литературы);\n\nЖелательно:\n- опыт работы со Spring Boot\n- опыт работы с React\n- опыт работы с СУБД Postgres или другой\n- опыт работы с Gradle\n- опыт работы с брокерами сообщений (Kafka, RabbitMQ);\n- знакомство с оркестраторами (Kubernetes, Swarm);\n- знание современных инженерных практик и инструментов (XP, TDD, Continuous delivery и т.п.).\n\nО команде:\n- мы работаем в компактных командах;\n- избегаем бюрократии и фокусируемся на реальных потребностях граждан нашего города;\n- осуществляем полный цикл разработки от выявления требований, до внедрения и сопровождения;\n- проводим ежедневные митинги, совместные обсуждения возле доски и регулярные ретроспективы;\n- стремимся к постоянному персональному и командному росту и развитию!\n\nВ портфолио команды информационные системы, функционирующие в СПб, других регионах РФ и на международном уровне:\n- Аналитическая платформа поддержки принятия решений по управлению городом;\n- Культура Петербурга\n- Общедоступные библиотеки Санкт-Петербурга\n- Государственные архивы Санкт-Петербурга\n- Приграничный электронный архив\n\nМы готовы предложить успешным кандидатам :\n- влиться в большой дружный коллектив, стать частью команды увлеченных, целеустремленных людей;\n- конкурентоспособный уровень заработной платы, который мы готовы обсудить с успешными кандидатами на собеседовании;\n- бонусы и премии по результатам работы;\n- оплачиваемые отпуска и больничные, полностью «белая» заработная плата дважды в месяц;\n- оплата обучения (тренинги, семинары, конференции);\n- широкие возможности для повышения личного мастерства и профессионального роста;\n- рабочий график – пятидневка с 9 до 18 часов, по пятницам до 17;\n- офис около ст. метро «Лиговский проспект»;\n- возможность внести свой значимый вклад в развитие городской автоматизации!\n\nБуду рад ответить на ваши вопросы о команде и проектах @akozhin","markup":[{"type":"hashtag","offset":0,"length":4,"data":"спб"},{"type":"hashtag","offset":5,"length":5,"data":"офис"},{"type":"hashtag","offset":11,"length":5,"data":"java"},{"type":"hashtag","offset":17,"length":7,"data":"middle"},{"type":"hashtag","offset":25,"length":7,"data":"senior"},{"type":"handle","offset":3051,"length":8,"data":"akozhin"}],"date":"2020-07-02T15:01:55+00:00","link":"tg://resolve?domain=jvmjobs&post=1691","tags":[{"name":"java"},{"name":"jvm"},{"name":"postgresql"},{"name":"oracle"},{"name":"elasticsearch"},{"name":"spring"},{"name":"kafka"},{"name":"reactjs"},{"name":"ansible"},{"name":"docker"},{"name":"kubernetes"},{"name":"jenkins"},{"name":"sql"},{"name":"gradle"},{"name":"rabbitmq"},{"name":"spring-boot"}],"cities":[],"allowsRemote":true}},{"node":{"__typename":"Job","id":"17318281216-1001110946746","title":"Javascript разработчик","text":"#вакансия #Москва #удаленка #офис #fulltime\n\nГород: Москва, м. Менделеевская\nФормат работы: офис, удалённая работа\nЗанятость: полная\nЗарплатная вилка: от 100к до 200к на руки.\n\nПривет! Мы LifegueardEye — b2b-стартап, разрабатывающий решения для обеспечения безопасности на воде (lifeguardeye.com).\n\nМы ищем frontend-разработчика для разработки и поддержки интерфейса устройства, которое отображает видео с камер наблюдения (аналог DVR). Поверх видео отображается информация, распознанная нейросетью и прочими алгоритмами.\n\nТребования:\n- Опыт разработки на Javascript / Typescript от 2-х лет;\n- Опыт работы с React.\n- Желательно опыт работы с MobX, PostCSS, Rollup, Protobuf, WebRTC.\n- Понимание принципов работы веб-приложений, общие понятия об устройстве бэкенда, REST-API, базах данных, git.\n- Будет плюсом общее понимание о том, как работает компьютерное зрение и смежные технологии.\n\nУсловия:\n- Свободный и гибкий график;\n- Офис в двух минутах ходьбы от метро Менделеевская;\n- Атмосфера стартапа и свобода в технических решениях.\n\nПо всем вопросам @vovapolu\n\n—\n\n👉 Обсуждение вакансии в чате @javascript_jobs","markup":[{"type":"hashtag","offset":0,"length":9,"data":"вакансия"},{"type":"hashtag","offset":10,"length":7,"data":"Москва"},{"type":"hashtag","offset":18,"length":9,"data":"удаленка"},{"type":"hashtag","offset":28,"length":5,"data":"офис"},{"type":"hashtag","offset":34,"length":9,"data":"fulltime"},{"type":"link","offset":279,"length":16,"data":"http://lifeguardeye.com"},{"type":"handle","offset":1052,"length":9,"data":"vovapolu"},{"type":"handle","offset":1096,"length":16,"data":"javascript_jobs"}],"date":"2020-07-02T11:48:43+00:00","link":"tg://resolve?domain=javascript_jobs_feed&post=16516","tags":[{"name":"javascript"},{"name":"typescript"},{"name":"reactjs"},{"name":"rest"},{"name":"git"}],"cities":[{"code":"moscow"}],"allowsRemote":true}},{"node":{"__typename":"Job","id":"17317232640-1001110946746","title":"Javascript developer","text":"#вакансия #ReactNative #Одесса\n🔹Локация: Одесса,  #Odessa, р-н Пересыпи\n🔹Формат работы: #Офис / #удаленка\n🔹Занятость: Полная занятость, #Fulltime\n🔹Вилка 1700-2500 уе, дважды в год Performance Review.\n\n☀Вакансия Middle React Native developer\n🔹Описание вакансии:\n- 4+ years of experience in software development and JavaScript (ES6+).\n- 2+ years of experience with React Native.\n- Experience with commercial native applications development (IOS/Android).\n- Understanding and experience with building the full mobile application’s lifecycle.\n- Knowledge of architecture design and experience working knowledge of SOAP and RESTful integrations.\n- Intermediate written and spoken English.\nБудет плюсом:\n- Experience with native SDKs for Android (Kotlin/Java) and/or iOS (Swift).\n\n\n🔹Компания Attract Group.\n🔹Контакты:\n✏️телеграм @Niedova_Olga,\n✏️почта hr@attractgroup.com.\n\n—\n\n👉 Обсуждение вакансии в чате @javascript_jobs","markup":[{"type":"hashtag","offset":0,"length":9,"data":"вакансия"},{"type":"hashtag","offset":10,"length":12,"data":"ReactNative"},{"type":"hashtag","offset":23,"length":7,"data":"Одесса"},{"type":"hashtag","offset":51,"length":7,"data":"Odessa"},{"type":"hashtag","offset":90,"length":5,"data":"Офис"},{"type":"hashtag","offset":98,"length":9,"data":"удаленка"},{"type":"hashtag","offset":139,"length":9,"data":"Fulltime"},{"type":"handle","offset":830,"length":13,"data":"Niedova_Olga"},{"type":"link","offset":853,"length":19,"data":"mailto:hr@attractgroup.com"},{"type":"handle","offset":908,"length":16,"data":"javascript_jobs"}],"date":"2020-07-02T11:06:21+00:00","link":"tg://resolve?domain=javascript_jobs_feed&post=16515","tags":[{"name":"javascript"},{"name":"reactjs"},{"name":"ios"},{"name":"android"},{"name":"mobile"},{"name":"soap"},{"name":"kotlin"},{"name":"java"},{"name":"swift"},{"name":"react-native"}],"cities":[{"code":"odessa"}],"allowsRemote":true}},{"node":{"__typename":"Job","id":"72525807616-1001054966032","title":"Mobile developer","text":"#вакансия #ReactNative #Одесса\n🔹Локация: Одесса,  #Odessa, р-н Пересыпи\n🔹Формат работы: #Офис / #удаленка\n🔹Занятость: Полная занятость, #Fulltime\n🔹Вилка $1700-$2500, дважды в год Performance Review.\n\n☀Вакансия Middle React Native developer\n🔹Описание вакансии:\n- 4+ years of experience in software development and JavaScript (ES6+).\n- 2+ years of experience with React Native.\n- Experience with commercial native applications development (IOS/Android).\n- Understanding and experience with building the full mobile application’s lifecycle.\n- Knowledge of architecture design and experience working knowledge of SOAP and RESTful integrations.\n- Experience with native SDKs for Android (Kotlin/Java) and/or iOS (Swift).\n- Intermediate written and spoken English.\n\n🔹Компания Attract Group.\n🔹Контакты:\n✏️телеграм @Niedova_Olga,\n✏️почта hr@attractgroup.com.","markup":[{"type":"hashtag","offset":0,"length":9,"data":"вакансия"},{"type":"hashtag","offset":10,"length":12,"data":"ReactNative"},{"type":"hashtag","offset":23,"length":7,"data":"Одесса"},{"type":"hashtag","offset":51,"length":7,"data":"Odessa"},{"type":"hashtag","offset":90,"length":5,"data":"Офис"},{"type":"hashtag","offset":98,"length":9,"data":"удаленка"},{"type":"hashtag","offset":139,"length":9,"data":"Fulltime"},{"type":"handle","offset":814,"length":13,"data":"Niedova_Olga"},{"type":"link","offset":837,"length":19,"data":"mailto:hr@attractgroup.com"}],"date":"2020-07-02T09:41:39+00:00","link":"tg://resolve?domain=mobile_jobs&post=69166","tags":[{"name":"mobile"},{"name":"android"},{"name":"ios"},{"name":"reactjs"},{"name":"javascript"},{"name":"soap"},{"name":"kotlin"},{"name":"java"},{"name":"swift"},{"name":"react-native"}],"cities":[{"code":"odessa"}],"allowsRemote":true}},{"node":{"__typename":"Job","id":"17311989760-1001110946746","title":"Js разработчик","text":"#вакансия #екб #react #fulltime #Fullstack #NodeJS #middle\n\nПозиция: FULLSTACK разработчик (node.js, react)\nКомпания: SoftMediaLab \nЛокация: Екатеринбург \nФормат работы: #удаленка\nЗанятость: #фултайм\nЗП 110 00 - 140 000 рублей на руки (пересмотр з/п раз в год)\n\nSoftMediaLab —основана в 2015 году в городе Екатеринбурге. Основатели компании - разработчики, поэтому никакой бюрократии и странных решений, процессы максимально простые и понятные, среда дружественная. На данный момент более 50 выполненных проектов в России, Канаде, Европе, Израиле, Сингапуре и США.\n\nТребования:\n- Обязателен опыт работы с Node.js и React (не менее 2х лет)\n- Опыт работы с базой данных PostgreSQL\n- Опыт работы с системами контроля версий.\n- Владение английским языком на уровне чтения документации. Плюсом будет владение разговорным английским для международных проектов.\n- Опыт написания unit-тестов.\n\nСтек: node.js, react, typescript, express.js, socket.io, PostgreSQL , bootstrap, material-ui, JQuery, sass, less\n\nКонтакты: @Ekaterina_Mitroshkina или @iamanastasie","markup":[{"type":"hashtag","offset":0,"length":9,"data":"вакансия"},{"type":"hashtag","offset":10,"length":4,"data":"екб"},{"type":"hashtag","offset":15,"length":6,"data":"react"},{"type":"hashtag","offset":22,"length":9,"data":"fulltime"},{"type":"hashtag","offset":32,"length":10,"data":"Fullstack"},{"type":"hashtag","offset":43,"length":7,"data":"NodeJS"},{"type":"hashtag","offset":51,"length":7,"data":"middle"},{"type":"hashtag","offset":170,"length":9,"data":"удаленка"},{"type":"hashtag","offset":191,"length":8,"data":"фултайм"},{"type":"link","offset":933,"length":9,"data":"http://socket.io"},{"type":"handle","offset":1011,"length":22,"data":"Ekaterina_Mitroshkina"},{"type":"handle","offset":1038,"length":13,"data":"iamanastasie"}],"date":"2020-07-02T09:21:42+00:00","link":"tg://resolve?domain=javascript_jobs_feed&post=16510","tags":[{"name":"javascript"},{"name":"reactjs"},{"name":"nodejs"},{"name":"postgresql"},{"name":"typescript"},{"name":"express"},{"name":"bootstrap"},{"name":"jquery"},{"name":"sass"}],"cities":[],"allowsRemote":true}},{"node":{"__typename":"Job","id":"365953024-1001352129329","title":"Golang разработчик","text":"#вакансия #Golang #middle #Senior #Moscow #удаленно \n\nНазвание компании: EveryTale\nНазвание вакансии: Golang разработчик \nЗарплатная вилка 150-200 тыс/мес\nГород: Москва\nСписок языков, которые необходимо знать: Русский, Английский (на уровне чтения тех. документации)\nФотрмат работы: удаленно\n\nВ это непростое время пандемии мы ищем талантливого GO разработчика, который жаждет развивать социально значимые продукты\nМы:\nМолодая успешная и стабильная компания\nЛидеры рынка инфопанелей\nДелаем продукты для людей с ограниченными возможностями здоровья (ОВЗ)\nАктивно разрабатываем революционную платформу для обучения\n\nEverytale — это платформа для видео-трансляций лекций преподавателей и выступлений специалистов, учитывающая потребности всех людей.\\\nНаши будущие клиенты - пользователи по всему миру. В компании нет закрытых дверей, вся команда точно понимает что она делает и зачем. Нет жесткой иерархии внутри. Мы ценим всех наших сотрудников и их идеи и стремлении расти вместе с нами. Так же мы имеем представительство в США и ориентируемся в том числе и на этот рынок. Приветствуем желание развития и роста.\n\nВозможны командировки в Los Angeles.\n\nЧто предстоит делать:\n\nРазработка beckend для edTech проекта\nРабота с чатами, опросами, потоковым видео, субтитрами\nРеализация АПИ для мобильных \nприложений\n\nЧто нужно уметь\n\nУ тебя есть:\nОпыт программирования backend от 3х лет\nЗнание особенностей разработки highload-проектов\nУверенное владение Golang\nАналитическое мышление с навыками решения проблем\nОпыт работы с Linux\n\nБудет плюсом:\n\nРабота с docker\nУмение строить SOA\nНавыки работы c оркестраторами и Docker Compose\nЗнание Python\nОпыт работы с инфраструктурой и сервисами Amazon\nОпыт работы с сервисами видеостриминга\nОпыт в построении CI/CD Pipeline\n\nЗдорово, если ты:\nЛюбишь учиться\nОткрытый\nОбщительный\nПозитивный\nСамостоятельный\n\nУсловия и преимущества\nМолодую команду профессионалов\\\nВысокую заработную плату по результатам собеседования\\\nНовый уютный офис в пешей доступности от метро Текстильщики\\\nИгровая зона пинг-понг, кикер \\\nВозможности роста в расширяющейся команде \\\nПремии по KPI\n\n\n\nКоманда:\nДиректор IT;\nТехЛид;\nPM;\nGo ТимЛид;\nReact front x3;\nАналитик;\nДизайнер;\n\nКонтакты: @sandevl","markup":[{"type":"hashtag","offset":0,"length":9,"data":"вакансия"},{"type":"hashtag","offset":10,"length":7,"data":"Golang"},{"type":"hashtag","offset":18,"length":7,"data":"middle"},{"type":"hashtag","offset":26,"length":7,"data":"Senior"},{"type":"hashtag","offset":34,"length":7,"data":"Moscow"},{"type":"hashtag","offset":42,"length":9,"data":"удаленно"},{"type":"handle","offset":2196,"length":8,"data":"sandevl"}],"date":"2020-07-02T09:13:00+00:00","link":"tg://resolve?domain=gogetajobfeed&post=349","tags":[{"name":"go"},{"name":"linux"},{"name":"docker"},{"name":"python"},{"name":"reactjs"},{"name":"docker-compose"}],"cities":[{"code":"moscow"},{"code":"los-angeles"}],"allowsRemote":true}},{"node":{"__typename":"Job","id":"1772093440-1001091028994","title":"Java разработчик","text":"#вакансия #backend #java #java8 #spring #офис #remote #Мск #Пермь #senior #middle \n\nкомпания: КА: http://luckyhunter.io\nЗ/п: 120 000 - 200 000 рублей на руки (+премии) \nГород и адрес офиса: \nг. Москва (Павелецкая),\nг. Пермь\nФормат работы: офис или удаленка \nЗанятость: полная, fulltime\n\n*У компании нет формальной возможности к трудоустройству иностранных граждан.\n\n🚀Ищем backend разработчиков уровня Middle/Middle+ в крупную продуктовую компанию с возможностью удаленной работы!\n\nРебята разрабатывают интеллектуальную low-code платформу для создания бизнес-приложений и информационных систем в области управления рисками и оптимизации бизнес-процессов любой сложности. Компания не разрабатывает решения для одного заказчика или «под проект», они продвигают собственную продуктовую разработку и реализуют весь новый функционал в удобных инструментах, которые сразу же становятся доступными для всех заказчиков.\n\n❇️Всего в компании трудится около 200 человек, разработчики поделены на 3 группы разработки и работают в scrum командах по 5-6 человек. Коллеги ценят инициативность и активный вклад в общее дело, также поддерживают разумные инициативы по внедрению новых технологий и подходов в разработку.\n\nСтэк технологий: \nJava 8, Spring, React, TypeScript, Webpack, Maven, MobX, HighchartsJS, Gitlab. \n\n✅Какой опыт необходим: \n- опыт коммерческой разработки на Java от 2 лет и больше; \n- опыт работы с БД (у ребят их 3: PostgreSQL, MySQL, Oracle; \n- опыт работы в финтехе будет плюсом☺️ \n\n✅Какие бонусы и перспективы получите вы: \n- возможность работать удаленно или в офисе (Москва, Пермь);\n- официальное оформление и полностью белую зп, которая зависит от ваших компетенций и ожиданий;\n- гибкое начало рабочего дня, отсутствие бюрократии;\n- работу в молодой и развивающейся команде, которая разрабатывает быстроразвивающийся, востребованный продукт;\n- релокационный пакет для переезжающих из других городов.\n\nКонтакты:\ne-mail: daria@luckyhunter.io\ntelegram: @prudentdaria\nБуду рада ответить на все вопросы и комментарии по вакансии 😊 \n\n\n\n\n#вакансия #backend #java #Java8 #senior  \nЛокация: Нижний-Новгород (есть хороший релокационный пакет)\nЗанятость: полная, гибкое начало дня\n*до окончания пандемии работа удаленная (и трудоустройство) далее работа в офисе\nЗП: до 220 000 NET \n\n🔹 Крупная немецкая компания ищет Java разработчиков senior уровня.\nКомпания более 20 лет, является лидером рынка в Европе поставляющем инновационные IT-решения по управлению кредитными рисками и по процессному консультированию. Кроме того в компании есть направления по разработке ПО для анализа финансовой отчетности и сегментации рынка. Продуктом компании пользуется многие известные бренды: Toshiba, Volvo, Росбанк и более 290 других компаний по всему миру.\n\n🔹 Требования:\n- коммерческий опыт разработки на Java от 3-ех лет;\n- знания Java 8 SE;\n- уровень английского языка, позволяющий вести диалог с коллегами из Германии (главное- не бояться говорить ☺️.). Это обязательное требование\n\n🔹 Условия:\n- Расширенный релокационный пакет;\n- Оформление официальное, белая заработная плата и премиальная система;\n- ДМС;\n- Компенсация обучения английскому языку;\n-Широкие возможности профессионального и карьерного роста и разные другие плюшки и бонусы.\n\nКонтакты:\ne-mail: daria@luckyhunter.io\ntelegram: @prudentdaria\nПишите, буду рада ответить на все возможные вопросы здесь или по почте :)","markup":[{"type":"hashtag","offset":0,"length":9,"data":"вакансия"},{"type":"hashtag","offset":10,"length":8,"data":"backend"},{"type":"hashtag","offset":19,"length":5,"data":"java"},{"type":"hashtag","offset":25,"length":6,"data":"java8"},{"type":"hashtag","offset":32,"length":7,"data":"spring"},{"type":"hashtag","offset":40,"length":5,"data":"офис"},{"type":"hashtag","offset":46,"length":7,"data":"remote"},{"type":"hashtag","offset":54,"length":4,"data":"Мск"},{"type":"hashtag","offset":59,"length":6,"data":"Пермь"},{"type":"hashtag","offset":66,"length":7,"data":"senior"},{"type":"hashtag","offset":74,"length":7,"data":"middle"},{"type":"link","offset":98,"length":21,"data":"http://luckyhunter.io"},{"type":"link","offset":1929,"length":20,"data":"mailto:daria@luckyhunter.io"},{"type":"handle","offset":1960,"length":13,"data":"prudentdaria"},{"type":"hashtag","offset":2042,"length":9,"data":"вакансия"},{"type":"hashtag","offset":2052,"length":8,"data":"backend"},{"type":"hashtag","offset":2061,"length":5,"data":"java"},{"type":"hashtag","offset":2067,"length":6,"data":"Java8"},{"type":"hashtag","offset":2074,"length":7,"data":"senior"},{"type":"link","offset":3254,"length":20,"data":"mailto:daria@luckyhunter.io"},{"type":"handle","offset":3285,"length":13,"data":"prudentdaria"}],"date":"2020-07-02T09:10:30+00:00","link":"tg://resolve?domain=jvmjobs&post=1690","tags":[{"name":"java"},{"name":"jvm"},{"name":"spring"},{"name":"reactjs"},{"name":"typescript"},{"name":"webpack"},{"name":"maven"},{"name":"gitlab"},{"name":"postgresql"},{"name":"mysql"},{"name":"oracle"},{"name":"dotnet"}],"cities":[{"code":"perm"},{"code":"moscow"},{"code":"nizhny-novgorod"}],"allowsRemote":true}}]}}},"context":{}}