{"hash":"f5f6bf98bd95e769321482904cbbd488f77922fd","data":{"records":{"id":"belarus/minsk","country":{"code":"belarus","ruName":"Беларусь","enName":"Belarus"},"city":{"code":"minsk","ruName":"Минск","enName":"Minsk"},"belongsTo":{"totalCount":14,"pageInfo":{"totalPages":2,"currentPage":2},"edges":[{"node":{"__typename":"Job","id":"71826407424-1001054966032","title":"Ios developer","text":"#вакансия #Минск #fulltime #office #iOS \n\nГород: Минск, м. пл Ленина                            \nНазвание компании: Onde, https://onde.app\nФормат работы: офис \nЗанятость: полная\nЗарплатная вилка: от $3000 до $4000 чистыми (по результатам интервью)\n\nНаш продукт - SaaS решение для других бизнесов, позволяющее начать свой бизнес - например, сервис заказа такси, медицинских услуг, вызова нотариуса, бронирования и даже ухода за домашними питомцами.\n\nСейчас мы ищем Senior iOS Developer!\n\nНаш стек: Swift + Objective C, XCode/AppCode, CoreAnimation, Texture (ex AsyncDisplayKit), Fastlane, Git\n\nЧто мы предлагаем: \n- Гибкий график\n- Современный офис (не опенс спейс)\n- Возможность реализовывать свои самые разные идеи\n- Компенсация стоимости спортивного абонемента 50% \n- Скидка 30% на обеды\n- Медицинское страхование \n- Компенсация стоимости конференций, курсов и тренингов\n- Делить офис с 2 котиками 🐱\n- Насыщенная корпоративная жизнь\n\nБольше подробностей здесь: https://onde.app/careers/ios-developer\n\nБуду рада знакомству:\nEmail: maria.kulesh@onde.app","markup":[{"type":"hashtag","offset":0,"length":9,"data":"вакансия"},{"type":"hashtag","offset":10,"length":6,"data":"Минск"},{"type":"hashtag","offset":17,"length":9,"data":"fulltime"},{"type":"hashtag","offset":27,"length":7,"data":"office"},{"type":"hashtag","offset":35,"length":4,"data":"iOS"},{"type":"link","offset":122,"length":16,"data":"https://onde.app"},{"type":"link","offset":964,"length":38,"data":"https://onde.app/careers/ios-developer"},{"type":"link","offset":1033,"length":21,"data":"mailto:maria.kulesh@onde.app"}],"date":"2020-06-23T06:27:46+00:00","link":"tg://resolve?domain=mobile_jobs&post=68499","tags":[{"name":"mobile"},{"name":"ios"},{"name":"swift"},{"name":"objective-c"},{"name":"xcode"},{"name":"git"}],"cities":[{"code":"minsk"}],"allowsRemote":false}},{"node":{"__typename":"Job","id":"103449362432-1001089317451","title":"Qa engineer","text":"#вакансия #HQSoftware #fulltime #QA #onlyMinsk\n\nНебольшая, но очень уютная компания HQSoftware хочет сделать один из проектов  чуточку круче - и поэтому мы ищем крепкого миддла/синьёра QA\nКомпания:  HQSoftware (hqsoftwarelab.com)/85 человек в штате\nПозиция: Senior QA Engineer\nФормат и форма работы: фулл-тайм, офис Минск\n💲ЗП: 1500 - 2100$\n\nАнглийский: от крепкого Intermediate\n\n✏️Описание вакансии и задач:  \nПроект один из самых интересных, что Вы видели) Заказчиком проекта выступают британцы. Посвящен сбору, визуализации и валидации информации с автомобилей, проходящих заводское тестирование выхлопных газов на соответствие евростандартам. Автомобили напичканы датчиками.Данные с этих датчиков и списывает система, выстраивая различные графики и статистику.\nЧто нужно будет делать:\nсоздание и выполнение тестовых сценариев для нового функционала; функциональное, нефункциональное, интеграционное, регрессионное, смоук, разведывательное тестирование. В основном, мобильное тестирование на проекте. Тесное взаимодействие с РМ и командой, по рискам и статусу QA  по проекту.\nКоманда:  1 PM, 2 Front-end developers. На стороне заказчика - команда огромнейшая.\nМетодология: Scrum\n\n✅Пишите смело сюда по всем вопросам:\n@Salko_Dmitry \nd.salko@hqsoftwarelab.com (mail)\ndzmitry.salko (skype)\n✏️отзывы о нас на dev.by: https://companies.dev.by/hqsoftware\n🗽наш сайт: hqsoftwarelab.com","markup":[{"type":"hashtag","offset":0,"length":9,"data":"вакансия"},{"type":"hashtag","offset":10,"length":11,"data":"HQSoftware"},{"type":"hashtag","offset":22,"length":9,"data":"fulltime"},{"type":"hashtag","offset":32,"length":3,"data":"QA"},{"type":"hashtag","offset":36,"length":10,"data":"onlyMinsk"},{"type":"bold","offset":83,"length":11,"data":""},{"type":"bold","offset":188,"length":9,"data":""},{"type":"link","offset":211,"length":17,"data":"http://hqsoftwarelab.com"},{"type":"bold","offset":249,"length":50,"data":""},{"type":"bold","offset":324,"length":3,"data":""},{"type":"bold","offset":342,"length":11,"data":""},{"type":"bold","offset":382,"length":27,"data":""},{"type":"bold","offset":765,"length":24,"data":""},{"type":"bold","offset":1079,"length":9,"data":""},{"type":"bold","offset":1163,"length":12,"data":""},{"type":"bold","offset":1184,"length":36,"data":""},{"type":"handle","offset":1220,"length":13,"data":"Salko_Dmitry"},{"type":"link","offset":1235,"length":25,"data":"mailto:d.salko@hqsoftwarelab.com"},{"type":"link","offset":1308,"length":6,"data":"http://dev.by"},{"type":"link","offset":1316,"length":35,"data":"https://companies.dev.by/hqsoftware"},{"type":"link","offset":1364,"length":17,"data":"http://hqsoftwarelab.com"}],"date":"2020-06-22T13:42:21+00:00","link":"tg://resolve?domain=qa_jobs&post=98657","tags":[{"name":"qa"}],"cities":[{"code":"minsk"}],"allowsRemote":false}},{"node":{"__typename":"Job","id":"103293124608-1001089317451","title":"Qa инженер","text":"#вакансия #офис #fulltime #Минск\n👌 Без чего не бывает отличных сервисов? Без ответственных за качество! Ищем самых внимательных, дотошных и коммуникабельных QA инженеров в нашу минскую команду. \n\nКомпания:  BSL (bsl.dev)\nПозиция: Jun/Mid QA Engineer\nФормат и форма работы: фулл-тайм, офис Минск (м. Грушевка)\nЗП: 450-1000$\n\n💫 Задачи:\nФункциональное ручное тестирование приложений (iOS, Android, Web); \nРазработка и поддержка тестовых случаев (тест-кейсы/чек-листы);\nУчастие в ревью требований, UI/UX и всех типов проектной документации;\nЛокализация, документирование и поддержка дефектов в Jira;\n\n💫Требования:\nОпыт работы в функциональном тестировании; \nЗнание методологий тестирования;\nЗнание особенностей тестирования и архитектуры приложений на платформах iOS & Android и WEB;\nПонимание принципов REST API;\nОпыт работы в багтрекинговой системе Jira;\nОпыт работы с системами тест менеджмента (Test Rail, MTM, Zephyr for Jira);\nОтветственность, коммуникабельность, настойчивость, грамотность, внимание к мелочам и готовность к постоянной коммуникации с командой проекта;\nСпособность быстро переключаться между задачами.\n\n💫Что даем взамен:\n• Возможность прокачки hard skills на проектах разного уровня сложности; \n• Команду с сильными разработчиками, product-менеджерами, QA, UX/UI дизайнерами и налаженными процессами;\n• График работы: с пересечением по часам 11:00–19:00 по Москве (отдыхать в выходные и праздники будем по российскому календарю — а значит + неделя на новый год и длинные майские каникулы);\n• Самореализацию и профессиональный рост, посещение конференций и курсов за счет компании. Расскажите нам о своей профессиональной мечте, возможно мы поможем вам воплотить ее в жизнь;\n• Уютный новый офис на м. Грушевка — с чаем и кофе. \n\n✅Жду ваши резюме и, если есть, вопросы.\nМои контакты: @viktoriya_gw \nhr@bsl.dev","markup":[{"type":"hashtag","offset":0,"length":9,"data":"вакансия"},{"type":"hashtag","offset":10,"length":5,"data":"офис"},{"type":"hashtag","offset":16,"length":9,"data":"fulltime"},{"type":"hashtag","offset":26,"length":6,"data":"Минск"},{"type":"link","offset":213,"length":7,"data":"http://bsl.dev"},{"type":"handle","offset":1805,"length":13,"data":"viktoriya_gw"},{"type":"link","offset":1820,"length":10,"data":"mailto:hr@bsl.dev"}],"date":"2020-06-19T13:10:22+00:00","link":"tg://resolve?domain=qa_jobs&post=98508","tags":[{"name":"qa"},{"name":"ios"},{"name":"android"},{"name":"web"},{"name":"rest"}],"cities":[{"code":"minsk"}],"allowsRemote":false}},{"node":{"__typename":"Job","id":"71650246656-1001054966032","title":"Ios разработчик","text":"#вакансия #IOS  #middle  #офис #минск\n\nios разработчик в офис Минска м. Немига\n\nГород: Минск\nФормат работы: в офис (на период пандемии удаленно)\nЗанятость: полная\nЗарплатная вилка: 1 000 -1 500$\nКомпания: 𝓜𝓑𝓲𝓬𝔂𝓬𝓵𝓮\n\nMBicycle - команда профессионалов в области разработки мобильных и веб приложений.\nМы помогаем нашим клиентам решать их проблемы независимо от отрасли, размера компании или чего-либо еще.\nНаша работа - это постоянное развитие и движение вперед.\n\nО нас:\nНаша компания развивается с 2011 года. На данный момент отдел разработки составляет 70+ человек.\nОфисы нашей компании расположены в Гомеле, Минске и Бостоне (США).\nМы предоставляем комплексные технические решения для широкого круга отраслей, включая Спорт, IoT, FinTech, HealthCare и т.д.\nНаши сотрудники регулярно проводят митапы, на которых обсуждают актуальные технологии и возможности их внедрения на наших проектах\n\nСтек задач будет включать:\n\nОбщение с клиентом, уточнение и обсуждение требований\nУчастие в планировании проекта\nПроведение и прохождение код-ревью\nУчастие в различных фазах разработки: демо нового функционала, написание тестов, сборка и релиз приложений\nРаботу в распределенных командах, написание нового функционала\nДоработку и поддержку уже написанных частей\nНаши ожидания:\n\nЗнание английского языка на уровне Intermediate и выше\nОпыт разработки на Swift от 2-х лет\nОпыт работы с RxSwift, MVVM\nОпыт с git, понимание git flow\nОпыт написания Unit-тестов и работы с CI/CD\nМы предлагаем:\n• Работу в динамично развивающейся компании\n• Разработка приложений с нуля\n• Гибкость в выборе технологий\n• 3 sick days\n• Командировки за рубеж\n• Бесплатные курсы английского языка в нашем офисе\n\nПриятные плюшки:\n• Новый офис в центре города (Гомель), а в Минске мы находимся на Интернациональной (Немига)\n• Гибкое начало рабочего дня\n• Участие в конференциях и митапах\n• Отдых на тимбилдингах и ярких праздниках для всей семьи\n\nписать мне","markup":[{"type":"hashtag","offset":0,"length":9,"data":"вакансия"},{"type":"hashtag","offset":10,"length":4,"data":"IOS"},{"type":"hashtag","offset":16,"length":7,"data":"middle"},{"type":"hashtag","offset":25,"length":5,"data":"офис"},{"type":"hashtag","offset":31,"length":6,"data":"минск"}],"date":"2020-06-19T12:47:42+00:00","link":"tg://resolve?domain=mobile_jobs&post=0","tags":[{"name":"mobile"},{"name":"ios"},{"name":"swift"},{"name":"mvvm"},{"name":"git"}],"cities":[{"code":"minsk"},{"code":"gomel"}],"allowsRemote":true}}]}}},"context":{}}