{"hash":"f5f6bf98bd95e769321482904cbbd488f77922fd","data":{"records":{"id":"web","name":"web","belongsTo":{"totalCount":155,"pageInfo":{"totalPages":16,"currentPage":14},"edges":[{"node":{"__typename":"Job","id":"1691353088-1001091028994","title":"Java developer","text":"Senior Java/Kotlin developer в Группу компаний FIX 📍\n#удаленно #Казань #Java #Kotlin \n\nЧем предстоит заниматься:\n- разрабатывать высоконагруженную платежную платформу\n- участвовать в проектировании модулей и компонентов\n- улучшать производительность создаваемого решения\n- реализовывать решения по обработке платежей\n- решать задачи резервирования и отказоустойчивости подсистем\n \nЧто для этого нужно:\n- опыт разработки высоконагруженных решений на Java/Kotlin.\n- глубокое знание Java SE.\n- опыт создания Web-приложений, понимание соответствующего стека технологий Java/Kotlin, знание протоколов TCP/IP, HTTP/HTTPS).\n- знание устройства и правил функционирования JVM.\n- опыт разработки многопоточных высоконагруженных приложений.\n- опыт улучшения производительности Java/Kotlin решений;\n\n\nМы предлагаем: \n- ЗП 150- 250 000\n- достойный уровень дохода (обсуждается индивидуально)\n- уютный офис в центре Казани\n- интересные задачи и открытая идеям команда\n- насыщенная корпоративная жизнь (праздники и активности, футбол, волейбол, йога)\n- релокационный пакет для специалистов из других городов, ДМС\n\n✏️ Откликаться: @rsharafutdinova","markup":[{"type":"hashtag","offset":54,"length":9,"data":"удаленно"},{"type":"hashtag","offset":64,"length":7,"data":"Казань"},{"type":"hashtag","offset":72,"length":5,"data":"Java"},{"type":"hashtag","offset":78,"length":7,"data":"Kotlin"},{"type":"handle","offset":1115,"length":16,"data":"rsharafutdinova"}],"date":"2020-06-16T09:17:52+00:00","link":"tg://resolve?domain=jvmjobs&post=1613","tags":[{"name":"java"},{"name":"jvm"},{"name":"kotlin"},{"name":"web"}],"cities":[{"code":"kazan"}],"allowsRemote":true}},{"node":{"__typename":"Job","id":"102939754496-1001089317451","title":"Qa инженер","text":"#вакансия #Моcква #Россия #офис #удаленка #автоматизация #Python #тестировщик\n\nДолжность: Тестировщик ПО (функциональное + автоматизированное тестирование)\nГород: Москва (Парк Культуры) и не только\nФормат работы: возможна удаленка\nЗанятость: полная\nЗП: 130 – 180 net (в зависимости от опыта), + квартальные бонусы\nОформление ТК РФ\nСоцпакет – ДМС, обучение, корп скидки и т.д.\n\nКто мы:\nДирекция BigData  в X5 Retail\nРазрабатываем продукты работающие с большими данными в ритэйле.\n\nЧто нужно делать:\nРазработка ручных и авто тестов\nПодготовка тестовых данных\nПроведение тестирования – регресс, интеграционное, тестирование нового функционала и исправлений дефектов\nАнализ причин появления дефектов\nРабота с баг-трекинговой системой (Jira) – регистрация дефектов, отслеживание статусов, проверка исправлений, закрытие дефектов\nРазвитие процесса тестирования продукта\nВозможна работа как в продуктовой команде так и в стриме автоматизации тестирования – в зависимости от опыта и пожеланий.\n\nНаш кандидат:\n🔎Опыт тестирования web-приложений от 3 лет\n🔎Опыт автоматизации тестирования с Python, Pytest от 1 года\n🔎Базовые знания работы с Docker, k8s\n🔎Опыт работы с баг-трекинговыми системами\n🔎Знание SQL на уровне написания составных запросов\n🔎Способность быстро адаптироваться к изменениям приоритетов в работе\n🔎Аналитическое мышление, системный подход к решению задач, умение работать в команде, склонность к самообразованию, усидчивость, внимательность, инициативность\n🔎Желание развиваться\n🔎Дополнительный плюс – опыт работы с продуктами ритэйла.\n\nРезюме и вопросы в личные сообщения denis_d_u или по телефону +7 985 2986708","markup":[{"type":"hashtag","offset":0,"length":9,"data":"вакансия"},{"type":"hashtag","offset":10,"length":7,"data":"Моcква"},{"type":"hashtag","offset":18,"length":7,"data":"Россия"},{"type":"hashtag","offset":26,"length":5,"data":"офис"},{"type":"hashtag","offset":32,"length":9,"data":"удаленка"},{"type":"hashtag","offset":42,"length":14,"data":"автоматизация"},{"type":"hashtag","offset":57,"length":7,"data":"Python"},{"type":"hashtag","offset":65,"length":12,"data":"тестировщик"},{"type":"link","offset":1613,"length":14,"data":"tel:+7 985 2986708"}],"date":"2020-06-16T09:09:17+00:00","link":"tg://resolve?domain=qa_jobs&post=0","tags":[{"name":"qa"},{"name":"python"},{"name":"dotnet"},{"name":"web"},{"name":"docker"},{"name":"sql"}],"cities":[{"code":"moscow"}],"allowsRemote":true}},{"node":{"__typename":"Job","id":"1686110208-1001091028994","title":"Java разработчик","text":"#вакансия #java #senior #middle \nЛокация: Саратов, Самара, Кемерово \nЗП: 80.000-170.000 на руки\nИщем в команду Java dev  уровня middle/senior в связи с большим количеством интересных проектов и расширения команды.\nКратко по стеку: \n[ Java 11+, Maven, Spring Boot 2+, Hibernate 5+, PostgreSQL 12, RabbitMQ ]\nТребования:\n - Java SE 8 и выше \n- Spring / Spring Boot \n- Hibernate или MyBatis\n- SQL (PostgreSQL) \n- Apache Tomcat или Eclipse Jetty или другой app server\n- Принципы ООП\n- Web сервисы (REST или SOAP).\n Будет плюсом: опыт работы с одним из актуальных frontend фреймворков - Angular, React, Vue; понимание принципов работы протоколов HTTP, HTTPS; работа с очередями (ActiveMQ, RabbitMQ) и опыт работы с Docker.\nЧто предлагаем:\n- белая з/п и оформление в штат;\n- интересные проекты и адекватное руководство; \n- возможность профессионального и карьерного роста;\n- формат интервью 1 этап по Skype или Zoom\nДля связи и резюме @KaterinaHR","markup":[{"type":"hashtag","offset":0,"length":9,"data":"вакансия"},{"type":"hashtag","offset":10,"length":5,"data":"java"},{"type":"hashtag","offset":16,"length":7,"data":"senior"},{"type":"hashtag","offset":24,"length":7,"data":"middle"},{"type":"handle","offset":929,"length":11,"data":"KaterinaHR"}],"date":"2020-06-16T07:55:35+00:00","link":"tg://resolve?domain=jvmjobs&post=1608","tags":[{"name":"java"},{"name":"jvm"},{"name":"maven"},{"name":"spring"},{"name":"hibernate"},{"name":"postgresql"},{"name":"rabbitmq"},{"name":"sql"},{"name":"apache"},{"name":"tomcat"},{"name":"eclipse"},{"name":"jetty"},{"name":"web"},{"name":"rest"},{"name":"soap"},{"name":"angularjs"},{"name":"reactjs"},{"name":"vuejs"},{"name":"docker"},{"name":"spring-boot"}],"cities":[{"code":"saratov"},{"code":"samara"},{"code":"kemerovo"}],"allowsRemote":false}},{"node":{"__typename":"Job","id":"16948133888-1001110946746","title":"Js разработчик","text":"#вакансия #удаленка #gamedev #геймдев #job #работа #JavaScript #WebGL #AR #8thwall #React #JS  #ReactNative #WebAR \n\n🔹 Название компании: https://twin3d.ru\n🔹 Город и адрес офиса: Москва\n🔹 Формат работы: Удаленка, проектная работа\n🔹 Занятость: На полный рабочий день (2 месяца)\n🔹 Зарплатная вилка: 100 000 - 150 000 руб\n\n🔥 Описание вакансии: React Native + JavaScript Frontend или Fullstack разработчик на игровой WebAR проект на iOS и Android (safari, chrome, opera).\nУдаленно, полный рабочий день, проектно на 2+ месяца.\n\n🛎 Требования:\n- JavaScript, а именно three.js, ar.js, node.js\n- React Native\n- Опыт c AR и мобильными игровыми проектами будет огромным плюсом\n- Опыт работы с Web проектами\n- Опыт сборки в приложение 3D моделей и анимаций\n- Уровень Middle или Senior\n- Опыт коммерческой разработки +3 года\n- Наличие портфолио - ссылок на успешно реализованные проекты\n\n💻 Обязанности:\n- Разработать архитектуру приложения\n- Коммуникация с беком на стороне заказчика\n- Верстка/сборка дизайна приложения (адаптивная)\n- Настройка логики\n- Интеграция в приложение и настройка 3D моделей, анимаций\n- Сопровождение проекта после релиза, до завершения промо кампании (+4 месяца) без активной разработки (будем оплачивать почасово или по задачам)\n\n☎️ Контакты: присылайте ссылки на реализованные проекты и финансовые ожидания в телеграм: @shemetvlad","markup":[{"type":"hashtag","offset":0,"length":9,"data":"вакансия"},{"type":"hashtag","offset":10,"length":9,"data":"удаленка"},{"type":"hashtag","offset":20,"length":8,"data":"gamedev"},{"type":"hashtag","offset":29,"length":8,"data":"геймдев"},{"type":"hashtag","offset":38,"length":4,"data":"job"},{"type":"hashtag","offset":43,"length":7,"data":"работа"},{"type":"hashtag","offset":51,"length":11,"data":"JavaScript"},{"type":"hashtag","offset":63,"length":6,"data":"WebGL"},{"type":"hashtag","offset":70,"length":3,"data":"AR"},{"type":"hashtag","offset":74,"length":8,"data":"8thwall"},{"type":"hashtag","offset":83,"length":6,"data":"React"},{"type":"hashtag","offset":90,"length":3,"data":"JS"},{"type":"hashtag","offset":95,"length":12,"data":"ReactNative"},{"type":"hashtag","offset":108,"length":6,"data":"WebAR"},{"type":"link","offset":139,"length":17,"data":"https://twin3d.ru"},{"type":"handle","offset":1343,"length":11,"data":"shemetvlad"}],"date":"2020-06-15T18:52:35+00:00","link":"tg://resolve?domain=javascript_jobs_feed&post=0","tags":[{"name":"javascript"},{"name":"reactjs"},{"name":"ios"},{"name":"android"},{"name":"safari"},{"name":"nodejs"},{"name":"web"},{"name":"react-native"}],"cities":[{"code":"moscow"}],"allowsRemote":true}},{"node":{"__typename":"Job","id":"102902005760-1001089317451","title":"Qa инженер","text":"#вакансия #работа #СанктПетербург #QA #Manual #Mobile #API #fulltime #офис\nГород: Санкт-Петербург, м. Чкаловская\nФорма работы: офис\nЗанятость: полная\nЗарплатная вилка: от 100 000 net (обсуждается по результатам собеседования).\nВсем привет!\nМы – Cardsmobile, петербургская IT-компания, разработчик мобильного приложения «Кошелёк». \n«Кошелёк» заменяет бумажник и избавляет от необходимости носить с собой пластик: пользователи хранят в нем дисконтные и банковские карты. Чтобы получить скидку, достаточно показать на кассе карту с экрана смартфона, а чтобы оплатить покупку – приложить NFC-смартфон к терминалу оплаты.\nВ связи с расширением функционала приложения и выходом на зарубежные рынки мы усиляем нашу команду и ищем QA инженера с опытом тестирования мобильных и веб продуктов.\n🔹Что нужно будет делать:\n•  тестировать работу «Кошелька» на Android и iOS;\n•  проводить функциональное и регрессионное тестирование клиентской части приложения, функциональное и нагрузочное тестирование серверной;\n•  организовывать процесс тестирования: устанавливать и настраивать тестовое окружение, разрабатывать тестовые сценарии, писать тестовую документацию.\n🔹Ожидаем, что у Вас есть:\n•  опыт тестирования мобильных приложений от 1,5 лет;\n•  понимание принципов клиент-серверного взаимодействия;\n•  навыки работы с базами данных (Postgresql, MongoDB и др.);\n•  навыки работы с инструментами для тестирования серверного API (Postman, SoapUI и т.д.).\n🔹Будет плюсом:\n•  Опыт разработки автотестов для web (Selenium), mobile (Espresso, XCTest) или желание его приобрести.\n🔹Мы предлагаем:\n•  Участие в развитии полезного и популярного приложения, возможность сделать мир лучше;\n•  Оформление по ТК РФ с первого дня работы. ДМС после прохождения испытательного срока;\n•  Оплату мобильной связи, частичную компенсацию питания;\n•  Гибкий график и высокий уровень самостоятельности;\n•  Командные мероприятия и приятные коллеги;\n•  Комфортный офис в центре города (2 минуты от станции метро Чкаловская).\n\nИнформацию о компании можно найти по ссылке: https://spb.hh.ru/employer/2032205\n\nTelegram: katerinaziryukova","markup":[{"type":"hashtag","offset":0,"length":9,"data":"вакансия"},{"type":"hashtag","offset":10,"length":7,"data":"работа"},{"type":"hashtag","offset":18,"length":15,"data":"СанктПетербург"},{"type":"hashtag","offset":34,"length":3,"data":"QA"},{"type":"hashtag","offset":38,"length":7,"data":"Manual"},{"type":"hashtag","offset":46,"length":7,"data":"Mobile"},{"type":"hashtag","offset":54,"length":4,"data":"API"},{"type":"hashtag","offset":59,"length":9,"data":"fulltime"},{"type":"hashtag","offset":69,"length":5,"data":"офис"},{"type":"link","offset":2035,"length":34,"data":"https://spb.hh.ru/employer/2032205"}],"date":"2020-06-15T15:55:16+00:00","link":"tg://resolve?domain=qa_jobs&post=0","tags":[{"name":"qa"},{"name":"mobile"},{"name":"dotnet"},{"name":"android"},{"name":"ios"},{"name":"postgresql"},{"name":"mongodb"},{"name":"web"},{"name":"selenium"}],"cities":[],"allowsRemote":false}},{"node":{"__typename":"Job","id":"102896762880-1001089317451","title":"Qa инженер","text":"#вакансия #Москва #работаQA #Выставочная #офис/удаленная\nЗаработная плата от 70 000 - 90 000 с налогами в зависимости от опыта кандидата\nКомпания https://agregatoreat.ru/  \nЗанятость: полная (50/50 офис и удаленно) \nКонтакт: @OlesyaE \nОбязанности:\n•  Тестирование высоконагруженного web-сервиса (в том числе, во время его обновления в нерабочее время - 2 раза в месяц);\n•  Ручное тестирование ПО (функциональное, нагрузочное, интеграционное и др.);\n•  Разработка тестовой документации;\n•  написание Unit тестов\n•  Оценка времени на проверку задач;\n•  Создание баг-репортов;\n•  Взаимодействие с разработчиками, аналитиками, службой технической поддержки;\nТребования:\n•  Опыт работы в области тестирования ПО от 1 года;\n•  Знание жизненного цикла ПО, тест-кейсов, багов и т.д.\n•  Знание различных методов тестирования;\n•  Опыт разработки тестовой документации;\n•  Базовые знания языка SQL;\n•  Приветствуется опыт работы с файлами *.xml, *.json;\n•  Опыт работы с баг-трекинговыми системами (Jira, TFS и т.д.);\n•  Внимательность, ответственность, умение работать в команде;\n•  Самостоятельность, стремление к профессиональному и карьерному росту.","markup":[{"type":"hashtag","offset":0,"length":9,"data":"вакансия"},{"type":"hashtag","offset":10,"length":7,"data":"Москва"},{"type":"hashtag","offset":18,"length":9,"data":"работаQA"},{"type":"hashtag","offset":28,"length":12,"data":"Выставочная"},{"type":"hashtag","offset":41,"length":5,"data":"офис"},{"type":"link","offset":77,"length":15,"data":"tel:70 000 - 90 000"},{"type":"link","offset":146,"length":24,"data":"https://agregatoreat.ru/"},{"type":"handle","offset":225,"length":8,"data":"OlesyaE"}],"date":"2020-06-15T15:21:59+00:00","link":"tg://resolve?domain=qa_jobs&post=0","tags":[{"name":"qa"},{"name":"web"},{"name":"sql"},{"name":"xml"},{"name":"json"},{"name":"tfs"}],"cities":[{"code":"moscow"}],"allowsRemote":true}},{"node":{"__typename":"Job","id":"1681915904-1001091028994","title":"Java developer","text":"#вакансия #java #javadeveloper #spring #офис #МСК\n\nГород и адрес офиса: Москва, \nФормат работы: в офисе\nЗанятость: фулл тайм\nЗарплатная вилка: 200 000-250 000 рублей на руки (+-10% люфт для кандидатов с немного большими ожиданиями)\nНазвание компании: Фирма 1С\n\nВ амбициозный проект фирмы «1С» требуется Lead Java Developer с экспертным знанием стека Spring Framework и практическим опытом в области разработки интернет-проектов на платформе Java. Вы получите возможность работать над архитектурно значимыми компонентами, создавая масштабные и современные интернет-проекты делового назначения. \nСам проект представляет: современную торговую площадку в сегменте B2B https://1cbn.ru/trading.htm. Наша торговая площадка - технически сложный интернет-проект, работающий как в web, так и встроенный во многие учетные системы \"1С\".\n\nТЕХНОЛОГИЧЕСКИЙ СТЕК:\nJava, экосистема Spring (IoC, Spring MVC, Spring Data JPA, Spring Security, Spring Boot), PostgreSQL\n\nЧТО ВЫ БУДЕТЕ ДЕЛАТЬ:\n-Анализ задачи и проектирование микросервисов с использованием DDD и Hexagonal Architecture;\n-Проведение code review;\n-Участие в архитектурном совете продукта;\n-Проектирование REST API (OpenAPI 3);\n-Разработку микросервисов на Spring Framework 5 от идеи до запуска в эксплуатацию;\n-Покрытие своего кода unit и интеграционными тестами;\n-Соотношение легаси к разработке 20/80%.\n\nМы используем микросервисную архитектуру, Project Lombok, технологии Spring Cloud, Spring Boot, Spring Data, Elasticsearch, PostgreSQL, Git, Docker. Практикуем DDD, Agile-методологии, code review, CI и прочие полезные инженерные практики.\n\nЧТО ПРЕДЛАГАЕМ:\n-возможность профессионального и карьерного роста вместе с ростом команды;\n-опыт работы с талантливыми профессионалами, у которых есть чему научиться;\n-современный комфортный офис в 5-ти минутах ходьбы от м. Тимирязевская  http://1c.ru/rus/firm1c/d9.html;\n-зоны отдыха и кофе-поинты с диванами и массажными креслами;\n-гибкий график;\n-возможность заказывать проф. литературу за счет компании;\n-стабильная и конкурентоспособная заработная плата;\n-расширенный социальный пакет (ДМС со стоматологией всех видов работ);\n(хорошо решены вопросы медицинского обслуживания   (страхования), питания, проезда, спорта);\n-бесплатная охраняемая парковка на территории офиса;\n-предоставляем жилье для иногородних на период исп. срока.\n\nПообщаться по вакансии можно в телеграм @lamamama или по почте yana@geecko.ru","markup":[{"type":"hashtag","offset":0,"length":9,"data":"вакансия"},{"type":"hashtag","offset":10,"length":5,"data":"java"},{"type":"hashtag","offset":16,"length":14,"data":"javadeveloper"},{"type":"hashtag","offset":31,"length":7,"data":"spring"},{"type":"hashtag","offset":39,"length":5,"data":"офис"},{"type":"hashtag","offset":45,"length":4,"data":"МСК"},{"type":"link","offset":664,"length":27,"data":"https://1cbn.ru/trading.htm"},{"type":"link","offset":1828,"length":31,"data":"http://1c.ru/rus/firm1c/d9.html"},{"type":"handle","offset":2366,"length":9,"data":"lamamama"},{"type":"link","offset":2389,"length":14,"data":"mailto:yana@geecko.ru"}],"date":"2020-06-15T14:41:52+00:00","link":"tg://resolve?domain=jvmjobs&post=1604","tags":[{"name":"java"},{"name":"jvm"},{"name":"spring"},{"name":"web"},{"name":"jpa"},{"name":"postgresql"},{"name":"rest"},{"name":"cloud"},{"name":"elasticsearch"},{"name":"git"},{"name":"docker"},{"name":"html"},{"name":"spring-mvc"},{"name":"spring-data"},{"name":"spring-security"},{"name":"spring-boot"}],"cities":[{"code":"moscow"}],"allowsRemote":false}},{"node":{"__typename":"Job","id":"102890471424-1001089317451","title":"Qa engineer","text":"#вакансия #qa #офис #москва\nм.Бауманская, полная занятость\nБелая з/п до 100.000руб. на руки \nQA Engineer / Тестировщик\nНа время изоляции работаем удаленно, после вновь вернемся в офис!\nПолностью удаленной работы у нас нет!\n\n Мы — команда разработки Level.Travel, сложного продукта в сфере путешествий.  За последние 8 лет мы с нуля создали и продолжаем развивать решение для онлайн-продажи путешествий. Нашу платформу используют лидеры рынка – Тинькофф Банк, OneTwoTrip, Сбербанк, TripAdvisor, Kayak, АК Барс Банк, Евросеть и многие другие. Компания Level.Travel является резидентом Инновационного центра «Сколково».\n\nОбязанности:\n🔸Функциональное тестирование мобильных и web приложений;\n🔸Тестирование API\n🔸Сопровождение задач, мониторинг качества продукта\n🔸Документирование багов\n🔸Проверка кейсов перед релизом, тестирование на промежуточных этапах фиксов и разработки нового функционала\n🔸Оптимизация процесса тестирования внутри команды\n🔸Разработка тест-планов, тест-кейсов\n🔸Тесное общение с командой разработчиков\n🔸Прием обращений от коллег\n🔸Cоставление отчета о тестировании\n\nОт Вас:\n🔸Общительность, активность умение работать в команде\n🔸Представление о теории тестирования и жизненном цикле ПО\n🔸Умение описать баг, опыт работы с трекерами задач\n🔸Опыт разработки тест-планов, тест-кейсов\n🔸Базовые знания html, сss, regexp\n🔸Понимание как работает протокол http\n🔸Умение работать с перехватчиками трафика\n🔸Опыт работы с developer tools в браузере\n🔸Умение расставлять приоритеты задач\n\n\nОт нас: белая зп, официальное трудоустройство, больничные, отпуска. Скидки на изучение английского языка, техника MacBook Pro. Регулярная обратная связь и аттестации. Геймификация процессов и несколько раз в год релокейты поработать в другую страну. Клевый молодой коллектив, интересные ивенты, насыщенная корпоративная жизнь. Пинг-понг, бильярд, кальян и другие развлечения в офисе. Скидки на путешествия)\n\nСвязь по почте: vos@level.travel\nИли тут @Alyask_a","markup":[{"type":"hashtag","offset":0,"length":9,"data":"вакансия"},{"type":"hashtag","offset":10,"length":3,"data":"qa"},{"type":"hashtag","offset":14,"length":5,"data":"офис"},{"type":"hashtag","offset":20,"length":7,"data":"москва"},{"type":"bold","offset":59,"length":32,"data":""},{"type":"bold","offset":93,"length":25,"data":""},{"type":"bold","offset":119,"length":65,"data":""},{"type":"bold","offset":225,"length":76,"data":""},{"type":"bold","offset":619,"length":12,"data":""},{"type":"bold","offset":1091,"length":7,"data":""},{"type":"bold","offset":1507,"length":7,"data":""},{"type":"bold","offset":1915,"length":32,"data":""},{"type":"link","offset":1931,"length":16,"data":"mailto:vos@level.travel"},{"type":"bold","offset":1948,"length":17,"data":""},{"type":"handle","offset":1956,"length":9,"data":"Alyask_a"}],"date":"2020-06-15T14:23:36+00:00","link":"tg://resolve?domain=qa_jobs&post=0","tags":[{"name":"qa"},{"name":"web"},{"name":"html"}],"cities":[{"code":"moscow"}],"allowsRemote":true}},{"node":{"__typename":"Job","id":"16930308096-1001110946746","title":"Js программист","text":"#вакансия #gamedev #геймдев #job #работа #JavaScript #WebGL #AR #8thwall #React\n\n🔸Название компании: https://twin3d.ru\n🔸Город и адрес офиса: Москва\n🔸Формат работы: Удаленка, проектная работа\n🔸Занятость: На полный рабочий день (2 месяца)\n🔸Зарплатная вилка: 100 000 - 150 000 руб\n\n🔥Описание вакансии: Нужны 2 программиста на мультемидийный/игровой WEB AR проект для мобильных устройств. Собирать планируемна https://www.8thwall.com\n\n🛎 Требования:\n- JavaScript + WebGL\n- React и/или Vue.js\n- Опыт c AR и/или GameDev будет плюсом. \n\n☎️ Контакты, telegram: @shemetvlad","markup":[{"type":"hashtag","offset":0,"length":9,"data":"вакансия"},{"type":"hashtag","offset":10,"length":8,"data":"gamedev"},{"type":"hashtag","offset":19,"length":8,"data":"геймдев"},{"type":"hashtag","offset":28,"length":4,"data":"job"},{"type":"hashtag","offset":33,"length":7,"data":"работа"},{"type":"hashtag","offset":41,"length":11,"data":"JavaScript"},{"type":"hashtag","offset":53,"length":6,"data":"WebGL"},{"type":"hashtag","offset":60,"length":3,"data":"AR"},{"type":"hashtag","offset":64,"length":8,"data":"8thwall"},{"type":"hashtag","offset":73,"length":6,"data":"React"},{"type":"link","offset":102,"length":17,"data":"https://twin3d.ru"},{"type":"link","offset":412,"length":23,"data":"https://www.8thwall.com"},{"type":"handle","offset":559,"length":11,"data":"shemetvlad"}],"date":"2020-06-15T12:21:12+00:00","link":"tg://resolve?domain=javascript_jobs_feed&post=0","tags":[{"name":"javascript"},{"name":"reactjs"},{"name":"web"},{"name":"vuejs"}],"cities":[{"code":"moscow"}],"allowsRemote":false}},{"node":{"__typename":"Job","id":"16928210944-1001110946746","title":"Js программист","text":"#вакансия #gamedev #геймдев #job #работа #JavaScript #WebGL #AR #8thwall #React\n\n🔸Название компании: https://twin3d.ru\n🔸Город и адрес офиса: Москва\n🔸Формат работы: Удаленка, проектная работа\n🔸Занятость: На полный рабочий день (2 месяца)\n🔸Зарплатная вилка: 100 000 - 150 000 руб/мес на руки\n\n🔥Описание вакансии: Нужны 2 программиста на мультемидийный/игровой WEB AR проект для мобильных устройств. Собирать планируемна https://www.8thwall.com\n\n🛎 Требования:\n- JavaScript + WebGL\n- React и/или Vue.js\n- Опыт c AR и/или GameDev будет плюсом. \n\n☎️ Контакты, telegram: @shemetvlad\n\n—\n\n👉 Обсуждение вакансии в чате @javascript_jobs","markup":[{"type":"hashtag","offset":0,"length":9,"data":"вакансия"},{"type":"hashtag","offset":10,"length":8,"data":"gamedev"},{"type":"hashtag","offset":19,"length":8,"data":"геймдев"},{"type":"hashtag","offset":28,"length":4,"data":"job"},{"type":"hashtag","offset":33,"length":7,"data":"работа"},{"type":"hashtag","offset":41,"length":11,"data":"JavaScript"},{"type":"hashtag","offset":53,"length":6,"data":"WebGL"},{"type":"hashtag","offset":60,"length":3,"data":"AR"},{"type":"hashtag","offset":64,"length":8,"data":"8thwall"},{"type":"hashtag","offset":73,"length":6,"data":"React"},{"type":"link","offset":102,"length":17,"data":"https://twin3d.ru"},{"type":"link","offset":424,"length":23,"data":"https://www.8thwall.com"},{"type":"handle","offset":571,"length":11,"data":"shemetvlad"},{"type":"handle","offset":617,"length":16,"data":"javascript_jobs"}],"date":"2020-06-15T11:54:02+00:00","link":"tg://resolve?domain=javascript_jobs_feed&post=0","tags":[{"name":"javascript"},{"name":"reactjs"},{"name":"web"},{"name":"vuejs"}],"cities":[{"code":"moscow"}],"allowsRemote":false}}]}}},"context":{}}