{"hash":"f34fd2c444a074f4e0e67d525015a008ef8e766f","data":{"records":{"id":"reactjs","name":"reactjs","belongsTo":{"totalCount":46,"pageInfo":{"totalPages":5,"currentPage":3},"edges":[{"node":{"__typename":"Job","id":"85082505216-1001067529236","title":"Python developer","text":"#developer #python #django #reactjs #remote #part_time #parttime #lead #greatbritain #job #jobs #python #backend #вакансия #remotework #ml #urgently\nVacancy: Lead Python developer\nCountry: Great Britain\nEmployment: Full-time remote/ Part-Time (20 h a week)\nSalary:  2500$+ - net\nOur client, a unique mass media project (platform) is looking for a Lead Developer/CTO to further develop the product and team while creating a culture of positivity & problem solving with a sense of fun.\nIncome level depends on your previous experience & knowledge.\nIt’s an exciting and pivotal time for the product and business - we have a solid platform and foundation of clients asking for features that no one in the market yet offers.\nSo, as well as servicing the current offering, there is a greenfield opportunity to further develop the platform using smart tech.\n✅ Responsibilities:\n- Co-creating and delivering the strategy.\n- Managing and building the team, as well as being hands on with the code.\nThere are many technical challenges, core of which are based around using machine learning to surface how clients can make content more readable and enticing, as well as where and when to deliver it to maximise results.\n✅ The current tech stack is based on: Python, Django, ReactJS, Elasticsearch, .NET Core, AngularJS, Docker + AWS Infrastructure.\nWe expect you to take the lead on how to evolve the stack in a smart way.\n🎬 Requirements:\nYou’ve been around the block and are now hungry to become more commercial, take ownership, and although you don’t want to stop coding, you’re keen to manage and build teams or develop existing skills in these areas.\nA strong interest in data science and machine learning.\nYou’ve been a lead developer or CTO before.\nYou’ve built and scaled a SaaS platform.\nWould be great if you have a background in news publishing or analytics.\nYou’ve managed teams or are now ready to do so.\nContact: @OlgaVzh","markup":[{"type":"hashtag","offset":0,"length":10,"data":"developer"},{"type":"hashtag","offset":11,"length":7,"data":"python"},{"type":"hashtag","offset":19,"length":7,"data":"django"},{"type":"hashtag","offset":27,"length":8,"data":"reactjs"},{"type":"hashtag","offset":36,"length":7,"data":"remote"},{"type":"hashtag","offset":44,"length":10,"data":"part_time"},{"type":"hashtag","offset":55,"length":9,"data":"parttime"},{"type":"hashtag","offset":65,"length":5,"data":"lead"},{"type":"hashtag","offset":71,"length":13,"data":"greatbritain"},{"type":"hashtag","offset":85,"length":4,"data":"job"},{"type":"hashtag","offset":90,"length":5,"data":"jobs"},{"type":"hashtag","offset":96,"length":7,"data":"python"},{"type":"hashtag","offset":104,"length":8,"data":"backend"},{"type":"hashtag","offset":113,"length":9,"data":"вакансия"},{"type":"hashtag","offset":123,"length":11,"data":"remotework"},{"type":"hashtag","offset":135,"length":3,"data":"ml"},{"type":"hashtag","offset":139,"length":9,"data":"urgently"},{"type":"bold","offset":149,"length":8,"data":""},{"type":"bold","offset":180,"length":8,"data":""},{"type":"bold","offset":215,"length":42,"data":""},{"type":"bold","offset":853,"length":18,"data":""},{"type":"bold","offset":1211,"length":36,"data":""},{"type":"bold","offset":1415,"length":14,"data":""},{"type":"bold","offset":1907,"length":8,"data":""},{"type":"handle","offset":1916,"length":8,"data":"OlgaVzh"}],"date":"2020-04-08T16:03:48+00:00","link":"tg://resolve?domain=python_jobs&post=0","tags":[{"name":"python"},{"name":"django"},{"name":"reactjs"},{"name":"dotnet"},{"name":"elasticsearch"},{"name":"angularjs"},{"name":"docker"},{"name":"amazon-web-services"},{"name":"machine-learning"},{"name":"net-core"}],"cities":[],"allowsRemote":true}},{"node":{"__typename":"Job","id":"98214871040-1001089317451","title":"Qa engineer","text":"#вакансия #москва #полнаязанятость #qaengineer\nКомпания: #Mетрквадратный ( https://m2.ru )\nЛокация: м.Белорусская (в шаге от метро) \nЗ/п: от 120к - 230к на руки\nКонтакты: @maxdmitrov\n\nЭто платформа, на которой физические лица смогут в режиме одного окна подобрать объект недвижимости, оформить на него ипотеку, произвести электронную регистрацию, сделать безопасный расчет не посещая банки и воспользоваться дополнительными услугами (страхование, дизайн, ремонт). \n\nНаш стэк:\n• Java\n • Node.js\n • React, TypeScript\n • Kafka, ElasticSearch, gRPC\n • Docker\n\nЧем предстоит заниматься:\n • анализировать и тестировать требования к разрабатываемым приложениям;\n • писать приемочные критерии к пользовательским историям;\n • проводить функциональное, регрессионное и smoke тестирование;\n • заниматься задачами по автоматизации тестирования.\n\nЧего мы ждем:\n • глубокое понимание процессов тестирования и разработки ПО;\n • опыт интеграционного тестирования:\n    - системная интеграция;\n    - компонентная интеграция\n • опыт тестирования АРI;\n • опыт автоматизации тестирования на любом стеке.\n\nБудет плюсом\n • опыт исследовательского тестирования;\n • опыт тестирования ПО с микросервисной архитектурой.\n\nМы предлагаем:\n • белая конкурентная ЗП, официальное оформление;\n • гибкий график работы, возможность выбора рабочего оборудования;\n • ДМС, компенсация фитнеса, льготная ставка по ипотеке;\n • комфортный офис в БЦ «Белая площадь» (минута от метро): лаундж-зоны, бариста, фрукты.","markup":[{"type":"hashtag","offset":0,"length":9,"data":"вакансия"},{"type":"hashtag","offset":10,"length":7,"data":"москва"},{"type":"hashtag","offset":18,"length":16,"data":"полнаязанятость"},{"type":"hashtag","offset":35,"length":11,"data":"qaengineer"},{"type":"hashtag","offset":57,"length":15,"data":"Mетрквадратный"},{"type":"link","offset":75,"length":13,"data":"https://m2.ru"},{"type":"handle","offset":171,"length":11,"data":"maxdmitrov"},{"type":"bold","offset":465,"length":11,"data":""},{"type":"bold","offset":556,"length":26,"data":""},{"type":"bold","offset":833,"length":15,"data":""},{"type":"bold","offset":1083,"length":14,"data":""},{"type":"bold","offset":1192,"length":16,"data":""}],"date":"2020-04-08T08:59:45+00:00","link":"tg://resolve?domain=qa_jobs&post=93665","tags":[{"name":"qa"},{"name":"java"},{"name":"nodejs"},{"name":"reactjs"},{"name":"typescript"},{"name":"kafka"},{"name":"elasticsearch"},{"name":"docker"}],"cities":[{"code":"moscow"}],"allowsRemote":false}},{"node":{"__typename":"Job","id":"98202288128-1001089317451","title":"Qa инженер","text":"#вакансия #qa #manual #manualqa  #remote #удаленно #офис #севастополь #fulltime\n\nManual QA\nКомпания: ИП Хорьков Э.В.\nЛокация: Севастополь (офис/удаленно) \nЗанятость: полный день\nЗ/п: 50-70К net\nКонтакты: @observer69\n\nНаш проект – IoT инфраструктура сбора и анализа данных, запущена на базе компании, которая занимается морскими грузоперевозками (более 100 судов). Мы делаем реальный проект, который будет работать и генерировать добавленную стоимость для логистических компаний.\nОсновные технологии, которые мы используем – TypeScript, React, CouchDB. Клиент-серверное взаимодействие через GraphQL и RabbitMQ. Уже запущена и протестирована первая бета-версия. Сейчас разрабатываем продакшен-версию для запуска в середине 2020.\nМы ищем опытного ручного тестировщика. Вам предстоит заниматься ручным тестирование продукта, взаимодействовать командой разработки. Дизайн, ключевая техническая команда, продуктовая команда работают распределенно (команда интернациональная).\n\nУсловия\n● Официальное оформление по ТК РФ, трудовой договор, 100 % белая зарплата с оплатой всех налогов и страховых взносов, отпуск 28 календарных дней\n● Оплачиваемые онлайн-курсы английского языка\n● Работа удаленно или в офисе в Севастополе\n\nТребования\n● Не менее 2 лет опыта ручного тестирование ПО\n● Понимание принципов клиент-серверного взаимодействия\n● Опыт работы с системами менеджмента текст-кейсов (Zephyr)\n● Знание английского (нужно будет читать и писать)\n● Будет плюсом: знание Python/TypeScript, знание NoSQL\n\nЗадачи\n1. Ручное тестирование нашего продукта\n2. Написание тестовой документации: тест-планов, тест-кейсов, отчетов\n3. Коммуникация с командой разработки и командой автоматизации","markup":[{"type":"hashtag","offset":0,"length":9,"data":"вакансия"},{"type":"hashtag","offset":10,"length":3,"data":"qa"},{"type":"hashtag","offset":14,"length":7,"data":"manual"},{"type":"hashtag","offset":22,"length":9,"data":"manualqa"},{"type":"hashtag","offset":33,"length":7,"data":"remote"},{"type":"hashtag","offset":41,"length":9,"data":"удаленно"},{"type":"hashtag","offset":51,"length":5,"data":"офис"},{"type":"hashtag","offset":57,"length":12,"data":"севастополь"},{"type":"hashtag","offset":70,"length":9,"data":"fulltime"},{"type":"bold","offset":81,"length":19,"data":""},{"type":"bold","offset":117,"length":9,"data":""},{"type":"bold","offset":155,"length":10,"data":""},{"type":"bold","offset":178,"length":5,"data":""},{"type":"bold","offset":194,"length":9,"data":""},{"type":"handle","offset":204,"length":11,"data":"observer69"},{"type":"bold","offset":971,"length":8,"data":""},{"type":"bold","offset":1215,"length":11,"data":""},{"type":"bold","offset":1495,"length":7,"data":""}],"date":"2020-04-08T07:26:35+00:00","link":"tg://resolve?domain=qa_jobs&post=0","tags":[{"name":"qa"},{"name":"dotnet"},{"name":"typescript"},{"name":"reactjs"},{"name":"graphql"},{"name":"rabbitmq"},{"name":"python"},{"name":"nosql"}],"cities":[{"code":"sevastopol"}],"allowsRemote":true}},{"node":{"__typename":"Job","id":"16209936384-1001110946746","title":"Js разработчик","text":"#вакансия #javascript #nodejs #typescript #frontend #middle\n\nКомпания: #Mетрквадратный https://m2.ru\nЛокация: #москва м.Белорусская\nФормат работы: офис\nЗанятость: полная\nЗ/п: 200к - 260к руб. на руки\nКонтакты: @maxdmitrov\n\nЭто платформа, на которой физические лица смогут в режиме одного окна подобрать объект недвижимости, оформить на него ипотеку, произвести электронную регистрацию, сделать безопасный расчет не посещая банки и воспользоваться дополнительными услугами (страхование, дизайн, ремонт). \n\nЧем предстоит заниматься:\n\n•  разрабатывать один из продуктов жилищной экосистемы;\n•  прорабатывать задачи с начального этапа (декомпозиция, проработка архитектуры, демо с владельцем продукта);\n•  проводить код ревью;\n•  покрывать код unit тестами, помогать тестировщикам в написании e2e тестов;\n•  оптимизировать рендеринг и скорость загрузки страниц;\n•  разрабатывать продуктовые компоненты, используя общие UI библиотеки, и помогать в развитии этих библиотек.\n\nЧего мы ждем:\n\n• Javascript(ES6);\n• React + MobX/Redux;\n• HTML;\n• CSS;\n• Опыт кроссбраузерной верстки.\n\nБудет плюсом:\n\n• TypeScript;\n• Знание протокола HTTP/HTTPS, websockets, опыт работы с REST API;\n• Опыт работы с react native;\n• Опыт в бекэнде на различных языках программирования;\n• Опыт профилирования, оптимизации и рефакторинга кода;\n• Опыт написания тестов.\n\nМы используем: \n\n•  TypeScript + React + MobX + Gatsby;\n•  NestJS + gRPC + ProtoBuf (мидл-слой, управляющий UI и обращающийся к API бэк-энда);\n•  Micro Frontend Service;\n•  GitLab (CI/CD);\n•  Yarn + Lerna;\n•  Webpack/Rollup.\n\nМы предлагаем: \n\n•  Современный стек технологий;\n•  Возможность влиять на архитектуру и сразу видеть результат своей работы;\n•  Белая конкурентная ЗП, официальное оформление;\n•  Гибкий график работы, возможность выбора рабочего оборудования;\n•  ДМС, компенсация фитнеса, льготная ставка по ипотеке;\n•  Комфортный офис в БЦ «Белая площадь» (минута от метро): лаундж-зоны, бариста, фрукты.","markup":[{"type":"hashtag","offset":0,"length":9,"data":"вакансия"},{"type":"hashtag","offset":10,"length":11,"data":"javascript"},{"type":"hashtag","offset":22,"length":7,"data":"nodejs"},{"type":"hashtag","offset":30,"length":11,"data":"typescript"},{"type":"hashtag","offset":42,"length":9,"data":"frontend"},{"type":"hashtag","offset":52,"length":7,"data":"middle"},{"type":"hashtag","offset":71,"length":15,"data":"Mетрквадратный"},{"type":"link","offset":87,"length":13,"data":"https://m2.ru"},{"type":"hashtag","offset":110,"length":7,"data":"москва"},{"type":"handle","offset":210,"length":11,"data":"maxdmitrov"}],"date":"2020-04-07T18:36:46+00:00","link":"tg://resolve?domain=javascript_jobs_feed&post=15459","tags":[{"name":"javascript"},{"name":"nodejs"},{"name":"typescript"},{"name":"reactjs"},{"name":"redux"},{"name":"html"},{"name":"css"},{"name":"rest"},{"name":"gitlab"},{"name":"webpack"},{"name":"react-native"}],"cities":[{"code":"moscow"}],"allowsRemote":false}},{"node":{"__typename":"Job","id":"16208887808-1001110946746","title":"Js разработчик","text":"Город:  Москва, м. Киевская\nФормат работы: офис, а также возможность работать удаленно\nЗанятость: полная\nЗарплатная вилка: 100 000-150 000 руб.\n\nРазыскиваем Фронтенд-разработчика (JS, React, SPA)\n#Москва #вакансия  #JavaScript #JS #React #удаленка #fulltime #фронтенд\n\nИщем коллегу в сформировавшуюся команду разработки крупных и технологически сложных сайтов. Наши проекты начинаются с идеи и заканчиваются эксплуатацией, поддержкой. Действительно полезные сервисы с приличной посещаемостью. \n\nМЫ ПРЕДЛАГАЕМ:\n-Работу в небольшом сплоченном коллективе, высокую скорость коммуникации, минимум бюрократии;\n-Оформление в соответствии с ТК РФ или договор с ИП;\n-Программу профессионального роста сотрудников, компенсацию курсов, семинаров;\n-Офис м. Киевская, а также возможность работать удаленно или частично удаленно.\n-Рабочий ноутбук, мобильный телефон, комфортное рабочее место;\nБОНУСЫ: \nГибкий график работы.\nВозможность быть причастным к крупным интересным проектам, которые не стыдно показать в портфолио и хороший опыт работы в команде.\n\nОЖИДАЕМ ОТ ВАС:\n-Отличное знание и опыт разработки на JavaScript;\n-Хорошее знание React (или других похожих фреймворков)\n-Опыт работы с инструментами командной разработки: Git, таск-трекер (используем YouTrack);\n-Понимание клиент-серверного взаимодействия, архитектуры REST;\n-Умение слышать коллег, находить лучшие решения задач;\n-Умение адекватно оценивать сложность задач, соблюдать сроки;\n-Понимание методологии БЭМ, знание HTML и CSS, разумеется;\nБУДЕТ ПЛЮСОМ\nОпыт работы с API картографических сервисов;\nОпыт разработки Single Page Application;\nЗнакомство с шаблонизатором Twig, опыт разработки фронтенда под Symfony-приложения;\n\nНазвание компании: KR Digital https://kr.digital/about/ \nКонтакты: Елена @HRechubakina","markup":[{"type":"hashtag","offset":196,"length":7,"data":"Москва"},{"type":"hashtag","offset":204,"length":9,"data":"вакансия"},{"type":"hashtag","offset":215,"length":11,"data":"JavaScript"},{"type":"hashtag","offset":227,"length":3,"data":"JS"},{"type":"hashtag","offset":231,"length":6,"data":"React"},{"type":"hashtag","offset":238,"length":9,"data":"удаленка"},{"type":"hashtag","offset":248,"length":9,"data":"fulltime"},{"type":"hashtag","offset":258,"length":9,"data":"фронтенд"},{"type":"link","offset":1707,"length":25,"data":"https://kr.digital/about/"},{"type":"handle","offset":1750,"length":13,"data":"HRechubakina"}],"date":"2020-04-07T18:36:35+00:00","link":"tg://resolve?domain=javascript_jobs_feed&post=15458","tags":[{"name":"javascript"},{"name":"reactjs"},{"name":"git"},{"name":"rest"},{"name":"html"},{"name":"css"},{"name":"twig"},{"name":"symfony"}],"cities":[{"code":"moscow"},{"code":"kiev"}],"allowsRemote":true}},{"node":{"__typename":"Job","id":"16207839232-1001110946746","title":"Javascript разработчик","text":"#вакансия #ReactNative #Спб #офис #middle #senior \n\nКомпания: White Code \nЛокация: Санкт-Петербург, ст.м. Петроградская\nФормат работы: офис, fulltime\nЗанятость: полная\nЗарплатная вилка: 170 000 - 300 000 Net рублей (для кандидатов уровня Senior готовы обсуждать выше) \n\n🔈Компания White Code в поисках Senior и Middle React Native developers. \n\n🌏White Code - это продуктовая IT компания, которая занимается разработкой и запуском собственных веб и мобильных приложений для международного рынка. За более чем 10-летний опыт работы ребята научились решать широкий спектр задач, на сегодняшний день их продуктами и сервисами воспользовались уже более полу миллиарда человек по всему миру. \n\nОсновные продукты, над которыми сейчас работает компания: S-browser - первый в мире веб–браузер, который защищает не только телефон, но и мобильный счет, CB.click - сервис для сокращения длинных ссылок с раширенными возможностями и статистикой, MemesTab - портал для публикации мемов, браузер CryptoTab — первый в мире браузер с функцией майнинга, Orange Pie, truWallet, HandyTab и другие. \n\n💠White Code - это профессиональная команда технарей, всего в компании 13 разработчиков, все процессы выстроены по agile, у каждого члена команды есть возможность напрямую влиять на развитие продукта и участвовать в выборе технологий. \n\n💠Что нужно знать и уметь:\n- уверенные знания JavaScript;\n- опыт работы с React Native от 1 года, React, Redux/MobX;\nЗнание и понимание native Java, Objective-C. \n\n💠Что получите вы: \n- официальное трудоустройство и белую зп;  \n- рабочее место в комфортном офисе в пешей доступности от м. Петроградская;\n- возможность быстрого карьерного роста в молодом коллективе;\n- гибкое время прихода на работу и различные бенефиты: бонусная программа, хороший дмс со стоматологией, компенсация обедов, фитнес зал при офисе, возможность выбрать удобную рабочую технику (выбор большинства iMac 27). \n\nКонтакты:\ntelegram: @sobolevavalery\nБуду рада ответить на все вопросы и рассказать подробнее о компании 😊","markup":[{"type":"hashtag","offset":0,"length":9,"data":"вакансия"},{"type":"hashtag","offset":10,"length":12,"data":"ReactNative"},{"type":"hashtag","offset":23,"length":4,"data":"Спб"},{"type":"hashtag","offset":28,"length":5,"data":"офис"},{"type":"hashtag","offset":34,"length":7,"data":"middle"},{"type":"hashtag","offset":42,"length":7,"data":"senior"},{"type":"link","offset":843,"length":8,"data":"http://CB.click"},{"type":"handle","offset":1926,"length":15,"data":"sobolevavalery"}],"date":"2020-04-07T18:36:10+00:00","link":"tg://resolve?domain=javascript_jobs_feed&post=15457","tags":[{"name":"javascript"},{"name":"dotnet"},{"name":"reactjs"},{"name":"redux"},{"name":"java"},{"name":"objective-c"},{"name":"react-native"},{"name":"react-redux"}],"cities":[],"allowsRemote":false}},{"node":{"__typename":"Job","id":"98126790656-1001089317451","title":"Qa engineer","text":"#вакансия #москва #полнаязанятость #qaengineer\nКомпания: #Mетрквадратный ( https://m2.ru )\nЛокация: м.Белорусская (в шаге от метро) \nЗ/п: от 120к - 230к на руки\nКонтакты: @maxdmitrov\n\nЭто платформа, на которой физические лица смогут в режиме одного окна подобрать объект недвижимости, оформить на него ипотеку, произвести электронную регистрацию, сделать безопасный расчет не посещая банки и воспользоваться дополнительными услугами (страхование, дизайн, ремонт). \n\nНаш стэк:\n• Java\n • Node.js\n • React, TypeScript\n • Kafka, ElasticSearch, gRPC\n • Docker\n\nЧем предстоит заниматься:\n • анализировать и тестировать требования к разрабатываемым приложениям;\n • писать приемочные критерии к пользовательским историям;\n • проводить функциональное, регрессионное и smoke тестирование;\n • заниматься задачами по автоматизации тестирования.\n\nЧего мы ждем:\n • глубокое понимание процессов тестирования и разработки ПО;\n • опыт интеграционного тестирования:\n    - системная интеграция;\n    - компонентная интеграция\n • опыт тестирования АРI;\n • опыт автоматизации тестирования на любом стеке.\n\nБудет плюсом\n • опыт исследовательского тестирования;\n • опыт тестирования ПО с микросервисной архитектурой.\n\nМы предлагаем:\n • белая конкурентная ЗП, официальное оформление;\n • гибкий график работы, возможность выбора рабочего оборудования;\n • ДМС, компенсация фитнеса, льготная ставка по ипотеке;\n • комфортный офис в БЦ «Белая площадь» (минута от метро): лаундж-зоны, бариста, фрукты.","markup":[{"type":"hashtag","offset":0,"length":9,"data":"вакансия"},{"type":"hashtag","offset":10,"length":7,"data":"москва"},{"type":"hashtag","offset":18,"length":16,"data":"полнаязанятость"},{"type":"hashtag","offset":35,"length":11,"data":"qaengineer"},{"type":"hashtag","offset":57,"length":15,"data":"Mетрквадратный"},{"type":"link","offset":75,"length":13,"data":"https://m2.ru"},{"type":"handle","offset":171,"length":11,"data":"maxdmitrov"},{"type":"bold","offset":465,"length":11,"data":""},{"type":"bold","offset":556,"length":26,"data":""},{"type":"bold","offset":833,"length":15,"data":""},{"type":"bold","offset":1083,"length":14,"data":""},{"type":"bold","offset":1192,"length":16,"data":""}],"date":"2020-04-07T11:57:25+00:00","link":"tg://resolve?domain=qa_jobs&post=93581","tags":[{"name":"qa"},{"name":"java"},{"name":"nodejs"},{"name":"reactjs"},{"name":"typescript"},{"name":"kafka"},{"name":"elasticsearch"},{"name":"docker"}],"cities":[{"code":"moscow"}],"allowsRemote":false}},{"node":{"__typename":"Job","id":"16197353472-1001110946746","title":"Javascript разработчик","text":"#вакансия #angular #react #москва #релокация\n\nГород: Москва (Сокольники или Павелецкая), есть релокационный пакет\n\nФормат работы: офис, возможна удаленка после шести месяцев работы\n\nЗанятость: полная\n\nВилка: 180-250 т.р. на руки\n\nИщем коллегу для создания и развития современного сервиса дистанционных банковских услуг.\n\n• SPA на Angular 8\n\n• Пишем на TypeScript, ES6 Modules, SASS\n\n• Собираем в Webpack\n\n• Храним в Git\n\nМы также готовы рассмотреть кандидатов, которые имеют опыт работы на React, но хотели бы перейти на Angular.\n\nНазвание компании: ПСБ\nhttps://www.psbank.ru/\nhttps://hh.ru/vacancy/33110730\n\nКонтакты: @max_gusev\ngusevms@psbank.ru","markup":[{"type":"hashtag","offset":0,"length":9,"data":"вакансия"},{"type":"hashtag","offset":10,"length":8,"data":"angular"},{"type":"hashtag","offset":19,"length":6,"data":"react"},{"type":"hashtag","offset":26,"length":7,"data":"москва"},{"type":"hashtag","offset":34,"length":10,"data":"релокация"},{"type":"link","offset":554,"length":22,"data":"https://www.psbank.ru/"},{"type":"link","offset":577,"length":30,"data":"https://hh.ru/vacancy/33110730"},{"type":"handle","offset":619,"length":10,"data":"max_gusev"},{"type":"link","offset":630,"length":17,"data":"mailto:gusevms@psbank.ru"}],"date":"2020-04-06T14:42:01+00:00","link":"tg://resolve?domain=javascript_jobs_feed&post=15447","tags":[{"name":"javascript"},{"name":"angularjs"},{"name":"reactjs"},{"name":"typescript"},{"name":"sass"},{"name":"webpack"},{"name":"git"}],"cities":[{"code":"moscow"}],"allowsRemote":true}},{"node":{"__typename":"Job","id":"16196304896-1001110946746","title":"Js разработчик","text":"#вакансия #front #react #typescript #москва #генетика #javascript #nodejs #геномэксперт #барсгруп\n\nГород и адрес офиса: Москва, ст.м.Павелецкая\nФормат работы: Офис\nЗанятость: Полная \nЗарплатная вилка: от 160 до 250 000 руб. на руки\nНазвание компании: Барс Груп\nhttps://bars.group/\nПроект Геном.Эксперт  - https://genome.expert/ \n\nТребуется senior/middle front-end разработчик в крупный медицинский проект.\n\nПредметная область: Генетика.\nТекущее состояние проекта: Проект запущен как стартап, поэтому есть уникальная возможность принять участие в создании с нуля единого пространства для врачей-генетиков, лабораторных генетиков, биоинформатиков.\n\nЧем придется заниматься:\n\n-Писать микроприложения и компоненты на React;\n-Изучать исходники на Polymer, чтобы переехать на React и микросервисную архитектуру;\n-Доделывать существующую систему с использованием самописного фрэймворка(пока переезжаем на реакт, это иногда нужно будет делать)\n\nТребования:\n\n-Front-end: React(Vue), typescript, Polymer, Redux/Mobx/Vuex;\n-Межсервисное взаимодействие и API: REST/GraphQL/gRPC;\n-Инструменты для работы: Git, bitbucket, JIRA, docker, docker-compose\n\nУсловия:\n-Оформление по ТК РФ;\n-Работа в комфортабельном офисе, ст.м.Павелецкая;\n-Белая зарплата, повышающаяся по системе аттестаций несколько раз в год;\n-ДМС;\n-Перспективы карьерного роста;\n-Корпоративное обучение (тренинги, мастер-классы);\n-Корпоративная библиотека;\n-Мы рассматриваем кандидатов с возможностью переезда в Москву;\n-Возможность предоставления бесплатного жилья на первый месяц\n- График 5/2. \n\nКонтакты для связи: \n\nemail: a.starchenko@bars.group \nTelegram: @alinavelcheva \n\nbars.group\nАО «БАРС Груп» - официальный сайт компании\nАО «БАРС Груп» - российский производитель ИТ-решений и экспертный центр в сфере государственной и корпоративной информатизации.","markup":[{"type":"hashtag","offset":0,"length":9,"data":"вакансия"},{"type":"hashtag","offset":10,"length":6,"data":"front"},{"type":"hashtag","offset":17,"length":6,"data":"react"},{"type":"hashtag","offset":24,"length":11,"data":"typescript"},{"type":"hashtag","offset":36,"length":7,"data":"москва"},{"type":"hashtag","offset":44,"length":9,"data":"генетика"},{"type":"hashtag","offset":54,"length":11,"data":"javascript"},{"type":"hashtag","offset":66,"length":7,"data":"nodejs"},{"type":"hashtag","offset":74,"length":13,"data":"геномэксперт"},{"type":"hashtag","offset":88,"length":9,"data":"барсгруп"},{"type":"link","offset":261,"length":19,"data":"https://bars.group/"},{"type":"link","offset":305,"length":22,"data":"https://genome.expert/"},{"type":"link","offset":1577,"length":23,"data":"mailto:a.starchenko@bars.group"},{"type":"handle","offset":1612,"length":14,"data":"alinavelcheva"},{"type":"link","offset":1629,"length":10,"data":"http://bars.group"}],"date":"2020-04-06T14:41:46+00:00","link":"tg://resolve?domain=javascript_jobs_feed&post=15446","tags":[{"name":"javascript"},{"name":"reactjs"},{"name":"typescript"},{"name":"nodejs"},{"name":"polymerjs"},{"name":"vuejs"},{"name":"redux"},{"name":"rest"},{"name":"graphql"},{"name":"git"},{"name":"docker"},{"name":"docker-compose"}],"cities":[{"code":"moscow"}],"allowsRemote":false}},{"node":{"__typename":"Job","id":"16193159168-1001110946746","title":"Js разработчик","text":"#вакансия #javascript #nodejs #typescript #frontend #middle\n\nКомпания: #Mетрквадратный https://m2.ru\nЛокация: #москва м.Белорусская\nФормат работы: офис\nЗанятость: полная\nЗ/п: 200к - 260к руб. на руки\nКонтакты: @maxdmitrov\n\nЭто платформа, на которой физические лица смогут в режиме одного окна подобрать объект недвижимости, оформить на него ипотеку, произвести электронную регистрацию, сделать безопасный расчет не посещая банки и воспользоваться дополнительными услугами (страхование, дизайн, ремонт). \n\nЧем предстоит заниматься:\n\n•  разрабатывать один из инновационных продуктов жилищной экосистемы;\n•  прорабатывать задачи с начального этапа (декомпозиция, проработка архитектуры, демо с владельцем продукта);\n•  проводить код ревью;\n•  покрывать код unit тестами, помогать тестировщикам в написании e2e тестов;\n•  оптимизировать рендеринг и скорость загрузки страниц;\n•  разрабатывать продуктовые компоненты, используя общие UI библиотеки, и помогать в развитии этих библиотек.\n\nЧего мы ждем:\n\n• Javascript(ES6);\n• React + MobX/Redux;\n• HTML;\n• CSS;\n• Опыт кроссбраузерной верстки.\n\nБудет плюсом:\n\n• TypeScript;\n• Знание протокола HTTP/HTTPS, websockets, опыт работы с REST API;\n• Опыт работы с react native;\n• Опыт в бекэнде на различных языках программирования;\n• Опыт профилирования, оптимизации и рефакторинга кода;\n• Опыт написания тестов.\n\nМы используем: \n\n•  TypeScript + React + MobX + Gatsby;\n•  NestJS + gRPC + ProtoBuf (мидл-слой, управляющий UI и обращающийся к API бэк-энда);\n•  Micro Frontend Service;\n•  GitLab (CI/CD);\n•  Yarn + Lerna;\n•  Webpack/Rollup.\n\nМы предлагаем: \n\n•  Современный стек технологий;\n•  Возможность влиять на архитектуру и сразу видеть результат своей работы;\n•  Белая конкурентная ЗП, официальное оформление;\n•  Гибкий график работы, возможность выбора рабочего оборудования;\n•  ДМС, компенсация фитнеса, льготная ставка по ипотеке;\n•  Комфортный офис в БЦ «Белая площадь» (минута от метро): лаундж-зоны, бариста, фрукты.\n\n—\n\n👉 Обсуждение вакансии в чате @javascript_jobs","markup":[{"type":"hashtag","offset":0,"length":9,"data":"вакансия"},{"type":"hashtag","offset":10,"length":11,"data":"javascript"},{"type":"hashtag","offset":22,"length":7,"data":"nodejs"},{"type":"hashtag","offset":30,"length":11,"data":"typescript"},{"type":"hashtag","offset":42,"length":9,"data":"frontend"},{"type":"hashtag","offset":52,"length":7,"data":"middle"},{"type":"hashtag","offset":71,"length":15,"data":"Mетрквадратный"},{"type":"link","offset":87,"length":13,"data":"https://m2.ru"},{"type":"hashtag","offset":110,"length":7,"data":"москва"},{"type":"handle","offset":210,"length":11,"data":"maxdmitrov"},{"type":"handle","offset":1998,"length":16,"data":"javascript_jobs"}],"date":"2020-04-06T12:22:15+00:00","link":"tg://resolve?domain=javascript_jobs_feed&post=15443","tags":[{"name":"javascript"},{"name":"nodejs"},{"name":"typescript"},{"name":"reactjs"},{"name":"redux"},{"name":"html"},{"name":"css"},{"name":"rest"},{"name":"gitlab"},{"name":"webpack"},{"name":"react-native"}],"cities":[{"code":"moscow"}],"allowsRemote":false}}]}}},"context":{}}