{"hash":"f5f6bf98bd95e769321482904cbbd488f77922fd","data":{"records":{"id":"react-native","name":"react-native","belongsTo":{"totalCount":35,"pageInfo":{"totalPages":4,"currentPage":2},"edges":[{"node":{"__typename":"Job","id":"72455553024-1001054966032","title":"Mobile разработчик","text":"#вакансия #удаленка #полная #react #reactnative\n\nНазвание компании: Storiesgain www.storiesgain.com\nОписание вакансии: \nРебята, ищем Senior React Native разработчика. Удаленно, полная занятость.\n\nТребования:\n- Опыт разработки мобильных приложений на React Native от 1 года;\n- Опыт разработки мобильных приложений от 3 лет;\n- Знания различных подводных камней ReactNative и их решение.\n\nУсловия:\n- Гео - любое\n- ЗП по результатам собеседования;\n- Мы предлагаем вам расти вместе с компанией Storiesgain. Наши амбиции огромны, возможности для развития и творчества безграничны;\n- Работа над HighLoad проектом в дружном коллективе; Удаленная занятость, полный рабочий день;\n- Испытательный срок один месяц.\n\nТехнологии: #react, #reactnative\nЗанятость: #полная #удаленка\nЗарплатная вилка: от 110000 до 160000 рублей\n\nБуду рада сконнектить с командой 🎈\nКонтакты: @Olga_hr_it","markup":[{"type":"hashtag","offset":0,"length":9,"data":"вакансия"},{"type":"hashtag","offset":10,"length":9,"data":"удаленка"},{"type":"hashtag","offset":20,"length":7,"data":"полная"},{"type":"hashtag","offset":28,"length":6,"data":"react"},{"type":"hashtag","offset":35,"length":12,"data":"reactnative"},{"type":"link","offset":80,"length":19,"data":"http://www.storiesgain.com"},{"type":"hashtag","offset":716,"length":6,"data":"react"},{"type":"hashtag","offset":724,"length":12,"data":"reactnative"},{"type":"hashtag","offset":748,"length":7,"data":"полная"},{"type":"hashtag","offset":756,"length":9,"data":"удаленка"},{"type":"handle","offset":858,"length":11,"data":"Olga_hr_it"}],"date":"2020-07-01T11:13:18+00:00","link":"tg://resolve?domain=mobile_jobs&post=69099","tags":[{"name":"mobile"},{"name":"reactjs"},{"name":"react-native"}],"cities":[],"allowsRemote":true}},{"node":{"__typename":"Job","id":"17274241024-1001110946746","title":"Js разработчик","text":"Всем привет! \n\nИщу Frontend-разработчика в крупную инвестиционно-строительную компанию, реализующую свои проекты на рынке Москвы и Московской области. Топ-5 среди застройщиков Москвы и МО.\n\nНеобходимо будет разрабатывать проекты по управлению стройкой и её оптимизацией (планирование, распределение бюджетов, управление процессами на стройке и т.д.), а также для внешних пользователей сервис по покупке недвижимости (web и mobile-версии). Команда пока собрана небольшая - 12 человек. \nСтек: JavaScript (ES6) React +Redux + CSS + SCSS на фронтенде, Python (Django) на бекенде, React-Native - на мобильной разработке. \n\nПо требованиям: \n- опыт с React (от 1,5 лет)\n- опыт с JS (от 2-х лет)\n\nВилка ЗП 150-220k руб. на руки, офис в пяти минутах от ст. м. Кунцевская (г. Москва), есть возможность работать удаленно, отсутствие бюрократии, лояльное руководство, ДМС, возможность посещения конференций, курсов по повышению квалификации за счет работодателя.\n\nТип занятости: полная, офис, удаленка\nНазвание компании: Самолет Девелопмент\n\nКто заинтересовался - пишите в ЛС (@eivanova17),  буду оперативно отвечать 🙂 \n\n#работа #Москва #вакансия #job #react #reactjs #js #офис #удаленка","markup":[{"type":"handle","offset":1065,"length":11,"data":"eivanova17"},{"type":"hashtag","offset":1110,"length":7,"data":"работа"},{"type":"hashtag","offset":1118,"length":7,"data":"Москва"},{"type":"hashtag","offset":1126,"length":9,"data":"вакансия"},{"type":"hashtag","offset":1136,"length":4,"data":"job"},{"type":"hashtag","offset":1141,"length":6,"data":"react"},{"type":"hashtag","offset":1148,"length":8,"data":"reactjs"},{"type":"hashtag","offset":1157,"length":3,"data":"js"},{"type":"hashtag","offset":1161,"length":5,"data":"офис"},{"type":"hashtag","offset":1167,"length":9,"data":"удаленка"}],"date":"2020-06-30T16:39:47+00:00","link":"tg://resolve?domain=javascript_jobs_feed&post=16474","tags":[{"name":"javascript"},{"name":"web"},{"name":"mobile"},{"name":"reactjs"},{"name":"redux"},{"name":"css"},{"name":"python"},{"name":"django"},{"name":"react-redux"},{"name":"react-native"}],"cities":[{"code":"moscow"}],"allowsRemote":true}},{"node":{"__typename":"Job","id":"72385298432-1001054966032","title":"Mobile разработчик","text":"#вакансия #react #native  #middle #senior \n\nГород и адрес офиса: Локация не важна. \n\nФормат работы: Удаленная работа. \n\nЗанятость: Полная. Проектов несколько. Основная работа - разработка и контроль кроссплатформенного приложения по доставке. \n\nЗарплатная вилка: от 100 до 250 \n\nОписание вакансии: Требуется специалист по React Native в дружную команду для работы над очень интересными проектами. Обязательна адекватность, ответственность и любовь к своему делу. Уровень не ниже middle. \n\nНазвание компании: Scripta IT \nКонтакты: @buddhh","markup":[{"type":"hashtag","offset":0,"length":9,"data":"вакансия"},{"type":"hashtag","offset":10,"length":6,"data":"react"},{"type":"hashtag","offset":17,"length":7,"data":"native"},{"type":"hashtag","offset":26,"length":7,"data":"middle"},{"type":"hashtag","offset":34,"length":7,"data":"senior"},{"type":"bold","offset":44,"length":19,"data":""},{"type":"bold","offset":85,"length":13,"data":""},{"type":"bold","offset":120,"length":9,"data":""},{"type":"bold","offset":245,"length":16,"data":""},{"type":"bold","offset":279,"length":17,"data":""},{"type":"bold","offset":489,"length":18,"data":""},{"type":"bold","offset":520,"length":9,"data":""},{"type":"handle","offset":530,"length":7,"data":"buddhh"}],"date":"2020-06-30T15:58:50+00:00","link":"tg://resolve?domain=mobile_jobs&post=69032","tags":[{"name":"mobile"},{"name":"reactjs"},{"name":"react-native"}],"cities":[],"allowsRemote":false}},{"node":{"__typename":"Job","id":"72263663616-1001054966032","title":"Mobile разработчик","text":"#вакансия #react #native  #middle #senior \nГород и адрес офиса: Локация не важна. \nФормат работы: Удаленная работа. \nЗанятость: Частичная с расчётом на полную. Проектов несколько, работы много. \nЗарплатная вилка: от 100 до 250 \n\nОписание вакансии: Требуется специалист по React Native в дружную команду для работы над очень интересными проектами. Обязательна адекватность, ответственность и любовь к своему делу. Уровень не ниже middle. \n\nНазвание компании: Scripta IT \nКонтакты: @buddhh","markup":[{"type":"hashtag","offset":0,"length":9,"data":"вакансия"},{"type":"hashtag","offset":10,"length":6,"data":"react"},{"type":"hashtag","offset":17,"length":7,"data":"native"},{"type":"hashtag","offset":26,"length":7,"data":"middle"},{"type":"hashtag","offset":34,"length":7,"data":"senior"},{"type":"bold","offset":43,"length":19,"data":""},{"type":"bold","offset":83,"length":13,"data":""},{"type":"bold","offset":117,"length":9,"data":""},{"type":"bold","offset":195,"length":16,"data":""},{"type":"bold","offset":229,"length":17,"data":""},{"type":"bold","offset":439,"length":18,"data":""},{"type":"bold","offset":470,"length":9,"data":""},{"type":"handle","offset":480,"length":7,"data":"buddhh"}],"date":"2020-06-29T11:54:28+00:00","link":"tg://resolve?domain=mobile_jobs&post=68916","tags":[{"name":"mobile"},{"name":"reactjs"},{"name":"react-native"}],"cities":[],"allowsRemote":false}},{"node":{"__typename":"Job","id":"17208180736-1001110946746","title":"Javascript разработчик","text":"#вакансия #ReactNative #mobile #remote #senior\nФормат работы: удаленка\nЗанятость: полная\nКомпания: deployplace\nОжидания по зарплате: 25-35$/h\n\nОписание: Мы продуктовая компания, никаких аутсорсов и проч. Ищем Senior ReactNative engineer\n\nТребования:\n- Имеются опубликованные(доведеные до релиза) приложения в AppStore/GooglePlay.\n- ReactNative\n- Typescript\n- React/Mobx\n- Опыт с компонентами react-native\n- Опыт с grpc/protobuf будет плюсом\n- Опыт с высокой нагрузкой и большой базой пользователей будет плюсом\n\nЗа более подробной информацией о проекте в ЛС\nКонтакты: @NAA482","markup":[{"type":"hashtag","offset":0,"length":9,"data":"вакансия"},{"type":"hashtag","offset":10,"length":12,"data":"ReactNative"},{"type":"hashtag","offset":23,"length":7,"data":"mobile"},{"type":"hashtag","offset":31,"length":7,"data":"remote"},{"type":"hashtag","offset":39,"length":7,"data":"senior"},{"type":"handle","offset":568,"length":7,"data":"NAA482"}],"date":"2020-06-29T08:54:53+00:00","link":"tg://resolve?domain=javascript_jobs_feed&post=16411","tags":[{"name":"javascript"},{"name":"mobile"},{"name":"typescript"},{"name":"reactjs"},{"name":"react-native"}],"cities":[],"allowsRemote":true}},{"node":{"__typename":"Job","id":"17195597824-1001110946746","title":"Javascript разработчик","text":"#вакансия #удаленно #проектная #reactNative \n В компанию \"Far Express CO\" LLC требуется React Native Разработчик под проектный вид работы\n Город: Узбекистан, г. Ташкент\n Занятость: проектная\n Формат работы: удаленка\n Зарплатная вилка: от 500$ до 1000$\n Требования:\n - опыт работы React Native не менее 2 года\n Условия работы:\n - график работы 30-40ч в недели (работаем с Hubstaff)\n Контакты:\n Телеграм: @nazirovlix\n\n—\n\n👉 Обсуждение вакансии в чате @javascript_jobs","markup":[{"type":"hashtag","offset":0,"length":9,"data":"вакансия"},{"type":"hashtag","offset":10,"length":9,"data":"удаленно"},{"type":"hashtag","offset":20,"length":10,"data":"проектная"},{"type":"hashtag","offset":31,"length":12,"data":"reactNative"},{"type":"handle","offset":403,"length":11,"data":"nazirovlix"},{"type":"handle","offset":449,"length":16,"data":"javascript_jobs"}],"date":"2020-06-28T20:36:51+00:00","link":"tg://resolve?domain=javascript_jobs_feed&post=16399","tags":[{"name":"javascript"},{"name":"express"},{"name":"reactjs"},{"name":"react-native"}],"cities":[{"code":"tashkent"}],"allowsRemote":true}},{"node":{"__typename":"Job","id":"17179869184-1001110946746","title":"Js разработчик","text":"#вакансия #JavaScript #Node.js #Екатеринбург\n\nГород: Екатеринбург\nФормат: Обсуждаемый (офис/удаленка)\nзанятость: Полная\nУровень: Junior/Middle\nзп: 30 000 - 80 000 ₽ net\n\nО компании: YetiCrab (https://yeticrab.org/) - команда специалистов по разработке различных приложений (web, desktop, mobile) и сервисов на основе web-технологий. У нас много интересных проектов с заказчиками по всему миру. Мы ищем к себе в команду ответственного человека, который хочет и готов активно расти как разработчик и специалист.\n\nОбязанности:\n- Разработка Web и мобильных приложений на JavaScript с применением современных framework-ов\n- Исследование и внедрение новых тенденций и технологий\n\nТребования:\n- Хорошее знание JavaScript (ES5, ES6), HTML, CSS\n- Опыт работы с современными фреймворками (Angular/React/Vue)\n- Понимание REST\n- Умение пользоваться Git\n- Навыки работы в команде\n\nБудет плюсом:\n- Опыт работы с WebSockets и GraphQL\n- Разговорный английский язык\n- Знание Node.js и опыт работы с Express.js/KOA/Nest.js/Next.js\n- Приветствуется знание React Native или Ionic\n- Понимание работы с CI/CD\n- Опыт работы с Electron.js, PWA\n- Знание Python\n\nМы предлагаем:\n- Гибкий график работы\n- Просторный офис\n- Возможность удаленной работы\n- Рабочий ноутбук MacBook Apple\n- Чай, кофе, печеньки и другие плюшки в офисе\n- Постоянное обучение, развитие скиллов\n- Поддержку от команды единомышленников\n- Возможность получить опыт в разных проектах и изучить новые технологии\n- Поездки на IT-конференции\n\nКонтакты: @artemkuzvesov\n\n—\n\n👉 Обсуждение вакансии в чате @javascript_jobs","markup":[{"type":"hashtag","offset":0,"length":9,"data":"вакансия"},{"type":"hashtag","offset":10,"length":11,"data":"JavaScript"},{"type":"hashtag","offset":22,"length":5,"data":"Node"},{"type":"hashtag","offset":31,"length":13,"data":"Екатеринбург"},{"type":"link","offset":147,"length":15,"data":"tel:30 000 - 80 000"},{"type":"link","offset":192,"length":21,"data":"https://yeticrab.org/"},{"type":"handle","offset":1494,"length":14,"data":"artemkuzvesov"},{"type":"handle","offset":1543,"length":16,"data":"javascript_jobs"}],"date":"2020-06-27T12:12:37+00:00","link":"tg://resolve?domain=javascript_jobs_feed&post=16384","tags":[{"name":"javascript"},{"name":"nodejs"},{"name":"dotnet"},{"name":"web"},{"name":"mobile"},{"name":"html"},{"name":"css"},{"name":"angularjs"},{"name":"reactjs"},{"name":"vuejs"},{"name":"rest"},{"name":"git"},{"name":"graphql"},{"name":"express"},{"name":"electron"},{"name":"python"},{"name":"react-native"}],"cities":[],"allowsRemote":true}},{"node":{"__typename":"Job","id":"72096940032-1001054966032","title":"Android developer","text":"#вакансия #fulltime  #vacancy  #remote #ремоут  #ReactNativedeveloper #ReactNative \n\n💻 React Native Developer\n🕐 Fulltime remote\n👩🏻‍💻1,5 year of commercial development on React Native\n💰from 10 $/hour to 18 $/hour\n\nВсем привет!🙋🏻‍♀️\nAMS ищет React Native dev на ремоут. Мы занимаемся разработкой мобильных приложений под Android и IOS.\n\nУсловия:\n-проектная занятость;\n-фуллтайм.\n\nТребования :\n-коммерческий опыт разработки от 1,5 года;\n-разговорный английский.\n\n📝 За подробностями по вакансии и по всем вопросам  пишите:\ndarya.matsyas@ams-apps.com\nDarya \nLinkedIn","markup":[{"type":"hashtag","offset":0,"length":9,"data":"вакансия"},{"type":"hashtag","offset":10,"length":9,"data":"fulltime"},{"type":"hashtag","offset":21,"length":8,"data":"vacancy"},{"type":"hashtag","offset":31,"length":7,"data":"remote"},{"type":"hashtag","offset":39,"length":7,"data":"ремоут"},{"type":"hashtag","offset":48,"length":21,"data":"ReactNativedeveloper"},{"type":"hashtag","offset":70,"length":12,"data":"ReactNative"},{"type":"link","offset":468,"length":2,"data":"http://darya.matsyas@ams-apps.com/"},{"type":"link","offset":528,"length":27,"data":"http://darya.matsyas@ams-apps.com/"},{"type":"link","offset":562,"length":8,"data":"https://www.linkedin.com/in/darya-matyas-12ba33158/"}],"date":"2020-06-26T13:53:45+00:00","link":"tg://resolve?domain=mobile_jobs&post=68757","tags":[{"name":"mobile"},{"name":"android"},{"name":"ios"},{"name":"reactjs"},{"name":"react-native"}],"cities":[],"allowsRemote":true}},{"node":{"__typename":"Job","id":"72082259968-1001054966032","title":"Android разработчик","text":"#вакансия: #android #middle\nГород : Томск\nФормат работы: офис, удаленно\nЗанятость : Полная\nЗарплатная вилка80 000- 180 000\n\nОписание компании\nМы Digital Nomads проектируем и разрабатываем мобильные приложения на  iOS, Android, так же открываем направление кроссплатформенной разработки на React Native и Flutter\n\nИщем android разработчика\n\nТребования:\n\n- Опыт разработки мобильных приложений от 1,5 лет.\n- Знание и понимание ООП и паттернов проектирования, СУБД;\n- Знание Java или Kotlin, Android SDK, API и Design Guidelines, SQLite;\n- Знание RxJava, Dagger2, Retrofit;\n- Уверенное знания Git / Bitbucket;\n- Android Framework;\n- Умение писать аккуратный читаемый код, а также разбираться в чужом коде;\n- Знание английского языка на уровне чтения технической документации;\n- Приветствуются завершенные проекты для ознакомления (Google Play + GitHub).\n- Сотрудничаем с разработчиками РФ.\n Условия\n- Возможность работать удаленно или в комфортном офисе.\n- У нас гибкий 8-часовой рабочий день, поэтому вы можете работать в наиболее продуктивное для себя время.\n- Оформление по ТК РФ.\n- Разнообразие задач, технологий, возможность участия в международных проектах и в проектах с крупными заказчиками, определяющими отрасль.\n- Еженедельные занятия английским языком в офисе.\n\nКонтакты: @Denis5726","markup":[{"type":"hashtag","offset":0,"length":9,"data":"вакансия"},{"type":"hashtag","offset":11,"length":8,"data":"android"},{"type":"hashtag","offset":20,"length":7,"data":"middle"},{"type":"handle","offset":1281,"length":10,"data":"Denis5726"}],"date":"2020-06-26T10:30:10+00:00","link":"tg://resolve?domain=mobile_jobs&post=68743","tags":[{"name":"mobile"},{"name":"android"},{"name":"ios"},{"name":"reactjs"},{"name":"flutter"},{"name":"java"},{"name":"kotlin"},{"name":"sqlite"},{"name":"git"},{"name":"playframework"},{"name":"github"},{"name":"react-native"}],"cities":[{"code":"tomsk"}],"allowsRemote":true}},{"node":{"__typename":"Job","id":"17164140544-1001110946746","title":"Javascript разработчик","text":"#вакансия #remote #react #WebRTC #RealtimeWeb #ReactNative\nГород: Москва\nФормат работы: удаленная занятость, РФ\nЗанятость: полная\nВилка: от 70 до 200 000 руб\nРазработка приложения для проведения видео конференций (React).\nСтек: React, redux, typescript, vanilla DOM (WebRTC)\nРазработка мобильного клиента для большой программной платформы на React Native. Новый проект. \nНужен: Опыт разработки \"больших\" одностраничных приложений на JavaScript. \nОпыт разработки мобильных приложений на javascript (React Native, Ionic). \nКомпания: mirapolis.ru\nКонтакты: telegram @TimKaty\n\n—\n\n👉 Обсуждение вакансии в чате @javascript_jobs","markup":[{"type":"hashtag","offset":0,"length":9,"data":"вакансия"},{"type":"hashtag","offset":10,"length":7,"data":"remote"},{"type":"hashtag","offset":18,"length":6,"data":"react"},{"type":"hashtag","offset":25,"length":7,"data":"WebRTC"},{"type":"hashtag","offset":33,"length":12,"data":"RealtimeWeb"},{"type":"hashtag","offset":46,"length":12,"data":"ReactNative"},{"type":"link","offset":531,"length":12,"data":"http://mirapolis.ru"},{"type":"handle","offset":563,"length":8,"data":"TimKaty"},{"type":"handle","offset":606,"length":16,"data":"javascript_jobs"}],"date":"2020-06-26T07:36:42+00:00","link":"tg://resolve?domain=javascript_jobs_feed&post=16369","tags":[{"name":"javascript"},{"name":"reactjs"},{"name":"redux"},{"name":"typescript"},{"name":"react-redux"},{"name":"react-native"}],"cities":[{"code":"moscow"}],"allowsRemote":true}}]}}},"context":{}}