{"hash":"f5f6bf98bd95e769321482904cbbd488f77922fd","data":{"records":{"id":"react-native","name":"react-native","belongsTo":{"totalCount":35,"pageInfo":{"totalPages":4,"currentPage":1},"edges":[{"node":{"__typename":"Job","id":"17354981376-1001110946746","title":"Js developer","text":"#вакансия #ReactNative #NodeJS #Remote \n\n✅Вакансия: React Native  Developer\n✅Занятость: full-time, remote\n✅ЗП вилка:180000- 250 000 rub\nКА: IT.HuntMe\n\nCurrently we are looking for a Senior React Native Software Engineer to work on solutions for enterprise-level clients with our best-in-class engineering and design teams. \n❇️Responsibilities:\n* Build New ReactNative app\n* Integrate with our Cloud-based video editing API\n* Implement new UI to expose new editing features\n* Convert product requirements into actionable and tangible items for all stakeholders\n* Overall Design - code, performance, security\n* Release estimation, planning and timely integration with other stakeholders (product, app, backend, ui/ux etc)\n* Performance fixes and optimization\n* JSON API design and finalization\n* Continuously discover, evaluate, and implement new best practices to maximize development quality efficiency\n* Code review\n* Build modular, efficient, testable, and reusable React components\n\n❇️Basic qualifications:\n* Experienced, ReactNative Lead\n* Comfortable with modern JS frameworks (NodeJS, ReactJS/AngularJS), MongoDB, HTML5 and SASS\n* Have experience building and running production-ready API’s\n* 2+ years of React Native/full-stack work experience\n* Influence which tools, programming languages, and technologies you work with\n* Help ensure we have a smooth software pipeline for continuous and fast delivery\n* Balance discovery phases with implementation work\n* Be excellent at working both independently and in a team\n* Passion for software development, scalable architecture and product build\n\n♻️Preferred qualifications:\n* Native Android or iPhone development experience, or experience developing in Ionic\n* Experience building a SaaS service\n* User interface and visual design skills\n* Experience with Azure/AWS\n\n👍 WE OFFER:  \n* Competitive compensation depending on experience and skills  \n* Work in enterprise-level projects on a long-term basis  \n* Full-time remote work (you can work from anywhere you are)  \n* Unlimited access to learning courses \n* Community of 36,700+ industry’s top professionals  \n\n✍️Контакты: @mary_itfox или it.huntme@gmail.com","markup":[{"type":"hashtag","offset":0,"length":9,"data":"вакансия"},{"type":"hashtag","offset":10,"length":12,"data":"ReactNative"},{"type":"hashtag","offset":23,"length":7,"data":"NodeJS"},{"type":"hashtag","offset":31,"length":7,"data":"Remote"},{"type":"handle","offset":2129,"length":11,"data":"mary_itfox"},{"type":"link","offset":2145,"length":19,"data":"mailto:it.huntme@gmail.com"}],"date":"2020-07-03T09:55:06+00:00","link":"tg://resolve?domain=javascript_jobs_feed&post=16551","tags":[{"name":"javascript"},{"name":"nodejs"},{"name":"reactjs"},{"name":"cloud"},{"name":"json"},{"name":"angularjs"},{"name":"mongodb"},{"name":"html"},{"name":"sass"},{"name":"android"},{"name":"azure"},{"name":"amazon-web-services"},{"name":"ms-access"},{"name":"react-native"},{"name":"user-interface"}],"cities":[],"allowsRemote":true}},{"node":{"__typename":"Job","id":"17347641344-1001110946746","title":"Js разработчик","text":"#вакансия #JavaScript #React #ReactNative #Node #офис #Москва\nГород и адрес офиса: Москва, м.Дмитровская\nФормат работы: Офис на испытательный срок, далее - возможна удаленка, пятидневка\nЗанятость: Полный день\nЗарплатная вилка: от 150 000 до 200 000 руб.; с опытным кандидатом готовы обсуждать уровень выше.\n\nО компании: проект из Амстердама, занимающийся созданием приложений для веб - / мобильных / настольных компьютеров и разрабатывает решения для масштабируемого бизнеса в Европе и за ее пределами.\nОт Вас:\n- сильные навыки JavaScript, качественный опыт на React;\n- опыт в интеграции облачных сервисов RESTful APIs, GraphQL;\n- знание методологии Agile/Scrum\n- навыки разработки Node.js applications (API servers, SSR, Tooling)\n- опыт работы с React Native или нативной мобильной разработкой;\n- опыт публичных выступлений будет преимуществом;\n- беглый разговорный английский.\nНазвание компании: Sirotina Personnel\nКонтакты: @nicedream13","markup":[{"type":"hashtag","offset":0,"length":9,"data":"вакансия"},{"type":"hashtag","offset":10,"length":11,"data":"JavaScript"},{"type":"hashtag","offset":22,"length":6,"data":"React"},{"type":"hashtag","offset":29,"length":12,"data":"ReactNative"},{"type":"hashtag","offset":42,"length":5,"data":"Node"},{"type":"hashtag","offset":48,"length":5,"data":"офис"},{"type":"hashtag","offset":54,"length":7,"data":"Москва"},{"type":"handle","offset":927,"length":12,"data":"nicedream13"}],"date":"2020-07-03T07:39:55+00:00","link":"tg://resolve?domain=javascript_jobs_feed&post=16544","tags":[{"name":"javascript"},{"name":"reactjs"},{"name":"nodejs"},{"name":"graphql"},{"name":"react-native"}],"cities":[{"code":"moscow"}],"allowsRemote":true}},{"node":{"__typename":"Job","id":"2280652800-1001134745498","title":"Devops инженер","text":"#вакансия #DevOps\n\nЛокация: Москва, м. Савёловская\nФормат работы: до середины июля удаленка, затем офис с возможной частичной удаленкой после испытательного срока\nЗанятость: полная\nЗарплатная вилка: от 180.000 до 300.000 на руки\n\nМедицинская компания, которая разрабатывает технологичные страховые и сервисные продукты для людей и для бизнеса ищет себе крутого DevOps инженера.\n\nЕще пару лет назад у них не было процесса CI/CD, инфраструктуры, боевой код разворачивался через git pull на продакшне, все было на одной виртуалке и т.д. и т.п.\nНа сегодняшний день есть CI, Infrastructure-as-a-Code, мониторинг и алертинг, а также докеризация.\nБизнес и команда очень сильно выросли: в 2,5 раза за 2018 год. Сейчас компания занимает 2ое место по количеству пациентов среди insurtech компаний в Европе.\nВ планах поднимать новые сервисы, масштабироваться вертикально и горизонтально, ускорять CI, внедрять CD и новые инструменты в инфраструктуру.\n\nЧтобы осуществить все задуманное, ребятам нужен человек, который сможет развивать культуру DevOps в команде.\n\nСтек технологий:\n\n➖Backend: Python 3.7, Django, Flask, aiohttp;\n➖Frontend: TypeScript, React;\n➖Mobile: React Native;\n➖Ubuntu 18.04, PostgreSQL (9.6), Redis, ElasticSearch;\n➖Nginx, Docker, Ansible;\n➖Kibana (ELK), Sentrу, Prometheus, Grafana;\n➖GitLab + GitLab CI, Selectel, servers.ru.\n\nЧто нужно будет делать:\n\n➖Ускорить CI, сборку, деплой и улучшить его инструменты;\n➖Сделать сервисы быстрее и надёжнее;\n➖Поддерживать существующую инфраструктуру;\n➖Мониторить ошибки в бою и исправлять их;\n➖Разрабатывать инструменты автоматизации для команд.\n\nОт кандидата:\n\n➖Знание Docker;\n➖Отличное знание Linux и окружения;\n➖Опыт работы с системами управления конфигурацией Chef, Puppet, Ansible или Salt (мы используем Ansible);\n➖Знание bash/Python;\n➖Опыт работы с Django приложениями будет плюсом;\n➖Опыт работы с ELK будет плюсом.\n\nПочему будет круто:\n\n➖Работаем по гибкому графику, для нас главное — результат;\n➖Отправляем на конференции и митапы, даже международные;\n➖Мы меняем рынок медицинского страхования, и у нас это отлично получается;\n➖Мы собрали команду очень талантливых и мотивированных людей;\n➖У вас будет необходимое для работы железо;\n➖Вы получите медицинское обслуживание через нашу систему. И это в разы лучше, чем стандартный ДМС :)\n➖Вы будете работать в крутом лофте у метро Савеловская. До середины июля удаленно;\n➖Cкидки на занятия английским языком, фитнес и путешествия.\n\nНазвание компании: GMS Services (ссылка на сайт — https://bit.ly/2BY7kc7)\n\nКонтакты: @diana_gms\n\n—\n\n👉 Обсуждение вакансии в чате @devops_jobs","markup":[{"type":"hashtag","offset":0,"length":9,"data":"вакансия"},{"type":"hashtag","offset":10,"length":7,"data":"DevOps"},{"type":"link","offset":1324,"length":10,"data":"http://servers.ru"},{"type":"link","offset":2485,"length":22,"data":"https://bit.ly/2BY7kc7"},{"type":"handle","offset":2520,"length":10,"data":"diana_gms"},{"type":"handle","offset":2565,"length":12,"data":"devops_jobs"}],"date":"2020-07-02T18:19:38+00:00","link":"tg://resolve?domain=devops_jobs_feed&post=2175","tags":[{"name":"git"},{"name":"python"},{"name":"django"},{"name":"flask"},{"name":"typescript"},{"name":"reactjs"},{"name":"mobile"},{"name":"ubuntu"},{"name":"postgresql"},{"name":"redis"},{"name":"elasticsearch"},{"name":"nginx"},{"name":"docker"},{"name":"ansible"},{"name":"gitlab"},{"name":"linux"},{"name":"bash"},{"name":"react-native"}],"cities":[{"code":"moscow"}],"allowsRemote":true}},{"node":{"__typename":"Job","id":"17330864128-1001110946746","title":"Javascript developer","text":"#вакансия\n\nГород: Москва\nФормат: удаленка\nЗанятость: полная\nВилка: 100-200к на руки\n\nПривет! Я основатель Дневника - клиент для электронных дневников\nМы ищем Senior/Middle Full Stack Developer. Особый бонус, если ты крут в React Native\n\nПочему мы:\n🇷🇺 Твой код будет влиять на сотни тысяч людей. У нас 600 тысяч пользователей (в следующем году будет 1.2М), большая часть пользуется продуктом каждый день. Мы тестируем 4+ гипотез в месяц и получаем результаты очень быстро. Ты сможешь видеть, как твой код помогает приложению расти ещё больше.\n\n📈 Дневник прибылен и развивается на свои деньги — это максимализирует свободу и принцип \"шкура на кону\". Мы нашли product-market fit и растем каждый год в 3 раза. Прекрасный момент, чтобы присоединиться к команде.\n\n🔥 Мы не боимся. У Дневника насыщенная история: нас блокировало государство, но мы продолжили работать. Нас даже упомянули в статье Голунова. Сегодня все хорошо, мы можем спокойно идти к нашей миссии\n\n\nПолное описание компани и вакансии тут ->\nhttps://www.notion.so/Senior-Middle-Full-Stack-Developer-439a011d96df47809ed4ffc089d18b09\n\n\nКонтакты:\n@levan","markup":[{"type":"hashtag","offset":0,"length":9,"data":"вакансия"},{"type":"link","offset":1005,"length":89,"data":"https://www.notion.so/Senior-Middle-Full-Stack-Developer-439a011d96df47809ed4ffc089d18b09"},{"type":"handle","offset":1107,"length":6,"data":"levan"}],"date":"2020-07-02T16:34:06+00:00","link":"tg://resolve?domain=javascript_jobs_feed&post=16528","tags":[{"name":"javascript"},{"name":"reactjs"},{"name":"react-native"}],"cities":[{"code":"moscow"}],"allowsRemote":true}},{"node":{"__typename":"Job","id":"17317232640-1001110946746","title":"Javascript developer","text":"#вакансия #ReactNative #Одесса\n🔹Локация: Одесса,  #Odessa, р-н Пересыпи\n🔹Формат работы: #Офис / #удаленка\n🔹Занятость: Полная занятость, #Fulltime\n🔹Вилка 1700-2500 уе, дважды в год Performance Review.\n\n☀Вакансия Middle React Native developer\n🔹Описание вакансии:\n- 4+ years of experience in software development and JavaScript (ES6+).\n- 2+ years of experience with React Native.\n- Experience with commercial native applications development (IOS/Android).\n- Understanding and experience with building the full mobile application’s lifecycle.\n- Knowledge of architecture design and experience working knowledge of SOAP and RESTful integrations.\n- Intermediate written and spoken English.\nБудет плюсом:\n- Experience with native SDKs for Android (Kotlin/Java) and/or iOS (Swift).\n\n\n🔹Компания Attract Group.\n🔹Контакты:\n✏️телеграм @Niedova_Olga,\n✏️почта hr@attractgroup.com.\n\n—\n\n👉 Обсуждение вакансии в чате @javascript_jobs","markup":[{"type":"hashtag","offset":0,"length":9,"data":"вакансия"},{"type":"hashtag","offset":10,"length":12,"data":"ReactNative"},{"type":"hashtag","offset":23,"length":7,"data":"Одесса"},{"type":"hashtag","offset":51,"length":7,"data":"Odessa"},{"type":"hashtag","offset":90,"length":5,"data":"Офис"},{"type":"hashtag","offset":98,"length":9,"data":"удаленка"},{"type":"hashtag","offset":139,"length":9,"data":"Fulltime"},{"type":"handle","offset":830,"length":13,"data":"Niedova_Olga"},{"type":"link","offset":853,"length":19,"data":"mailto:hr@attractgroup.com"},{"type":"handle","offset":908,"length":16,"data":"javascript_jobs"}],"date":"2020-07-02T11:06:21+00:00","link":"tg://resolve?domain=javascript_jobs_feed&post=16515","tags":[{"name":"javascript"},{"name":"reactjs"},{"name":"ios"},{"name":"android"},{"name":"mobile"},{"name":"soap"},{"name":"kotlin"},{"name":"java"},{"name":"swift"},{"name":"react-native"}],"cities":[{"code":"odessa"}],"allowsRemote":true}},{"node":{"__typename":"Job","id":"72525807616-1001054966032","title":"Mobile developer","text":"#вакансия #ReactNative #Одесса\n🔹Локация: Одесса,  #Odessa, р-н Пересыпи\n🔹Формат работы: #Офис / #удаленка\n🔹Занятость: Полная занятость, #Fulltime\n🔹Вилка $1700-$2500, дважды в год Performance Review.\n\n☀Вакансия Middle React Native developer\n🔹Описание вакансии:\n- 4+ years of experience in software development and JavaScript (ES6+).\n- 2+ years of experience with React Native.\n- Experience with commercial native applications development (IOS/Android).\n- Understanding and experience with building the full mobile application’s lifecycle.\n- Knowledge of architecture design and experience working knowledge of SOAP and RESTful integrations.\n- Experience with native SDKs for Android (Kotlin/Java) and/or iOS (Swift).\n- Intermediate written and spoken English.\n\n🔹Компания Attract Group.\n🔹Контакты:\n✏️телеграм @Niedova_Olga,\n✏️почта hr@attractgroup.com.","markup":[{"type":"hashtag","offset":0,"length":9,"data":"вакансия"},{"type":"hashtag","offset":10,"length":12,"data":"ReactNative"},{"type":"hashtag","offset":23,"length":7,"data":"Одесса"},{"type":"hashtag","offset":51,"length":7,"data":"Odessa"},{"type":"hashtag","offset":90,"length":5,"data":"Офис"},{"type":"hashtag","offset":98,"length":9,"data":"удаленка"},{"type":"hashtag","offset":139,"length":9,"data":"Fulltime"},{"type":"handle","offset":814,"length":13,"data":"Niedova_Olga"},{"type":"link","offset":837,"length":19,"data":"mailto:hr@attractgroup.com"}],"date":"2020-07-02T09:41:39+00:00","link":"tg://resolve?domain=mobile_jobs&post=69166","tags":[{"name":"mobile"},{"name":"android"},{"name":"ios"},{"name":"reactjs"},{"name":"javascript"},{"name":"soap"},{"name":"kotlin"},{"name":"java"},{"name":"swift"},{"name":"react-native"}],"cities":[{"code":"odessa"}],"allowsRemote":true}},{"node":{"__typename":"Job","id":"17302552576-1001110946746","title":"Javascript developer","text":"#вакансия\n\nГород: Москва\nФормат: удаленка\nЗанятость: полная\nВилка: 100-200к на руки\n\nПривет! Я основатель Дневника - клиент для электронных дневников\nМы ищем Senior/Middle Full Stack Developer. Особый бонус, если ты крут в React Native\n\nПочему мы:\n🇷🇺 Твой код будет влиять на сотни тысяч людей. У нас 600 тысяч пользователей (в следующем году будет 1.2М), большая часть пользуется продуктом каждый день. Мы тестируем 4+ гипотез в месяц и получаем результаты очень быстро. Ты сможешь видеть, как твой код помогает приложению расти ещё больше.\n\n📈 Дневник прибылен и развивается на свои деньги — это максимализирует свободу и принцип \"шкура на кону\". Мы нашли product-market fit и растем каждый год в 3 раза. Прекрасный момент, чтобы присоединиться к команде.\n\n🔥 Мы не боимся. У Дневника насыщенная история: нас блокировало государство, но мы продолжили работать. Нас даже упомянули в статье Голунова. Сегодня все хорошо, мы можем спокойно идти к нашей миссии\n\n\nПолное описание компани и вакансии тут ->\nhttps://www.notion.so/Senior-Middle-Full-Stack-Developer-439a011d96df47809ed4ffc089d18b09\n\n\nКонтакты:\n@levan","markup":[{"type":"hashtag","offset":0,"length":9,"data":"вакансия"},{"type":"link","offset":1005,"length":89,"data":"https://www.notion.so/Senior-Middle-Full-Stack-Developer-439a011d96df47809ed4ffc089d18b09"},{"type":"handle","offset":1107,"length":6,"data":"levan"}],"date":"2020-07-01T16:27:00+00:00","link":"tg://resolve?domain=javascript_jobs_feed&post=16501","tags":[{"name":"javascript"},{"name":"reactjs"},{"name":"react-native"}],"cities":[{"code":"moscow"}],"allowsRemote":true}},{"node":{"__typename":"Job","id":"72462893056-1001054966032","title":"Mobile разработчик","text":"#вакансия #react #native  #middle #senior \nГород и адрес офиса: Локация не важна. \nФормат работы: Удаленная работа. \nЗанятость: Частичная с расчётом на полную. Проектов несколько. Основная работа - разработка и контроль кроссплатформенного приложения по доставке. \nЗарплатная вилка: от 100 до 250 \n\nОписание вакансии: Требуется специалист по React Native в дружную команду для работы над очень интересными проектами. Обязательна адекватность, ответственность и любовь к своему делу. Уровень не ниже middle. \n\nНазвание компании: Scripta IT \nКонтакты: @buddhh","markup":[{"type":"hashtag","offset":0,"length":9,"data":"вакансия"},{"type":"hashtag","offset":10,"length":6,"data":"react"},{"type":"hashtag","offset":17,"length":7,"data":"native"},{"type":"hashtag","offset":26,"length":7,"data":"middle"},{"type":"hashtag","offset":34,"length":7,"data":"senior"},{"type":"bold","offset":43,"length":19,"data":""},{"type":"bold","offset":83,"length":13,"data":""},{"type":"bold","offset":117,"length":9,"data":""},{"type":"bold","offset":265,"length":16,"data":""},{"type":"bold","offset":299,"length":17,"data":""},{"type":"bold","offset":509,"length":18,"data":""},{"type":"bold","offset":540,"length":9,"data":""},{"type":"handle","offset":550,"length":7,"data":"buddhh"}],"date":"2020-07-01T13:26:09+00:00","link":"tg://resolve?domain=mobile_jobs&post=69106","tags":[{"name":"mobile"},{"name":"reactjs"},{"name":"react-native"}],"cities":[],"allowsRemote":false}},{"node":{"__typename":"Job","id":"17296261120-1001110946746","title":"Javascript разработчик","text":"#вакансия #удаленка #полная #react #reactnative\n\n🔹 Город и адрес офиса: Воронеж\n🔹 Формат работы: Удаленка\n🔹 Занятость: полная, проектно на 1 месяц\n🔹 Зарплатная вилка: от 60 до 100 тыс руб/месяц\n\n🔥 Описание вакансии: Ищем Middle React Native разработчика. Разрабатываем мобильное приложение - месенджер, для iOS и Android устройств, нужен еще один программист для усиления команды, проект готов на 80%. Нужно, вместе с текущим прогером, параллельно  донастроить логику в некоторых экранах/модулях и подключить к API.\n\n💻 Название компании: http://glowingcube.com \n\n☎️ Контакты, Telegram: @ShemetVlad","markup":[{"type":"hashtag","offset":0,"length":9,"data":"вакансия"},{"type":"hashtag","offset":10,"length":9,"data":"удаленка"},{"type":"hashtag","offset":20,"length":7,"data":"полная"},{"type":"hashtag","offset":28,"length":6,"data":"react"},{"type":"hashtag","offset":35,"length":12,"data":"reactnative"},{"type":"link","offset":544,"length":22,"data":"http://glowingcube.com"},{"type":"handle","offset":592,"length":11,"data":"ShemetVlad"}],"date":"2020-07-01T13:04:47+00:00","link":"tg://resolve?domain=javascript_jobs_feed&post=16495","tags":[{"name":"javascript"},{"name":"reactjs"},{"name":"ios"},{"name":"android"},{"name":"react-native"}],"cities":[{"code":"voronezh"}],"allowsRemote":true}},{"node":{"__typename":"Job","id":"17295212544-1001110946746","title":"Javascript разработчик","text":"#вакансия #удаленка #полная #react #reactnative\nГород: Ростов-на-Дону\nФормат работы: удаленка\nЗанятость: полная \nЗарплатная вилка: от 110000 до 160000\n\nОписание вакансии: \nРебята, ищем Senior React Native разработчика. Удаленно, полная занятость.\n\nТребования:\n- Опыт разработки мобильных приложений на React Native от 1 года;\n- Опыт разработки мобильных приложений от 3 лет;\n- Знания различных подводных камней ReactNative и их решение.\n\nУсловия:\n- Гео - любое\n- ЗП по результатам собеседования;\n- Мы предлагаем вам расти вместе с компанией Storiesgain. Наши амбиции огромны, возможности для развития и творчества безграничны;\n- Работа над HighLoad проектом в дружном коллективе; Удаленная занятость, полный рабочий день;\n- Испытательный срок один месяц.\n\nНазвание компании: Storiesgain www.storiesgain.com\n\nБуду рада сконнектить с командой 🎈\nКонтакты: @Olga_hr_it","markup":[{"type":"hashtag","offset":0,"length":9,"data":"вакансия"},{"type":"hashtag","offset":10,"length":9,"data":"удаленка"},{"type":"hashtag","offset":20,"length":7,"data":"полная"},{"type":"hashtag","offset":28,"length":6,"data":"react"},{"type":"hashtag","offset":35,"length":12,"data":"reactnative"},{"type":"link","offset":787,"length":19,"data":"http://www.storiesgain.com"},{"type":"handle","offset":854,"length":11,"data":"Olga_hr_it"}],"date":"2020-07-01T11:41:42+00:00","link":"tg://resolve?domain=javascript_jobs_feed&post=16494","tags":[{"name":"javascript"},{"name":"reactjs"},{"name":"react-native"}],"cities":[{"code":"rostov"}],"allowsRemote":true}}]}}},"context":{}}