{"hash":"f5f6bf98bd95e769321482904cbbd488f77922fd","data":{"records":{"id":"dotnet","name":"dotnet","belongsTo":{"totalCount":172,"pageInfo":{"totalPages":18,"currentPage":7},"edges":[{"node":{"__typename":"Job","id":"17162043392-1001110946746","title":"Js разработчик","text":"#вакансия #frontend_developer #js #react #stream \nMiddle/ Senior frontend developer (React JS)\nЛокация: г. Казань, Спартаковская, 6 \nФормат работы: удаленная работа (возможен формат коворкинга)\nЗанятость: полная \nЗарплатная вилка: от 130 000 до 200 000 рублей net\n\nОписание вакансии:\nStream  - 100% дочерняя компания МТС. Ищем опытного React JS разработчика для участия в проекте Виртуальная АТС.\nО проекте:\nВАТС - платформа для сборки бизнес-инструментов и «умная» телефонная связь через интернет, которая доступна в любом месте и для разных типов устройств.\nЧто предстоит?\n- проектирование архитектуры и участие в разработке frontend продукта;\n- проведение code review;\n- участие в оптимизации процессов разработки в компании.\nМы ожидаем от Вас:\n- опыт работы с React от 2 лет\n- опыт разработки SPA\n- знание TypeScript, NextJS, SCSS, Styled Components, HTML5, CSS\n- умение писать Unit-тесты (будет плюсом)\nЧто предлагаем?\n- \"белую\" заработную плату + полугодовые бонусы;\n- гибкий график работы;\n- ДМС со стоматологией, страхование жизни после испытательного срока;\n- корпоративную мобильную связь;\n- льготное кредитование для участников зарплатного проекта МТС Банк.\nНазвание компании: Stream https://stream.ru/\n\n📲 Контакты для резюме и вопросов: @askamasaska, AMorozova@stream.ru\n\n—\n\n👉 Обсуждение вакансии в чате @javascript_jobs","markup":[{"type":"hashtag","offset":0,"length":9,"data":"вакансия"},{"type":"hashtag","offset":10,"length":19,"data":"frontend_developer"},{"type":"hashtag","offset":30,"length":3,"data":"js"},{"type":"hashtag","offset":34,"length":6,"data":"react"},{"type":"hashtag","offset":41,"length":7,"data":"stream"},{"type":"link","offset":1195,"length":18,"data":"https://stream.ru/"},{"type":"handle","offset":1250,"length":12,"data":"askamasaska"},{"type":"link","offset":1264,"length":19,"data":"mailto:AMorozova@stream.ru"},{"type":"handle","offset":1318,"length":16,"data":"javascript_jobs"}],"date":"2020-06-26T07:25:03+00:00","link":"tg://resolve?domain=javascript_jobs_feed&post=16367","tags":[{"name":"javascript"},{"name":"reactjs"},{"name":"dotnet"},{"name":"typescript"},{"name":"html"},{"name":"css"}],"cities":[{"code":"kazan"}],"allowsRemote":true}},{"node":{"__typename":"Job","id":"1741684736-1001091028994","title":"Java разработчик","text":"#вакансия #java #teamlead #javateamlead #москва #мск\n\nTeam Lead Java\nКомпания: Srgroup\nЛокация: офис\nЗанятость: fulltime \nЗ/п: 280-350к net \nКонтакты: @observer69 \n\nНаши роботы не только полностью автоматически оценивают квартиры, но также помогают аналитикам работать с уникальными объектами на рынке, выявлять случаи мошенничества, оценивать коммерческую недвижимость.\n\nЗадачи\n1. Управлять  Java-командой;\n2. Детализировать и оценивать задачи на основе бизнес постановок;\n3. Участвовать в формировании спринта;\n4. Решать архитектурно и технически сложные задачи;\n5. Code review;\nСовершенствовать процессы разработки;\n6. Развивать скилы разработчиков.\n\nТребования\n● Более 3-х лет разрабатывать коммерческие продукты на Java;\n● Интерес к BigData;\n● Spring, Spring-boot, Spring data, Hibernate, Redis, плюсом MongoDB и RabbitMQ;\n● Пишете быстрые и красивые запросы к БД и понимаете в индексах;\n● Почему и когда нужно писать простой, расширяемый и производительный код;\n● Владеете Mercurial, Gradle, Jira, Jenkins\n\nУсловия\n● Все по ТК РФ;\n● Белая ЗП;\n● Комфортная рабочая среда;\n● Гибкое начало дня;\n● Офис БЦ \"Пальмира\", м. \n Бауманская/Электрозаводская","markup":[{"type":"hashtag","offset":0,"length":9,"data":"вакансия"},{"type":"hashtag","offset":10,"length":5,"data":"java"},{"type":"hashtag","offset":16,"length":9,"data":"teamlead"},{"type":"hashtag","offset":26,"length":13,"data":"javateamlead"},{"type":"hashtag","offset":40,"length":7,"data":"москва"},{"type":"hashtag","offset":48,"length":4,"data":"мск"},{"type":"bold","offset":54,"length":24,"data":""},{"type":"bold","offset":87,"length":8,"data":""},{"type":"bold","offset":101,"length":10,"data":""},{"type":"bold","offset":122,"length":4,"data":""},{"type":"bold","offset":141,"length":9,"data":""},{"type":"handle","offset":151,"length":11,"data":"observer69"},{"type":"bold","offset":372,"length":9,"data":""},{"type":"bold","offset":408,"length":2,"data":""},{"type":"bold","offset":474,"length":2,"data":""},{"type":"bold","offset":513,"length":2,"data":""},{"type":"bold","offset":565,"length":2,"data":""},{"type":"bold","offset":619,"length":3,"data":""},{"type":"bold","offset":654,"length":11,"data":""},{"type":"bold","offset":1013,"length":8,"data":""}],"date":"2020-06-26T06:42:50+00:00","link":"tg://resolve?domain=jvmjobs&post=1661","tags":[{"name":"java"},{"name":"jvm"},{"name":"dotnet"},{"name":"spring"},{"name":"hibernate"},{"name":"redis"},{"name":"mongodb"},{"name":"rabbitmq"},{"name":"mercurial"},{"name":"gradle"},{"name":"jenkins"},{"name":"spring-boot"},{"name":"spring-data"}],"cities":[{"code":"moscow"}],"allowsRemote":false}},{"node":{"__typename":"Job","id":"108089311232-1001119539411","title":".net разработчик","text":"#qa #automation #работа #вакансия #тестировщик #job #Москва #СПБ #удалёнка #офис \n\nQA Automation (С# / С# + Нагрузочное Тестирование / Ruby)в крупный банк без бюрократии.\n\n🌏 Москва / Санкт-Петербург / Удалённо\n💻опыт от года и до синьора (каждому есть работа по силам) \n💰до 240к \n\n💡4 интересных Прoекта на разных стадиях жизни:\nВсе они направлены на : \n- Улучшение бизнес процессов;\n- Защиту интересов и финансов банка в крупных сделках;\n- Развитие отдельного модуля пообъектного учета залогов для контроля залогов по кредитным сделкам крупного корпоративного бизнеса.\n\n💡 Требования стандартные, Вы все их хорошо знаете. \n- Опыт тестирования API, UI;\n- Работа с .NET / Selenium / LoadRunner / Cucumber - зависит от стека\n- Понимание отличия REST от SOAP;\n- Опыт работы с CICD;\n- С GIT итак все работают \n- SQL на хорошем уровне.\n\n💡Важное:\n- Удалённый формат занятости или офис (по желанию);\n- Гибкий график работы; \n- Отличный офис в стиле супергероев с множеством пуфиков, релакс-зоной, пингпонгом, а пар можно выпустить на груше и турнике; \n- ДМС;\n- Скидки на фитнес, английский;\n- Помощь в релокации, если любишь работу в офисе и хочешь переехать;\n- Оформление на компанию интегратора Selecty IT\n\n📲 @JuliaVenz 🙂","markup":[{"type":"hashtag","offset":0,"length":3,"data":"qa"},{"type":"hashtag","offset":4,"length":11,"data":"automation"},{"type":"hashtag","offset":16,"length":7,"data":"работа"},{"type":"hashtag","offset":24,"length":9,"data":"вакансия"},{"type":"hashtag","offset":34,"length":12,"data":"тестировщик"},{"type":"hashtag","offset":47,"length":4,"data":"job"},{"type":"hashtag","offset":52,"length":7,"data":"Москва"},{"type":"hashtag","offset":60,"length":4,"data":"СПБ"},{"type":"hashtag","offset":65,"length":9,"data":"удалёнка"},{"type":"hashtag","offset":75,"length":5,"data":"офис"},{"type":"bold","offset":83,"length":15,"data":""},{"type":"bold","offset":298,"length":6,"data":""},{"type":"handle","offset":1208,"length":10,"data":"JuliaVenz"}],"date":"2020-06-25T17:59:47+00:00","link":"tg://resolve?domain=microsoftstackjobs&post=103082","tags":[{"name":"dotnet"},{"name":"csharp"},{"name":"ruby"},{"name":"selenium"},{"name":"cucumber"},{"name":"rest"},{"name":"soap"},{"name":"git"},{"name":"sql"}],"cities":[{"code":"moscow"}],"allowsRemote":true}},{"node":{"__typename":"Job","id":"103737720832-1001089317451","title":"Qa инженер","text":"#hr #qa #automation #работа #вакансия #тестировщик #job #Москва #СПБ #удалёнка #офис \n\nQA Automation (С# / С# + НТ / Ruby)в крупный банк без бюрократии.\n\n🌏 Москва / Санкт-Петербург / Удалённо\n💻опыт от года и до синьора (каждому есть работа по силам) \n💰до 240к \n\n💡4 интересных Прoекта на разных стадиях жизни:\nВсе они направлены на : \n- Улучшение бизнес процессов;\n- Защиту интересов и финансов банка в крупных сделках;\n- Развитие отдельного модуля пообъектного учета залогов для контроля залогов по кредитным сделкам крупного корпоративного бизнеса.\n\n💡 Требования стандартные, Вы все их хорошо знаете. \n- Опыт тестирования API, UI;\n- Работа с .NET / Selenium / LoadRunner / Cucumber - зависит от стека\n- Понимание отличия REST от SOAP;\n- Опыт работы с CICD;\n- С GIT итак все работают \n- SQL на хорошем уровне.\n\n💡Важное:\n- Удалённый формат занятости или офис (по желанию);\n- Гибкий график работы; \n- Отличный офис в стиле супергероев с множеством пуфиков, релакс-зоной, пингпонгом, а пар можно выпустить на груше и турнике; \n- ДМС;\n- Скидки на фитнес, английский;\n- Помощь в релокации, если любишь работу в офисе и хочешь переехать;\n- Оформление на компанию интегратора Selecty IT\n\n📲 @JuliaVenz 🙂","markup":[{"type":"hashtag","offset":0,"length":3,"data":"hr"},{"type":"hashtag","offset":4,"length":3,"data":"qa"},{"type":"hashtag","offset":8,"length":11,"data":"automation"},{"type":"hashtag","offset":20,"length":7,"data":"работа"},{"type":"hashtag","offset":28,"length":9,"data":"вакансия"},{"type":"hashtag","offset":38,"length":12,"data":"тестировщик"},{"type":"hashtag","offset":51,"length":4,"data":"job"},{"type":"hashtag","offset":56,"length":7,"data":"Москва"},{"type":"hashtag","offset":64,"length":4,"data":"СПБ"},{"type":"hashtag","offset":69,"length":9,"data":"удалёнка"},{"type":"hashtag","offset":79,"length":5,"data":"офис"},{"type":"bold","offset":87,"length":15,"data":""},{"type":"bold","offset":280,"length":6,"data":""},{"type":"handle","offset":1190,"length":10,"data":"JuliaVenz"}],"date":"2020-06-25T17:02:44+00:00","link":"tg://resolve?domain=qa_jobs&post=98932","tags":[{"name":"qa"},{"name":"ruby"},{"name":"dotnet"},{"name":"selenium"},{"name":"cucumber"},{"name":"rest"},{"name":"soap"},{"name":"git"},{"name":"sql"}],"cities":[{"code":"moscow"}],"allowsRemote":true}},{"node":{"__typename":"Job","id":"72025636864-1001054966032","title":"Ios developer","text":"#вакансия #IOS #Senior #Objective-C #Swift #удаленно\n🔥Приглашаем Senior IOS Developer в новый проект от Сбербанка.\n💸Уровень ЗП: 250К-330К net (в зависимости от типа оформления).\n📝Оформление: ИП или штат компании партнера.\n📍Локация: удаленно❗️\n\n🧑‍💻О проекте: фронтальная SDK биометрической платформы. Данный проект занимается разработкой продукта «Фронтальная биометрическая компонента» (Фронтальная БиоSDK) для биометрической идентификации личности на различных ОС и устройствах. Первоочередная задача сейчас – забрать текущие версии SDK у непрофильных подразделений и на их основе разработать Фронтальной БиоSDK для мобильных приложений (iOS). Банку, как высокотехнологичной организации необходима биометрическая идентификация личности. Это позволит перейти к системам без документов, паролей, смс, пинкодов.\n\n🎯Ваши будущие задачи:\n· разработка (с «нуля») и поддержка собственной компоненты фронтального Био SDK по работе с камерами устройств и нейросетями собственной лаборатории (Machine Learning, Data Scientist, Computer Vision) и решений вендоров;\n· интеграция Био SDK с каналами/продуктами Банка мобильных решений\n(iOS), а также прочих систем банка (Linux, Windows, Web, SmartDevices);\n· постоянное повышение качества продукта на фоне постоянно обучающихся нейросетей.\n\n🤝Мы ожидаем от Вас:\n- сильный Swift (опыт от 2 лет), понимание Objective-C (желательно опыт от 2 лет);\n- знание следующих тем: CALayer, viewDidLoad в UIViewController, ARC, CoreData, Корневые классы, Retain-циклы и утечка памяти MRC, Atomic, SOLID, Отрисовка UI, Мультипоточность.\n\nОткликнуться на вакансию и задать вопросы: telegram @anisimovaane4ka","markup":[{"type":"hashtag","offset":0,"length":9,"data":"вакансия"},{"type":"hashtag","offset":10,"length":4,"data":"IOS"},{"type":"hashtag","offset":15,"length":7,"data":"Senior"},{"type":"hashtag","offset":23,"length":10,"data":"Objective"},{"type":"hashtag","offset":36,"length":6,"data":"Swift"},{"type":"hashtag","offset":43,"length":9,"data":"удаленно"},{"type":"handle","offset":1619,"length":16,"data":"anisimovaane4ka"}],"date":"2020-06-25T14:24:48+00:00","link":"tg://resolve?domain=mobile_jobs&post=68689","tags":[{"name":"mobile"},{"name":"ios"},{"name":"objective-c"},{"name":"swift"},{"name":"dotnet"},{"name":"linux"},{"name":"windows"},{"name":"web"},{"name":"machine-learning"}],"cities":[],"allowsRemote":true}},{"node":{"__typename":"Job","id":"2256535552-1001134745498","title":"Devops инженер","text":"#вакансия #devops #docker #kubernetes\n\nВакансия: DevOps\nКомпания: Potok.io\nГород и адрес офиса: Москва, м. Марьина Роща, м. Савёловская\nФормат работы: удаленно на время пандемии, далее офис\nЗанятость: полная\nЗарплатная вилка: от 120 до 200к (net)\n\nМы - SaaS-решение по автоматизации бизнес-процессов в рамках подбора. Ищем человека, который возьмет на себя построение нашей инфраструктуры и CI/CD. Сейчас делаем всё силами команды разработки, а задач уже набралось на полноценного специалиста\nНаш стэк - ubuntu, ruby, postgres, elasticsearch, redis.\n\n🔹Чем предстоит заниматься:\n-настройка CI/CD\n-инфраструктурная поддержка продакшена - мониторинг, логи, деплой, вот это вот всё :)\n-запаковка SaaS-решения в коробку и развертка на серверах клиентов\n\n🔹Мы ищем человека, который:\n-имеет опыт работы DevOps специалистом от 2-х лет\n-имеет опыт администрирования Ubuntu\n-опыт работы с Docker и Kubernetes\n-навыки в сфере автоматизации процессов настройки и управления серверами (puppet, ansible, chef)\n-системы мониторинга и логинорования \nТакже большим плюсом будет опыт работы с PostgreSQL и Elasticsearch\n\n🔹Условия:\n-индивидуальное обсуждение зарплатных ожиданий \n-честное трудоустройство на 100%\n-классный ДМС\n-график 5/2 в среднем с 10 до 19\n-команду, нацеленную на общий результат и интересные задачи\n-дух стартапа + стабильность большой компании \n\nКонтакты: @yulianka_95\n\n—\n\n👉 Обсуждение вакансии в чате @devops_jobs","markup":[{"type":"hashtag","offset":0,"length":9,"data":"вакансия"},{"type":"hashtag","offset":10,"length":7,"data":"devops"},{"type":"hashtag","offset":18,"length":7,"data":"docker"},{"type":"hashtag","offset":26,"length":11,"data":"kubernetes"},{"type":"link","offset":66,"length":8,"data":"http://Potok.io"},{"type":"handle","offset":1362,"length":12,"data":"yulianka_95"},{"type":"handle","offset":1409,"length":12,"data":"devops_jobs"}],"date":"2020-06-25T11:10:32+00:00","link":"tg://resolve?domain=devops_jobs_feed&post=2152","tags":[{"name":"docker"},{"name":"kubernetes"},{"name":"dotnet"},{"name":"ubuntu"},{"name":"ruby"},{"name":"postgresql"},{"name":"elasticsearch"},{"name":"redis"},{"name":"ansible"}],"cities":[{"code":"moscow"}],"allowsRemote":true}},{"node":{"__typename":"Job","id":"92278882304-1001067529236","title":"Python разработчик","text":"#вакансия #python #fulltime #office #remote #Senior #Lead #backend #офис #удаленка #работа\n\nЗп от 160 000 net \nКомпания в поисках Lead Python  удаленно.\nНеобходимые навыки:\n🔹Software development experience 5+, \n🔹Experience with Django (Django ORM, Django Rest Framework (1+years);\n🔹Experience with AWS services: Lambda, API Gateway, SNS, SQS, SES, S3, RDS, VPC, EC2, CloudWatch, etc.\n🔹Experience writing API and working / integration with API of third-party services;\n🔹Knowledge of the GraphQL API (Graphene will be a plus)\n🔹Knowledge of SQL (PostgreSQL relational DBMS will be a plus)\n🔹Knowledge of CloudFormation in AWS and Terraform;\n🔹Ability to read code and understand it at the level of business logic;\n🔹Ability to work with general abstract tasks;\n🔹Written and spoken English is a MUST (B2+)\n\nКонтакты: @Nataly_3 или на почту: n.mazepa@art2hires.com","markup":[{"type":"hashtag","offset":0,"length":9,"data":"вакансия"},{"type":"hashtag","offset":10,"length":7,"data":"python"},{"type":"hashtag","offset":18,"length":9,"data":"fulltime"},{"type":"hashtag","offset":28,"length":7,"data":"office"},{"type":"hashtag","offset":36,"length":7,"data":"remote"},{"type":"hashtag","offset":44,"length":7,"data":"Senior"},{"type":"hashtag","offset":52,"length":5,"data":"Lead"},{"type":"hashtag","offset":58,"length":8,"data":"backend"},{"type":"hashtag","offset":67,"length":5,"data":"офис"},{"type":"hashtag","offset":73,"length":9,"data":"удаленка"},{"type":"hashtag","offset":83,"length":7,"data":"работа"},{"type":"handle","offset":820,"length":9,"data":"Nataly_3"},{"type":"link","offset":844,"length":22,"data":"mailto:n.mazepa@art2hires.com"}],"date":"2020-06-25T10:24:20+00:00","link":"tg://resolve?domain=python_jobs&post=88004","tags":[{"name":"python"},{"name":"dotnet"},{"name":"django"},{"name":"orm"},{"name":"rest"},{"name":"amazon-web-services"},{"name":"aws-lambda"},{"name":"graphql"},{"name":"sql"},{"name":"postgresql"}],"cities":[],"allowsRemote":true}},{"node":{"__typename":"Job","id":"72004665344-1001054966032","title":"Android разработчик","text":"#вакансия #работа #Санкт_Петербург #Пермь #Казань  #middle #Android #Kotlin #RxJava\nГород: Санкт-Петербург, Казань, Пермь\nФормат работы: Офис (пока удаленка)\nЗанятость: Полная\nЗарплатная вилка от 120 net до 200 net  (зависит от уровня)\nКомпания: https://stream.ru/\nКонтакты: @Ntsama_IT\n\nМы Stream - делаем классные и реально удобные продукты для людей. 📣Сейчас находимся в поиске Android разработчика.📱\n\nСейчас у нас есть несколько проектов, куда мы ищем разработчиков. Подробнее по вакансиям здесь:\nhttps://spb.hh.ru/vacancy/37445336\nhttps://spb.hh.ru/vacancy/37365465\n\nМы ждём: \n🔹опыт разработки как на Kotlin, так и на Java;\n🔹опыт в работе с RxJava;\n\nУсловия:\n✅Гибкий график\n✅ДМС со стоматологией\n✅Компенсация мобильной связи\n✅Официальное оформление и \"белая\" зарплата + премии сверху оклада\n✅Возможность дополнительного обучения\nКонтакты: telegram - @Ntsama_IT \nпочта: eivanova@stream.ru","markup":[{"type":"hashtag","offset":0,"length":9,"data":"вакансия"},{"type":"hashtag","offset":10,"length":7,"data":"работа"},{"type":"hashtag","offset":18,"length":16,"data":"Санкт_Петербург"},{"type":"hashtag","offset":35,"length":6,"data":"Пермь"},{"type":"hashtag","offset":42,"length":7,"data":"Казань"},{"type":"hashtag","offset":51,"length":7,"data":"middle"},{"type":"hashtag","offset":59,"length":8,"data":"Android"},{"type":"hashtag","offset":68,"length":7,"data":"Kotlin"},{"type":"hashtag","offset":76,"length":7,"data":"RxJava"},{"type":"link","offset":246,"length":18,"data":"https://stream.ru/"},{"type":"handle","offset":275,"length":10,"data":"Ntsama_IT"},{"type":"link","offset":502,"length":34,"data":"https://spb.hh.ru/vacancy/37445336"},{"type":"link","offset":537,"length":34,"data":"https://spb.hh.ru/vacancy/37365465"},{"type":"handle","offset":858,"length":10,"data":"Ntsama_IT"},{"type":"link","offset":877,"length":18,"data":"mailto:eivanova@stream.ru"}],"date":"2020-06-25T10:20:10+00:00","link":"tg://resolve?domain=mobile_jobs&post=68669","tags":[{"name":"mobile"},{"name":"android"},{"name":"kotlin"},{"name":"dotnet"},{"name":"java"}],"cities":[{"code":"perm"},{"code":"kazan"}],"allowsRemote":true}},{"node":{"__typename":"Job","id":"17144217600-1001110946746","title":"Js разработчик","text":"#вакансия #работа #удаленка #backend #node #nodejs #remote\nГород и адрес офиса: Москва, Савеловская\nФормат работы: удаленка\nЗанятость: полная || проектная\nЗарплатная вилка: 100-160 т.р.\n\nОписание вакансии: \nИщем опытного backend-разработчика node.js для разработки высоконадежных транзакционных сервисов интеграции с различными системами\n\nТребования:\n• Опыт работы с унаследованными системами\n• Знание PHP на уровне понимания и чтения кода будет плюсом\n• Знание и понимание работы сетевых протоколов TCP/IP, HTTP, SMTP, IMAP\n• Знание и понимание языка JavaScript и связанных с ним технологий и фреймворков\n• Опыт разработки серверных приложений\n• Понимание основных процессов разработки, умение работать в команде\n• Понимание принципов ООП, подходов в программировании и требований к транзакционным системам\n\nЗадачи:\n• Разработка высоконадежных транзакционных сервисов интеграции с различными системами\n• Поддержка и модернизация существующих систем\n\nНазвание компании: TechPlatforms (https://techpl.net)\nКонтакты:@desych79","markup":[{"type":"hashtag","offset":0,"length":9,"data":"вакансия"},{"type":"hashtag","offset":10,"length":7,"data":"работа"},{"type":"hashtag","offset":18,"length":9,"data":"удаленка"},{"type":"hashtag","offset":28,"length":8,"data":"backend"},{"type":"hashtag","offset":37,"length":5,"data":"node"},{"type":"hashtag","offset":43,"length":7,"data":"nodejs"},{"type":"hashtag","offset":51,"length":7,"data":"remote"},{"type":"link","offset":985,"length":18,"data":"https://techpl.net"},{"type":"handle","offset":1014,"length":9,"data":"desych79"}],"date":"2020-06-25T08:42:13+00:00","link":"tg://resolve?domain=javascript_jobs_feed&post=16350","tags":[{"name":"javascript"},{"name":"nodejs"},{"name":"php"},{"name":"smtp"},{"name":"dotnet"}],"cities":[{"code":"moscow"}],"allowsRemote":true}},{"node":{"__typename":"Job","id":"17143169024-1001110946746","title":"Js разработчик","text":"#вакансия #remote #frontend #Angularjs #Angular #middle #senior #удаленка \n\nГород: Краснодар\nФормат работы: remote \nЗанятость: fulltime\nВилка: 120-180k net \n\nНемного о нас: \nНа протяжении 14 лет наша команда создает кастомные веб/мобильные приложения и дизайн. \nПриглашаем к сотрудничеству на удаленной постоянно основе опытного разработчика front-end со знанием старой и новой версии Angular (Angular.js/Angular 9). \nПроект:  продукт для крупного бизнеса (USA) \n\nЗадачи: разработка front-end части на Anagular. \n\nНазвание компании: Softlight \n\nТребования: \nОпыт в разработке front-end на Angular от 3-х лет;\nОбязательный опыт работы со старой версией Angular 1.x и новой (Angular 9)\n JavaScript, HTML5/CSS3 \nработа в распределенной команде \n\nМы предлагаем:\n- Полностью удаленную работу\n- Участие в разработке зарубежных продуктов (USA)\n- Пятидневная рабочая неделя ( с 9-10 до 18-19 МСК), госпраздники - выходные\n- Оформление ИП\n- Оплачиваемый отпуск и больничный \n- Работу в слаженной опытной команде \n\nКонтакты: @MikeHR или mzaharov@softlightllc.com","markup":[{"type":"hashtag","offset":0,"length":9,"data":"вакансия"},{"type":"hashtag","offset":10,"length":7,"data":"remote"},{"type":"hashtag","offset":18,"length":9,"data":"frontend"},{"type":"hashtag","offset":28,"length":10,"data":"Angularjs"},{"type":"hashtag","offset":39,"length":8,"data":"Angular"},{"type":"hashtag","offset":48,"length":7,"data":"middle"},{"type":"hashtag","offset":56,"length":7,"data":"senior"},{"type":"hashtag","offset":64,"length":9,"data":"удаленка"},{"type":"handle","offset":1015,"length":7,"data":"MikeHR"},{"type":"link","offset":1027,"length":25,"data":"mailto:mzaharov@softlightllc.com"}],"date":"2020-06-25T08:30:01+00:00","link":"tg://resolve?domain=javascript_jobs_feed&post=16349","tags":[{"name":"javascript"},{"name":"angularjs"},{"name":"dotnet"},{"name":"html"},{"name":"css"}],"cities":[{"code":"krasnodar"}],"allowsRemote":true}}]}}},"context":{}}