{"hash":"f5f6bf98bd95e769321482904cbbd488f77922fd","data":{"records":{"id":"vuejs","name":"vuejs","belongsTo":{"totalCount":82,"pageInfo":{"totalPages":9,"currentPage":4},"edges":[{"node":{"__typename":"Job","id":"17178820608-1001110946746","title":"Js developer","text":"#Вакансия #разыскивается #JS #Vue.js #Vue #developer #Сочи #fulltime #работа #офис \n\nГород: Сочи\n\nФормат работы: офис\n\nЗанятость: fulltimе\n\nЗарплатная вилка: от 130 000 до 150 000 рублей\n\nОписание вакансии: \nСоздание системы по управлению метаданными компании. Работа в кроссфункциональной команде в составе до 10 человек\n\nНазвание компании: ОЦРВ\n\nПримерный пул задач:\n•  Разработка системы по управлению метаданными\n•  Участие в построение архитектуры решения\n•  Разработка интеграционных сценариев с другими системами\n•  Подготовка инструкций и документации\n\n\nНаши требования к кандидату: \n•  Аналитическое мышление, понимание работы алгоритмов, структур данных и оптимизации работы приложений\n•  Опыт разработки на Vue.js, React (Redux или MobX, Webpack, SCSS)\n•  Отличные знания чистого Javascript\n•  Умение адаптивно и кроссбраузерно верстать\n•  Опыт работы с веб-сервисами (SOAP, REST)\n•  Опыт работы с микросервисной архитектурой\n•  Опыт работы с GIT\n\nБудет плюсом\n•  Опыт работы с популярными css-фреймворками (bootstrap, semantic, material-ui и т.д.)\n•  Опыт работы с Webpack, NPM\n•  Опыт работы с Docker\n•  Опыт работы с Selenium и/или другими средствами UI тестирования\n•  Использование Figma для работы с дизайнером\n\n\n\nНаш стек:\nJava 8-11, Spring, Vue.js, PostgreSQL/HBase/MongoDB/JanusGraph, GIT, Docker, Kubernetes, Kafka\n\nУсловия: \n•  Офис в Адлере в 10 минутах до моря\n•  Оклад: 130 000 - 150 000 руб. gross\n•  Компенсация проживания 20 000 руб. gross в месяц (для кандидатов из других регионов)\n•  Релокационный бонус в размере оклада (для кандидатов из других регионов)\n•  Премия до 30% годового оклада\n•  Работа в динамичной команде единомышленников\n•  Компенсация ДМС после прохождения испытательного срока\n•  Скидки на ДМС для родственников\n•  Компенсация мобильной связи\n•  Новейшее оборудование и просторный офис\n•  Лучшая экология и климат в России\n•  Море и горнолыжный курорт рядом\n\n\nКомпания: ОЦРВ\nСайт: http://www.ocrv.ru/\nКонтакты: @Mirovan","markup":[{"type":"hashtag","offset":0,"length":9,"data":"Вакансия"},{"type":"hashtag","offset":10,"length":14,"data":"разыскивается"},{"type":"hashtag","offset":25,"length":3,"data":"JS"},{"type":"hashtag","offset":29,"length":4,"data":"Vue"},{"type":"hashtag","offset":37,"length":4,"data":"Vue"},{"type":"hashtag","offset":42,"length":10,"data":"developer"},{"type":"hashtag","offset":53,"length":5,"data":"Сочи"},{"type":"hashtag","offset":59,"length":9,"data":"fulltime"},{"type":"hashtag","offset":69,"length":7,"data":"работа"},{"type":"hashtag","offset":77,"length":5,"data":"офис"},{"type":"link","offset":1931,"length":19,"data":"http://www.ocrv.ru/"},{"type":"handle","offset":1961,"length":8,"data":"Mirovan"}],"date":"2020-06-27T09:58:34+00:00","link":"tg://resolve?domain=javascript_jobs_feed&post=16383","tags":[{"name":"javascript"},{"name":"vuejs"},{"name":"reactjs"},{"name":"redux"},{"name":"webpack"},{"name":"soap"},{"name":"rest"},{"name":"git"},{"name":"css"},{"name":"bootstrap"},{"name":"npm"},{"name":"docker"},{"name":"selenium"},{"name":"java"},{"name":"spring"},{"name":"postgresql"},{"name":"hbase"},{"name":"mongodb"},{"name":"kubernetes"},{"name":"kafka"},{"name":"react-redux"}],"cities":[{"code":"sochi"}],"allowsRemote":false}},{"node":{"__typename":"Job","id":"26609713152-1001075660570","title":"Php разработчик","text":"#работа #вакансия #удаленка #job #РНР #Yii #Laravel #Symfony \n\nВсем привет! \n\nСейчас нахожусь в поисках РНР разработчика уровня senior в одну из крупнейших ecommerce компаний России - Bork/Technopark. \nНа текущий  момент внутри идет несколько проектов по поддержке и развитию интернет-площадки по продаже бытовой техники и электроники премиум-класса.\n\nПродукты реализуются на стеке: PHP (Yii2), MySql, JS (Vue), HTML, CSS, Gulp, Webpack, SVG, Canvas. \nЗадачи: разработка серверной части веб-проектов на всех этапах (от участия в проектировании архитектуры, до разработки сервисов), участие в митапах для обсуждения предстоящих задач, вносить вклад в планирование архитектуры и т.д.\n\nОсновные требования:\n\n- Опыт коммерческой разработки от 3 лет на PHP (7.1 или выше);\n\n- Хорошие знания современных фреймворков  (YII, Symfony);\n\n- Знание ООП, базовых алгоритмов, шаблонов проектирования, стандартов написания кода.\n\nУсловия: \n\n- ЗП до 250 000 net;\n\n- Полная УДАЛЁНКА; \n\n- Оформление через ИП или как самозанятый; \n\nКто заинтересовался - пишите в ЛС (@nastyaklassnaya),  буду рада пообщаться :)","markup":[{"type":"hashtag","offset":0,"length":7,"data":"работа"},{"type":"hashtag","offset":8,"length":9,"data":"вакансия"},{"type":"hashtag","offset":18,"length":9,"data":"удаленка"},{"type":"hashtag","offset":28,"length":4,"data":"job"},{"type":"hashtag","offset":33,"length":4,"data":"РНР"},{"type":"hashtag","offset":38,"length":4,"data":"Yii"},{"type":"hashtag","offset":43,"length":8,"data":"Laravel"},{"type":"hashtag","offset":52,"length":8,"data":"Symfony"},{"type":"handle","offset":1049,"length":16,"data":"nastyaklassnaya"}],"date":"2020-06-26T15:52:06+00:00","link":"tg://resolve?domain=php_jobs&post=25377","tags":[{"name":"php"},{"name":"yii"},{"name":"laravel"},{"name":"symfony"},{"name":"mysql"},{"name":"vuejs"},{"name":"html"},{"name":"css"},{"name":"gulp"},{"name":"webpack"},{"name":"svg"},{"name":"canvas"},{"name":"dotnet"}],"cities":[],"allowsRemote":true}},{"node":{"__typename":"Job","id":"103798538240-1001089317451","title":"Qa engineer","text":"#вакансия #Москва #офис #QA #тестировщик #fulltime\n\nГород и адрес офиса: Москва, м. Новокузнецкая/Павелецкая\nФормат работы: #офис\nЗанятость: #полная\nЗП: от 90к до 120к руб. нетт\n\nSports.ru - провайдер развлечений для любителей спорта.\nЕсть спорт. Есть болельщики. Мы заполняем среду между ними, оживляем ее, наполняем общением и другими развлечениями. Мы делаем не «сайты» или «приложения», а мультиплатформенные продукты, с учетом актуальной технологической парадигмы.\n\nМы ищем Middle QA Engineer'а в наш флагманский проект Sports.ru.\nЭто главное медиа о спорте на русском языке с аудиторией 18 млн пользователей в месяц. Highload-проект с десятками тысяч RPS, состоящий из самых разных продуктов – сайтов, мобильных приложений, email-рассылок, чат-ботов и многого другого.\n\nВ данный момент мы заняты активным внедрением процесса тестирования. Под капотом - нативный js на фронте, php+perl на бэке. Все новые сервисы разрабатываем на новом стеке: vue.js+ssr+golang+graphql. Да, легаси есть - иногда попадается, но в тестирование всё же большинство задач идут на новом стеке.\n\nО задачах\nВы будете заниматься приёмкой фич и проведением регресса, написанием тестовой документации, разработкой автотестов и регистрацией ошибок в баг-трекере.\n\nО наших ожиданиях\nМы ждем, что вы уже минимум пару лет как в профессии и имеете хороший опыт ручного тестирования. Знаете различные инструменты и подходы к тестированию, обладаете навыками тест-дизайна и умеете их применять.\nПонимаете процессы разработки и тестирования, а также, что процессы не могут быть идеальными, но к этому необходимо стремиться.\nМы также ждем, что вы уже имеете навыки автоматизации и не ограничились одним инструментом.\n\nБудет плюсом\nЕсли вы уже пробовали себя в нагрузочном тестировании и автоматизации мобильных устройств.\n\nОб условиях:\nПросторный стильный офис возле м. Новокузнецкая/Третьяковская.\n“Белая” заработная плата.\nБесплатная медстраховка со стоматологией после испытательного срока.\nГибкий график работы с возможностью день-два в неделю работать удаленно,\nФрукты, снеки, чай, кофе, какао 24/7.\nКорпоративная скидка в спортзал и на занятия английским языком.\nКорпоративный футбол с тренером.\nФинансовая помощь при переезде из другого города.\nВозможности для профессионального развития.\n\nНазвание компании: Sports.ru (Tribuna Digital)\nКого заинтересовало, пишите мне в личку (@pbuyatova), рада буду поделиться подробностями:)","markup":[{"type":"hashtag","offset":0,"length":9,"data":"вакансия"},{"type":"hashtag","offset":10,"length":7,"data":"Москва"},{"type":"hashtag","offset":18,"length":5,"data":"офис"},{"type":"hashtag","offset":24,"length":3,"data":"QA"},{"type":"hashtag","offset":28,"length":12,"data":"тестировщик"},{"type":"hashtag","offset":41,"length":9,"data":"fulltime"},{"type":"hashtag","offset":124,"length":5,"data":"офис"},{"type":"hashtag","offset":141,"length":7,"data":"полная"},{"type":"link","offset":179,"length":9,"data":"http://Sports.ru"},{"type":"bold","offset":179,"length":9,"data":""},{"type":"bold","offset":479,"length":20,"data":""},{"type":"link","offset":525,"length":9,"data":"http://Sports.ru"},{"type":"bold","offset":1077,"length":10,"data":""},{"type":"bold","offset":1240,"length":18,"data":""},{"type":"bold","offset":1686,"length":13,"data":""},{"type":"bold","offset":1791,"length":13,"data":""},{"type":"link","offset":2284,"length":9,"data":"http://Sports.ru"},{"type":"handle","offset":2353,"length":10,"data":"pbuyatova"}],"date":"2020-06-26T10:04:13+00:00","link":"tg://resolve?domain=qa_jobs&post=98990","tags":[{"name":"qa"},{"name":"php"},{"name":"perl"},{"name":"vuejs"},{"name":"go"},{"name":"graphql"}],"cities":[{"code":"moscow"}],"allowsRemote":true}},{"node":{"__typename":"Job","id":"17163091968-1001110946746","title":"Js разработчик","text":"#вакансия #удаленно #fullstack #JavaScript #NodeJS #Vue #middle #junior\n\nГород: г. Москва, Сколково, б-р Большой\nФорма работы: удаленка\nЗанятость: полная\nЗарплатная вилка: от 80000 до 120000 рублей\nНазвание компании: ADMON\n\nВ связи с расширением штата, компания ADMON приглашает Junior+/Middle Full-stack JavaScript-разработчиков, готовых стать полноценными членами нашей команды на удаленной основе. ADMON – одна из ведущих российских компаний по предотвращению и расследованию мошенничества в сфере рекламы в Интернете и на мобильных устройствах с использованием высоких технологий, являемся резидентами Сколково. Основные направления деятельности компании: мониторинг и предотвращение мошенничества, аудит рекламных кампаний, разработка инновационных программных продуктов по мониторингу, обнаружению и предотвращению возникающих видов мошенничества.\n\nСтек технологий:\nNode.JS, Vue, GraphQl, Jest, Redis, Clickhouse, PostgreSQL, Docker.\n\nЧто используем в работе:\n    ✔️ Jira (Kanban), Confluence;\n   ✔️Храним код в Gitlab, тут же CI/CD;\n    ✔️Практикуем code review, политику частых релизов, гибкие методологии разработки;\n    ✔️Мониторим состояние приложений с помощью: Zabbix, Grafana.\n\nВ задачи будет входить:\n    🔸 Улучшать имеющийся функционал и разрабатывать новый (Система нотификаций, Обработка платежей, Алгоритмы атрибуции, Ads Crawler и т.д.);\n    🔸Писать тесты и рефакторить кодовую базу;\n    🔸Участвовать в принятии архитектурных решений;\n    🔸 Работать как в составе команды, так и в одного над небольшими проектами;\n   🔸Участвовать в коммуникации с командой;\n    🔸Быть инициативным и предлагать свои идеи, в том числе, если это касается использования новых технологий — проводить code review.\n\nЧто мы предлагаем:\n    🚀 Удаленная работа;\n    🚀 Оформление по ТК РФ;\n    🚀 Полностью белая ЗП;\n    🚀График работы 5/2;\n    🚀 Можно выбрать свой график работы;\n    🚀Наставничество по предметной области и на равной позиции;\n    🚀 Возможность работать как в составе команды, так и возглавить со временем свое направление — мы готовы обсуждать любые ваши идеи. \n\n Контакты:@juliajudina2810\n Резюме можно присылать на почту: hr@resurs-hr.ru\n\n—\n\n👉 Обсуждение вакансии в чате @javascript_jobs","markup":[{"type":"hashtag","offset":0,"length":9,"data":"вакансия"},{"type":"hashtag","offset":10,"length":9,"data":"удаленно"},{"type":"hashtag","offset":20,"length":10,"data":"fullstack"},{"type":"hashtag","offset":31,"length":11,"data":"JavaScript"},{"type":"hashtag","offset":43,"length":7,"data":"NodeJS"},{"type":"hashtag","offset":51,"length":4,"data":"Vue"},{"type":"hashtag","offset":56,"length":7,"data":"middle"},{"type":"hashtag","offset":64,"length":7,"data":"junior"},{"type":"handle","offset":2104,"length":16,"data":"juliajudina2810"},{"type":"link","offset":2155,"length":15,"data":"mailto:hr@resurs-hr.ru"},{"type":"handle","offset":2205,"length":16,"data":"javascript_jobs"}],"date":"2020-06-26T07:25:28+00:00","link":"tg://resolve?domain=javascript_jobs_feed&post=16368","tags":[{"name":"javascript"},{"name":"nodejs"},{"name":"vuejs"},{"name":"graphql"},{"name":"redis"},{"name":"postgresql"},{"name":"docker"},{"name":"gitlab"}],"cities":[{"code":"moscow"}],"allowsRemote":true}},{"node":{"__typename":"Job","id":"17156800512-1001110946746","title":"Js разработчик","text":"#вакансия #москва #middle #remote #angular #fulltime #офис\n\nИщем frontend разработчика для работы над основным сайтом и новыми разделами.\nГород и адрес офиса: Москва, м. Авиамоторная\nФормат работы: Офис\nЗанятость: полная\nЗарплатная вилка: 130 000 — 150 000 на руки по результатам технического собеседования\n\nAutospot.ru — онлайн гипермаркет автомобилей. \n\nВ 2018 году Mitsubishi Corporation и Mail.ru. оценили нас в $19,1 млн.\n\nВ технической команде 17 человек: СТО, 9 PHP разработчиков, 2 frontend разработчика, 3 тестировщика, DevOps.\n\nЧеловек нужен в Москве или готовый в эту самую Москву переехать.\n\nОбязанности:\n▫️Разработка компонентов и адаптация/интеграция сторонних библиотек и плагинов;\n▫️ Верстка новых разделов, кроссбраузерная, адаптивная, валидная;\n▫️ Развитие библиотеки UI компонентов;\n▫️ Оперативное исправление багов на проде (IE 11+);\n▫️ Помощь в оптимизации работы сайта (скорость загрузки, оптимизация DOM).\n\nТребования:\n▪️ Опыт разработки от 2 лет;\n▪️ Знание JavaScript (jQuery в разумных пределах);\n▪️ Уверенное знание html семантическая верстка, БЭМ, SCSS;\n▪️ Знание работы GIT & NPM;\n▪️ Опыт работы с gulp/webpack;\n▪️ Опыт работы с Figma/Zeplin;\n▪️ Опыт работы с векторной графикой (svg и svg-спрайты).\n\nЖелательно:\n◾️ Хорошее знание Vue.js и/или Angular 5+. Работать надо будет и с тем и с другим. Angular 5+ в приоритете, планируется переход полностью на него;\n◾️ Знание инструментов организации разработки Jira;\n◾️ Знание нюансов работы браузеров на разных устройствах и ОС;\n◾️ Опыт сео оптимизации;\n◾️ Понимание, что такое доступные интерфейсы;\n\nУсловия:\n▫️ Комфортабельный офис, БЦ Light Tower, бесплатный шаттл от м. Площадь Ильича;\n▫️ Оформление по ТК РФ с первого рабочего дня;\n▫️ Гибкое начало рабочего дня, с 9 до 11;\n▫️ Возможность работать 1-2 дня удалённо;\n▫️ Полностью белая заработная плата;\n▫️ Неформальная атмосфера и дружный, амбициозный коллектив;\n▫️ Корпоративная скидка на изучение английского языка.\n\nКонтакт: @dianadoma\n\n—\n\n👉 Обсуждение вакансии в чате @javascript_jobs","markup":[{"type":"hashtag","offset":0,"length":9,"data":"вакансия"},{"type":"hashtag","offset":10,"length":7,"data":"москва"},{"type":"hashtag","offset":18,"length":7,"data":"middle"},{"type":"hashtag","offset":26,"length":7,"data":"remote"},{"type":"hashtag","offset":34,"length":8,"data":"angular"},{"type":"hashtag","offset":43,"length":9,"data":"fulltime"},{"type":"hashtag","offset":53,"length":5,"data":"офис"},{"type":"link","offset":308,"length":11,"data":"http://Autospot.ru"},{"type":"link","offset":393,"length":7,"data":"http://Mail.ru"},{"type":"handle","offset":1957,"length":10,"data":"dianadoma"},{"type":"handle","offset":2002,"length":16,"data":"javascript_jobs"}],"date":"2020-06-25T18:01:18+00:00","link":"tg://resolve?domain=javascript_jobs_feed&post=16362","tags":[{"name":"javascript"},{"name":"angularjs"},{"name":"php"},{"name":"jquery"},{"name":"html"},{"name":"git"},{"name":"npm"},{"name":"gulp"},{"name":"webpack"},{"name":"svg"},{"name":"vuejs"}],"cities":[{"code":"moscow"}],"allowsRemote":true}},{"node":{"__typename":"Job","id":"17152606208-1001110946746","title":"Js разработчик","text":"#вакансия #frontend #vue #senior #middle #remote #офис #удаленка\n\nГород: Москва, м. Славянский бульвар\nФормат работы: офис, удаленное сотрудничество\nЗанятость: полная, гибкий график (обсуждаем)\nЗарплатная вилка: от 80 000 рублей до 240 000 рублей на руки\nНазвание компании: ФГБУ «ИАЦ МЧС России»\nКонтакты для связи: @mxrkin\n\nНа данный момент отдел разработки программного обеспечения формирует команду JS-разработчиков для поддержки существующих и реализации новых проектов.\n\nТребования для соискателей:\n— уверенные знания Javascript, знание стандартов ECMAScript;\n— знание и опыт применения фреймворка Vue.js и использование элементов экосистемы фреймворка (vuex, vue-router);\n— опыт использования систем сборки - webpack, gulp, parcel. Опыт написания конфигов для webpack;\n— владение препроцессорами CSS - SASS/LESS;\n— опыт использования Prettier, ESLint;\n— гражданство РФ (местонахождение так же РФ).\n\nПлюсом будет:\n— владение Node.js или знание других языков программирования;\n— активные профили в сообществах habrahabr, habr Q&A, участие в opensource проектах, активный профиль github;\n— опыт работы с библиотекой D3.js;\n— опыт работы с картографическими библиотеками.\n\nТрудоустройство официальное по ТК РФ, социальный пакет.\nНа территории имеется столовая для сотрудников, спортивные площадки, футбольное и баскетбольное поле.\nРабота не является государственной службой.\n\nСобеседование проходит в три этапа — общение с руководителем, выполнение тестового задания (простое задание на 15-30 минут), предложение сотрудничества. \n\nЕсли вас заинтересовала вакансия, обращайтесь в тг @mxrkin. Большим плюсом будет, если первым сообщением прикрепите резюме и поделитесь ссылками на проекты, в которых принимали активное участие, или ссылку на гитхаб с кодом, который, по-вашему мнению, сможет показать все ваши знания и навыки.","markup":[{"type":"hashtag","offset":0,"length":9,"data":"вакансия"},{"type":"hashtag","offset":10,"length":9,"data":"frontend"},{"type":"hashtag","offset":20,"length":4,"data":"vue"},{"type":"hashtag","offset":25,"length":7,"data":"senior"},{"type":"hashtag","offset":33,"length":7,"data":"middle"},{"type":"hashtag","offset":41,"length":7,"data":"remote"},{"type":"hashtag","offset":49,"length":5,"data":"офис"},{"type":"hashtag","offset":55,"length":9,"data":"удаленка"},{"type":"handle","offset":316,"length":7,"data":"mxrkin"},{"type":"handle","offset":1584,"length":7,"data":"mxrkin"}],"date":"2020-06-25T13:40:01+00:00","link":"tg://resolve?domain=javascript_jobs_feed&post=16358","tags":[{"name":"javascript"},{"name":"vuejs"},{"name":"webpack"},{"name":"gulp"},{"name":"css"},{"name":"sass"},{"name":"nodejs"},{"name":"github"}],"cities":[{"code":"moscow"}],"allowsRemote":true}},{"node":{"__typename":"Job","id":"17146314752-1001110946746","title":"Js разработчик","text":"#вакансия #екб #екатеринбург #react #frontend #middle\n\nПозиция: Разработчик React \nКомпания: SoftMediaLab \nЛокация: Екатеринбург \nФормат работы: #удаленка или  #офис\nЗанятость: #фултайм \nЗП 110 000 - 140 000 рублей на руки\n\nSoftMediaLab – была основана в 2015 году в городе Екатеринбурге. Основатели компании – разработчики, поэтому никакой бюрократии и странных решений, процессы максимально простые и понятные, среда дружественная. \nРазрабатываем в основном стартапы для России, Европы и Америки. \n\nЗадачи: \n- улучшать имеющийся функционал и разрабатывать новый \n- участвовать в принятии архитектурных решений \n\nСтек: react, redux, typescript, bootstrap, material-ui, JQuery, sass, less\n\nРассматриваем также кандидатов, которые  ранее писали на vue.js или angular (от 2х лет), но хотели бы перейти на react\n\nДля связи @Ekaterina_Mitroshkina  или @iamanastasie","markup":[{"type":"hashtag","offset":0,"length":9,"data":"вакансия"},{"type":"hashtag","offset":10,"length":4,"data":"екб"},{"type":"hashtag","offset":15,"length":13,"data":"екатеринбург"},{"type":"hashtag","offset":29,"length":6,"data":"react"},{"type":"hashtag","offset":36,"length":9,"data":"frontend"},{"type":"hashtag","offset":46,"length":7,"data":"middle"},{"type":"hashtag","offset":145,"length":9,"data":"удаленка"},{"type":"hashtag","offset":160,"length":5,"data":"офис"},{"type":"hashtag","offset":177,"length":8,"data":"фултайм"},{"type":"handle","offset":820,"length":22,"data":"Ekaterina_Mitroshkina"},{"type":"handle","offset":848,"length":13,"data":"iamanastasie"}],"date":"2020-06-25T08:48:37+00:00","link":"tg://resolve?domain=javascript_jobs_feed&post=16352","tags":[{"name":"javascript"},{"name":"reactjs"},{"name":"redux"},{"name":"typescript"},{"name":"bootstrap"},{"name":"jquery"},{"name":"sass"},{"name":"vuejs"},{"name":"angularjs"},{"name":"react-redux"}],"cities":[],"allowsRemote":true}},{"node":{"__typename":"Job","id":"17141071872-1001110946746","title":"Js разработчик","text":"#вакансия #удаленно #fullstack #JavaScript #NodeJS #Vue #middle #senior\n\nГород: г. Москва, Сколково, б-р Большой\nФорма работы: удаленка\nЗанятость: полная\nЗарплатная вилка: от 120000 до 200000 рублей\nНазвание компании: ADMON\n\nВ связи с расширением штата, компания ADMON приглашает Middle/Senior Full-stack JavaScript-разработчиков, готовых стать полноценными членами нашей команды на удаленной основе. ADMON – одна из ведущих российских компаний по предотвращению и расследованию мошенничества в сфере рекламы в Интернете и на мобильных устройствах с использованием высоких технологий, являемся резидентами Сколково. Основные направления деятельности компании: мониторинг и предотвращение мошенничества, аудит рекламных кампаний, разработка инновационных программных продуктов по мониторингу, обнаружению и предотвращению возникающих видов мошенничества.\n\nСтек технологий:\nNode.JS, Vue, GraphQl, Jest, Redis, Clickhouse, PostgreSQL, Docker.\n\nЧто используем в работе:\n    ✔️ Jira (Kanban), Confluence;\n   ✔️Храним код в Gitlab, тут же CI/CD;\n    ✔️Практикуем code review, политику частых релизов, гибкие методологии разработки;\n    ✔️Мониторим состояние приложений с помощью: Zabbix, Grafana.\n\nВ задачи будет входить:\n    🔸 Улучшать имеющийся функционал и разрабатывать новый (Система нотификаций, Обработка платежей, Алгоритмы атрибуции, Ads Crawler и т.д.);\n    🔸Писать тесты и рефакторить кодовую базу;\n    🔸Участвовать в принятии архитектурных решений;\n    🔸 Работать как в составе команды, так и в одного над небольшими проектами;\n   🔸Участвовать в коммуникации с командой;\n    🔸Быть инициативным и предлагать свои идеи, в том числе, если это касается использования новых технологий — проводить code review.\n\nЧто мы предлагаем:\n    🚀 Удаленная работа;\n    🚀 Оформление по ТК РФ;\n    🚀 Полностью белая ЗП;\n    🚀График работы 5/2;\n    🚀 Можно выбрать свой график работы;\n    🚀Наставничество по предметной области и на равной позиции;\n    🚀 Возможность работать как в составе команды, так и возглавить со временем свое направление — мы готовы обсуждать любые ваши идеи. \n\n Контакты:@juliajudina2810\n Резюме можно присылать на почту: hr@resurs-hr.ru","markup":[{"type":"hashtag","offset":0,"length":9,"data":"вакансия"},{"type":"hashtag","offset":10,"length":9,"data":"удаленно"},{"type":"hashtag","offset":20,"length":10,"data":"fullstack"},{"type":"hashtag","offset":31,"length":11,"data":"JavaScript"},{"type":"hashtag","offset":43,"length":7,"data":"NodeJS"},{"type":"hashtag","offset":51,"length":4,"data":"Vue"},{"type":"hashtag","offset":56,"length":7,"data":"middle"},{"type":"hashtag","offset":64,"length":7,"data":"senior"},{"type":"handle","offset":2104,"length":16,"data":"juliajudina2810"},{"type":"link","offset":2155,"length":15,"data":"mailto:hr@resurs-hr.ru"}],"date":"2020-06-25T06:43:58+00:00","link":"tg://resolve?domain=javascript_jobs_feed&post=16347","tags":[{"name":"javascript"},{"name":"nodejs"},{"name":"vuejs"},{"name":"graphql"},{"name":"redis"},{"name":"postgresql"},{"name":"docker"},{"name":"gitlab"}],"cities":[{"code":"moscow"}],"allowsRemote":true}},{"node":{"__typename":"Job","id":"103559462912-1001089317451","title":"Qa инженер","text":"#вакансия #удалёнка #testautomation #junior #middle #playwright #nightwatch #js #vue\n\nВ международную компанию, базирующуюся в США требуется разработчик е2е тестов. Есть тесты на Nightwatch, хотим мигрировать на Playwright.\n\nЗП от $9-15 в час, в зависимости от уровня. \n\nУдалёнка, график свободный. От 20 часов в неделю, но лучше фулл тайм.\n\nВакансия может рассматриваться как временный проект, но если есть знание JS фреймворков, особенно Vue, и желание развиваться в этом направлении, возможно дальнейшее сотрудничество.\n\nCrowley Marine\nwww.crowleymarine.com","markup":[{"type":"hashtag","offset":0,"length":9,"data":"вакансия"},{"type":"hashtag","offset":10,"length":9,"data":"удалёнка"},{"type":"hashtag","offset":20,"length":15,"data":"testautomation"},{"type":"hashtag","offset":36,"length":7,"data":"junior"},{"type":"hashtag","offset":44,"length":7,"data":"middle"},{"type":"hashtag","offset":52,"length":11,"data":"playwright"},{"type":"hashtag","offset":64,"length":11,"data":"nightwatch"},{"type":"hashtag","offset":76,"length":3,"data":"js"},{"type":"hashtag","offset":80,"length":4,"data":"vue"},{"type":"link","offset":539,"length":21,"data":"http://www.crowleymarine.com"}],"date":"2020-06-23T16:01:07+00:00","link":"tg://resolve?domain=qa_jobs&post=98762","tags":[{"name":"qa"},{"name":"vuejs"}],"cities":[],"allowsRemote":true}},{"node":{"__typename":"Job","id":"103540588544-1001089317451","title":"Qa инженер","text":"#вакансия #fulltime #Middle #Manual #Auto #Functional #Regression #RoR #Vue\n\nО компании:\nhttplab.ru\nРазработка и консалтинг Ruby on Rails проектов.\nМы — небольшая команда Rails–разработчиков. Не любим бюрократию и предпочитаем работать маленьким коллективом, где каждый человек незаменим.\n\nВ основном работаем с проектами, автоматизирующими интернет-маркетинг B2B (зарубежный рынок).\n\nЗарплатная вилка:\nот 60 000 RUB до 110 000\n\nТип работы:\nПолный рабочий день\n\nТип занятости:\nОфис, Ростов-на-Дону\nМожно удаленно\n\nОписание вакансии:\nРазрабатываем веб-приложения для автоматизации рутинных задач бизнеса, например, колл-центр, CRM для рекламных агентств, аналитические системы. Нам приходится работать с очень сложной бизнес–логикой, и ее сложными настройками, отображать разнородные данные и формировать отчеты.\n\nОбязанности:\n• Налаживание процесса тестирования продукта;\n• Проведение функционального, регрессионного и интеграционного тестирования;\n• Обнаружение, описание и отслеживание дефектов в работе приложения;\n• Контроль исправления ошибок.\n\nНаш стек:\nRuby on Rails, Vue\n\nТребования:\n• English (взаимодействие с разработчиками и менеджером);\n• Linux;\n• Git;\n• SQL;\n• Ruby on Rails;\n• Vue.\n\nБудут плюсом:\n• Docker;\n• Понимание принципов работы CI/CD;\n• Разработка скриптов тестирования для типовых задач.\n\nУсловия работы:\n• Уютный офис в самом центре;\n• Полный 9–часовой рабочий день;\n• Гибкий график (с 7.00 до 16.00, с 12.00 до 21.00, ...);\n• Дружная команда, демократичная атмосфера;\n• Участие в разработке систем федерального масштаба.\n\nДополнительные инструкции:\nПрислать CV, сообщить удобное время для собеседования\nУдобнее всего, если оставите отклик тут: https://career.habr.com/vacancies/1000058890\n\nКонтакты:\ninfo@httplab.ru, @flggg","markup":[{"type":"hashtag","offset":0,"length":9,"data":"вакансия"},{"type":"hashtag","offset":10,"length":9,"data":"fulltime"},{"type":"hashtag","offset":20,"length":7,"data":"Middle"},{"type":"hashtag","offset":28,"length":7,"data":"Manual"},{"type":"hashtag","offset":36,"length":5,"data":"Auto"},{"type":"hashtag","offset":42,"length":11,"data":"Functional"},{"type":"hashtag","offset":54,"length":11,"data":"Regression"},{"type":"hashtag","offset":66,"length":4,"data":"RoR"},{"type":"hashtag","offset":71,"length":4,"data":"Vue"},{"type":"bold","offset":77,"length":19,"data":""},{"type":"link","offset":89,"length":7,"data":"http://httplab.ru/"},{"type":"link","offset":96,"length":3,"data":"http://httplab.ru/"},{"type":"bold","offset":385,"length":18,"data":""},{"type":"bold","offset":429,"length":12,"data":""},{"type":"bold","offset":462,"length":15,"data":""},{"type":"bold","offset":514,"length":19,"data":""},{"type":"bold","offset":813,"length":12,"data":""},{"type":"bold","offset":1050,"length":10,"data":""},{"type":"bold","offset":1080,"length":12,"data":""},{"type":"bold","offset":1198,"length":14,"data":""},{"type":"bold","offset":1313,"length":16,"data":""},{"type":"bold","offset":1548,"length":27,"data":""},{"type":"link","offset":1670,"length":44,"data":"https://career.habr.com/vacancies/1000058890"},{"type":"bold","offset":1716,"length":9,"data":""},{"type":"link","offset":1726,"length":15,"data":"mailto:info@httplab.ru"},{"type":"handle","offset":1743,"length":6,"data":"flggg"}],"date":"2020-06-23T14:01:57+00:00","link":"tg://resolve?domain=qa_jobs&post=98744","tags":[{"name":"qa"},{"name":"ruby-on-rails"},{"name":"vuejs"},{"name":"ruby"},{"name":"linux"},{"name":"git"},{"name":"sql"},{"name":"docker"}],"cities":[{"code":"rostov"}],"allowsRemote":true}}]}}},"context":{}}