{"hash":"f5f6bf98bd95e769321482904cbbd488f77922fd","data":{"records":{"id":"postgresql","name":"postgresql","belongsTo":{"totalCount":141,"pageInfo":{"totalPages":15,"currentPage":12},"edges":[{"node":{"__typename":"Job","id":"1690304512-1001091028994","title":"Java developer","text":"Вакансия: Java developer \n \nПроект: Разрабатываем единый веб-терминал MOEX Treasury, который позволит получить быстрый и удобный доступ ко всем рынкам Московской Биржи, а также сервисам по управлению обеспечением и внебиржевым операциям. Это не просто веб-интерфейс к уже существующим торговым системам, а новая платформа, которая взаимодействует со всеми основными торговыми и бэк-офисными системами Биржи, которая сейчас начинает активно развиваться.\n \nТехнологический стек на проекте: Java 8, Spring (Spring Boot, Spring MVC), Hazelcast, WebSocket, RabbitMQ, Firebird (с переходом на PostgreSQL), в интеграционных решения REST API и JMS.\n \nЗадачи на проекте:\n Участие в проекте по разработке платформы, объединяющей основные рынки и инструменты Московской Биржи;\n Разработка и отладка модулей платформы;\n Интеграция приложения с внешними и внутренними сервисами;\n Написание понятного и стабильно работающего кода;\n Активное взаимодействие со специалистами из смежных подразделений;\n Поиск и аргументация технически эффективных путей решения бизнес задач;\n Умение и желание писать чистый и понятный код;\n Навык написания unit и интеграционных тестов на Java;\n Паттерны проектирования.\n\nЧто ожидаем от Вас:\n Опыт промышленной разработки (от 3 лет);\n\nФундаментальные знания принципов построения распределенных систем;\n Уверенные знания core Java;\n Опыт разработки веб-сервисов;\n Знание паттернов проектирования;\n Применение практик TDD, DDD, CI/CD.\n\nНаши условия работы:\n• Компания: ПАО Московская биржа (Компания, входящая в 500 - лучших работодателей мира по версии Forbes за 2019 год);\n• Офис в центре: г. Москва, м. Арбатская/Библиотека им. Ленина/Боровицкая/Александровский сад;\n• Занятость: полная, официальное оформление в штат компании (оформление онлайн);\n• Формат работы: современный  офис возле Кремля в шаговой доступности от метро (на данный момент работаем удаленно из дома);\n• ДМС: с первого рабочего дня;\n• Свой «корпоративный университет», собственный лекторий, широкие возможности обучения – как внутри, так и вне компании;\n• Уровень з/п:  230 - 290 тыс.руб. (gross) + годовой бонус (25% от годового дохода);\n• Формат интервью: 1 этап онлайн интервью (60 минут).\n\nПишите в личку, отвечу на любые вопросы!\nКонтакты: @Sasha_P92\nAlexander.Panin@moex.com","markup":[{"type":"bold","offset":0,"length":26,"data":""},{"type":"bold","offset":28,"length":8,"data":""},{"type":"bold","offset":455,"length":33,"data":""},{"type":"bold","offset":643,"length":19,"data":""},{"type":"bold","offset":1188,"length":20,"data":""},{"type":"bold","offset":1450,"length":21,"data":""},{"type":"bold","offset":1744,"length":19,"data":""},{"type":"handle","offset":2233,"length":10,"data":"Sasha_P92"},{"type":"link","offset":2244,"length":24,"data":"mailto:Alexander.Panin@moex.com"}],"date":"2020-06-16T08:53:26+00:00","link":"tg://resolve?domain=jvmjobs&post=1612","tags":[{"name":"java"},{"name":"jvm"},{"name":"spring"},{"name":"websocket"},{"name":"rabbitmq"},{"name":"postgresql"},{"name":"rest"},{"name":"spring-boot"},{"name":"spring-mvc"}],"cities":[{"code":"moscow"}],"allowsRemote":true}},{"node":{"__typename":"Job","id":"1689255936-1001091028994","title":"Java разработчик","text":"Вакансия Team Lead Java \n\nПроект: Разрабатываем единый веб-терминал MOEX Treasury, который позволит получить быстрый и удобный доступ ко всем рынкам Московской Биржи, а также сервисам по управлению обеспечением и внебиржевым операциям. Это не просто веб-интерфейс к уже существующим торговым системам, а новая платформа, которая взаимодействует со всеми основными торговыми и бэк-офисными системами Биржи, которая сейчас начинает активно развиваться.\n \nТехнологический стек: Java 8, Spring (Spring Boot, Spring MVC), Hazelcast, WebSocket, RabbitMQ, Firebird (с переходом на PostgreSQL), в интеграционных решения REST API и JMS.\n \n Задачи на проекте:\n Участие в проекте по разработке платформы, объединяющей основные рынки и инструменты Московской Биржи;\n Подбор команды java-разработчиков (3 человека);\n Решение всех эскалаций по сотрудникам направления – качество и производительность работы, мотивация и пр.;\n Обеспечение качества работы членов команды;\n Накопление экспертизы по направлению;\n Организация и поддержание в актуальном состоянии базы знаний, проведение внутренних мероприятий по обмену знаниями и пр.;\n Проработка подхода к организации работ и его документирование в регламентах;\n Информирование всех заинтересованных сторон о процессе и его изменениях, контроль следования установленному процессу;\n Оценка задач в итерацию, оценка скоупа входящих работ;\n Ревью оценок от команды, отчетность план/факт по задачам команды;\n Разработка и контроль стандартов проектирования и качества кода для внешнего подрядчика.\n \nЧто мы ожидаем от Вас:\n Глубокое знание Java core;\n Знание принципов ООП и понимание паттернов проектирования;\n Уверенное знание JEE, Spring, Spring Boot, Spring MVC;\n Опыт разработки высоконагруженных систем;\n Уверенное знание, опыт проектирования и разработки RESTful API и WebSocket;\n Уверенное знание и опыт работы с данными в формате xml,json;\n Опыт работы с jaxb;\n Уверенное знание rdms. умение отлаживать, оптимизировать sql запросы;\n Опыт работы с Postgres приветствуется.\n\nНаши условия работы:\n• Компания: ПАО Московская биржа (Компания, входящая в 500 - лучших работодателей мира по версии Forbes за 2019 год);\n• Офис в центре: г. Москва, м. Арбатская/Библиотека им. Ленина/Боровицкая/Александровский сад;\n• Занятость: полная, официальное оформление в штат компании (оформление онлайн);\n• Формат работы: современный  офис возле Кремля в шаговой доступности от метро (на данный момент работаем удаленно из дома);\n• ДМС: с первого рабочего дня;\n• Свой «корпоративный университет», собственный лекторий, широкие возможности обучения – как внутри, так и вне компании;\n• Уровень з/п:  300 - 350 тыс.руб. (gross) + годовой бонус (32% от годового дохода);\n• Формат интервью: 1 этап онлайн интервью (60 минут).\n\nПишите в личку, отвечу на любые вопросы!\nКонтакты: @Sasha_P92\nAlexander.Panin@moex.com","markup":[{"type":"bold","offset":0,"length":34,"data":""},{"type":"bold","offset":453,"length":22,"data":""},{"type":"bold","offset":631,"length":19,"data":""},{"type":"bold","offset":1530,"length":23,"data":""},{"type":"bold","offset":2012,"length":21,"data":""},{"type":"bold","offset":2306,"length":19,"data":""},{"type":"handle","offset":2795,"length":10,"data":"Sasha_P92"},{"type":"link","offset":2806,"length":24,"data":"mailto:Alexander.Panin@moex.com"}],"date":"2020-06-16T08:53:10+00:00","link":"tg://resolve?domain=jvmjobs&post=1611","tags":[{"name":"java"},{"name":"jvm"},{"name":"spring"},{"name":"websocket"},{"name":"rabbitmq"},{"name":"postgresql"},{"name":"rest"},{"name":"xml"},{"name":"json"},{"name":"jaxb"},{"name":"sql"},{"name":"spring-boot"},{"name":"spring-mvc"}],"cities":[{"code":"moscow"}],"allowsRemote":true}},{"node":{"__typename":"Job","id":"1688207360-1001091028994","title":"Java разработчик","text":"#вакансия #офис #Самара #Java\n\nДобрый день!\n🧐 Очень срочно разыскивается Senior или прошаренный Middle Java developer в компанию Open Code.\n\n👨‍👩‍👧‍👦В компании 200 разработчиков, штат постоянно растет.\n\n👩🏻‍🏫Каждый год стартуют новые проекты, под проекты обновляют стек, используют новые технологии.\n\n👫Команды внутри собирают по 5-8, максимум 12 человек, к разработчикам присоединяются тестировщики и аналитики, команды участвуют в совещаниях и формировании ТЗ\n\n👓У компании есть свой учебный центр. http://open-distance.ru/\nOpen Code является партнером Санкт-Петербургского университета ИТМО. На базе компании открыта  кафедра магистратуры этого ВУЗа. \nСотрудники имеют возможность получить на бюджетной основе образование степени магистра, обучаясь в офисе компании и на основе своих рабочих проектов. \nВыдаются дипломы гос. образца Санкт-Петербургского университета ИТМО об окончании магистратуры.\n\n🤝Тебе скажут уверенное \"да\", протянут руку и пригласят в команду если:\n- ты больше 3-х лет восхищен Java 8+, особенно любишь Spring;\n- тебе нравится, как звучит слово Hibernate;\n- знаешь, что в кишочках одной из СУБД: PostgreSQL, Oracle, MS SQL Server;\n- Git. Ну, ты понимаешь, что надо =) ;\n- ActiveMQ, Hadoop, Lucene, Elasticsearch, Gradle, Maven - вот это вот все.\n\n🧑🏻‍💻Чем заняться вместо работы:\n- Разрабатывать новый функционал серверной части\n- Участвовать в проектировании отдельных модулей системы\n- Разработывать интеграцию с внешними системами\n- Рефакторить поддерживать существующий код\n- Покрывать код юнит-тестами\n\n🧁А теперь о плюшках, кроме обучения в ИТМО:\n- ЗП 150-170 в руки\n- Занятия английским языком в офисе компании\n- Бассейн, фитнес-центр\n- Футбол/волейбол\n- Дружная команда\n- Посещение культурных мероприятий за счет компании\n- Перспектива карьерного роста\n- И другие заслуженные ништяки от компании\n\n\n🏄🏻Отличая возможность научиться чему-то новому с комфортом!\n\nЗаинтересовало?\n\n📲Пиши мне. @reanimatsiya","markup":[{"type":"hashtag","offset":0,"length":9,"data":"вакансия"},{"type":"hashtag","offset":10,"length":5,"data":"офис"},{"type":"hashtag","offset":16,"length":7,"data":"Самара"},{"type":"hashtag","offset":24,"length":5,"data":"Java"},{"type":"bold","offset":103,"length":15,"data":""},{"type":"bold","offset":130,"length":9,"data":""},{"type":"link","offset":507,"length":24,"data":"http://open-distance.ru/"},{"type":"bold","offset":911,"length":70,"data":""},{"type":"bold","offset":1286,"length":28,"data":""},{"type":"bold","offset":1544,"length":43,"data":""},{"type":"bold","offset":1844,"length":59,"data":""},{"type":"handle","offset":1932,"length":13,"data":"reanimatsiya"}],"date":"2020-06-16T08:52:54+00:00","link":"tg://resolve?domain=jvmjobs&post=1610","tags":[{"name":"java"},{"name":"jvm"},{"name":"spring"},{"name":"hibernate"},{"name":"postgresql"},{"name":"oracle"},{"name":"sql"},{"name":"git"},{"name":"hadoop"},{"name":"lucene"},{"name":"elasticsearch"},{"name":"gradle"},{"name":"maven"},{"name":"sql-server"}],"cities":[{"code":"samara"}],"allowsRemote":false}},{"node":{"__typename":"Job","id":"1687158784-1001091028994","title":"Java разработчик","text":"#java #senior #backend #js #Москва #fulltime #офис #angular\nЛокация: Москва, м. Шаболовская\nФормат работы: Office\nЗанятость: Fulltime\nЗарплата от 100 к до 240 к\nОписание вакансии:\nРазработчик JAVA (senior\\middle)\nНаш клиент - международная компания, в связи с расширением деятельности в России - приглашает опытных Java-разработчиков. \nРазработка собственного продукта - коммерческого приложения на основе Angular front + Java backend.\nОбязанности:\n- разработка новых компонентов системы\n- доработка и оптимизация существующих компонентов\n- поддержка качества кода (code review, использование систем автоматизированного контроля кода)\n- Написание юнит-тестов и функциональных тестов\n- Взаимодействие с бизнес-аналитиками для выполнения техзадания\nТребования:\n- Высшее образование\n- Командность, гибкость подходов и мышления\n- опыт разработки на java от 3 лет\nТехнические требования:\n- знание java 8, Spring-*(Boot, Data, Rest), Hibernate\n- опыт работы с SQL (SQL Server, Oracle или postgresql)\n- понимание основ микросервисной архитектуры\n- Git\n-если ты умеешь работать с Docker и понимаешь практики DevOps ты тот, кто нам нужен.\nАдекватных руководителей, сильную команду и офисные плюшки гарантируем\nКА Wit recruitment\nКонтакты m.buldenko@witrec.com\n@marinabuldenko","markup":[{"type":"hashtag","offset":0,"length":5,"data":"java"},{"type":"hashtag","offset":6,"length":7,"data":"senior"},{"type":"hashtag","offset":14,"length":8,"data":"backend"},{"type":"hashtag","offset":23,"length":3,"data":"js"},{"type":"hashtag","offset":27,"length":7,"data":"Москва"},{"type":"hashtag","offset":35,"length":9,"data":"fulltime"},{"type":"hashtag","offset":45,"length":5,"data":"офис"},{"type":"hashtag","offset":51,"length":8,"data":"angular"},{"type":"link","offset":1229,"length":21,"data":"mailto:m.buldenko@witrec.com"},{"type":"handle","offset":1251,"length":15,"data":"marinabuldenko"}],"date":"2020-06-16T08:20:47+00:00","link":"tg://resolve?domain=jvmjobs&post=1609","tags":[{"name":"java"},{"name":"jvm"},{"name":"angularjs"},{"name":"spring"},{"name":"rest"},{"name":"hibernate"},{"name":"sql"},{"name":"oracle"},{"name":"postgresql"},{"name":"git"},{"name":"docker"},{"name":"spring-boot"},{"name":"sql-server"}],"cities":[{"code":"moscow"}],"allowsRemote":false}},{"node":{"__typename":"Job","id":"102938705920-1001089317451","title":"Qa инженер","text":"#вакансия #москва #fulltime #middle #automation\n\n🏢Город: Москва, м. Ленинский проспект\n💻Формат: Офис\n💰З/п: до 170k на руки\n\n✌️Ищем тестировщика в команду сопровождения и развития облачной платформы собственной разработки на базе open source продуктов.\n«Лоялти энд Медиа Групп»- это современная облачная платформа - продуктовый маркетплейс и процессинг лояльности одновременно, заточенная под обработку больших массивов данных и создание продуктов и сервисов карточной лояльности для банков и мерчантов. Компания выступает как enabler и для тех, и для других, для чего реализовано большое количество интеграций с партнерами и клиентами, несколько white-label вебприложений для клиентов и набор API для онлайн-взаимодействия с приложениями клиентов и партнёров. Стратегический партнёр ЛМГ – Visa International.  \n\n📌Задачи: \n • Вам предстоит построить процесс тестирования в компании, фактически с нуля. \n • Участие в разработке правил и стандартов тестирования, поддержание высокого уровня культуры тестирования. \n • Создание и поддержка автоматизированных тестов\n • Ведение проекта – постоянная готовность предоставить полный и ясный отчет о состоянии проекта, анализ рисков, своевременное реагирование на проблемы. \n • Координация взаимодействия с другими участниками команды. \n • Выполнение всех работ, связанных с тестированием — сбор и анализ требований, разработка тестовой документации всех уровней, планирование, выдача оценок, подготовка тестовых сред и тестовых окружений, проведение циклов тестирования. \n  \n📌Требования: \n • Ясное понимание проектного подхода к работе, знакомство с различными методологиями управления проектами. \n • Опыт работы в тестировании от 2х лет. \n • Опыт использования ЯП в автоматизации тестирования  \n • Уверенные знания теории тестирования. \n • Умение составлять тестовую документацию всех уровней. \n • Английский язык на уровне чтения и написания технической документации. \n • Самостоятельность, высокий уровень личной дисциплины \n  \n📌Желательно: \n • Опыт работы с БД (PostgreSQL, PGBouncer, Redis, ElasticSearch, OpenLDAP) \n • Знание техник тестдизайна \n  \n📌Мы предлагаем: \n • Дружную команду и рабочую атмосферу с хорошим балансом творчества и задач. \n • Гибкий график. Возможна удаленная работа из дома по договоренности с командой. \n • Оплачиваемый отпуск и больничный. По предварительной договоренности у вас могут быть выходные дни для особых случаев. \n • Растущий коллектив – на данный момент около 20 человек, из которых половина – разработчики, devops и аналитики. \n • Адекватное руководство. \n • Полное отсутствие бюрократии. \n • Достойный уровень зарплаты. \n • Перспективы профессионального и карьерного роста. Мы убеждены, что компания должна инвестировать в развитие своих сотрудников и поэтому приветствуем посещение конференций, митапов, профессиональные курсы (некоторые из них возможно организовать за счет компании). \n • Офис в Москве, 7 минут от м. «Ленинский Проспект».\n\n✉️Почта: mkoneva@youhired.ru \n❗️Telegram: @nunquam2008\n📞 Телефон: +79210614118","markup":[{"type":"hashtag","offset":0,"length":9,"data":"вакансия"},{"type":"hashtag","offset":10,"length":7,"data":"москва"},{"type":"hashtag","offset":18,"length":9,"data":"fulltime"},{"type":"hashtag","offset":28,"length":7,"data":"middle"},{"type":"hashtag","offset":36,"length":11,"data":"automation"},{"type":"link","offset":2946,"length":19,"data":"mailto:mkoneva@youhired.ru"},{"type":"handle","offset":2979,"length":12,"data":"nunquam2008"},{"type":"link","offset":3004,"length":12,"data":"tel:+79210614118"}],"date":"2020-06-16T08:17:36+00:00","link":"tg://resolve?domain=qa_jobs&post=0","tags":[{"name":"qa"},{"name":"postgresql"},{"name":"redis"},{"name":"elasticsearch"}],"cities":[{"code":"moscow"}],"allowsRemote":true}},{"node":{"__typename":"Job","id":"2214592512-1001134745498","title":"Devops инженер","text":"#вакансия #Remote #работаDevOps  #удаленка \n\nКомпания: IDG\nФормат работы: удаленка\nЗанятость: полная\nЗарплатная вилка: $2500 до $4000\n\n👋Всем привет. Меня зовут Гульназ. \nМы занимаемся разработкой собственных образовательных проектов, а также проектов для клиентов - технологических, финансовых и аудиторских компаний.\nСейчас мы ищем DevOps инженера в дополнение к нашей текущей DevOps-команде, который будет вместе с нами делать cross-cloud big-data/ai платформу для одного из наших крупных постоянных клиентов.\nУ нас всё в k8s. Помимо этого есть spark, несколько баз данных и еще куча всего интересного. Разворачиваем с помощью Terraform/Ansible/Helm\n\n📍Требования:\n\n- Опыт работы с AWS/Azure/GCE - от 2+ лет;\n- Опыт работы с Kubernetes - от 2+ лет\n- Опыт работы со Spark - от 1 года\n- Имеет опыт настройки и администрирования БД (Mongo, Redis, Rabbit, SQL Server, Postgres, MySQL, Elastic Search)\n- Опыт разработки на Python или других подобных языках;\n- Опыт организации процесса CI/CD (jenkins, teamcity).\n- Английский на уровне Intermediate и выше.\n\nБудет плюсом: \n\n- Опыт работы в крупных международных компаниях;\n- Опыт работы с технологиями Big Data;\n\n📌Что мы предлагаем:\n\n- Интересные задачи и возможность реализовать свой потенциал в международных проектах компании и внутренних стартапах;\n- Гибкий график (начало и конец рабочего дня согласовываются с менеджером и командой проекта)\n- Полностью удаленная работа\n- Дополнительные выплаты за профессиональные успехи\n\nКонтакт: @IDGAccount\n\n—\n\n👉 Обсуждение вакансии в чате @devops_jobs","markup":[{"type":"hashtag","offset":0,"length":9,"data":"вакансия"},{"type":"hashtag","offset":10,"length":7,"data":"Remote"},{"type":"hashtag","offset":18,"length":13,"data":"работаDevOps"},{"type":"hashtag","offset":33,"length":9,"data":"удаленка"},{"type":"handle","offset":1487,"length":11,"data":"IDGAccount"},{"type":"handle","offset":1533,"length":12,"data":"devops_jobs"}],"date":"2020-06-16T08:10:39+00:00","link":"tg://resolve?domain=devops_jobs_feed&post=2112","tags":[{"name":"cloud"},{"name":"ansible"},{"name":"amazon-web-services"},{"name":"azure"},{"name":"kubernetes"},{"name":"redis"},{"name":"rabbitmq"},{"name":"sql"},{"name":"postgresql"},{"name":"mysql"},{"name":"elasticsearch"},{"name":"python"},{"name":"jenkins"},{"name":"sql-server"}],"cities":[],"allowsRemote":true}},{"node":{"__typename":"Job","id":"2213543936-1001134745498","title":"Devops инженер","text":"#вакансия #fulltime #devops #удалёнка\n\nГород и адрес офиса: г. Москва, метро Динамо, 12 минут пешком через Петровский парк\n\nФормат работы: офис и/или удалёнка\n\nЗанятость: полная\n\nЗарплатная вилка:  150 000 фикс на руки\n\nОписание вакансии: \n\nДрузья!\n\nИщем DevOps в образовательный онлайн-проект https://edu.sirius.online \nНас сейчас 15 человек. \nЗанимаемся бесплатным дополнительным образованием. \nДелаем его доступным и качественным.\n\nЧем надо заниматься:\n– осваивать и развивать существующую инфраструктуру\n– совершенствовать процессы CI/CD\n– автоматизировать и оптимизировать\n– внедрять новые технологии и идеи\n– заниматься поддержкой и обслуживанием сервисов\n\nЧто надо уметь:\n– быть активным и ответственным \n– учиться и развиваться самостоятельно\n\nНаши технологии одним списком:\nReact, Haskell, GoLang, PostgreSQL, Redis, MINIO, Янлекс.Облако, Kubernetes, Rancher, EFK, Grafana, Prometheus, GitLab CI/CD, HELM.\n\nВ начале поможем, научим, подскажем.\n\nНазвание компании: \nФонд «Талант и успех» (Образовательный центр «Сириус»), г. Сочи\n\nКонтакты:\n@szemskov\nszemskov@sirius.online\n\n—\n\n👉 Обсуждение вакансии в чате @devops_jobs","markup":[{"type":"hashtag","offset":0,"length":9,"data":"вакансия"},{"type":"hashtag","offset":10,"length":9,"data":"fulltime"},{"type":"hashtag","offset":20,"length":7,"data":"devops"},{"type":"hashtag","offset":28,"length":9,"data":"удалёнка"},{"type":"link","offset":294,"length":25,"data":"https://edu.sirius.online"},{"type":"handle","offset":1049,"length":9,"data":"szemskov"},{"type":"link","offset":1059,"length":22,"data":"mailto:szemskov@sirius.online"},{"type":"handle","offset":1116,"length":12,"data":"devops_jobs"}],"date":"2020-06-16T07:58:20+00:00","link":"tg://resolve?domain=devops_jobs_feed&post=2111","tags":[{"name":"reactjs"},{"name":"haskell"},{"name":"go"},{"name":"postgresql"},{"name":"redis"},{"name":"kubernetes"},{"name":"gitlab"}],"cities":[{"code":"moscow"},{"code":"sochi"}],"allowsRemote":true}},{"node":{"__typename":"Job","id":"1686110208-1001091028994","title":"Java разработчик","text":"#вакансия #java #senior #middle \nЛокация: Саратов, Самара, Кемерово \nЗП: 80.000-170.000 на руки\nИщем в команду Java dev  уровня middle/senior в связи с большим количеством интересных проектов и расширения команды.\nКратко по стеку: \n[ Java 11+, Maven, Spring Boot 2+, Hibernate 5+, PostgreSQL 12, RabbitMQ ]\nТребования:\n - Java SE 8 и выше \n- Spring / Spring Boot \n- Hibernate или MyBatis\n- SQL (PostgreSQL) \n- Apache Tomcat или Eclipse Jetty или другой app server\n- Принципы ООП\n- Web сервисы (REST или SOAP).\n Будет плюсом: опыт работы с одним из актуальных frontend фреймворков - Angular, React, Vue; понимание принципов работы протоколов HTTP, HTTPS; работа с очередями (ActiveMQ, RabbitMQ) и опыт работы с Docker.\nЧто предлагаем:\n- белая з/п и оформление в штат;\n- интересные проекты и адекватное руководство; \n- возможность профессионального и карьерного роста;\n- формат интервью 1 этап по Skype или Zoom\nДля связи и резюме @KaterinaHR","markup":[{"type":"hashtag","offset":0,"length":9,"data":"вакансия"},{"type":"hashtag","offset":10,"length":5,"data":"java"},{"type":"hashtag","offset":16,"length":7,"data":"senior"},{"type":"hashtag","offset":24,"length":7,"data":"middle"},{"type":"handle","offset":929,"length":11,"data":"KaterinaHR"}],"date":"2020-06-16T07:55:35+00:00","link":"tg://resolve?domain=jvmjobs&post=1608","tags":[{"name":"java"},{"name":"jvm"},{"name":"maven"},{"name":"spring"},{"name":"hibernate"},{"name":"postgresql"},{"name":"rabbitmq"},{"name":"sql"},{"name":"apache"},{"name":"tomcat"},{"name":"eclipse"},{"name":"jetty"},{"name":"web"},{"name":"rest"},{"name":"soap"},{"name":"angularjs"},{"name":"reactjs"},{"name":"vuejs"},{"name":"docker"},{"name":"spring-boot"}],"cities":[{"code":"saratov"},{"code":"samara"},{"code":"kemerovo"}],"allowsRemote":false}},{"node":{"__typename":"Job","id":"1684013056-1001091028994","title":"Java разработчик","text":"#java #java11 #tarantool #lua #redis #kotlin \n\nКомпания #Иннодата (ГК Ramax) - системный интегратор с офисами в #Москва, #Питер, #Воронеж, #Иннополис. \nФормат работы #офис, #fulltime #remote\nВилка: от 200 net на руки\nКонтакт для связи: pbokarev@innodata.ru \n\n📌Задача: Нам предстоит разработать один из центральных компонентов ИТ системы крупнейшей ритейл сети.\n\nГеораспределённую mission-critical платформу, работающую в режиме 24/7 365, объединяющую информацию из всех подразделений и IT-систем, связанных с клиентом, в единый профиль. К системе предъявляются жесткие требования ко времени отклика и rps. Ядром системы мы выбрали tarantool - одно из самых навороченных imdg решений на данный момент. Мы ищем человека, который не боится новых вызовов и готов развиваться, устал от бесконечный crud'ов и хочет попробовать себя в highload. Готовы рассмотреть кандидатов разного уровня!\n\n📌Наши плюсы:\nНикакого legacy, тк проект только начинается, есть возможность поучаствовать в выборе стека. Современные технологии, мощный кластер, после окончания проекта возможность работы на других проектах (scala, BIgData)\n\n📌Стек технологий:\nJava 11;\nTarantool (Lua);\nClickhouse;\nPostgreSQL;\n\n📌Требования:\nОпыт коммерческой разработки на Java более 2 лет. Будет плюсом умение писать на Kotlin;\nSQL, опыт проектирования реляционнных баз данных;\nОпыт использования Tarantool или Redis (Lua);\nПонимание разницы OLAP и OLTP;\n\n📌Будет плюсом:\nОпыт работы с распределёнными системами;\nОпыт разработки highload систем;\nОпыт разработки многопоточных приложений;\n\n📌Обязанности:\nУчастие в проектировании архитектуры и детализации работ;\nНепосредсвенно реализация задач;\nПокрытие нового функционала тестами (unit, регрессионные);","markup":[{"type":"hashtag","offset":0,"length":5,"data":"java"},{"type":"hashtag","offset":6,"length":7,"data":"java11"},{"type":"hashtag","offset":14,"length":10,"data":"tarantool"},{"type":"hashtag","offset":25,"length":4,"data":"lua"},{"type":"hashtag","offset":30,"length":6,"data":"redis"},{"type":"hashtag","offset":37,"length":7,"data":"kotlin"},{"type":"hashtag","offset":56,"length":9,"data":"Иннодата"},{"type":"hashtag","offset":112,"length":7,"data":"Москва"},{"type":"hashtag","offset":121,"length":6,"data":"Питер"},{"type":"hashtag","offset":129,"length":8,"data":"Воронеж"},{"type":"hashtag","offset":139,"length":10,"data":"Иннополис"},{"type":"hashtag","offset":166,"length":5,"data":"офис"},{"type":"hashtag","offset":173,"length":9,"data":"fulltime"},{"type":"hashtag","offset":183,"length":7,"data":"remote"},{"type":"link","offset":236,"length":20,"data":"mailto:pbokarev@innodata.ru"}],"date":"2020-06-16T07:13:08+00:00","link":"tg://resolve?domain=jvmjobs&post=1606","tags":[{"name":"java"},{"name":"jvm"},{"name":"lua"},{"name":"redis"},{"name":"kotlin"},{"name":"dotnet"},{"name":"scala"},{"name":"postgresql"},{"name":"sql"}],"cities":[{"code":"moscow"},{"code":"voronezh"}],"allowsRemote":true}},{"node":{"__typename":"Job","id":"16954425344-1001110946746","title":"Js разработчик","text":"#вакансия #удалённо #nestjs #nest #fullstack #typescript \n\nFullstack TypeScript Developer\n\nhttps://edm-ghost-production.com ищет в команду разработчика для создания музыкальной платформы. \n\n⭐Стек: \nNode.Js, TypeScript, Express, NestJS, TypeOrm, PostgreSQL, Redis, Vue \n\n🔻 Требования:\n- Опыт работы с NestJS (не менее 6 месяцев), TypeOrm;\n- Опыт работы с Vue (vue-class-component, vue-property-decorator) не менее года\n- Знания ES6/ES7/ES8;\n- REST APIs, на основе Express и NestJS;\n- Опыт работы с PostgreSQL; \n- Typescript (не менее года)\n- ESLint;\n- Знание основ систем контроля версий (Git);\n- Умение работать в команде и писать чистый код;\n\n💥Будет плюсом:\n- AWS S3;\n- Интеграция с Helpdesk (Zendesk/Intercom/Helpcrunch etc.)\n\n🙋♂Обязанности:\n- Разработка бэкенда и фронтэнда нового приложения \n- Взаимодействие с другими разработчиками\n\n🔹Условия:\n- Удалённая работа\n- Полная занятость \n- Гибкий график работы (важно что бы все задачи были выполнены)\n- Зарплатная вилка 120 000 - 200 000 рублей (в зависимости от уровня кандидата middle/senior)\n\nПрисылайте CV в ЛС @alexlarichev","markup":[{"type":"hashtag","offset":0,"length":9,"data":"вакансия"},{"type":"hashtag","offset":10,"length":9,"data":"удалённо"},{"type":"hashtag","offset":20,"length":7,"data":"nestjs"},{"type":"hashtag","offset":28,"length":5,"data":"nest"},{"type":"hashtag","offset":34,"length":10,"data":"fullstack"},{"type":"hashtag","offset":45,"length":11,"data":"typescript"},{"type":"link","offset":91,"length":32,"data":"https://edm-ghost-production.com"},{"type":"handle","offset":1070,"length":13,"data":"alexlarichev"}],"date":"2020-06-16T06:34:02+00:00","link":"tg://resolve?domain=javascript_jobs_feed&post=0","tags":[{"name":"javascript"},{"name":"typescript"},{"name":"nodejs"},{"name":"express"},{"name":"postgresql"},{"name":"redis"},{"name":"vuejs"},{"name":"rest"},{"name":"git"},{"name":"amazon-web-services"}],"cities":[],"allowsRemote":true}}]}}},"context":{}}