{"hash":"f34fd2c444a074f4e0e67d525015a008ef8e766f","data":{"records":{"id":"postgresql","name":"postgresql","belongsTo":{"totalCount":132,"pageInfo":{"totalPages":14,"currentPage":4},"edges":[{"node":{"__typename":"Job","id":"24324866048-1001075660570","title":"Php разработчик","text":"#вакансия #php #backend #senior #developer #удалённо #фуллтайм\n\n📌Vigrom – международная компания-разработчик. Более 9 лет мы создаём решения и продукты для онлайн-игр.\nСегодня в компании работает более 150 сотрудников из России, Латвии, Кипра.\n\n📍Мы ищем Senior PHP developer в сложный и масштабный проект.\n\nСтек наших технологий: PHP 7.4, PostgreSQL 12, Memcache, компоненты Symfony, PHPUnit, Docker, Gitlab CI.\n\nВам предстоит:\n\n🔹 Работа над новым функционалом, непрерывные улучшения и оптимизации текущего;\n🔹Активное участие во всём процессе разработки, начиная с проектирования и заканчивая запуском и поддержкой;\n🔹Коммуникация с командами мобильной разработки и разработки игр. Поиски оптимальных вариантов реализации (архитектура, API, сервисы);\n🔹 Unit- и API-тестирование;\n🔹Проведение Code review;\n🔹Участие в технологическом развитии проекта (выбор новых технологий и подходов к разработке);\n🔹Обеспечение качества кода на всех этапах разработки.\n\nЧто нужно знать/уметь/иметь:\n\n🔹Опыт разработки веб-приложений и сервисов от 3х лет;\n🔹Уверенное владение PHP (сильные и слабые стороны языка);\n🔹 Опыт проектирования реляционных баз данных, уверенное владение SQL;\n🔹 Опыт разработки веб-приложений под существенную нагрузку;\n🔹 Понимание ООП и принципов SOLID;\n🔹 Применение модульного тестирования;\n🔹Быть открытым к диалогу и вести аргументированные споры.\n\nПлюсом будет:\n\n🔹Опыт работы в долгосрочных проектах;\n🔹Опыт работы с PostgreSQL;\n🔹 Знание дополнительных языков - JS, Python.\n\nМы предлагаем:\n\n🔹Высокую заработную плату  + бонусы за результат;\n🔹Возможность карьерного роста;\n🔹Посещение профильных конференций и митапов;\n🔹Сильную команду разработчиков, где можно серьезно прокачать свои скиллы;\n🔹Корпоративные мероприятия, открытое общение с коллегами как в сети, так и в реальном мире. \n\n📝Пиши: @ladychekman, Наталья","markup":[{"type":"hashtag","offset":0,"length":9,"data":"вакансия"},{"type":"hashtag","offset":10,"length":4,"data":"php"},{"type":"hashtag","offset":15,"length":8,"data":"backend"},{"type":"hashtag","offset":24,"length":7,"data":"senior"},{"type":"hashtag","offset":32,"length":10,"data":"developer"},{"type":"hashtag","offset":43,"length":9,"data":"удалённо"},{"type":"hashtag","offset":53,"length":9,"data":"фуллтайм"},{"type":"handle","offset":1824,"length":12,"data":"ladychekman"}],"date":"2020-04-07T07:40:30+00:00","link":"tg://resolve?domain=php_jobs&post=23198","tags":[{"name":"php"},{"name":"postgresql"},{"name":"symfony"},{"name":"phpunit"},{"name":"docker"},{"name":"gitlab"},{"name":"sql"},{"name":"python"}],"cities":[],"allowsRemote":true}},{"node":{"__typename":"Job","id":"1422917632-1001091028994","title":"Java разработчик","text":"#java #spring \nКомпания: #техносервконсалтинг #тск\nЛокация: #москва\nЗ/п: 130 - 250\nКонтакты: @Alenhr, akarmakulova@tsconsulting.ru\n\nМы создаём ипотечную экосистему для Банка Топ - 3 \"с нуля\". \nРазрабатываем новую высоконагруженную систему кредитования с использованием современного стека и микросервисной архитектуры на основе Kubernetes. \nСтек: Java 8, Spring Boot, Spring Data, Spring Security, PostgreSQL, Kubernetes, Docker, Git, Jira, Confluence, Zeplin, REST, SOAP, MQ. \n\nЧто нужно делать:\nРазрабатывать северную часть на Java\nУчаствовать в развитии проекта и сервисов\nРегулярно проводить code-review\nРасти и развиваться в рамках команды\n\nЧто важно для нас:\nОпыт программирования на Java от 3 лет\nЗнание и понимание принципов Spring\nОпыт работы с базами данных, знание SQL\n\nМы предлагаем: \nAgile команду, общий штат разработки 50+ человек\nСоциальный пакет (ДМС, фитнес)\nОфис в центре Москвы (Чистые пруды/ Тургеневская / Сретенский бульвар) \nГибкое начало и окончание рабочего дня","markup":[{"type":"hashtag","offset":0,"length":5,"data":"java"},{"type":"hashtag","offset":6,"length":7,"data":"spring"},{"type":"hashtag","offset":25,"length":20,"data":"техносервконсалтинг"},{"type":"hashtag","offset":46,"length":4,"data":"тск"},{"type":"hashtag","offset":60,"length":7,"data":"москва"},{"type":"handle","offset":93,"length":7,"data":"Alenhr"},{"type":"link","offset":102,"length":28,"data":"mailto:akarmakulova@tsconsulting.ru"}],"date":"2020-04-06T14:51:47+00:00","link":"tg://resolve?domain=jvmjobs&post=1357","tags":[{"name":"java"},{"name":"jvm"},{"name":"spring"},{"name":"kubernetes"},{"name":"postgresql"},{"name":"docker"},{"name":"git"},{"name":"rest"},{"name":"soap"},{"name":"sql"},{"name":"spring-boot"},{"name":"spring-data"},{"name":"spring-security"}],"cities":[{"code":"moscow"}],"allowsRemote":false}},{"node":{"__typename":"Job","id":"16198402048-1001110946746","title":"Js developer","text":"#вакансия #Nodejs #Москва #удалёнка #офис\n\nПозиция: Backend-developer \nФормат: #удалёнка или #Москва офис\nЗанятость: #fulltime \nЗарплатная вилка: от 120 000  до 190 000 руб. net\nКомпания: Paradigmfund https://paradigmfund.io/\n\n Задачи\n\n •  Разработка и поддержка проектов компании (Блокчейн эксплорер);\n • Работа с различными БД (основная: PostgreSQL, периодически: leveldb, yandex clickhouse)\n • Работа в команде\n\nТребования:\n\n • Опыт работы с JS и NodeJS от 3 лет;\n • Большой опыт работы с различными базами данных, в частности PostgreSQL\n • Желание увеличивать этот опыт ^, много работы с БД, быть к этому готовым. \n • Умение работать с git;\n • Плюсом будет опыт работы с python и golang на уровне чтения чужого кода. \n\nУсловия:\n \n • Работа по Agile, используем Jira/Confluence\n • Полная удаленка с графиком или офис в центре Москвы\n • Командировки в Токио\n • Премии и ежегодный рост\n\nПишите в личку, желательно сразу с резюме: @grshabl","markup":[{"type":"hashtag","offset":0,"length":9,"data":"вакансия"},{"type":"hashtag","offset":10,"length":7,"data":"Nodejs"},{"type":"hashtag","offset":18,"length":7,"data":"Москва"},{"type":"hashtag","offset":26,"length":9,"data":"удалёнка"},{"type":"hashtag","offset":36,"length":5,"data":"офис"},{"type":"hashtag","offset":79,"length":9,"data":"удалёнка"},{"type":"hashtag","offset":93,"length":7,"data":"Москва"},{"type":"hashtag","offset":117,"length":9,"data":"fulltime"},{"type":"link","offset":201,"length":24,"data":"https://paradigmfund.io/"},{"type":"handle","offset":931,"length":8,"data":"grshabl"}],"date":"2020-04-06T14:42:38+00:00","link":"tg://resolve?domain=javascript_jobs_feed&post=15448","tags":[{"name":"javascript"},{"name":"nodejs"},{"name":"dotnet"},{"name":"postgresql"},{"name":"git"},{"name":"python"},{"name":"go"}],"cities":[{"code":"moscow"},{"code":"tokyo"}],"allowsRemote":true}},{"node":{"__typename":"Job","id":"1973420032-1001134745498","title":"Devops инженер","text":"#вакансия #devops #НижнийНовгород \nВакансия: DevOps \nГород: Нижний Новгород \nФормат работы: офис, но можно и на удаленке \nЗанятость: полная, можно частично. Готовы обсуждать \nЗарплатная вилка: от 110 до 170 (можно обсуждать)  \n\nЗадачи:\nСоздание и поддержка CI/CD инфраструктуры доставки кода проектов на тестовые и прод окружения;\nУчастие в поиске и внедрении новых технологий, необходимых для стабильной работы и развития инфраструктуры проектов;\nРазвертывание, масштабирование и поддержка инфраструктуры окружений;\nНаписание ролей, playbook, модулей ansible для обеспечения повторяемости инфраструктуры на разных окружениях.\n\nОжидаем:\nОпыт работы с конфигурацией (ansible);\nОпыт работы с docker;\nАдминистрирование Linux на уровне решения сложных задач (Bonding, VLAN, system tuning, etc.);\nОпыт работы с базами данных (PostgreSQL, noSQL);\nПонимание работы систем виртуализации (qemu+KVM);\nПонимание работы сетей передачи данных и модели OSI;\nОпыт администрирования open source приложений (Nginx, PostgreSQL, Redis, etc.);\nБудет плюсом:\nОпыт работы со стеком Hadoop (Spark, HBase, Kafka, Zookeeper)\nОпыт работы с mesos\n\nЕсть: \nУникальные проекты\nДМС, новый офис, обучение за счет компании, по ТК, белая ЗП. \n\nКоманда: Первый ОФД \n\nКонтакты: @IT_HR_OFD, askorobogatov@energocomm.ru\n\n—\n\n👉 Обсуждение вакансии в чате @devops_jobs","markup":[{"type":"hashtag","offset":0,"length":9,"data":"вакансия"},{"type":"hashtag","offset":10,"length":7,"data":"devops"},{"type":"hashtag","offset":18,"length":15,"data":"НижнийНовгород"},{"type":"handle","offset":1242,"length":10,"data":"IT_HR_OFD"},{"type":"link","offset":1254,"length":27,"data":"mailto:askorobogatov@energocomm.ru"},{"type":"handle","offset":1316,"length":12,"data":"devops_jobs"}],"date":"2020-04-06T14:06:59+00:00","link":"tg://resolve?domain=devops_jobs_feed&post=1882","tags":[{"name":"ansible"},{"name":"docker"},{"name":"linux"},{"name":"postgresql"},{"name":"nosql"},{"name":"nginx"},{"name":"redis"},{"name":"hadoop"},{"name":"hbase"},{"name":"kafka"}],"cities":[{"code":"nizhny-novgorod"}],"allowsRemote":false}},{"node":{"__typename":"Job","id":"1972371456-1001134745498","title":"Devops инженер","text":"#вакансия #сбербанк #DevOps Заработная плата 180-220 net. \nЗаинтересованным прошу писать в личку @nas_vas\n\nКто мы?\n\nМы новая группа Agile команд, которая развивает риск-продукты экосистемы Сбербанка. Через API и фронт системы мы предоставляем партнерам и клиентам Банка рейтинги физических и юридических лиц, отчеты и уведомления по кредитной истории.\nМы приглашаем амбициозного инженера, который готов оперативно выстроить DevOps pipeline по нашим новым продуктам в соответствии с лучшими практиками и стандартами.\n\n\nDevOps инженер\n\n Чем предстоит заниматься:\n• Организация DevOps pipeline (CI\\CD) для новых продуктов\n• Настройка, диагностика и использование инструментов автоматизации:\nсборка дистрибутива, Unit-тесты, публикация дистрибутива, доставка и развертывание дистрибутива на среды, работа с результатами анализа кода на качество и безопасность\n• Чтение и понимание реализованных job’ов и pipeline\n• Сопровождение непромышленных стендов приложений (Dev, Test): анализ доступности, мониторинг, применение инструментов обезличивания, разбор дефектов и их локализация/устранение совместно с командами разработки\n• Консультация разработчиков и администраторов по лучшим практикам DevOps\nЧто ожидаем от тебя:\n• Высшее техническое образование\n• Хорошие коммуникационные навыки. Умение работать в команде\n• Опыт работы от 1 года\n• Опыт построения CI\\CD pipeline\n• Опыт работы с инструментами DevOps (Jenkins, Nexus, BitBucket, Ansible);\n• Знание Groovy;\n• Владение SQL, понимание принципов работы RDBMS (PostgreSQL);\n• Опыт поддержки серверных ОС семейства Linux (RHEL);\n\nДополнительным плюсом будет:\n• Опыт работы c Docker контейнерами\n• Опыт работы с SonarQube, Kafka, GridGain, Oracle, Nginx, JBoss/WildFly, Jira, Confluence\n• Знание Java.\n\n—\n\n👉 Обсуждение вакансии в чате @devops_jobs","markup":[{"type":"hashtag","offset":0,"length":9,"data":"вакансия"},{"type":"hashtag","offset":10,"length":9,"data":"сбербанк"},{"type":"hashtag","offset":20,"length":7,"data":"DevOps"},{"type":"handle","offset":97,"length":8,"data":"nas_vas"},{"type":"handle","offset":1781,"length":12,"data":"devops_jobs"}],"date":"2020-04-06T13:26:30+00:00","link":"tg://resolve?domain=devops_jobs_feed&post=1881","tags":[{"name":"dotnet"},{"name":"jenkins"},{"name":"ansible"},{"name":"groovy"},{"name":"sql"},{"name":"postgresql"},{"name":"linux"},{"name":"docker"},{"name":"sonarqube"},{"name":"kafka"},{"name":"oracle"},{"name":"nginx"},{"name":"jboss"},{"name":"java"}],"cities":[],"allowsRemote":false}},{"node":{"__typename":"Job","id":"1971322880-1001134745498","title":"Devops engineer","text":"DevOps engineer\n#вакансия #DevOps #noremote #fulltime \n\nВакансия: DevOps engineer\nКомпания: ДОМ.РФ / ООО «Цифровые технологии»\nГород: Москва. ст.м. Арбатская\nФормат работы: #офис\nЗанятость: #полная\nЗарплата : от 160 до 200 на руки.\n\nТебе предстоит:\n•  Поддержка ETL процессов;\n•  Участие в процессах внедрения ПО;\n•  Администрирование операционных систем *nix и общесистемного ПО;\n•  Развертывание и конфигурирование стендов под различные нужды;\n•  Решение возникающих проблем, устранение нештатных ситуаций;\n•  Участие в разработке конструкторской и эксплуатационной документации;\n•  Формирование требований к системе резервного копирования. \n\nЗдорово если у тебя есть:\n•  Знание серверной операционной системы Linux;\n•  Уверенное понимание принципов работы сетей TCP/IP: адресация, маршрутизация, стек протоколов, сетевые топологии, принципы работы VLAN, VPN, DNS, DHCP;\n•  Практический опыт автоматизации управления средами с применением docker, Kubernetes, ansible;\n•  Практический опыт разработки технологической или эксплуатационной документации;\n•  Практический опыт конфигурирования систем хранения данных (желательно);\n•  Практический опыт конфигурирования и администрирования общесистемного ПО: системы виртуализации, СУБД (PostgreSQL), серверы приложений, системы обработки сообщений, средства мониторинга и управления, elastic search;\n\nМы предлагаем:\n•  Комфортный офис в центре Москвы;\n•  Работа в высокопрофессиональной и эффективной команде, постоянное развитие;\n•  Конкурентный компенсационный пакет (ежеквартальная премия, ДМС, компенсация расходов на фитнес-абонемент до 20 т.р. в год);\n\n\nCV в ЛС плз)\nНа входе опишу, что конкретно нужно будет делать, что и как есть сейчас.\n\nКонтакт:\n@alekseytherecruiter\n\n—\n\n👉 Обсуждение вакансии в чате @devops_jobs","markup":[{"type":"hashtag","offset":16,"length":9,"data":"вакансия"},{"type":"hashtag","offset":26,"length":7,"data":"DevOps"},{"type":"hashtag","offset":34,"length":9,"data":"noremote"},{"type":"hashtag","offset":44,"length":9,"data":"fulltime"},{"type":"link","offset":92,"length":6,"data":"http://ДОМ.РФ"},{"type":"hashtag","offset":173,"length":5,"data":"офис"},{"type":"hashtag","offset":190,"length":7,"data":"полная"},{"type":"handle","offset":1703,"length":20,"data":"alekseytherecruiter"},{"type":"handle","offset":1758,"length":12,"data":"devops_jobs"}],"date":"2020-04-06T13:25:42+00:00","link":"tg://resolve?domain=devops_jobs_feed&post=1880","tags":[{"name":"linux"},{"name":"dns"},{"name":"docker"},{"name":"kubernetes"},{"name":"ansible"},{"name":"postgresql"},{"name":"elasticsearch"}],"cities":[{"code":"moscow"}],"allowsRemote":true}},{"node":{"__typename":"Job","id":"24303894528-1001075660570","title":"Php разработчик","text":"#вакансия #php #удаленка #спб #phalcon \n\nВакансия: PHP разработчик \nГород: Санкт-Петербург\nФормат: удаленка\nЗанятось: полная\nЗП: 150.000-200.000 «на руки»\n\nПроект: Fantasy invest - игра - симулятор фондового рынка по механике fantasy sport.\nЦелевой рынок: США.\nМобильная версия доступна в AppStore.\n\nСтек: PHP 7.2+, Phalcon 3+, PostgreSQL 10+, Git, SOLID ,Swoole, Zephir Lang, Grafana / Kibana , Nats , Async php \n\nНаше предложение:\n ⁃ Официальное трудоустройство \n ⁃ ДМС с покрытием стоматологии (Ренессанс) \n ⁃ Компенсация спорта, обучений, конференций\n\nКонтакты: @izhuke","markup":[{"type":"bold","offset":0,"length":40,"data":""},{"type":"hashtag","offset":0,"length":9,"data":"вакансия"},{"type":"hashtag","offset":10,"length":4,"data":"php"},{"type":"hashtag","offset":15,"length":9,"data":"удаленка"},{"type":"hashtag","offset":25,"length":4,"data":"спб"},{"type":"hashtag","offset":30,"length":8,"data":"phalcon"},{"type":"bold","offset":415,"length":17,"data":""},{"type":"handle","offset":566,"length":7,"data":"izhuke"}],"date":"2020-04-06T12:04:15+00:00","link":"tg://resolve?domain=php_jobs&post=23178","tags":[{"name":"php"},{"name":"postgresql"},{"name":"git"}],"cities":[],"allowsRemote":true}},{"node":{"__typename":"Job","id":"1970274304-1001134745498","title":"Devops engineer","text":"#вакансия #devops\nДобрый день!\nВ компании JTC открыта вакансия на должность DevOps engineer\nОфис: Москва (м. Ленинский проспект), Санкт-Петербург (м. Петроградская), Рязань, Ижевск\nЗанятость: полная\nЗарплатная вилка: от 150 000 до 250 000 рублей на руки\nОбязанности\n- настраивать и поддерживать инфраструктуру текущих и новых проектов \n- поддерживать CI/CD на основе Gerrit/Jenkins/Nexus\n- администрировать парк серверов \nRND - находить и внедрять новые решения\nТребования\n- уверенное администрирование Linux (CentOS)\n- опыт работы с Docker, Elasticsearch, Logstash и Kibana\n- уверенное владение инструментами CI/CD (Jenkis, TeamCity)\n- автоматизация с помощью Ansible\nвладение языками (bash и/или python)\n- опыт работы с системами сбора метрик и мониторинга \nжелательно: Kubernetes\nнавыки администрирования БД (Oracle, PostgreSQL)\nМы предлагаем\n- конкурентная заработная плата по результатам общения\n- соблюдение TK РФ\n- гибкий рабочий график с началом работы с 8:00 до 11:00\n- ДМС с расширенным набором услуг\n- интересные и нетривиальные задачи \n- возможность посещать семинары, тренинги, конференции\n\nКомпания: https://jtc.ooo/\nНа рынке ИТ с 2007.\nСпециализация: разработка систем ДБО и построение информационных экосистем. \n\nКонтакты: @rita_kudryashova\n\n—\n\n👉 Обсуждение вакансии в чате @devops_jobs","markup":[{"type":"hashtag","offset":0,"length":9,"data":"вакансия"},{"type":"hashtag","offset":10,"length":7,"data":"devops"},{"type":"link","offset":1114,"length":16,"data":"https://jtc.ooo/"},{"type":"handle","offset":1239,"length":17,"data":"rita_kudryashova"},{"type":"handle","offset":1291,"length":12,"data":"devops_jobs"}],"date":"2020-04-06T11:21:09+00:00","link":"tg://resolve?domain=devops_jobs_feed&post=1879","tags":[{"name":"jenkins"},{"name":"linux"},{"name":"centos"},{"name":"docker"},{"name":"elasticsearch"},{"name":"logstash"},{"name":"ansible"},{"name":"bash"},{"name":"python"},{"name":"kubernetes"},{"name":"oracle"},{"name":"postgresql"}],"cities":[{"code":"moscow"},{"code":"ryazan"},{"code":"izhevsk"}],"allowsRemote":false}},{"node":{"__typename":"Job","id":"16185819136-1001110946746","title":"Js разработчик","text":"#вакансия #react #typescript #node #postgresql\n\nФормат: #офис #удаленка (временно)\nЗанятость: #полная\nЛокации: #Москва #Киевская #ПаркКультуры\nЗарплата: 80000 - 160000 руб\nВакансия: 💻fullstack, уровень от junior.\n\n‼️ Мы ищем typescript react разработчика с уклоном в fullstack на nodejs, которому помимо программирования был бы интересен и сам продукт, который умеет отстаивать свою точку зрения и предлагать новые идеи. Если у вас нет опыта по каким то пунктам - это не причина не пообщаться. Мы готовы рассмотреть кандидатов с разным уровнем и в случае успеха научим всему сами.\n\nМы предлагаем:\n🔸Дух \"гаражного\" стартапа (компания появилась совсем недавно);\n🔸Множество интересных и сложных задач;\n🔸Высокая степень влияния на конечный продукт;\n🔸Конкурентная заработная плата;\n🔸Гибкий график;\n🔸Участие в опционной программе в будущем.\n\nЧем предстоит заниматься:\n🔸Проектирование архитектуры проекта с нуля;\n🔸Разработки интерфейсов на antd для бэкоффиса;\n🔸Разработка api (#nodejs, #typescript, #graphql, #postgres);\n🔸Улучшение процессов автоматизации.\n\nТребования:\n🔸Уверенные знания #nodejs и #javascript / #typescript;\n🔸Знание веб фреимворков (#express);\n🔸Уверенные знания фронтенда (#react);\n🔸Опыт работы с #git.\n\nБудет плюсом:\n🔸Опыт работы с реляционными базами данных (#postgresql);\n🔸Опыт работы с #docker, #graphql.\n\n🛠 Название компании: cтартап, у нас еще нет официального названия.\n\n📱 Контакты: Сергей tel:+79167248788, mailto:ser.alexeev@gmail.com, tg:@seralexeev","markup":[{"type":"hashtag","offset":0,"length":9,"data":"вакансия"},{"type":"hashtag","offset":10,"length":6,"data":"react"},{"type":"hashtag","offset":17,"length":11,"data":"typescript"},{"type":"hashtag","offset":29,"length":5,"data":"node"},{"type":"hashtag","offset":35,"length":11,"data":"postgresql"},{"type":"hashtag","offset":56,"length":5,"data":"офис"},{"type":"hashtag","offset":62,"length":9,"data":"удаленка"},{"type":"hashtag","offset":94,"length":7,"data":"полная"},{"type":"hashtag","offset":111,"length":7,"data":"Москва"},{"type":"hashtag","offset":119,"length":9,"data":"Киевская"},{"type":"hashtag","offset":129,"length":13,"data":"ПаркКультуры"},{"type":"hashtag","offset":980,"length":7,"data":"nodejs"},{"type":"hashtag","offset":989,"length":11,"data":"typescript"},{"type":"hashtag","offset":1002,"length":8,"data":"graphql"},{"type":"hashtag","offset":1012,"length":9,"data":"postgres"},{"type":"hashtag","offset":1093,"length":7,"data":"nodejs"},{"type":"hashtag","offset":1103,"length":11,"data":"javascript"},{"type":"hashtag","offset":1117,"length":11,"data":"typescript"},{"type":"hashtag","offset":1156,"length":8,"data":"express"},{"type":"hashtag","offset":1197,"length":6,"data":"react"},{"type":"hashtag","offset":1222,"length":4,"data":"git"},{"type":"hashtag","offset":1287,"length":11,"data":"postgresql"},{"type":"hashtag","offset":1317,"length":7,"data":"docker"},{"type":"hashtag","offset":1326,"length":8,"data":"graphql"},{"type":"link","offset":1430,"length":12,"data":"tel:+79167248788"},{"type":"link","offset":1451,"length":21,"data":"mailto:ser.alexeev@gmail.com"},{"type":"handle","offset":1477,"length":11,"data":"seralexeev"}],"date":"2020-04-06T07:40:09+00:00","link":"tg://resolve?domain=javascript_jobs_feed&post=15436","tags":[{"name":"javascript"},{"name":"reactjs"},{"name":"typescript"},{"name":"nodejs"},{"name":"postgresql"},{"name":"graphql"},{"name":"express"},{"name":"git"},{"name":"docker"}],"cities":[{"code":"moscow"},{"code":"kiev"}],"allowsRemote":true}},{"node":{"__typename":"Job","id":"24299700224-1001075660570","title":"Php разработчик","text":"#вакансия #удаленка #битрикс #bitrix #php #yii\n #штат #highload #ecommerce #официально\n\nРебята, наша компания Hidden Team расширяет штат и приглашает на работу backend-разработчиков уровня middle/middle+. Мы занимаемся разработкой highload проектов в сфере e-commerce и сложных ERP систем. Сотрудничаем с топовыми веб-студиями и digital-агентствами России, любим Битрикс и возможность решать нестандартные проблемы из любой точки страны!\n\nЧто бы мы хотели видеть у наших кандидатов?\n🔸Хорошие знания программирования (PHP, ООП).\n🔸Опыт работы на фреймворке Yii\n🔸Большой опыт реализации проектов на 1С-Битрикс: написание модулей и компонентов, кастомизация свойств.\n🔸Опыт работы с Git.\n🔸Опыт работы в консоли linux.\n🔸Базовые знания html, java script, css.\n🔸Понимание принципов построения RESTFul сервисов.\n🔸Желателен опыт работы с чем-либо RabbitMQ, Redis, ElasticSearch, PostgreSQL.\n🔸Английский на уровне чтения технической документации.\n\nЛичные качества: аккуратность, внимательность к мелочам, самостоятельность и организованность, умение работать в команде, быстро реагировать на запросы и изменение ситуации, желание обучаться и развиваться, стремление сделать работу максимально качественно.\n\nМы предлагаем:\n🔹только удаленная работа с отлаженным процессом менеджмента проектов (трекинг в Redmine, оценка задач разработчиками);\n🔹работа над сложными e-commerce проектами для крупнейших российских веб-студий (топ-10 рейтинга рунета);\n🔹многосерверная архитектура, высокие нагрузки (500К+ посетителей/месяц);\n🔹множество различных интеграций с большими объемами данных;\n🔹индивидуальные планы развития;\n🔹обучение и семинары внутри компании, собственная он-лайн школа на стадии запуска;\n🔹перспективы карьерного роста (повышения уровня разработчика до senior/team lead, возможность релокации);\n🔹 заработная плата 70К-120К+ по итогам собеседования (белая, на руки), открытая система грейдов;\n🔹 официальное оформление по ТК РФ, оплачиваемый отпуск, удобный график (начало работы 8-11), в выходные, праздники и по ночам не работаем☺️.\n\nКонтакты: Яна @yanaizosimova","markup":[{"type":"hashtag","offset":0,"length":9,"data":"вакансия"},{"type":"hashtag","offset":10,"length":9,"data":"удаленка"},{"type":"hashtag","offset":20,"length":8,"data":"битрикс"},{"type":"hashtag","offset":29,"length":7,"data":"bitrix"},{"type":"hashtag","offset":37,"length":4,"data":"php"},{"type":"hashtag","offset":42,"length":4,"data":"yii"},{"type":"hashtag","offset":48,"length":5,"data":"штат"},{"type":"hashtag","offset":54,"length":9,"data":"highload"},{"type":"hashtag","offset":64,"length":10,"data":"ecommerce"},{"type":"hashtag","offset":75,"length":11,"data":"официально"},{"type":"handle","offset":2060,"length":14,"data":"yanaizosimova"}],"date":"2020-04-06T07:30:27+00:00","link":"tg://resolve?domain=php_jobs&post=23174","tags":[{"name":"php"},{"name":"yii"},{"name":"git"},{"name":"linux"},{"name":"html"},{"name":"java"},{"name":"css"},{"name":"rabbitmq"},{"name":"redis"},{"name":"elasticsearch"},{"name":"postgresql"}],"cities":[],"allowsRemote":true}}]}}},"context":{}}