{"hash":"f5f6bf98bd95e769321482904cbbd488f77922fd","data":{"records":{"id":"qa","name":"qa","belongsTo":{"totalCount":208,"pageInfo":{"totalPages":21,"currentPage":15},"edges":[{"node":{"__typename":"Job","id":"103279493120-1001089317451","title":"Qa инженер","text":"🐞🐞🐞#вакансия #QA #Ульяновск #Саранск #Казань #Самара #Уфа #Краснодар #офис #удаленная_работа\n\n🔍Middle QA-специалист🔎\n\n⚡️Компания: Simbirsoft (более 19 лет на рынке, более 700 сотрудников в штате)\n\nОчень ждем тебя, наш будущий коллега и борец за качественное ПО! 🙂\n\n📌Твои будущие задачи:\n• тестирование ПО (frontend, backend, API);\n• локализация и документирование найденных дефектов;\n• ведение и оптимизация тестовой документации;\n• контроль качества на всех этапах разработки ПО;\n• выстраивание и оптимизация процессов тестирования ПО.\n\n📌Что мы ждем от тебя:\n• наличие опыта от 2 лет в направлениях QA или тестирования ПО;\n• понимание разницы между QA и тестированием ПО;\n• понимание особенностей гибких методологий;\n• уверенное владение техниками тест-дизайна;\n• знание клиент-серверной архитектуры;\n• понимание особенностей тестирования web, mobile и desktop приложений;\n• навык тестирования API;\n• написание запросов SQL;\n• опыт работы с системами контроля версий (git);\n• знание основных команд работы с консолью (Windows/Linux).\n\n\n📌Что мы предлагаем:\n• Полностью белая ЗП два раза в месяц;\n• Оформление по ТК РФ;\n• Высокий уровень экспертности внутри компании, которым мы делимся друг с другом;\n• Перспективы вертикального и горизонтального роста;\n• Работа на российских и международных проектах;\n• Оборудованное рабочее место и парк тестовых устройств;\n• Подготовка и прохождение сертификации ISTQB бесплатно;\n• Внутренние и внешние курсы, доклады, конференции;\n• Бесплатные чай, кофе, печеньки в офисе;\n• Корпоративная спортивная программа (оплата тематических секций, частичная компенсация абонемента);\n• Проведение летних и зимних корпоративов, дня именинника, совместные походы и т.д.\n\n📌Зарплата:\n• от 50 000 (Договорная, по итогу собеседования)\n\n\n☎️Контакты:\n@abrmova","markup":[{"type":"hashtag","offset":6,"length":9,"data":"вакансия"},{"type":"hashtag","offset":16,"length":3,"data":"QA"},{"type":"hashtag","offset":20,"length":10,"data":"Ульяновск"},{"type":"hashtag","offset":31,"length":8,"data":"Саранск"},{"type":"hashtag","offset":40,"length":7,"data":"Казань"},{"type":"hashtag","offset":48,"length":7,"data":"Самара"},{"type":"hashtag","offset":56,"length":4,"data":"Уфа"},{"type":"hashtag","offset":61,"length":10,"data":"Краснодар"},{"type":"hashtag","offset":72,"length":5,"data":"офис"},{"type":"hashtag","offset":78,"length":17,"data":"удаленная_работа"},{"type":"handle","offset":1781,"length":8,"data":"abrmova"}],"date":"2020-06-19T11:12:51+00:00","link":"tg://resolve?domain=qa_jobs&post=0","tags":[{"name":"qa"},{"name":"web"},{"name":"mobile"},{"name":"sql"},{"name":"git"},{"name":"windows"},{"name":"linux"}],"cities":[{"code":"ulyanovsk"},{"code":"saransk"},{"code":"kazan"},{"code":"samara"},{"code":"ufa"},{"code":"krasnodar"}],"allowsRemote":true}},{"node":{"__typename":"Job","id":"103265861632-1001089317451","title":"Qa engineer","text":"#вакансия #удаленно #частичная #QA #Automation #Java #нетология\n\n❗️«Нетология» ищет QA Automation Engineer на Java уровня middle и выше для преподавания на курсах.\nРабота частичная/удаленная❗️\n\nВ чем можно участвовать: \n📌Проводить лекции и открытые занятия для студентов, быть для них тренером, помогать делать дипломный проект\n📌Участвовать в создании новых образовательных программ, быть автором курса\n\nЧто мы предлагаем: \n🔹Удаленную работу, которую можно совмещать с основной (объем, занятость обсуждаются индивидуально)\n🔹Личный PR как эксперта\n🔹Возможность прокачивать спикерские навыки и быть частью сообщества экспертов одной из лучших IT-компаний\n🔹З/п в зависимости от объема занятости ( до 100 тыс. руб.)\n\nУспешные специалисты, которые работают у нас, рассказывают о том, как это повлияло на их жизнь и карьеру ➡️//habr.com/ru/company/netologyru/blog/423023/\n\nУзнать подробнее о вакансии и отправить резюме: a.ogarkowa@netology.ru или сюда @mileyet","markup":[{"type":"hashtag","offset":0,"length":9,"data":"вакансия"},{"type":"hashtag","offset":10,"length":9,"data":"удаленно"},{"type":"hashtag","offset":20,"length":10,"data":"частичная"},{"type":"hashtag","offset":31,"length":3,"data":"QA"},{"type":"hashtag","offset":35,"length":11,"data":"Automation"},{"type":"hashtag","offset":47,"length":5,"data":"Java"},{"type":"hashtag","offset":53,"length":10,"data":"нетология"},{"type":"link","offset":828,"length":43,"data":"http://habr.com/ru/company/netologyru/blog/423023/"},{"type":"link","offset":921,"length":22,"data":"mailto:a.ogarkowa@netology.ru"},{"type":"handle","offset":953,"length":8,"data":"mileyet"}],"date":"2020-06-19T10:09:11+00:00","link":"tg://resolve?domain=qa_jobs&post=0","tags":[{"name":"qa"},{"name":"java"}],"cities":[],"allowsRemote":true}},{"node":{"__typename":"Job","id":"103253278720-1001089317451","title":"Qa engineer","text":"#вакансия #Москва #fulltime #офис #qa #mobile\nКомпания: FunCorp\nВакансия:  QA mobile engineer\nОпыт работы: от 2-х лет\nЗарплата: 100 000 - 130 000 р. на руки\nМесторасположение: Москва, м. Белорусская\nЗанятость: fulltime, офис.\nNB! Удаленный вариант работы после выхода из карантина, к сожалению, не рассматриваем\nКонтактные данные: @chrschredinger или kristina@fun.co\n\nТребования\n- опыт тестирования мобильных приложений (iOS, Android) от года\n- опыт использования сниффера (Charles или Fiddler / Wireshark / Mitmproxy)\n- опыт работы с Android Studio / XCode\n- опыт работы с Firebase\n\nОбязанности\n- ручное тестирование (функциональное / регрессионное / исследовательское)\n- написание тестовых сценариев\n- тесная работа с менеджерами и разработчиками проекта\n\nУсловия\n- ДМС, включая стоматологию\n- бонусная система\n- обеды и ужины в офисе\n- бюджет на обучение и на фитнес\n- оплата участия в российских и зарубежных конференциях\n- отличный офис на м. Белорусская (БЦ «Белая площадь)","markup":[{"type":"hashtag","offset":0,"length":9,"data":"вакансия"},{"type":"hashtag","offset":10,"length":7,"data":"Москва"},{"type":"hashtag","offset":18,"length":9,"data":"fulltime"},{"type":"hashtag","offset":28,"length":5,"data":"офис"},{"type":"hashtag","offset":34,"length":3,"data":"qa"},{"type":"hashtag","offset":38,"length":7,"data":"mobile"},{"type":"bold","offset":46,"length":10,"data":""},{"type":"bold","offset":64,"length":10,"data":""},{"type":"bold","offset":94,"length":13,"data":""},{"type":"bold","offset":118,"length":10,"data":""},{"type":"bold","offset":157,"length":19,"data":""},{"type":"bold","offset":199,"length":10,"data":""},{"type":"underline","offset":226,"length":86,"data":""},{"type":"bold","offset":312,"length":19,"data":""},{"type":"handle","offset":331,"length":15,"data":"chrschredinger"},{"type":"link","offset":351,"length":15,"data":"mailto:kristina@fun.co"},{"type":"bold","offset":368,"length":11,"data":""},{"type":"bold","offset":584,"length":12,"data":""},{"type":"bold","offset":758,"length":8,"data":""}],"date":"2020-06-19T07:57:04+00:00","link":"tg://resolve?domain=qa_jobs&post=0","tags":[{"name":"qa"},{"name":"mobile"},{"name":"ios"},{"name":"android"},{"name":"xcode"},{"name":"firebase"},{"name":"android-studio"}],"cities":[{"code":"moscow"}],"allowsRemote":false}},{"node":{"__typename":"Job","id":"103252230144-1001089317451","title":"Qa engineer","text":"#вакансия #москва #офис #qaengineer #qa \nГород и адрес офиса: Москва, м.Автозаводская \nФормат работы: офис \nЗанятость: полная \nЗарплатная вилка: от 60 000 на руки \n\n✅QA Engineer (gamedev)\n\nОписание вакансии: \n\nКрупный мобильный проект в жанре фентези - Dragon Champions - ищет своего QA! Вы сможете работать над интересной игрой на стыке мидкорных и хардкорных механик, в окружении команды больших профессионалов с многолетним опытом.\n\n✅Что делать:\n\n•  Тестирование мобильной игры: функциональное тестирование, юзабилити тестирование, регрессионное тестирование\n•  Составление документации для тестирования: тест-кейсы, тест-план, чек-листы\n•  Тесное обсуждение функциональности игры с командой разработки\n•  Заведение всех найденных багов в трекере (Jira)\n\n✅Требования:\n\n•  Опыт работы в тестировании от одного года\n•  Понимание основ тестирования ПО, тест-планов, чек-листов, регрессионного и функционального тестирования\n•  Огромным плюсом будет наличие опыта в тестировании игр, в особенности, мобильных игр на Unity\n•  Умение работать с Jira, Confluence и Unity также будет большим плюсом\n\n✅Для вас:\n\n•  Конкурентная заработная плата, выплачивается 2 раза в месяц\n•  Необходимое оборудование для работы\n•  Коллектив творческих и позитивных людей\n\n✅О нас:\n\n•  Просторный офис 600 метров на м. Автозаводская (3 минуты от метро и от ТТК на машине) с ультра современным дизайном и кучей ништяков (кухня с вкусняшками, кальяны каждый вечер в дружной кампании, PS4 Pro + 4K TV, аркадные автоматы с Pac-Man, Metal Slug и другими хитами геймдизайна, просторная зона отдыха, 6 переговорных комнат и т д)\n•  Команда из 120 человек занимающаяся паблишингом и маркетингом, которая готова сделать продукт успешным после его готовности\n•  Возможность бесплатно обучаться английскому языку с носителями каждый будний день\n\nНазвание компании: AppQuantum\n\nКонтакты: \ne-mail: bm@adquantum.com\ntelegram: @MishaBarinov","markup":[{"type":"hashtag","offset":0,"length":9,"data":"вакансия"},{"type":"hashtag","offset":10,"length":7,"data":"москва"},{"type":"hashtag","offset":18,"length":5,"data":"офис"},{"type":"hashtag","offset":24,"length":11,"data":"qaengineer"},{"type":"hashtag","offset":36,"length":3,"data":"qa"},{"type":"bold","offset":166,"length":21,"data":""},{"type":"bold","offset":437,"length":11,"data":""},{"type":"bold","offset":759,"length":11,"data":""},{"type":"bold","offset":1096,"length":8,"data":""},{"type":"bold","offset":1253,"length":6,"data":""},{"type":"link","offset":1863,"length":16,"data":"mailto:bm@adquantum.com"},{"type":"handle","offset":1890,"length":13,"data":"MishaBarinov"}],"date":"2020-06-19T07:34:54+00:00","link":"tg://resolve?domain=qa_jobs&post=0","tags":[{"name":"qa"},{"name":"unity3d"}],"cities":[{"code":"moscow"}],"allowsRemote":false}},{"node":{"__typename":"Job","id":"103250132992-1001089317451","title":"Qa инженер","text":"#вакансия #Москва #работаQA #ручное тестирование #офис/удаленная #от года\nУ нас открыта вакансия в штат правообладателя, команда разработки – работает у подрядчика. \nЗанятость: полная в офисе \nЗаработная плата от 70 000 - 90 000 с налогами в зависимости от опыта кандидата\nКомпания https://agregatoreat.ru/  \nЗанятость: полная 50/50 офис и удаленно \nКонтакт: @OlesyaE \nОбязанности:\n•  Тестирование высоконагруженного web-сервиса (в том числе, во время его обновления в нерабочее время - 2 раза в месяц); только ручное тестирование front и back\n•  Ручное тестирование ПО (функциональное, нагрузочное, интеграционное и др.);\n•  Разработка тестовой документации;\n•  написание Unit тестов\n•  Оценка времени на проверку задач;\n•  Создание баг-репортов;\n•  Взаимодействие с разработчиками, аналитиками, службой технической поддержки;\nТребования:\n•  Опыт работы в области тестирования ПО от 1 года;\n•  Знание жизненного цикла ПО, тест-кейсов, багов и т.д.\n•  Знание различных методов тестирования;\n•  Опыт разработки тестовой документации;\n•  Базовые знания языка SQL;\n•  Приветствуется опыт работы с файлами *.xml, *.json;\n•  Опыт работы с баг-трекинговыми системами (Jira, TFS и т.д.);\n•  Внимательность, ответственность, умение работать в команде;\n•  Самостоятельность, стремление к профессиональному и карьерному росту.\nдля этой вакансии","markup":[{"type":"hashtag","offset":0,"length":9,"data":"вакансия"},{"type":"hashtag","offset":10,"length":7,"data":"Москва"},{"type":"hashtag","offset":18,"length":9,"data":"работаQA"},{"type":"hashtag","offset":28,"length":7,"data":"ручное"},{"type":"hashtag","offset":49,"length":5,"data":"офис"},{"type":"hashtag","offset":65,"length":3,"data":"от"},{"type":"link","offset":213,"length":15,"data":"tel:70 000 - 90 000"},{"type":"link","offset":282,"length":24,"data":"https://agregatoreat.ru/"},{"type":"handle","offset":359,"length":8,"data":"OlesyaE"}],"date":"2020-06-19T07:26:36+00:00","link":"tg://resolve?domain=qa_jobs&post=0","tags":[{"name":"qa"},{"name":"web"},{"name":"sql"},{"name":"xml"},{"name":"json"},{"name":"tfs"}],"cities":[{"code":"moscow"}],"allowsRemote":true}},{"node":{"__typename":"Job","id":"103246987264-1001089317451","title":"Qa инженер","text":"#job #вакансия #remote #QA #удаленка\n\nВсем привет!\n\nЯндекс.Практикум — сервис онлайн-образования. Мы помогаем людям расти — на работе и в жизни. Студенты могут освоить новую специальность, заговорить на иностранном языке и получать удовольствие от того, чем занимаются — каждый день.\n\nСейчас мы в поиске Наставников на факультет QA!\n\nКомпания: Яндекс.Практикум \nГрафик: частичная удаленная работа, 10 часов в неделю (з/п 50 тыс рублей в месяц). Можно легко совмещать с основной работой.\n\n🔹Что делает наставник?\nНаставник курирует группу из 40 студентов на протяжении всего процесса обучения (примерно 4  месяца). Он отвечает на их вопросы, проводит групповые консультации. \n\n🔹Вам подойдет роль, если у вас есть: опыт работы тестировщиком от 3х лет, опыт тестирования веб- и мобильных приложений, веб-сервисов; \nЕсть опыт с автоматизацией тестирования: selenium + язык программирования (js, python, java);\nПлюсом будет опыт преподавания и экспертной деятельности. \n\n🔹Все наставники перед работой проходят Школу наставников от Яндекс.Практикума. \n\nОткликаться можно здесь: https://praktikum.yandex.ru/job/vacancy-3\nили пишите в личку 🙌","markup":[{"type":"hashtag","offset":0,"length":4,"data":"job"},{"type":"hashtag","offset":5,"length":9,"data":"вакансия"},{"type":"hashtag","offset":15,"length":7,"data":"remote"},{"type":"hashtag","offset":23,"length":3,"data":"QA"},{"type":"hashtag","offset":27,"length":9,"data":"удаленка"},{"type":"link","offset":1074,"length":41,"data":"https://praktikum.yandex.ru/job/vacancy-3"}],"date":"2020-06-19T06:58:50+00:00","link":"tg://resolve?domain=qa_jobs&post=0","tags":[{"name":"qa"},{"name":"selenium"},{"name":"python"},{"name":"java"}],"cities":[],"allowsRemote":true}},{"node":{"__typename":"Job","id":"103208189952-1001089317451","title":"Qa инженер","text":"#fulltime #hadoop #sql #english #вакансия #QA #тестировщик \n#etl #Самара #офис #полнаязанятость \nЗаработная плата: от 80 000 (gross)\nВакансия: QA Engineer/QA Analyst (в трудовой книжке: Главный инженер)\nКомпания: ПАО Сбербанк, Адрес: ул. Ленина, д. 17 (м. Алабинское)\nПроект: Разработка Корпоративной Модели Данных\nЧто используем: Jenkins, Confluence, Jira, Hadoop, Excel, Hive, Impala, Spark, SQL, Agile (Sbergile), и др.\nЗадачи: \n - Разработка тестовых сценариев\n - Разработка и анализ документации\n - Развитие подходов к тестированию, организация тестирования\nТребования:\n - Высшее техническое\\математическое образование\n - Знание методик тестирования баз данных\n - Английский (документация и проектные курсы на англ.)\nУсловия:                                                                                 \n - Цифровая библиотека, digital-курсы, подписка на O'Reilly 35000+ книг\n - В пятницу работаем на час меньше                                                 \n - Свободный дресс-код\n - Премии\nЭтапы собеседований (онлайн): \n1. Команда смотрит резюме \n2. Zoom с представителем команды (до 30 минут)\n3. Zoom с руководителем (до 1 часа)\nОтзыв в течении 3-х бизнес дней \n\nОбращение в л/с @bogdanova_hr и резюме присылать на nsboykova@sberbank.ru","markup":[{"type":"hashtag","offset":0,"length":9,"data":"fulltime"},{"type":"hashtag","offset":10,"length":7,"data":"hadoop"},{"type":"hashtag","offset":18,"length":4,"data":"sql"},{"type":"hashtag","offset":23,"length":8,"data":"english"},{"type":"hashtag","offset":32,"length":9,"data":"вакансия"},{"type":"hashtag","offset":42,"length":3,"data":"QA"},{"type":"hashtag","offset":46,"length":12,"data":"тестировщик"},{"type":"hashtag","offset":60,"length":4,"data":"etl"},{"type":"hashtag","offset":65,"length":7,"data":"Самара"},{"type":"hashtag","offset":73,"length":5,"data":"офис"},{"type":"hashtag","offset":79,"length":16,"data":"полнаязанятость"},{"type":"handle","offset":1193,"length":13,"data":"bogdanova_hr"},{"type":"link","offset":1229,"length":21,"data":"mailto:nsboykova@sberbank.ru"}],"date":"2020-06-18T16:34:47+00:00","link":"tg://resolve?domain=qa_jobs&post=0","tags":[{"name":"qa"},{"name":"hadoop"},{"name":"sql"},{"name":"jenkins"},{"name":"excel"},{"name":"hive"}],"cities":[{"code":"samara"}],"allowsRemote":false}},{"node":{"__typename":"Job","id":"103207141376-1001089317451","title":"Qa engineer","text":"#вакансия #удаленка #Москва #fulltime #qa \nКомпания: «Intelligence Retail» (https://intrtl.com/).\nQA manual engineer\nФормат: удаленно, 5/2\nВилка: до 120 000 т.р\nЖелающим поможем вырасти в автоматизации на python.\n\nКто мы?\nIntelligence Retail входит в число 30 крупнейших поставщиков AI в России (по версии Rusbase). Мы работаем с такими глобальными компаниями по производству CPG, как Danone, Heineken, P & G, Perfetti Van Melle, Red Bull и другими. www.intrtl.com\nIntelligence Retail — молодой стартап в области ИИ. Мы помогаем компаниям в ритейле и FMCG повысить эффективность труда своих сотрудников. Наш продукт это система контроля товаров, использующая передовые алгоритмы компьютерного зрения на базе нейронных сетей.\n\nПожелания к кандидату:\n• Опыт тестирования сложных web программ, включая разработку тестов, тестовых данных, и сценариев тестирования;\n• Опыт тестирования API (Postman, SoapUI)\n• Способность выявлять уязвимые места систем, способность к поиску дефектов;\n• Опыт работы с системами багтрекинга;\n• Базовые знания SQL (на уровне простых запросов);\n• Технический английский.\nПлюсом будет:\n• опыт в автоматизации тестирования;\n• знание Python.\n\nЗадачи:\n• Мы разрабатываем SaaS решение которое содержит следующие компоненты:\n- мобильное приложение под iOS и Android;\n- аналитический web-портал;\n- REST API на python и php;\n- бекенд распознавания с использованием нейронных сетей.\n\nВот что нужно будет делать:\n• Ручное тестирование нового и существующего функционала ПО (Web, API, Mobile);\n• Проведение регрессионного тестирования перед поставкой;\n• Составление тестовых сценариев и поддержка их в актуальном состоянии;\n• Взаимодействие с командой разработки;\n• Обработка ошибок от технической поддержки пользователей;\n• Фиксация дефектов в трекере задач и последующий контроль их исправления.\n\nУсловия работы:\n• Достойная белая ЗП и полное соблюдение трудового законодательства РФ;\n• Удаленная работа с гибким графиком 5/2;\n• Команда крутых разработчиков и учёных, интересные задачи и перспективные продукты.\nИ ещё:\n• Тестировщик является частью скрам-команды, которая работает с 2-х недельными спринтами;\n• Ежедневные стендапы примерно в 11:30;\n• Задачи ведем в youtrack;\n• Мы — один из немногих Российских стартапов, который работает сразу на международном рынке, у нас уже есть зарубежные клиенты;\nВ компании работает порядка 40 человек, тех команда примерно 25.\n\nКонтакты: @DariaYugova","markup":[{"type":"hashtag","offset":0,"length":9,"data":"вакансия"},{"type":"hashtag","offset":10,"length":9,"data":"удаленка"},{"type":"hashtag","offset":20,"length":7,"data":"Москва"},{"type":"hashtag","offset":28,"length":9,"data":"fulltime"},{"type":"hashtag","offset":38,"length":3,"data":"qa"},{"type":"link","offset":76,"length":19,"data":"https://intrtl.com/"},{"type":"bold","offset":98,"length":18,"data":""},{"type":"link","offset":450,"length":14,"data":"http://www.intrtl.com"},{"type":"bold","offset":726,"length":22,"data":""},{"type":"bold","offset":1165,"length":7,"data":""},{"type":"bold","offset":1400,"length":27,"data":""},{"type":"bold","offset":1813,"length":15,"data":""},{"type":"handle","offset":2396,"length":12,"data":"DariaYugova"}],"date":"2020-06-18T16:31:41+00:00","link":"tg://resolve?domain=qa_jobs&post=0","tags":[{"name":"qa"},{"name":"python"},{"name":"web"},{"name":"sql"},{"name":"ios"},{"name":"android"},{"name":"rest"},{"name":"php"},{"name":"mobile"}],"cities":[{"code":"moscow"}],"allowsRemote":true}},{"node":{"__typename":"Job","id":"103205044224-1001089317451","title":"Qa инженер","text":"***\n\nТребуется Middle QA для ручного тестирования банковского ПО.\nРабота удаленно. \nОплата – часовая ставка с занятостью ~6-8 часов в день, от 500\\час. \nЗанятость по московскому времени, в рабочие часы. \n\nТребования к соискателю:\n1. Опыт ручного тестирования от года;\n2. Опыт тестирования UI;\n3. Опыт интеграционного тестирования;\n4. Знание SQL;\n5. Опыт работы по Agile;\n6. Высокий уровень самоорганизации и коммуникативных навыков;\n7. Опыт написания тест-кейсов.\n\nЖду резюме и информацию о себе – личным сообщением, с пометкой «Банковское ПО». Каждому из соискателей я отвечу до 22 июня. \n\n\n🎱QA\n🎱Devquality\n🎱Тестирование бэкенда, фронта, автоматизация\n🎱 Часовой рейт, удаленное сотрудничество. #россия #москва #подмосковье #удаленное #вакансия #работавит #работаврегионах\n\nБлагодарю.","markup":[{"type":"bold","offset":0,"length":3,"data":""},{"type":"hashtag","offset":699,"length":7,"data":"россия"},{"type":"hashtag","offset":707,"length":7,"data":"москва"},{"type":"hashtag","offset":715,"length":12,"data":"подмосковье"},{"type":"hashtag","offset":728,"length":10,"data":"удаленное"},{"type":"hashtag","offset":739,"length":9,"data":"вакансия"},{"type":"hashtag","offset":749,"length":10,"data":"работавит"},{"type":"hashtag","offset":760,"length":16,"data":"работаврегионах"}],"date":"2020-06-18T15:56:41+00:00","link":"tg://resolve?domain=qa_jobs&post=0","tags":[{"name":"qa"},{"name":"sql"}],"cities":[{"code":"moscow"}],"allowsRemote":true}},{"node":{"__typename":"Job","id":"103203995648-1001089317451","title":"Qa инженер","text":"Всем привет! \n\nТребуется Middle QA или Senior QA\nдля ручного тестирования мобильных приложений.\n\nРабота удаленно. \nОплата – часовая ставка с занятостью ~6-8 часов в день, от 500\\час. \nЗанятость по московскому времени, в рабочие часы. \n\nТребования к соискателю:\n1. Опыт ручного тестирование мобильных приложений от 1 года;\n2. Знание особенностей версий OS;\n3. Знание инструментов разработчика под Android;\n4. Понимание различий тестирования веб \\ мобайл;\n5. Опыт тестирования api;\n6. Опыт работы с БД;\n7. Высокий уровень самоорганизации и коммуникативных навыков.\n\nВ процессе работы возможно обучение автоматизации тестирования. \n\nЖду резюме и информацию о себе – личным сообщением, с пометкой «mobile qa». \nКаждому из соискателей я отвечу до 22 июня. \n\n\n🎱QA\n🎱Devquality\n🎱Тестирование бэкенда, фронта, автоматизация\n🎱 Часовой рейт, удаленное сотрудничество. #россия #москва #подмосковье #удаленное #вакансия #работавит #работаврегионах\n\nЕще одна вакансия ниже.","markup":[{"type":"hashtag","offset":861,"length":7,"data":"россия"},{"type":"hashtag","offset":869,"length":7,"data":"москва"},{"type":"hashtag","offset":877,"length":12,"data":"подмосковье"},{"type":"hashtag","offset":890,"length":10,"data":"удаленное"},{"type":"hashtag","offset":901,"length":9,"data":"вакансия"},{"type":"hashtag","offset":911,"length":10,"data":"работавит"},{"type":"hashtag","offset":922,"length":16,"data":"работаврегионах"}],"date":"2020-06-18T15:53:14+00:00","link":"tg://resolve?domain=qa_jobs&post=0","tags":[{"name":"qa"},{"name":"android"},{"name":"mobile"}],"cities":[{"code":"moscow"}],"allowsRemote":true}}]}}},"context":{}}