{"hash":"f5f6bf98bd95e769321482904cbbd488f77922fd","data":{"records":{"totalCount":669,"pageInfo":{"totalPages":67,"currentPage":52},"edges":[{"node":{"id":"17005805568-1001110946746","title":"Js разработчик","text":"#вакансия #удаленка #frontend #react\n\nПривет, мы ищем в команду опытного фронта, уровня middle, middle+, senior.\n\nГород и адрес офиса: Москва, Парк Культуры, Кропоткинская\n\nФормат работы: офис, удаленка\n\nЗанятость: полная\n\nЗарплатная вилка:  от 100к до 170к руб на руки\n\nОписание вакансии: \n\nМы занимаемся разработкой внутреннего продукта компании - платформой информационного оператора. Платформа состоит из разных модулей, среди которых есть картографический сервис, конструктор аналитики, личный кабинет и многие другие. Некоторые из них еще находятся на этапе проектирования. Пользователь получает продукт, собранный из модулей, как конструктор.\n\nПишем мы на React, в некоторых модулях используем дизайн систему Ant. Стараемся следить за кодом, делаем код-ревью, но иногда можем оставить технический долг “на потом” ради ускорения процесса.\n\nДля нас очень важным качеством является самостоятельность. Зачастую для нетривиальных задач нужно проводить анализ, делать ресерч. В большинстве случаев перед интеграцией с серверной частью мы делаем прототипы интерфейса без дизайна, основываясь на существующих компонентах и решениях.\n\nМы хотим, чтобы ты:\n- участвовал в принятии архитектурных решений и активно занимался разработкой проекта;\n- знал плюсы и минусы выбранного решения и был бы готов их обосновывать;\n- умел разбираться в чужом коде;\n- не пугался отсутствия подробного ТЗ или дизайна;\n\nНавыки, которые пригодятся:\n- уверенное владение JavaScript (es5, es6+);\n- хороший опыт работы с React (Hooks, Context API, etc);\n- опыт работы с библиотеками для управления состоянием приложения (redux/mobx);\n- понимание принципов REST;\n- понимание асинхронности;\n\nБудем плюсом, если ты:\n- строил карты на фронте (Openlayers, Mapbox, etc);\n- сам настраивал Webpack;\n- делал архитектуру приложений с нуля;\n- писал тесты (интеграционные, юнит);\n- писал на Node JS;\n\nНам не важно где ты находишься, если у тебя нормальный интернет и ты готов быть на связи в установленное время. Как правило, разброс активности ребят в команде с 10 утра до 8 вечера по Москве. Мы также можем предоставить тебе рабочее место в офисе в центре Москвы, возле Парка Культуры.\n\nОформляем по ТК, белая ЗП, ДМС по истечению испытательного срока, если нет препятствий к оформлению в России. Можем заключить договор ГПХ.\n\nПостарайся к отклику, помимо резюме, прикрепить проект, компонент или библиотеку, которыми ты гордишься, чтобы мы посмотрели на твой код.\n\nОдним из этапов собеседования может быть тестовое задание.\n\nНазвание компании: Центр 2М\n\nКонтакты: @fedorm\n\n—\n\n👉 Обсуждение вакансии в чате @javascript_jobs","markup":[{"type":"hashtag","offset":0,"length":9,"data":"вакансия"},{"type":"hashtag","offset":10,"length":9,"data":"удаленка"},{"type":"hashtag","offset":20,"length":9,"data":"frontend"},{"type":"hashtag","offset":30,"length":6,"data":"react"},{"type":"handle","offset":2529,"length":7,"data":"fedorm"},{"type":"handle","offset":2571,"length":16,"data":"javascript_jobs"}],"date":"2020-06-17T15:17:00+00:00","link":"tg://resolve?domain=javascript_jobs_feed&post=0","tags":[{"name":"javascript"},{"name":"reactjs"},{"name":"ant"},{"name":"redux"},{"name":"rest"},{"name":"webpack"},{"name":"nodejs"}],"cities":[{"code":"moscow"}],"allowsRemote":true}},{"node":{"id":"17001611264-1001110946746","title":"Js разработчик","text":"#вакансия #middle #спб #react #redux #emotion\n\nГород: Сантк-Петербург, ул. Рубинштейна (5 углов)\nФормат работы: офис или удаленка\nЗанятость: полная\nЗарплатная вилка: от 80к до 130к рублей (на руки, больше по согласованию)\nИспользуемый стек: react 16 (hooks), redux, emotion\n\nОписание вакансии:\n\nПривет всем, мы разрабатываем крутые проекты, связанные прежде всего с физическим здоровьем людей, которые тратят его, зарабатывая себе на хлеб. Эти люди работают на складах, перенося коробки с места на место, в сортировочных центрах, доставляя вам посылки, на стройках, и в остальных местах, где требуется ручной труд.\nНаши решения помогают компаниям за границей измерять и управлять (с помощью носимых устройств) рисками возникновения травмы для своих сотрудников (подробнее можете ознакомиться по ссылке: https://soteranalytics.com/ ). Я сооснователь проекта и нам в сентябре исполнится 4 года. С помощью этого канала мы уже нашли двух сотрудников, которые успешно у нас работают, но сейчас такие времена, что чем быстрее мы сможем разработать новые фичи в наших продуктах, тем больше рынка сможем захватить.\n\nЧто нужно делать: нужно разрабатывать дэшборды и прочие веб интерфейсы для наших клиентов, так и для наших внутренних нужд.\n\nЧто требуется от вас: мы ценим самоорганизованность и очень не любим микроменеджмент. Также мы любим когда наши сотрудники развиваются у нас на глазах и всячески стараемся этому помочь. У нас также сформирована команда из опытных сотрудников, которые имеют экспертизы почти в каждой теме.\nТакже мы ценим, когда человек умеет решать проблемы, а не создавать их другим.\n\nКонтакты: писать мне в личку @pavko_a. В сообщении пишите что вы уже сделали на reactjs, чем вы гордитесь в своей работе, а также пару строк о себе и чем вы занимались на последнем проекте.\n\nЗабыл упомянуть: в команде очень много общения на английском, так как коммерческая команда находится в Лондоне и являются носителями языка. #doyourhomework\n\n—\n\n👉 Обсуждение вакансии в чате @javascript_jobs","markup":[{"type":"hashtag","offset":0,"length":9,"data":"вакансия"},{"type":"hashtag","offset":10,"length":7,"data":"middle"},{"type":"hashtag","offset":18,"length":4,"data":"спб"},{"type":"hashtag","offset":23,"length":6,"data":"react"},{"type":"hashtag","offset":30,"length":6,"data":"redux"},{"type":"hashtag","offset":37,"length":8,"data":"emotion"},{"type":"link","offset":803,"length":27,"data":"https://soteranalytics.com/"},{"type":"handle","offset":1631,"length":8,"data":"pavko_a"},{"type":"hashtag","offset":1933,"length":15,"data":"doyourhomework"},{"type":"handle","offset":1983,"length":16,"data":"javascript_jobs"}],"date":"2020-06-17T15:12:15+00:00","link":"tg://resolve?domain=javascript_jobs_feed&post=0","tags":[{"name":"javascript"},{"name":"reactjs"},{"name":"redux"},{"name":"react-redux"}],"cities":[],"allowsRemote":true}},{"node":{"id":"17000562688-1001110946746","title":"Js разработчик","text":"#вакансия #frontend #teamlead #Москва #офис #JS #fulltime\n\nГород и адрес офиса: Москва, м. Новокузнецкая/Павелецкая\nФормат работы: #офис\nЗанятость: #полная\nЗП: от 200к до 350к руб. нетт\n\nSports.ru – провайдер развлечений для любителей спорта.\nЕсть спорт. Есть болельщики. Мы заполняем среду между ними, оживляем ее, наполняем общением и другими развлечениями. Мы делаем не «сайты» или «приложения», а мультиплатформенные продукты, с учетом актуальной технологической парадигмы.\n\nСейчас нашему флагманскому проекту Sports.ru нужен Frontend Team Lead. Это – главное медиа о спорте на русском языке с аудиторией 18 млн пользователей в месяц. Highload-проект с десятками тысяч RPS, состоящий из самых разных продуктов – сайтов, мобильных приложений, email-рассылок, чат-ботов и многого другого.\n\nПроекту уже более 20-ти лет, но двадцатилетнего кода вы тут не увидите, хотя со старым наследием [handlebars на сервере + js-компоненты на самописном фреймворке на клиенте] все же придется столкнуться. Все новые фичи мы делаем на Vue.js + SSR.\n\nО задачах:\nМы ищем человека, который будет не только заниматься руководством и развитием frontend-команды и участвовать в распределении задач и планировании. [Сейчас в команде 5 разработчиков +/- middle уровня.]\n\nМы рассчитываем, что наш team lead будет самостоятельно разрабатывать сложные фичи, будет ответственным за принятие архитектурных решений на проекте и будет лидировать процесс переезда на новый стек.\n\nО наших ожиданиях:\nМы ожидаем, что вы в качестве team lead’a имеете успешный опыт управления командой frontend-разработки: умеете выстраивать процессы, нанимать, увольнять и растить людей.\nВ качестве разработчика умеете работать с git, понимаете принципы работы сборщиков (webpack, rollup), имеете опыт работы с одним из современных js-фреймворков (Vue, React), умеете и любите писать тесты.\n\nОб условиях:\nПросторный стильный офис возле м. Новокузнецкая/Третьяковская.\n“Белая” заработная плата.\nБесплатная медстраховка со стоматологией после испытательного срока.\nГибкий график работы с возможностью день-два в неделю работать удаленно.\nФрукты, снеки, чай, кофе, какао 24/7.\nКорпоративная скидка в спортзал и на занятия английским языком.\nКорпоративный футбол с тренером.\nФинансовая помощь при переезде из другого города.\nВозможности для профессионального развития (сложные задачи, новые технологии, оплата обучающих курсов и конференций, помощь в развитии персонального бренда (участие в конференциях, написание статей).\n\nНазвание компании: Sports.ru (Tribuna Digital)\nКому интересно, пишите в личку (@pbuyatova), рада буду поделиться подробностями :)\n\n—\n\n👉 Обсуждение вакансии в чате @javascript_jobs","markup":[{"type":"hashtag","offset":0,"length":9,"data":"вакансия"},{"type":"hashtag","offset":10,"length":9,"data":"frontend"},{"type":"hashtag","offset":20,"length":9,"data":"teamlead"},{"type":"hashtag","offset":30,"length":7,"data":"Москва"},{"type":"hashtag","offset":38,"length":5,"data":"офис"},{"type":"hashtag","offset":44,"length":3,"data":"JS"},{"type":"hashtag","offset":48,"length":9,"data":"fulltime"},{"type":"hashtag","offset":131,"length":5,"data":"офис"},{"type":"hashtag","offset":148,"length":7,"data":"полная"},{"type":"link","offset":187,"length":9,"data":"http://Sports.ru"},{"type":"link","offset":514,"length":9,"data":"http://Sports.ru"},{"type":"link","offset":2493,"length":9,"data":"http://Sports.ru"},{"type":"handle","offset":2553,"length":10,"data":"pbuyatova"},{"type":"handle","offset":2638,"length":16,"data":"javascript_jobs"}],"date":"2020-06-17T15:09:55+00:00","link":"tg://resolve?domain=javascript_jobs_feed&post=0","tags":[{"name":"javascript"},{"name":"vuejs"},{"name":"git"},{"name":"webpack"},{"name":"reactjs"}],"cities":[{"code":"moscow"}],"allowsRemote":true}},{"node":{"id":"71492960256-1001054966032","title":"Ios разработчик","text":"#вакансия #удаленнаяработа #senior #ios\n\nКомпания - VMB\nПозиция - middle+ / senior iOS разработчик\nФормат - удаленная работа\nГрафик - полный день\n \nЧто нужно делать?\n ⁃ Разработка мобильных приложений для iPhone и iPad \n ⁃ Анализ предметной области, требований, участие в экспертной оценке\n ⁃ Разработка нового функционала, исправление ошибок, оптимизация \n ⁃ Рефакторинг и code review\n\nЧто ждём от вас?\n ⁃ знание Objective -C, опыт разработки под IOS от 3-х лет \n ⁃ Наличие завершенных проектов\n ⁃ Наличие портфолио успешно реализованных проектов \n ⁃ Знание классических алгоритмов и структур данных\n ⁃ Знание CoreData, использование CocoaPods или Carthage, понимание Stroeyboards и Autolayout\n\nУсловия:\n ⁃ зп: 150к-200к рублей\n ⁃ гибкое начало рабочего дня\n ⁃ возможность развиваться и развивать социальный и известный проект \n\nКонтакты:\n@nariarakel","markup":[{"type":"hashtag","offset":0,"length":9,"data":"вакансия"},{"type":"hashtag","offset":10,"length":16,"data":"удаленнаяработа"},{"type":"hashtag","offset":27,"length":7,"data":"senior"},{"type":"hashtag","offset":35,"length":4,"data":"ios"},{"type":"handle","offset":840,"length":11,"data":"nariarakel"}],"date":"2020-06-17T15:05:53+00:00","link":"tg://resolve?domain=mobile_jobs&post=0","tags":[{"name":"mobile"},{"name":"ios"},{"name":"objective-c"},{"name":"cocoapods"}],"cities":[],"allowsRemote":true}},{"node":{"id":"16994271232-1001110946746","title":"Js разработчик","text":"#вакансия #удаленка #работа #js #javascript #разработчик\n\nГород и адрес офиса: Тель-Авив \nФормат работы: удаленка\nЗанятость: полная, гибкий график.\n\nЗарплатная вилка: 5500-6000$/мес. (Почасовая оплата 35$/час + ежемесячный бонус 250$)\n\nНалоги платите по месту жительства. ИП 6%. Если патент, то он зависит от места жительства. В Подмосковье 12 000 руб в год. В Москве 300 тыс. в год. Как сами оформите налоги, так и платите. \n\nИщу разработчика к нам в команду: израильский проект Luminati (https://luminati.io).  Full-Stack. Компания разрабатывает несколько продуктов, в том числе p2p vpn, видео cdn нового поколения http://holaspark.com/\nОфис в Тель-Авиве, работа удаленная! График свободный. Что нам нужно:\n\n • Knowledge in Node JS framework: ExpressJS, Promise - Experience with MongoDB \n- Creating RESTful web services/API’s using Node.js with or without framework assistance \n\n- JavaScript-based unit testing tools \n\n- Client-side browser technologies including JavaScript, CSS, and HTML \n\n- 1 year development experience in Node JS with a solid working knowledge of frameworks and architecture \n\n- 2+ year’s overall development experience using JavaScript and open web technologies \n\n- хороший английский язык, идеальная грамматика не обязательна \n\n • работа удаленная, 7-9 часов в день (по желанию)\n • зарплата от 35$/час (+фиксированный бонус 250$ ежемесячно), через полгода повышается\n • после того, как откроют границы и будут возможны перелёты - выезд в офис на заключение контракта (перед этим возможно заключение с электронной подписью), отель и перелет за счет компании, море под окном\n\nОтвечу на все вопросы:)\n\nИнстаграмм https://instagram.com/hola_better_internet\n\nРезюме сюда:  luda.hola@gmail.com\n\n—\n\n👉 Обсуждение вакансии в чате @javascript_jobs","markup":[{"type":"hashtag","offset":0,"length":9,"data":"вакансия"},{"type":"hashtag","offset":10,"length":9,"data":"удаленка"},{"type":"hashtag","offset":20,"length":7,"data":"работа"},{"type":"hashtag","offset":28,"length":3,"data":"js"},{"type":"hashtag","offset":32,"length":11,"data":"javascript"},{"type":"hashtag","offset":44,"length":12,"data":"разработчик"},{"type":"link","offset":490,"length":19,"data":"https://luminati.io"},{"type":"link","offset":617,"length":21,"data":"http://holaspark.com/"},{"type":"link","offset":1637,"length":42,"data":"https://instagram.com/hola_better_internet"},{"type":"link","offset":1695,"length":19,"data":"mailto:luda.hola@gmail.com"},{"type":"handle","offset":1749,"length":16,"data":"javascript_jobs"}],"date":"2020-06-17T15:04:21+00:00","link":"tg://resolve?domain=javascript_jobs_feed&post=0","tags":[{"name":"javascript"},{"name":"nodejs"},{"name":"mongodb"},{"name":"web"},{"name":"css"},{"name":"html"},{"name":"unit-testing"}],"cities":[],"allowsRemote":true}},{"node":{"id":"347078656-1001352129329","title":"Go разработчик","text":"#вакансия\n#CloudMTS#job #fulltime #remote\n\nBackend разработчик\n\nЗ/П: 150к - 190 руб. net (+ДМС).\nПолная занятость.\nКомпания МТС ИТ.\nИщем трёх разработчиков в три разных направления: Platform, Database-as-a-Service, Containerum)\n\n#CloudMTS-  российский облачный провайдер.\n\nЧто нужно делать?\nРазрабатывает и поддержка сервисов управления инфраструктуры, разработка серверной части высоконагруженного сервиса, участие в разработке API.\n\nСтек: Go, gRPC, Git.\n\nЧто мы предлагаем:\n- белая ЗП, премия 20% от годового оклада;\n- ДМС;\n- тренинги; чемпионаты по программированию.\n\nКонтакты: @Snezhana_Andreeva","markup":[{"type":"hashtag","offset":0,"length":9,"data":"вакансия"},{"type":"hashtag","offset":24,"length":9,"data":"fulltime"},{"type":"hashtag","offset":34,"length":7,"data":"remote"},{"type":"hashtag","offset":229,"length":9,"data":"CloudMTS"},{"type":"handle","offset":581,"length":18,"data":"Snezhana_Andreeva"}],"date":"2020-06-17T14:19:43+00:00","link":"tg://resolve?domain=gogetajobfeed&post=331","tags":[{"name":"go"},{"name":"dotnet"},{"name":"git"}],"cities":[],"allowsRemote":true}},{"node":{"id":"26385317888-1001075660570","title":"Php разработчик","text":"#вакансия #php #удаленка #разработчик #remote #symfony #freelance\nВакансия: PHP Developer (Symfony)\nПроект: trivago.com \nФормат работы: удаленная работа\nЗанятость: от 120 часов в месяц\nЗарплатная вилка: до 1500 руб/час (обсуждается)\nАнглийский: interview/meeting speaking\nНа один из самых больших порталов для путешествий trivago.com требуется PHP-разработчиков (Symfony), уровень миддл, сеньор.\nУдаленная работа, проектная занятость (проект 3 месяца, возможно дольше).\nНам важно, чтобы Вы уверенно работали с PHP Symfony, Docker, continuous Integration, имели опыт в API interface. Преимуществом будет опыт работы с порталами бронирования услуг, путешествий.\nОсновные задачи: развитие и поддержка функциональности портала, подробности на интервью.\nРабота под руководством технического директора, находящегося в Германии, поэтому ключевое требование – способность пройти интервью на английском языке и коммуницировать с англоговорящей командой.\nОриентировочная дата начала проекта с 1-ого июля, работа происходит по немецкому времени (с 9:00 по 18:00 по german time), т.е. с 8.00 до 17.00 московского времени. \nНа проекте отличная международная команда и комфортные условия. Оформление по договору.\nЕсли Вам это интересно, буду рада продолжить диалог и ответить на Ваши вопросы! \nКонтакт: Ирина, @ir1na_hr","markup":[{"type":"hashtag","offset":0,"length":9,"data":"вакансия"},{"type":"hashtag","offset":10,"length":4,"data":"php"},{"type":"hashtag","offset":15,"length":9,"data":"удаленка"},{"type":"hashtag","offset":25,"length":12,"data":"разработчик"},{"type":"hashtag","offset":38,"length":7,"data":"remote"},{"type":"hashtag","offset":46,"length":8,"data":"symfony"},{"type":"hashtag","offset":55,"length":10,"data":"freelance"},{"type":"link","offset":108,"length":11,"data":"http://trivago.com"},{"type":"link","offset":322,"length":11,"data":"http://trivago.com"},{"type":"handle","offset":1296,"length":9,"data":"ir1na_hr"}],"date":"2020-06-17T14:19:43+00:00","link":"tg://resolve?domain=php_jobs&post=25163","tags":[{"name":"php"},{"name":"symfony"},{"name":"docker"},{"name":"continuous-integration"}],"cities":[],"allowsRemote":true}},{"node":{"id":"91050999808-1001067529236","title":"Python разработчик","text":"#fullstack_dev #вакансия #удаленка #Python \n\nПривет! Меня зовут Виолетта, ищу Python разработчика в компанию SIMKOMAT.\n\nМесто работы: удаленка \nРабочий день: полный рабочий день\nТвои умения: \nPython, asyncio, flask\nОпыт программирования многопоточных приложений;\nЗнание операционной системы Linux;\nЗнание Docker/Docker-compose\nУмение работы с системой контроля версий Git, gitlab, CI/CD\nОпыт работы с базами данных Mongodb, PostgreSQL или MySQL\nПонимание принципов виртуализации;\nОпыт администрирования ОС семейства Linux, localhost, умение работать с ssh\nМы общаемся в: Trello, Atlassian, Telegram, Viber, GitLab Issues\nО компании: создаем программные аппараты для выдачи сим-карт без участия человека. В основном сотрудничаем с иностраннными компаниями. Нашему коллективу кажется, что мы веселые и приятные люди. \nОткликаться на вакансию: пиши мне в телеграм @violker или на почту yo@simkomat.com\n\nЗа внимание спасибо. Сайт SIMKOMAT - тебе. https://simkomat.com/ru/","markup":[{"type":"hashtag","offset":0,"length":14,"data":"fullstack_dev"},{"type":"hashtag","offset":15,"length":9,"data":"вакансия"},{"type":"hashtag","offset":25,"length":9,"data":"удаленка"},{"type":"hashtag","offset":35,"length":7,"data":"Python"},{"type":"bold","offset":120,"length":13,"data":""},{"type":"bold","offset":144,"length":13,"data":""},{"type":"bold","offset":178,"length":14,"data":""},{"type":"bold","offset":556,"length":15,"data":""},{"type":"bold","offset":621,"length":11,"data":""},{"type":"bold","offset":816,"length":24,"data":""},{"type":"handle","offset":861,"length":8,"data":"violker"},{"type":"link","offset":883,"length":15,"data":"mailto:yo@simkomat.com"},{"type":"link","offset":943,"length":24,"data":"https://simkomat.com/ru/"},{"type":"bold","offset":943,"length":24,"data":""}],"date":"2020-06-17T14:10:22+00:00","link":"tg://resolve?domain=python_jobs&post=0","tags":[{"name":"python"},{"name":"flask"},{"name":"linux"},{"name":"docker"},{"name":"git"},{"name":"gitlab"},{"name":"mongodb"},{"name":"postgresql"},{"name":"mysql"},{"name":"ssh"},{"name":"docker-compose"}],"cities":[],"allowsRemote":true}},{"node":{"id":"91048902656-1001067529236","title":"Python разработчик","text":"#вакансия #python #django #middle #senior #фултайм #москва #remote\n\nКомпания: РБК\nГород: Москва\nУсловия: фуллтайм удаленка/офис, м. Калужская\nдо 200000 руб.+ДМС, скидки на англ.яз. и фитнес\n\nВ команду медиахолдинга РБК  ищем Python-разработчика в проект «РБК Pro»: платформа с платным бизнес-контентом по подписке и миллионной аудиторией.\n\nПри работе над продуктом предстоит решать множество интересных технических и архитектурных задач: обеспечивать устойчивость системы к высоким нагрузкам, полностью персонализировать представление данных для каждого пользователя, реализовывать гибкую модель тарификации и подписок.\n\nВ работе используем следующие инструменты: Python3, Django REST Framework (DRF), Aiohttp, кластеры Postgresql, Elasticsearch. Деплоим в кластер Kubernetes \n\nНаши пожелания:\n- опыт разработки приложений на Python3 от 2-х лет\n- уверенное знание фреймворка Django\n- опыт разработки на aiohttp;\n\nДетали можно посмотреть тут \ncall/text me: @marie_clair","markup":[{"type":"hashtag","offset":0,"length":9,"data":"вакансия"},{"type":"hashtag","offset":10,"length":7,"data":"python"},{"type":"hashtag","offset":18,"length":7,"data":"django"},{"type":"hashtag","offset":26,"length":7,"data":"middle"},{"type":"hashtag","offset":34,"length":7,"data":"senior"},{"type":"hashtag","offset":42,"length":8,"data":"фултайм"},{"type":"hashtag","offset":51,"length":7,"data":"москва"},{"type":"hashtag","offset":59,"length":7,"data":"remote"},{"type":"link","offset":937,"length":3,"data":"https://hh.ru/vacancy/36806782"},{"type":"handle","offset":956,"length":12,"data":"marie_clair"}],"date":"2020-06-17T14:00:30+00:00","link":"tg://resolve?domain=python_jobs&post=0","tags":[{"name":"python"},{"name":"django"},{"name":"rest"},{"name":"postgresql"},{"name":"elasticsearch"},{"name":"kubernetes"}],"cities":[{"code":"moscow"}],"allowsRemote":true}},{"node":{"id":"71484571648-1001054966032","title":"Android разработчик","text":"#вакансия #iOS #android #developer #remote #InStat \n\nГород и адрес офиса: Москва, ст.м. Автозаводская\nФормат работы: удаленка\nЗанятость: полная/проектная\nЗарплатная вилка (обязательно): от 80 до 130 net\nОписание вакансии:\n\nВсем привет. Ищем разработчиков приложений для Apple TV и Android Box. Мы занимаемся сложными задачами, а также хотим разработать с нуля приложения, а у вас есть возможность поработать в спортивном стартапе и сделать лучшее приложение на рынке.\nЧто главное:\nОпыт разработки приложений Apple TV/Android box обязательно;\nОпыт по созданию продукта для просмотра видео-контента\nЗадачи:\nРазработка OTT приложения для Apple TV/Android box, анализ и оценка задач;\nпроведение code review, участие в SCRUM активностях\nТребования:\nXcode;опыт разработки нативных приложений на платформе iOS (swift) не менее 2-х лет, работа с GIT, Unit-test; знание основных паттернов проектирования, REST API; SOLID, GCD, MVP/MVVM, опыт разработки по Apple TV/Android box, знание Android Studio \nМы предлагаем:\nофициальное трудоустройство, полный соц. пакет;удаленное сотрудничество\nПодробнее о вакансиях тут: \nhttps://hh.ru/vacancy/37544424\nhttps://hh.ru/vacancy/37520710\n\nНазвание компании: InStat (https://instatsport.com/)\n\nКонтакты: yana.gurinovich@instatsport.com\n @Yana_Gurinovich","markup":[{"type":"hashtag","offset":0,"length":9,"data":"вакансия"},{"type":"hashtag","offset":10,"length":4,"data":"iOS"},{"type":"hashtag","offset":15,"length":8,"data":"android"},{"type":"hashtag","offset":24,"length":10,"data":"developer"},{"type":"hashtag","offset":35,"length":7,"data":"remote"},{"type":"hashtag","offset":43,"length":7,"data":"InStat"},{"type":"link","offset":1107,"length":30,"data":"https://hh.ru/vacancy/37544424"},{"type":"link","offset":1138,"length":30,"data":"https://hh.ru/vacancy/37520710"},{"type":"link","offset":1197,"length":24,"data":"https://instatsport.com/"},{"type":"link","offset":1234,"length":31,"data":"mailto:yana.gurinovich@instatsport.com"},{"type":"handle","offset":1267,"length":16,"data":"Yana_Gurinovich"}],"date":"2020-06-17T13:46:14+00:00","link":"tg://resolve?domain=mobile_jobs&post=0","tags":[{"name":"mobile"},{"name":"android"},{"name":"ios"},{"name":"dotnet"},{"name":"xcode"},{"name":"swift"},{"name":"git"},{"name":"rest"},{"name":"mvvm"},{"name":"android-studio"}],"cities":[{"code":"moscow"}],"allowsRemote":true}}]}},"context":{}}