{"hash":"f34fd2c444a074f4e0e67d525015a008ef8e766f","data":{"records":{"id":"dns","name":"dns","belongsTo":{"totalCount":12,"pageInfo":{"totalPages":2,"currentPage":2},"edges":[{"node":{"__typename":"Job","id":"1896873984-1001134745498","title":"Devops инженер","text":"#вакансия #DevOps\nМосква, м.Ботанический сад\nФормат работы: офис\nЗанятость: полная\nЗаработная плата: 180 000р. на руки - фиксированный оклад\n(в планах со 2/3 квартала - квартальные премии по итогам работы до 45 000р. на руки) \nЧто делать:\n- Разработка и поддержка инфраструктуры для dev/test/prod (On-Cloud и On-Premise);\n- Разработка и поддержка процессов CI/CD;\n- Выбор технологий для реализации проектов;\n- Разработка и поддержка систем мониторинга, регистрации инцидентов и оповещения;\n- Организация бесперебойной работы всех сервисов (на всех уровнях: от инфраструктуры до разрабатываемого ПО);\n- Развертывание и поддержка общей инфраструктуры (nginx, haproxy, dns, iptables, ssh, sssd & etc).\nЧто нужно знать и уметь:\n- Экспертное понимание Linux (Ubuntu/CentOS7);\n- Знание скриптовых языков;\n- Опыт работы с технологиями виртуализации (VMware) и контейнеризации (Docker);\n- Опыт развёртывания и эксплуатации CI/CD (GitLab-CI, Jenkins);\n- Навыки работы и администрирования GitLab, Jira, Confluence;\n- Опыт внедрения и эксплуатации систем мониторинга и сбора метрик (ELK, Prometheus, Grafana, Sentry);\n- Опыт развёртывания и эксплуатации Redis, MySQL, RabbitMQ, HAProxy, nginx, PostgreSQL, php-fpm);\n- Интеграция Jenkins, Jira, GitLab. \nКомпания: АСНА (www.asna.ru)\nКонтакты: 8(965)194-28-96 (WhatsApp), @mil0lika (Telegram)\n\n—\n\n👉 Обсуждение вакансии в чате @devops_jobs","markup":[{"type":"hashtag","offset":0,"length":9,"data":"вакансия"},{"type":"hashtag","offset":10,"length":7,"data":"DevOps"},{"type":"link","offset":1258,"length":11,"data":"http://www.asna.ru"},{"type":"link","offset":1281,"length":15,"data":"tel:8(965)194-28-96"},{"type":"handle","offset":1309,"length":9,"data":"mil0lika"},{"type":"handle","offset":1364,"length":12,"data":"devops_jobs"}],"date":"2020-03-13T09:43:31+00:00","link":"tg://resolve?domain=devops_jobs_feed&post=1809","tags":[{"name":"cloud"},{"name":"nginx"},{"name":"dns"},{"name":"ssh"},{"name":"linux"},{"name":"ubuntu"},{"name":"centos"},{"name":"docker"},{"name":"gitlab"},{"name":"jenkins"},{"name":"redis"},{"name":"mysql"},{"name":"rabbitmq"},{"name":"postgresql"},{"name":"php"}],"cities":[{"code":"moscow"}],"allowsRemote":false}},{"node":{"__typename":"Job","id":"1885339648-1001134745498","title":"Devops инженер","text":"#вакансия #DevOps\nМосква, м.Ботанический сад\nФормат работы: офис\nЗанятость: полная\nЗаработная плата: 180 000р. на руки - фиксированный оклад\n(в планах со 2/3 квартала - квартальные премии по итогам работы до 45 000р. на руки) \nЧто делать:\n- Разработка и поддержка инфраструктуры для dev/test/prod (On-Cloud и On-Premise);\n- Разработка и поддержка процессов CI/CD;\n- Выбор технологий для реализации проектов;\n- Разработка и поддержка систем мониторинга, регистрации инцидентов и оповещения;\n- Организация бесперебойной работы всех сервисов (на всех уровнях: от инфраструктуры до разрабатываемого ПО);\n- Развертывание и поддержка общей инфраструктуры (nginx, haproxy, dns, iptables, ssh, sssd & etc).\nЧто нужно знать и уметь:\n- Экспертное понимание Linux (Ubuntu/CentOS7);\n- Знание скриптовых языков;\n- Опыт работы с технологиями виртуализации (VMware) и контейнеризации (Docker);\n- Опыт развёртывания и эксплуатации CI/CD (GitLab-CI, Jenkins);\n- Навыки работы и администрирования GitLab, Jira, Confluence;\n- Опыт внедрения и эксплуатации систем мониторинга и сбора метрик (ELK, Prometheus, Grafana, Sentry);\n- Опыт развёртывания и эксплуатации Redis, MySQL, RabbitMQ, HAProxy, nginx, PostgreSQL, php-fpm);\n- Интеграция Jenkins, Jira, GitLab. \nКомпания: АСНА (www.asna.ru)\nКонтакты: 8(965)194-28-96 (WhatsApp), @mil0lika (Telegram)\n\n—\n\n👉 Обсуждение вакансии в чате @devops_jobs","markup":[{"type":"hashtag","offset":0,"length":9,"data":"вакансия"},{"type":"hashtag","offset":10,"length":7,"data":"DevOps"},{"type":"link","offset":1258,"length":11,"data":"http://www.asna.ru"},{"type":"link","offset":1281,"length":15,"data":"tel:8(965)194-28-96"},{"type":"handle","offset":1309,"length":9,"data":"mil0lika"},{"type":"handle","offset":1364,"length":12,"data":"devops_jobs"}],"date":"2020-03-12T07:46:45+00:00","link":"tg://resolve?domain=devops_jobs_feed&post=1798","tags":[{"name":"cloud"},{"name":"nginx"},{"name":"dns"},{"name":"ssh"},{"name":"linux"},{"name":"ubuntu"},{"name":"centos"},{"name":"docker"},{"name":"gitlab"},{"name":"jenkins"},{"name":"redis"},{"name":"mysql"},{"name":"rabbitmq"},{"name":"postgresql"},{"name":"php"}],"cities":[{"code":"moscow"}],"allowsRemote":false}}]}}},"context":{}}