{"hash":"f5f6bf98bd95e769321482904cbbd488f77922fd","data":{"records":{"id":"mobile","name":"mobile","belongsTo":{"totalCount":307,"pageInfo":{"totalPages":31,"currentPage":21},"edges":[{"node":{"__typename":"Job","id":"71658635264-1001054966032","title":"Ios разработчик","text":"#вакансия #Иннополис #Казань #IOS #swift #fulltime #remote\n\nВакансия: IOS разработчик\nКомпания: UFS.travel (https://www.ufs-online.ru/)\nЛокация: Иннополис\nФормат работы: удаленно или совмещение офиса и дистанционной работы\nЗ/п: от 100 000 до 150 000 руб (финальную цифру обсуждаем с успешным кандидатом) \n\n📌Что нужно будет делать?\nРазработка мобильных приложений по продаже ЖД билетов на платформе iOS.\n\n💪🏻Какие нужны компетенции?\n•Знание платформы iOS и стандартных библиотек;\n•Опыт работы: от 1 года разработки мобильных приложений ios;\n•Понимание принципов ООП, особенностей построения и разработки клиент-серверных приложений;\n•Уверенные знания Swift, понимание Objective-C.\n\n🏆Бонусы?\n•У нас полностью заполненный беклог на ближайший год: много внедрения нового функционала, в том числе оплата по карте, авторизация через AppleId и соцсети и многое другое. Все требования прорабатываются аналитиком;\n•Оформление по ТК РФ, официальная заработная плата, соц. пакет;\n•Возможность совмещения офиса и дистанционной работы или полностью удаленная работа;\n•Дружная и профессиональная команда, в которую входят аналитик, тестировщик мобильных сервисов, менеджер продукта;\n•ДМС со стоматологией после испытательного срока;\n•Возможность посещения конференций, семинаров, курсов за счет компании;\n•Комфортабельный современный офис в IT-городе Иннополис.\n\nКонтакты:\n✉️ euhabina@ufs.travel\n✍🏻 ЛС","markup":[{"type":"hashtag","offset":0,"length":9,"data":"вакансия"},{"type":"hashtag","offset":10,"length":10,"data":"Иннополис"},{"type":"hashtag","offset":21,"length":7,"data":"Казань"},{"type":"hashtag","offset":29,"length":4,"data":"IOS"},{"type":"hashtag","offset":34,"length":6,"data":"swift"},{"type":"hashtag","offset":41,"length":9,"data":"fulltime"},{"type":"hashtag","offset":51,"length":7,"data":"remote"},{"type":"link","offset":96,"length":10,"data":"http://UFS.travel"},{"type":"link","offset":108,"length":26,"data":"https://www.ufs-online.ru/"},{"type":"link","offset":1365,"length":19,"data":"mailto:euhabina@ufs.travel"}],"date":"2020-06-19T13:53:15+00:00","link":"tg://resolve?domain=mobile_jobs&post=0","tags":[{"name":"mobile"},{"name":"ios"},{"name":"swift"},{"name":"objective-c"}],"cities":[{"code":"kazan"}],"allowsRemote":true}},{"node":{"__typename":"Job","id":"71650246656-1001054966032","title":"Ios разработчик","text":"#вакансия #IOS  #middle  #офис #минск\n\nios разработчик в офис Минска м. Немига\n\nГород: Минск\nФормат работы: в офис (на период пандемии удаленно)\nЗанятость: полная\nЗарплатная вилка: 1 000 -1 500$\nКомпания: 𝓜𝓑𝓲𝓬𝔂𝓬𝓵𝓮\n\nMBicycle - команда профессионалов в области разработки мобильных и веб приложений.\nМы помогаем нашим клиентам решать их проблемы независимо от отрасли, размера компании или чего-либо еще.\nНаша работа - это постоянное развитие и движение вперед.\n\nО нас:\nНаша компания развивается с 2011 года. На данный момент отдел разработки составляет 70+ человек.\nОфисы нашей компании расположены в Гомеле, Минске и Бостоне (США).\nМы предоставляем комплексные технические решения для широкого круга отраслей, включая Спорт, IoT, FinTech, HealthCare и т.д.\nНаши сотрудники регулярно проводят митапы, на которых обсуждают актуальные технологии и возможности их внедрения на наших проектах\n\nСтек задач будет включать:\n\nОбщение с клиентом, уточнение и обсуждение требований\nУчастие в планировании проекта\nПроведение и прохождение код-ревью\nУчастие в различных фазах разработки: демо нового функционала, написание тестов, сборка и релиз приложений\nРаботу в распределенных командах, написание нового функционала\nДоработку и поддержку уже написанных частей\nНаши ожидания:\n\nЗнание английского языка на уровне Intermediate и выше\nОпыт разработки на Swift от 2-х лет\nОпыт работы с RxSwift, MVVM\nОпыт с git, понимание git flow\nОпыт написания Unit-тестов и работы с CI/CD\nМы предлагаем:\n• Работу в динамично развивающейся компании\n• Разработка приложений с нуля\n• Гибкость в выборе технологий\n• 3 sick days\n• Командировки за рубеж\n• Бесплатные курсы английского языка в нашем офисе\n\nПриятные плюшки:\n• Новый офис в центре города (Гомель), а в Минске мы находимся на Интернациональной (Немига)\n• Гибкое начало рабочего дня\n• Участие в конференциях и митапах\n• Отдых на тимбилдингах и ярких праздниках для всей семьи\n\nписать мне","markup":[{"type":"hashtag","offset":0,"length":9,"data":"вакансия"},{"type":"hashtag","offset":10,"length":4,"data":"IOS"},{"type":"hashtag","offset":16,"length":7,"data":"middle"},{"type":"hashtag","offset":25,"length":5,"data":"офис"},{"type":"hashtag","offset":31,"length":6,"data":"минск"}],"date":"2020-06-19T12:47:42+00:00","link":"tg://resolve?domain=mobile_jobs&post=0","tags":[{"name":"mobile"},{"name":"ios"},{"name":"swift"},{"name":"mvvm"},{"name":"git"}],"cities":[{"code":"minsk"},{"code":"gomel"}],"allowsRemote":true}},{"node":{"__typename":"Job","id":"71643955200-1001054966032","title":"Android разработчик","text":"#вакансия #android #java #kotlin #middle #senior #удаленка #remote #fulltime\n\nAndroid-разработчик удаленно от 200 тыс. руб.\n\nГород: Москва\nФормат работы: удаленно\nЗанятость: полная\nЗарплатная вилка: от 200 000 руб. до 250 000 руб. после налогообложения\nКомпания: CORE https://core.company\n\nМы команда разработчиков мобильных приложений и сейчас мы ищем Android-разработчика для одного из наших финтех-проектов.\n\nОсновные требования:\n— Опыт работы от 2-х лет;\n— Знание Java и Kotlin;\n— Опыт работы с Rx;\n— Знание шаблонов проектирования и умение их применять;\n— Понимание принципов SOLID;\n— Знание основных алгоритмов и структур данных;\n— Умение писать поддерживаемый и тестируемый код.\n\nУсловия:\n— Полный день, гибкий график;\n— Оформление по договору ГПХ.\n\nПрисылайте ваше резюме на @tv_corecompany","markup":[{"type":"hashtag","offset":0,"length":9,"data":"вакансия"},{"type":"hashtag","offset":10,"length":8,"data":"android"},{"type":"hashtag","offset":19,"length":5,"data":"java"},{"type":"hashtag","offset":25,"length":7,"data":"kotlin"},{"type":"hashtag","offset":33,"length":7,"data":"middle"},{"type":"hashtag","offset":41,"length":7,"data":"senior"},{"type":"hashtag","offset":49,"length":9,"data":"удаленка"},{"type":"hashtag","offset":59,"length":7,"data":"remote"},{"type":"hashtag","offset":67,"length":9,"data":"fulltime"},{"type":"link","offset":268,"length":20,"data":"https://core.company"},{"type":"handle","offset":783,"length":15,"data":"tv_corecompany"}],"date":"2020-06-19T11:49:24+00:00","link":"tg://resolve?domain=mobile_jobs&post=0","tags":[{"name":"mobile"},{"name":"android"},{"name":"java"},{"name":"kotlin"}],"cities":[{"code":"moscow"}],"allowsRemote":true}},{"node":{"__typename":"Job","id":"71639760896-1001054966032","title":"Android разработчик","text":"#вакансия #senior #Москва #Android #СПБ\nГород: Москва, м. Кутузовская / Санкт-Петербург, Невский проспект, д. 19\nПозиция: Senior Android Developer\nФормат работы: офис\nЗанятость: полная\nВилка: от 200 т.р до 270 т.р.\nКомпания: Dialog (экосистема Сбербанка) - делаем конкурента Slack\n\nИщем в команду senior Android разработчикa для разработки платформы нашего мессенджера и доработки ее новым функционалом для крупных партнеров.\n\nНужен самостоятельный разработчик, способный работать в команде и готовый участвовать в разработке MVP решений.\n\nЧто нужно будет делать:\n- разработка dialog platform (коммуникационная платформа) для Android;\n- документирование, проектирование модулей, принятие архитектурных решений;\n- проведение код-ревью, формирование стайл гайдов;\n- обеспечение качества продукта (написание unit тестов).\n\n\nИспользуемый стек: RxJava / Kotlin \nЧто предлагаем мы:\n• белая ЗП и премии, гибкий график;\n• участие в разработке open-source проектов;\n• ДМС, спортзал;\n• супер-адекватная и профессиональная, дружная команда;\n\n\n\nПо вакансии написать: @avnaum","markup":[{"type":"hashtag","offset":0,"length":9,"data":"вакансия"},{"type":"hashtag","offset":10,"length":7,"data":"senior"},{"type":"hashtag","offset":18,"length":7,"data":"Москва"},{"type":"hashtag","offset":26,"length":8,"data":"Android"},{"type":"hashtag","offset":35,"length":4,"data":"СПБ"},{"type":"handle","offset":1055,"length":7,"data":"avnaum"}],"date":"2020-06-19T11:17:23+00:00","link":"tg://resolve?domain=mobile_jobs&post=0","tags":[{"name":"mobile"},{"name":"android"},{"name":"kotlin"}],"cities":[{"code":"moscow"}],"allowsRemote":false}},{"node":{"__typename":"Job","id":"103279493120-1001089317451","title":"Qa инженер","text":"🐞🐞🐞#вакансия #QA #Ульяновск #Саранск #Казань #Самара #Уфа #Краснодар #офис #удаленная_работа\n\n🔍Middle QA-специалист🔎\n\n⚡️Компания: Simbirsoft (более 19 лет на рынке, более 700 сотрудников в штате)\n\nОчень ждем тебя, наш будущий коллега и борец за качественное ПО! 🙂\n\n📌Твои будущие задачи:\n• тестирование ПО (frontend, backend, API);\n• локализация и документирование найденных дефектов;\n• ведение и оптимизация тестовой документации;\n• контроль качества на всех этапах разработки ПО;\n• выстраивание и оптимизация процессов тестирования ПО.\n\n📌Что мы ждем от тебя:\n• наличие опыта от 2 лет в направлениях QA или тестирования ПО;\n• понимание разницы между QA и тестированием ПО;\n• понимание особенностей гибких методологий;\n• уверенное владение техниками тест-дизайна;\n• знание клиент-серверной архитектуры;\n• понимание особенностей тестирования web, mobile и desktop приложений;\n• навык тестирования API;\n• написание запросов SQL;\n• опыт работы с системами контроля версий (git);\n• знание основных команд работы с консолью (Windows/Linux).\n\n\n📌Что мы предлагаем:\n• Полностью белая ЗП два раза в месяц;\n• Оформление по ТК РФ;\n• Высокий уровень экспертности внутри компании, которым мы делимся друг с другом;\n• Перспективы вертикального и горизонтального роста;\n• Работа на российских и международных проектах;\n• Оборудованное рабочее место и парк тестовых устройств;\n• Подготовка и прохождение сертификации ISTQB бесплатно;\n• Внутренние и внешние курсы, доклады, конференции;\n• Бесплатные чай, кофе, печеньки в офисе;\n• Корпоративная спортивная программа (оплата тематических секций, частичная компенсация абонемента);\n• Проведение летних и зимних корпоративов, дня именинника, совместные походы и т.д.\n\n📌Зарплата:\n• от 50 000 (Договорная, по итогу собеседования)\n\n\n☎️Контакты:\n@abrmova","markup":[{"type":"hashtag","offset":6,"length":9,"data":"вакансия"},{"type":"hashtag","offset":16,"length":3,"data":"QA"},{"type":"hashtag","offset":20,"length":10,"data":"Ульяновск"},{"type":"hashtag","offset":31,"length":8,"data":"Саранск"},{"type":"hashtag","offset":40,"length":7,"data":"Казань"},{"type":"hashtag","offset":48,"length":7,"data":"Самара"},{"type":"hashtag","offset":56,"length":4,"data":"Уфа"},{"type":"hashtag","offset":61,"length":10,"data":"Краснодар"},{"type":"hashtag","offset":72,"length":5,"data":"офис"},{"type":"hashtag","offset":78,"length":17,"data":"удаленная_работа"},{"type":"handle","offset":1781,"length":8,"data":"abrmova"}],"date":"2020-06-19T11:12:51+00:00","link":"tg://resolve?domain=qa_jobs&post=0","tags":[{"name":"qa"},{"name":"web"},{"name":"mobile"},{"name":"sql"},{"name":"git"},{"name":"windows"},{"name":"linux"}],"cities":[{"code":"ulyanovsk"},{"code":"saransk"},{"code":"kazan"},{"code":"samara"},{"code":"ufa"},{"code":"krasnodar"}],"allowsRemote":true}},{"node":{"__typename":"Job","id":"71637663744-1001054966032","title":"Mobile разработчик","text":"#вакансия #mobile #ios #swift #fulltime\nГород и адрес офиса: Москва, м. Нахимовский проспект, офис класса А\nФормат работы: офис + возможно частично удаленная работа \nЗанятость: полная, 5/2\nЗП: от 150к до 250к, готовы рассмотреть и выше\n\nКомпания X4Apps специализируется на разработке собственных мобильных приложений и открывает вакансию мобильного разработчика уровня Middle+/Senior, который будет работать над созданием приложений для платформы iOS.\n\nМы практикуем быструю проверку гипотез, быстро создаем приложения, запускаем первых пользователей, смотрим на обратную связь и наращиваем функционал либо переключаемся на разработку новых приложений/новых идей.\n\nОт Вас мы ждем:\n- Способность разработать приложение с нуля и выпустить его в AppStore\n- Знание Objective-C и Swift\n- Суммарный опыт программирования от 3-х лет\n- Умение работать с системой контроля версий git - console, IDE, web (Stash);\n- Понимание принципов ООП и шаблонов проектирования\n- Опыт использования JSON, REST API\n- Опыт написания клиент-серверных приложений\n- Наличие опубликованных приложений в AppStore\n\nБудет плюсом:\n- Желание постоянно учиться и применять новые технологии в своей работе\n- Понимание в разработке пользовательского интерфейса\n- Понимание работы бэкэнда\n\nКонтакт @bambaleeyo","markup":[{"type":"hashtag","offset":0,"length":9,"data":"вакансия"},{"type":"hashtag","offset":10,"length":7,"data":"mobile"},{"type":"hashtag","offset":18,"length":4,"data":"ios"},{"type":"hashtag","offset":23,"length":6,"data":"swift"},{"type":"hashtag","offset":30,"length":9,"data":"fulltime"},{"type":"bold","offset":40,"length":19,"data":""},{"type":"bold","offset":108,"length":13,"data":""},{"type":"bold","offset":166,"length":9,"data":""},{"type":"bold","offset":189,"length":2,"data":""},{"type":"bold","offset":665,"length":14,"data":""},{"type":"bold","offset":1085,"length":12,"data":""},{"type":"bold","offset":1253,"length":7,"data":""},{"type":"handle","offset":1261,"length":11,"data":"bambaleeyo"}],"date":"2020-06-19T11:04:23+00:00","link":"tg://resolve?domain=mobile_jobs&post=0","tags":[{"name":"mobile"},{"name":"ios"},{"name":"swift"},{"name":"objective-c"},{"name":"git"},{"name":"web"},{"name":"json"},{"name":"rest"}],"cities":[{"code":"moscow"}],"allowsRemote":true}},{"node":{"__typename":"Job","id":"71629275136-1001054966032","title":"Mobile разработчик","text":"#вакансия #mobile #ios #swift #remote #fulltime\nГород и адрес офиса: Москва, м. Технопарк\nФормат работы: удаленная \nЗанятость: полная, 5/2\nЗП:  от 140к до 200к\n\nМы - Stream, дочка МТС, IT департамент для продуктов МТС. Делаем классные и реально удобные продукты для пользователей.\n\nCейчас ищем Middle+ / Senior iOS  в проекты:\n\n1. МТС Поиск - Сервис по определению местоположения - poisk.mts.ru\nСтек: Swift, Realm, работа с локацией. Архитектура: VIP(CleanSwift).\n\n2. МТС Вторая память - Облачный сервис для хранения и обмена данными - 2memory2.mts.ru\nСтек: Swift 5.2, Cocoapods с публичными и приватными фреймворками, собственная реализация Rx, Moya, Xib & Storyboards, Realm. Архитектура MVVM.\n\nОт нас:\n- \"белая\" заработная плата с полугодовыми премиями;\n- ДМС со стоматологией + страховка;\n- корпоративная мобильная связь;\n- обучение и посещение профильных конференций. \n\nПрисоединяйся к команде, будет интересно!\n\nО компании: stream.ru\nПодробности в личке (@tanya2332)","markup":[{"type":"hashtag","offset":0,"length":9,"data":"вакансия"},{"type":"hashtag","offset":10,"length":7,"data":"mobile"},{"type":"hashtag","offset":18,"length":4,"data":"ios"},{"type":"hashtag","offset":23,"length":6,"data":"swift"},{"type":"hashtag","offset":30,"length":7,"data":"remote"},{"type":"hashtag","offset":38,"length":9,"data":"fulltime"},{"type":"bold","offset":166,"length":6,"data":""},{"type":"bold","offset":294,"length":20,"data":""},{"type":"bold","offset":331,"length":9,"data":""},{"type":"link","offset":382,"length":12,"data":"http://poisk.mts.ru"},{"type":"bold","offset":468,"length":17,"data":""},{"type":"link","offset":536,"length":15,"data":"http://2memory2.mts.ru"},{"type":"link","offset":930,"length":9,"data":"http://stream.ru"},{"type":"handle","offset":961,"length":10,"data":"tanya2332"}],"date":"2020-06-19T10:15:51+00:00","link":"tg://resolve?domain=mobile_jobs&post=0","tags":[{"name":"mobile"},{"name":"ios"},{"name":"swift"},{"name":"realm"},{"name":"cocoapods"},{"name":"mvvm"}],"cities":[{"code":"moscow"}],"allowsRemote":true}},{"node":{"__typename":"Job","id":"71627177984-1001054966032","title":"Ios разработчик","text":"#вакансия #ios #remote #fulltime #swift \n\nФормат работы: удаленно\nЗанятость: полная (140-160 часов в месяц)\nЗарплатная вилка: от 15 до 35 $/hr, оплата в USD \nНазвание компании: RichPeach Media\nОсновные задачи: разработка простых функционально ненагруженных приложений, соединение фронта с бэком, публикация приложений в AppStore. \nПодробное описание вакансии: https://docs.google.com/document/d/1XPuCWS6ke239cw9mHro8-Nyoc1mfn7SQX85o0Kom6PM/edit?usp=sharing \nКонтакты: @esmarina","markup":[{"type":"hashtag","offset":0,"length":9,"data":"вакансия"},{"type":"hashtag","offset":10,"length":4,"data":"ios"},{"type":"hashtag","offset":15,"length":7,"data":"remote"},{"type":"hashtag","offset":23,"length":9,"data":"fulltime"},{"type":"hashtag","offset":33,"length":6,"data":"swift"},{"type":"link","offset":360,"length":96,"data":"https://docs.google.com/document/d/1XPuCWS6ke239cw9mHro8-Nyoc1mfn7SQX85o0Kom6PM/edit?usp=sharing"},{"type":"handle","offset":468,"length":9,"data":"esmarina"}],"date":"2020-06-19T10:07:40+00:00","link":"tg://resolve?domain=mobile_jobs&post=0","tags":[{"name":"mobile"},{"name":"ios"},{"name":"swift"}],"cities":[],"allowsRemote":true}},{"node":{"__typename":"Job","id":"1711276032-1001091028994","title":"Java developer","text":"#вакансия #java #developer #middle #senior #relocate\n\nJava Developer\nКомпания: Interactive Brokers\nЛокация: Таллин\nЗанятость: fulltime\nЗ/п: 3.5-5К € \nКонтакты: @observer69\n\nProduct: is a low cost provider of trade execution and clearing services for individuals,\nadvisors, proprietary trading groups, brokers and hedge funds. IBKR’s premier technology\nprovides electronic access to stocks, options, futures, forex, bonds and funds on over 100\nmarkets worldwide from a single IBKR Universal account. Interactive Brokers Group’s\n(IBG) headquarters are in Greenwich, CT. IBG has offices throughout the United States,\nSwitzerland, Canada, Hong Kong, the United Kingdom, Australia, Hungary, Russia, India,\nChina and Estonia.\n\nУсловия\n● Salary level: from 3500 to 5000 euros gross, but no strict limits, have never rejected a\ncandidate due to their salary request\n● Benefits:\n- discretionary salary raise in the end of each calendar year\n- discretionary cash and stock bonus in the end of each calendar year\n- lunch paid by the company (up to 7.50 EUR/day)\n- dental/vision expenses compensation of 205 EUR per year\n- sport activities compensation of 45 EUR/month\n- 2,000 EUR and 2 days off per year for conferences, online courses, seminars, etc.\n● Relocation:\n- No relocation experience\n- Relocation package: willing to discuss, don’t have experience, cover the visa\n● Office:\n- Location: near the city center / 3-5 minutes by foot/bus/train, free parking\n- No open spaces; Rooms for ~ 2-3 persons (everyone can concentrate)\n- Remote work is not allowed due to the security reasons, but very flexible working hours\n\nТребования\n● 3+ years of software development experience with an emphasis on Java\n● Fluency in Core Java\n● Proactive, driven to excel and get things done on time\n● Ability to work and deliver independently with little supervision\n● BS in Computer Science, or equivalent (advanced degrees a plus)\n● Passion for building top-quality user-interface products\n● Strong communication skills (good written/spoken English skills is a must, at least intermediate)\n● Understanding spoken Russian\n● Job-hoppers are 100% no-go (at least 2 years at each company, the more the better. At least 1,5  years at the latest one).\n\nЖелательно\n● Experience with Java GUI toolkits (Swing, AWT or similar); this could be\nsubstituted with strong desire to learn Swing/AWT and related technology\n● Familiarity with market data concepts and trading technologies and technical\nexperience with systems used in the capital & financial markets all are a\nbig plus\n● Experience with Java development for mobile platforms\n\nЗадачи\n1. UI components design and implementation in Java \n2. Development testing\n3. Engineering documentation\n4. Focus on: existing product development (20% bug fixing/80%new features)","markup":[{"type":"hashtag","offset":0,"length":9,"data":"вакансия"},{"type":"hashtag","offset":10,"length":5,"data":"java"},{"type":"hashtag","offset":16,"length":10,"data":"developer"},{"type":"hashtag","offset":27,"length":7,"data":"middle"},{"type":"hashtag","offset":35,"length":7,"data":"senior"},{"type":"hashtag","offset":43,"length":9,"data":"relocate"},{"type":"bold","offset":54,"length":24,"data":""},{"type":"bold","offset":99,"length":8,"data":""},{"type":"bold","offset":115,"length":10,"data":""},{"type":"bold","offset":135,"length":5,"data":""},{"type":"bold","offset":150,"length":10,"data":""},{"type":"handle","offset":160,"length":11,"data":"observer69"},{"type":"bold","offset":173,"length":7,"data":""},{"type":"bold","offset":721,"length":8,"data":""},{"type":"italic","offset":731,"length":12,"data":""},{"type":"italic","offset":860,"length":10,"data":""},{"type":"italic","offset":1243,"length":10,"data":""},{"type":"italic","offset":1364,"length":6,"data":""},{"type":"bold","offset":1611,"length":11,"data":""},{"type":"bold","offset":2223,"length":11,"data":""},{"type":"bold","offset":2601,"length":10,"data":""},{"type":"bold","offset":2660,"length":2,"data":""},{"type":"bold","offset":2683,"length":2,"data":""},{"type":"bold","offset":2712,"length":2,"data":""}],"date":"2020-06-19T09:50:29+00:00","link":"tg://resolve?domain=jvmjobs&post=1632","tags":[{"name":"java"},{"name":"jvm"},{"name":"ms-access"},{"name":"excel"},{"name":"swing"},{"name":"mobile"},{"name":"user-interface"}],"cities":[{"code":"hong-kong"}],"allowsRemote":false}},{"node":{"__typename":"Job","id":"71624032256-1001054966032","title":"Ios разработчик","text":"#вакансия #swift #objective-C #ios\n\nГород : Санкт-Петербург\nФормат работы: офис или удаленно\nЗанятость: Полная\nЗарплатная вилка:  90 000 - 300 000 руб\n\nОписание компании:\nВ Blogman мы занимаемся разработкой собственного приложения – платформа для блогеров и рекламодателей. В нашей команде уже более 50 разработчиков и мы продолжаем расти. Сейчас мы ищем инженера с опытом коммерческой разработки под iOS.\nОсновной стек технологий — Swift, Realm, Alamofire. Сейчас мы разрабатываем бизнес-функционал и будем рады новому специалисту в нашей команде, вместе с которым мы будем делать быстрое приложение с отзывчивым и плавным интерфейсом.\n\nМы ожидаем, что у вас есть:\n— Опыт коммерческой разработки мобильных приложений под iOS;\n— Хорошие знания Swift, UIKit;\n— Опыт работы с мобильными БД;\n— Умение работать с Git, Cocoapods.\n\nБудет плюсом, если вы:\n— Разрабатывали клиент-серверные приложения;\n— Умеете работать с WebSocket;\n— Знаете и понимаете архитектуру VIPER;\n— Командный игрок без яркого эгоцентризма;\n— Готовы активно принимать участие в жизни компании и продукта.\n\nРады предложить:\n– Удаленное сотрудничество или комфортный офис на Невском проспекте в 5 минутах ходьбы от ст. м. Маяковская и Владимирская;\n– Желаемый оклад по результатам собеседования;\n– Понятную систему роста зарплаты каждые 6 месяцев, в которой все зависит только от вас;\n– Все необходимые офисные блага вроде вкусного кофе и т.д.\nВас будут окружать адекватные люди, с которыми комфортно решать поставленные задачи. У сотрудников есть общие ценности, такие как стремление к качественному результату, забота о продукте и желание двигаться вперед. Также у нас нет “Начальства”, а есть коллеги. Все взаимодействуют горизонтально и в команде равенство между инженерами, стейкхолдером, продактом и т.д. Все работают бок о бок и делают одно общее дело.\nНазвание компании: Blogman","markup":[{"type":"hashtag","offset":0,"length":9,"data":"вакансия"},{"type":"hashtag","offset":10,"length":6,"data":"swift"},{"type":"hashtag","offset":17,"length":10,"data":"objective"},{"type":"hashtag","offset":30,"length":4,"data":"ios"},{"type":"bold","offset":173,"length":8,"data":""},{"type":"bold","offset":438,"length":2,"data":""},{"type":"bold","offset":445,"length":2,"data":""},{"type":"bold","offset":638,"length":27,"data":""},{"type":"bold","offset":826,"length":22,"data":""},{"type":"bold","offset":1073,"length":16,"data":""}],"date":"2020-06-19T09:44:55+00:00","link":"tg://resolve?domain=mobile_jobs&post=0","tags":[{"name":"mobile"},{"name":"ios"},{"name":"swift"},{"name":"objective-c"},{"name":"realm"},{"name":"uikit"},{"name":"git"},{"name":"cocoapods"},{"name":"websocket"}],"cities":[],"allowsRemote":true}}]}}},"context":{}}