{"hash":"f5f6bf98bd95e769321482904cbbd488f77922fd","data":{"records":{"id":"docker","name":"docker","belongsTo":{"totalCount":182,"pageInfo":{"totalPages":19,"currentPage":2},"edges":[{"node":{"__typename":"Job","id":"367001600-1001352129329","title":"Golang разработчик","text":"Ребят, всем привет! \nПостараюсь кратко, подробности в ЛС. Заранее напишу, что это Москва (фултайм/офис), компания Lofty. Ищем в команду как Midle так и Senior Go разработчиков.\nВообщем если хочется в highload, добро пожаловать!)\n\nО проекте:\nЭто высоконагруженное backend приложение для рассылки web push-уведомлений, обслуживающее на данный момент более 100млн показов в сутки. \nЧем у нас предстоит заниматься:\nПрофилировать и оптимизировать существующие сервисы;\nПроводить доработки и интеграцию их в действующий код и инфраструктуру;\nРеализовывать новые бизнес-требования внутри сервиса;\nУстранять возникающие баги в сервисе.\n\nЧто мы ждем от кандидата:\nНавыки работы с Git;\nУверенное знание Golang;\nПонимание технологий HTTP, REST;\nОпыт работы в Unix-окружении.\n\nБудет совсем круто, если вы:\nРаботали с highload-проектами;\nПонимаете и уважаете концепцию CI/CD.\nНаш стек технологий: Golang, Gitlab, MySQL, JS, RabbitMQ, Docker, Ansible, Clickhouse\n\nУсловия: \nЗаработная плата от 130 000 до 300 000 руб. на руки, естественно зависит от уровня, преимущественно смотрим \"мидов\", но и \"джуны\" нам тоже интересны.\n\nНаш сайт: `https://www.lofty.today/\n#вакансия#golang","markup":[{"type":"link","offset":1122,"length":24,"data":"https://www.lofty.today/"}],"date":"2020-07-02T10:02:20+00:00","link":"tg://resolve?domain=gogetajobfeed&post=350","tags":[{"name":"go"},{"name":"web"},{"name":"git"},{"name":"rest"},{"name":"unix"},{"name":"gitlab"},{"name":"mysql"},{"name":"rabbitmq"},{"name":"docker"},{"name":"ansible"}],"cities":[{"code":"moscow"}],"allowsRemote":false}},{"node":{"__typename":"Job","id":"2274361344-1001134745498","title":"Devops инженер","text":"#вакансия #офис #DevSecOps #Москва\nДобрый день! \nМеня зовут Дмитрий и я ищу крутого спеца в команду Swordfish Security!!\n\nКомпания специализируется на сервисах запуска практик безопасной разработки ПО, создании центров компетенций для своих Клиентов, оказывает услуги аутсорсинга экспертизы в области безопасного ПО, а также разрабатывает собственные продуктовые решения для автоматизации ряда индустриальных задач в области DevSecOps.\nЭто интернациональная команда с офисами в Санкт-Петербурге, Москве, Софии (Болгария) и  Нью-Йорке (США).\nSwordfish Security является технологическим партнером ведущих игроков-разработчиков решений на рынке DevSecOps – Checkmarx, Sonatype, Netsparker, Wallarm.\n\nЧем будем заниматься вместо работы:\n• Работа с инструментами статического анализа кода (SAST), контроля open source компонент (OSA/SCA) и динамического анализа приложений (DAST);\n• Разбор результатов анализа SAST/SCA/DAST;\n• Анализ выявленных дефектов, проверка, приоритезация, поиск решения для их устранения;\n• Разработка специальных правил анализа исходного кода;\n• Участие в развитии выделенного сегмента или практики безопасной разработки;\n• Участие в проработке процесса Application Security вместе с командой.\n\nЧто хотим видеть в нашем Спеце: \n• Опыт разработки на Java или Python;\n• Умение читать и разбираться в чужом коде на различных языках программирования;\n• Понимание принципов процесса DevOps;\n• Уверенная работа с Unix системами;\n• Умение находить и эксплуатировать уязвимости;\n• Опыт работы с инструментами безопасности:\n  SAST (Checkmarx, Fortify, Solar Incode) - в приоритете;\n\nКруто Если ты знаешь и умеешь :\n* DAST (NetSparker, Acunetix, HP WebInspect, Burp Enterprise, Wallarm FAST);\n* OSA / SCA (Nexus IQ, WhiteSource, BlackDuck, Dependency Checker);\n* Опыт работы с широким инструментальным стеком разработки:\n* Teamcity/Jenkins/Gitlab CI,\n* Bitbucket/GitLab,\n* Jira/Confluence,\n* Nexus Repo/Jfrog Artifactory,\n* Docker/Kubernetes;\n\nЧем вознаградим:\n• Возможность развиваться и получать уникальный опыт;\n• Гибкий график рабочего времени;\n• «Белая» заработная плата от 100 000 до 180 000 руб. \n• Соц. Пакет и ДМС со стоматологией, компенсация спортивных занятий.\n\n\n\nИнтересно?? Пиши отвечу на все вопросы!!\n@tankograin\n\n—\n\n👉 Обсуждение вакансии в чате @devops_jobs","markup":[{"type":"hashtag","offset":0,"length":9,"data":"вакансия"},{"type":"hashtag","offset":10,"length":5,"data":"офис"},{"type":"hashtag","offset":16,"length":10,"data":"DevSecOps"},{"type":"hashtag","offset":27,"length":7,"data":"Москва"},{"type":"handle","offset":2227,"length":11,"data":"tankograin"},{"type":"handle","offset":2273,"length":12,"data":"devops_jobs"}],"date":"2020-07-02T09:54:11+00:00","link":"tg://resolve?domain=devops_jobs_feed&post=2169","tags":[{"name":"java"},{"name":"python"},{"name":"unix"},{"name":"jenkins"},{"name":"gitlab"},{"name":"docker"},{"name":"kubernetes"}],"cities":[{"code":"moscow"}],"allowsRemote":false}},{"node":{"__typename":"Job","id":"104201191424-1001089317451","title":"Qa инженер","text":"#вакансия #QA #Java #QAAutomation #Москва #офис \n\nВакансия: QA Lead (Тест-Менеджер)\nГород: Москва м. Технопарк \nЗарплата: от 250 000 рублей до 290 000 рублей на руки\nФормат: офис, полный день, полная занятость\nКомпания Innovative People \n\n🕘 Чем предстоит заниматься:\n• планирование тестирования;\n• выстраивание процессов тестирования среди 8 команд с упором на автоматизацию;\n• выстраивать CI/CD проекта;\n• налаживание взаимодействия QA инженеров в нескольких командах;\n• поддерживать и развивать разработанные решения по автоматизации;\n• исследовать новые технологии и внедрять их на проекте;\n• принятие решений о внедрении / обновлении программного обеспечения.\n\n🕒 От кандидата ожидаем:\n• опыт в тестировании от 4х лет\n• опыт в автотестировании от 3х лет\n• опыт руководства группой тестировщиков от 2х лет\n• практический опыт применения практик тест-дизайна\n• умение проектировать тест-кейсы и подготавливать тестовые данные для тестирования\n• хорошие знание Java, библиотек\n• уверенное использование и понимание как работает под капотом Selenium Webdriver (Selenide и Appium для мобильных платформ)\n• опыт написания собственного фреймворка\n• опыт работы в unix системах\n• опыт работы с API (Soap, Rest)\n• опыт использование git\n• опыт использование CI (желательно, но не обязательно Jenkins)\n• опыт работы с Docker\n• опыт составления запросов SQL\n• опыт управления непрямыми (функциональными) подчиненными\n• умение контролировать несколько проектов одновременно\n• умение мотивировать команду, опыт управления рисками, мониторинг эффективности процессов\n\n🕧 Предлагаем:\n• все по ТК РФ\n• ДМС со стоматологией, программа лояльности\n• Macbook \n• адекватное руководство и лояльные процессы\n• большое комьюнити, классные команды\n• помогаем с релокацией!\n\nРезюме и вопросы @Priboch","markup":[{"type":"hashtag","offset":0,"length":9,"data":"вакансия"},{"type":"hashtag","offset":10,"length":3,"data":"QA"},{"type":"hashtag","offset":14,"length":5,"data":"Java"},{"type":"hashtag","offset":20,"length":13,"data":"QAAutomation"},{"type":"hashtag","offset":34,"length":7,"data":"Москва"},{"type":"hashtag","offset":42,"length":5,"data":"офис"},{"type":"handle","offset":1771,"length":8,"data":"Priboch"}],"date":"2020-07-02T09:23:09+00:00","link":"tg://resolve?domain=qa_jobs&post=99374","tags":[{"name":"qa"},{"name":"java"},{"name":"selenium"},{"name":"unix"},{"name":"soap"},{"name":"rest"},{"name":"git"},{"name":"jenkins"},{"name":"docker"},{"name":"sql"}],"cities":[{"code":"moscow"}],"allowsRemote":false}},{"node":{"__typename":"Job","id":"365953024-1001352129329","title":"Golang разработчик","text":"#вакансия #Golang #middle #Senior #Moscow #удаленно \n\nНазвание компании: EveryTale\nНазвание вакансии: Golang разработчик \nЗарплатная вилка 150-200 тыс/мес\nГород: Москва\nСписок языков, которые необходимо знать: Русский, Английский (на уровне чтения тех. документации)\nФотрмат работы: удаленно\n\nВ это непростое время пандемии мы ищем талантливого GO разработчика, который жаждет развивать социально значимые продукты\nМы:\nМолодая успешная и стабильная компания\nЛидеры рынка инфопанелей\nДелаем продукты для людей с ограниченными возможностями здоровья (ОВЗ)\nАктивно разрабатываем революционную платформу для обучения\n\nEverytale — это платформа для видео-трансляций лекций преподавателей и выступлений специалистов, учитывающая потребности всех людей.\\\nНаши будущие клиенты - пользователи по всему миру. В компании нет закрытых дверей, вся команда точно понимает что она делает и зачем. Нет жесткой иерархии внутри. Мы ценим всех наших сотрудников и их идеи и стремлении расти вместе с нами. Так же мы имеем представительство в США и ориентируемся в том числе и на этот рынок. Приветствуем желание развития и роста.\n\nВозможны командировки в Los Angeles.\n\nЧто предстоит делать:\n\nРазработка beckend для edTech проекта\nРабота с чатами, опросами, потоковым видео, субтитрами\nРеализация АПИ для мобильных \nприложений\n\nЧто нужно уметь\n\nУ тебя есть:\nОпыт программирования backend от 3х лет\nЗнание особенностей разработки highload-проектов\nУверенное владение Golang\nАналитическое мышление с навыками решения проблем\nОпыт работы с Linux\n\nБудет плюсом:\n\nРабота с docker\nУмение строить SOA\nНавыки работы c оркестраторами и Docker Compose\nЗнание Python\nОпыт работы с инфраструктурой и сервисами Amazon\nОпыт работы с сервисами видеостриминга\nОпыт в построении CI/CD Pipeline\n\nЗдорово, если ты:\nЛюбишь учиться\nОткрытый\nОбщительный\nПозитивный\nСамостоятельный\n\nУсловия и преимущества\nМолодую команду профессионалов\\\nВысокую заработную плату по результатам собеседования\\\nНовый уютный офис в пешей доступности от метро Текстильщики\\\nИгровая зона пинг-понг, кикер \\\nВозможности роста в расширяющейся команде \\\nПремии по KPI\n\n\n\nКоманда:\nДиректор IT;\nТехЛид;\nPM;\nGo ТимЛид;\nReact front x3;\nАналитик;\nДизайнер;\n\nКонтакты: @sandevl","markup":[{"type":"hashtag","offset":0,"length":9,"data":"вакансия"},{"type":"hashtag","offset":10,"length":7,"data":"Golang"},{"type":"hashtag","offset":18,"length":7,"data":"middle"},{"type":"hashtag","offset":26,"length":7,"data":"Senior"},{"type":"hashtag","offset":34,"length":7,"data":"Moscow"},{"type":"hashtag","offset":42,"length":9,"data":"удаленно"},{"type":"handle","offset":2196,"length":8,"data":"sandevl"}],"date":"2020-07-02T09:13:00+00:00","link":"tg://resolve?domain=gogetajobfeed&post=349","tags":[{"name":"go"},{"name":"linux"},{"name":"docker"},{"name":"python"},{"name":"reactjs"},{"name":"docker-compose"}],"cities":[{"code":"moscow"},{"code":"los-angeles"}],"allowsRemote":true}},{"node":{"__typename":"Job","id":"2273312768-1001134745498","title":"Devops инженер","text":"#вакансия #офис #СПб #Московская\nУровень:  middle-senior\nВилка: 150.000 - 200.000 NET\n\nЧто делать:\n— Создание конвееров автоматизированной сборки и развертывания ПО\n— Создание конвееров автоматизированной эксплуатации ПО\n— Помощь командам разработки и эксплуатации AI/ML при создании и доработке микросервисных архитектур\n— Взаимодействие с командами развития и эксплуатации централизованной DevOps экосистемы, развертывание и поддержка инструментов DevOps\n— Выявление и устранение недостатков текущих DevOps решений\n\nТехнологический стэк: TerraForm, AWS, Google Cloud Platform, K8S, Linux, Docker, Ansible+Python. \n\nКомпания: CardPay.com (эквайринг для екомерса) \n\nДва этапа собеседований: рекрутер —> IT Director. \n\nКонтакты: @kitanamda\n\n—\n\n👉 Обсуждение вакансии в чате @devops_jobs","markup":[{"type":"hashtag","offset":0,"length":9,"data":"вакансия"},{"type":"hashtag","offset":10,"length":5,"data":"офис"},{"type":"hashtag","offset":16,"length":4,"data":"СПб"},{"type":"hashtag","offset":21,"length":11,"data":"Московская"},{"type":"link","offset":627,"length":11,"data":"http://CardPay.com"},{"type":"handle","offset":728,"length":10,"data":"kitanamda"},{"type":"handle","offset":773,"length":12,"data":"devops_jobs"}],"date":"2020-07-02T08:38:53+00:00","link":"tg://resolve?domain=devops_jobs_feed&post=2168","tags":[{"name":"dotnet"},{"name":"amazon-web-services"},{"name":"cloud"},{"name":"linux"},{"name":"docker"},{"name":"ansible"},{"name":"python"},{"name":"google-cloud-platform"}],"cities":[],"allowsRemote":false}},{"node":{"__typename":"Job","id":"104182317056-1001089317451","title":"Qa engineer","text":"#вакансия #москва #полнаязанятость #qaengineer #auto \nКомпания: #Mетрквадратный www.m2.ru\nЛокация: м.Белорусская \nФормат работы: офис (удаленная до сентября)  \nЗ/п: от 120к - 180к на руки\nКонтакты: @maxdmitrov\n\nЭто экосистема недвижимости, которая помогает клиентам решать любые жилищные вопросы: от поиска вариантов и оформления сделки до организации ремонта и переезда в новую квартиру. Мы также создаем решения для партнёров и профессиональных участников рынка недвижимости.\n\nНаш стэк:\n• Java\n • Node.js\n • React, TypeScript\n • Kafka, ElasticSearch, gRPC\n • Docker\n\nЧем предстоит заниматься:\n• заниматься задачами по автоматизации тестирования. \n• анализировать и тестировать требования к разрабатываемым приложениям;\n • писать приемочные критерии к пользовательским историям;\n • проводить функциональное, регрессионное и smoke тестирование;\n \n\nЧего мы ждем:\n • глубокое понимание процессов тестирования и разработки ПО;\n • опыт интеграционного тестирования:\n    - системная интеграция;\n    - компонентная интеграция\n • опыт тестирования АРI;\n • опыт автоматизации тестирования на любом стеке.\n\nБудет плюсом\n • опыт исследовательского тестирования;\n • опыт тестирования ПО с микросервисной архитектурой.\n\nМы предлагаем:\n • белая конкурентная ЗП, официальное оформление;\n • гибкий график работы;\n • ДМС, компенсация фитнеса, льготная ставка по ипотеке;","markup":[{"type":"hashtag","offset":0,"length":9,"data":"вакансия"},{"type":"hashtag","offset":10,"length":7,"data":"москва"},{"type":"hashtag","offset":18,"length":16,"data":"полнаязанятость"},{"type":"hashtag","offset":35,"length":11,"data":"qaengineer"},{"type":"hashtag","offset":47,"length":5,"data":"auto"},{"type":"hashtag","offset":64,"length":15,"data":"Mетрквадратный"},{"type":"link","offset":80,"length":9,"data":"http://www.m2.ru"},{"type":"handle","offset":198,"length":11,"data":"maxdmitrov"},{"type":"bold","offset":478,"length":11,"data":""},{"type":"bold","offset":569,"length":26,"data":""},{"type":"bold","offset":847,"length":15,"data":""},{"type":"bold","offset":1097,"length":14,"data":""},{"type":"bold","offset":1206,"length":16,"data":""}],"date":"2020-07-02T07:49:51+00:00","link":"tg://resolve?domain=qa_jobs&post=99356","tags":[{"name":"qa"},{"name":"java"},{"name":"nodejs"},{"name":"reactjs"},{"name":"typescript"},{"name":"kafka"},{"name":"elasticsearch"},{"name":"docker"}],"cities":[{"code":"moscow"}],"allowsRemote":true}},{"node":{"__typename":"Job","id":"104180219904-1001089317451","title":"Qa engineer","text":"#Москва  #QA  #вакансия #офис\nКомпания: Start.ru\n\nМы ищем коллег, которые смогут влиться в нашу команду и вместе с нами развивать и совершенствовать наш сервис!\nУ Вас есть возможность стать частью команды, развивающей первую в Восточной Европе студию с собственным международным VOD сервисом.\nВ данный момент мы усиляем нашу команду по тестированию и в поисках позиций Backend QA Engineer и QA Automation Engineer (python)\n\n———————————\nДолжность: Backend QA Engineer\nЗарплатная вилка: От 80.р. до 120т.р. по результатам собеседования\n\nКакие задачи вы будете решать:\n- Прогон описаных кейсов в TestRail и документация найденых дефектов;\n- Тестирование API (программного интерфейса платформы);\n- Разработка тестовых сценариев;\n- Взаимодействие с разработчиками и сопровождение дефектов до полного их решения;\n- Отладка и сбор логов в процессе воспроизведения проблем\n- Проведение регрессионного тестирования\n\nЧего мы хотим:\n- Вас не пугает работа с командной строкой чаще чем работа с графическим интерфейсом\n- Работа с chromedev tools и командной строкой (bash);\n- Знание и понимания клиент-серверной архитектуры приложений;\n- Понимание принципов работы веб-приложений;\n- Умение грамотно составлять свои мысли в предложения и описывать дефекты, чтобы понятно было разработчикам;\n- Навыки работы с технической документацией, анализ и вычленение требований;\n- Работали с программами-снифферами и проксями траффика (charles/wireshark/fiddler/mitmproxy etc)\n\nБудет плюсом:\n- Если знаете python на уровне, достаточном для автоматизации и сможете прочитать код который на нем написан\n- Знаете что такое DOM-дерево, локаторы и селекторы в контексте веб-приложения\n\n—————————\nДолжность: QA Automation Engineer\nЗарплатная вилка: От 130.р. до 170т.р. по результатам собеседования\n\nУ нас:\nВ нашем проекте есть автоматизация тестирования как API, так и WEB UI. \nНаш стек: Python3, PyTest, Requests, Selenium WebDriver, Selenoid, DB clients (MongoDB, PostgreSQL), JSON validation (jsonschema), TestRail API, Telegram API, GitLab CI. \nПомимо автотестов мы разрабатываем проект нагрузочного тестирования на Locust.\n\nВаши задачи:\n- Расширение покрытия автотестов API, WEB UI\n- Поддержка автотестов в актуальном состоянии\n- Анализ прохождения тестов с возможным заведением багов в Jira\n- Ревью кода\n- Ведение тестовой - документации\n- Написание сценариев нагрузочного тестирования\n\nТребования:\n- Хорошее знание теории тестирования\n- Опыт автоматизированного тестирования от 2х лет\n- Знание Python3, PyTest\n- Навыки написания и использования тестовой документации\n- Умение писать простые запросы на SQL и в MongoDB\n- Навыки работы с Git\n- Обсуждение проблем приложения с разработчиками\n\nБудет плюсом:\n- Опыт написания архитектуры проекта автотестов с нуля\n- Работа с Docker, Docker Compose\n- Опыт работы с Telegram API\n- Опыт описания JSON схем для валидации ответов API\n- Базовые знания в Linux\n\nОт нас:\n- На данный момент условия сотрудничества удаленные, но при нормализации ситуации мы выйдем в офис\n- Офис в районе Хамовники (территориально м.Киевская, м. Спортивная в 20.мин ходьбы)\n- График работы: 5/2 начинаем с 9  до 11 (в целом гибкий - главное результат);\n- Оформление в соответствии с ТК РФ (белая зарплата, отпускные, больничные);\n- Все возможности для прокачки имеющихся скиллов и получения новых;\n- Драйвовая и высокопрофессиональная команда единомышленников;\n- Возможность стать частью динамично развивающегося видеосервиса.\n\n\nВопросы и отклики по вакансии писать в tlgrm: @unambo OR emailto: v.selyanin@start.ru","markup":[{"type":"hashtag","offset":0,"length":7,"data":"Москва"},{"type":"hashtag","offset":9,"length":3,"data":"QA"},{"type":"hashtag","offset":14,"length":9,"data":"вакансия"},{"type":"hashtag","offset":24,"length":5,"data":"офис"},{"type":"link","offset":40,"length":8,"data":"http://Start.ru"},{"type":"handle","offset":3471,"length":7,"data":"unambo"},{"type":"link","offset":3491,"length":19,"data":"mailto:v.selyanin@start.ru"}],"date":"2020-07-02T07:33:55+00:00","link":"tg://resolve?domain=qa_jobs&post=99354","tags":[{"name":"qa"},{"name":"python"},{"name":"bash"},{"name":"web"},{"name":"selenium"},{"name":"mongodb"},{"name":"postgresql"},{"name":"json"},{"name":"gitlab"},{"name":"sql"},{"name":"git"},{"name":"docker"},{"name":"linux"},{"name":"docker-compose"}],"cities":[{"code":"moscow"},{"code":"kiev"}],"allowsRemote":false}},{"node":{"__typename":"Job","id":"2272264192-1001134745498","title":"Devops инженер","text":"Приветствую! \n\nУ нас ведется подбор на роль  “Devops” в Сбербанк-Технологии, в проект Школьная цифровая платформа.  \n\nОбразовательная цифровая платформа - SaaS решение для обучения, позволяющее автоматизировать\nразличные виды образовательной деятельности. Гибкость платформы позволяет применить ее в\nразличных областях обучения на всех этапах образовательного процесса. \n\nТребования:\n• Опыт администирования Linux от 3-х лет (поддержка prod)\n• Автоматизация рутинных задач (bash, python)\n• Опыт работы с Ansible\n• Опыт разворачивания инструментов мониторинга: Prometheus, Grafana, Zabbix или аналоги\n• Опыт настройки CI/CD (Jenkins, Gitlab, Bitbucket)\n• Контейнеризация (docker) и оркестрация (Kubernetes)\n• ELK\n• Требуется понимание основ сетей, работы стека TCP/IP\n\nЖелательно:\n• опыт работы с Сeph.\n• опыт администрирования PostgreSQL, MongoDB\n\nУсловия работы:\n• работа в одной из крупнейших ИТ организаций в России;\n• команда профессионалов, готовых поддержать ваши инициативы;\n• мощное железо, дополнительные мониторы и всё, что нужно для продуктивной работы;\n• возможность работы с новыми технологиями;\n• ДМС и дополнительные \"плюшки\" от организации;\n• прозрачная система бонусов и премий, достойная зарплата (размер обсудим на\nсобеседовании);\n• яркая и насыщенная корпоративная жизнь.\n\n🧗‍♂График работы обговаривается и full-time\n\n 🌁Место работы город Москва. \nМетро Савеловская.\n\n💰Доход обговаривается индивидуально после   интервью. Подбор ведется на различные уровни. \nДоходная вилка от 170к до 230к gross + годовая премия!\n\n#вакансия #devops \nЕсли интересно🤔, пишите 🤗\n@KristiSberHR\n\n—\n\n👉 Обсуждение вакансии в чате @devops_jobs","markup":[{"type":"hashtag","offset":1538,"length":9,"data":"вакансия"},{"type":"hashtag","offset":1548,"length":7,"data":"devops"},{"type":"handle","offset":1585,"length":13,"data":"KristiSberHR"},{"type":"handle","offset":1633,"length":12,"data":"devops_jobs"}],"date":"2020-07-02T06:22:12+00:00","link":"tg://resolve?domain=devops_jobs_feed&post=2167","tags":[{"name":"linux"},{"name":"bash"},{"name":"python"},{"name":"ansible"},{"name":"jenkins"},{"name":"gitlab"},{"name":"docker"},{"name":"kubernetes"},{"name":"postgresql"},{"name":"mongodb"}],"cities":[{"code":"moscow"}],"allowsRemote":false}},{"node":{"__typename":"Job","id":"104108916736-1001089317451","title":"Qa engineer","text":"#вакансия #QA #тестировщик #middle #senior #москва #офис #fulltime\n\nКомпания: СберТех\nЛокация: г. Москва\nЗ/п: 130-250k\n \nСберТех приглашает в команду QA Engineer. Так же того, кто желает обучаться автоматизации на JS/CodeceptJS или уже состоявшегося автоматизатора\n\n💻 Делаем образовательную цифровую платформу - SaaS решение для персонализированного обучения в школах, IT Bootcamp Сбербанка. Сейчас масштабируемся и выходим на университеты\n\nСтек проекта:\nBack: Java 8+, Spring 5, SpringBoot 2, PostgreSQL, MongoDB, Flyway\n﻿Front: ReactJS, Typescript, Apollo-client, Styled-Components\nAutomationQA: API - Java/TestNG; UI - JavaScript/CodeceptJS\nInfracture: Jenkins, Allure, Bitbucket, Jira, EFK, Grafana\nEnvironment: Docker, Kubernetes, Ceph\n\nЧем предстоит заниматься:\n🔹проходить регресс текущего функционала\n🔹разрабатывать кейсы параллельно разработке нового функционала\n🔹проводить анализ требований для новых фич и давать свое заключение\n🔹участвовать в расширении тестовой модели\n🔹автоматизировать регресс, поддерживать старый функционал, писать тесты для новых фич\n\nОжидания от квалификации:\n🔹умение работать с DevTools, различать Get & Post-запросы\n🔹знание видов тестирования, умение отличить функциональное тестирование от нефункционального, понимание зачем и когда нужен regress, end-2-end и smoke testing\n🔹умение/желание тестировать UI\n🔹опыт работы с технической документацией, анализом макетов и составлением тестовой документации \n🔹умение чётко и внятно составлять баг-репорты в таск-трекере (у нас Jira)\n🔹умение писать понятные для других тест-кейсы без лишней информации\n🔹опыт взаимодействия с Rest-API\n\nПлюсом будет:\n🔹если слова cross platform testing & cross device testing не вызывают ступора, на примете есть полезные applications для тестирования UI\n🔹если уже ступил на путь познания JavaScript или Java\n🔹шапочное или личное знакомство с GraphQL\n🔹опыт работы в Agile-команде\n\nПредлагаем:\n✔достойную зарплату (оклад + высокая годовая премия) \n✔профессиональное развитие: конференции, митапы, обучение в Корпоративном университете Сбербанка\n✔ДМС, страховку от несчастных случаев, льготные условия ипотеки, скидки от компаний-партнеров, бесплатный тренажёрный зал\n✔офис А класса в БЦ «Северное Сияние» (5 мин от м. Савеловская), удалёнка до конца июля\n\nЕсли интересно - буду рада обсудить, вот мои контакты:\n📲 @karprokar\n📩 KVProlomova@sberbank.ru","markup":[{"type":"hashtag","offset":0,"length":9,"data":"вакансия"},{"type":"hashtag","offset":10,"length":3,"data":"QA"},{"type":"hashtag","offset":14,"length":12,"data":"тестировщик"},{"type":"hashtag","offset":27,"length":7,"data":"middle"},{"type":"hashtag","offset":35,"length":7,"data":"senior"},{"type":"hashtag","offset":43,"length":7,"data":"москва"},{"type":"hashtag","offset":51,"length":5,"data":"офис"},{"type":"hashtag","offset":57,"length":9,"data":"fulltime"},{"type":"bold","offset":68,"length":8,"data":""},{"type":"bold","offset":86,"length":7,"data":""},{"type":"bold","offset":105,"length":3,"data":""},{"type":"bold","offset":121,"length":40,"data":""},{"type":"bold","offset":442,"length":12,"data":""},{"type":"bold","offset":743,"length":24,"data":""},{"type":"bold","offset":1074,"length":24,"data":""},{"type":"bold","offset":1627,"length":12,"data":""},{"type":"bold","offset":1908,"length":10,"data":""},{"type":"handle","offset":2340,"length":10,"data":"karprokar"},{"type":"link","offset":2354,"length":23,"data":"mailto:KVProlomova@sberbank.ru"}],"date":"2020-06-30T20:08:43+00:00","link":"tg://resolve?domain=qa_jobs&post=99286","tags":[{"name":"qa"},{"name":"java"},{"name":"spring"},{"name":"postgresql"},{"name":"mongodb"},{"name":"reactjs"},{"name":"typescript"},{"name":"javascript"},{"name":"jenkins"},{"name":"docker"},{"name":"kubernetes"},{"name":"rest"},{"name":"graphql"}],"cities":[{"code":"moscow"}],"allowsRemote":true}},{"node":{"__typename":"Job","id":"104086896640-1001089317451","title":"Qa инженер","text":"#вакансия #спб #питер #fulltime #QALead\n\n🚀Старший тестировщик/ QA Lead (в офис)\n130-170k\n\nО компании:\nНаПоправку.Ру - медицинский онлайн-сервис: поиск врача по отзывам и real time запись на приём в частные и государственные клиники. Именно мы партнеры суперприложения Тинькофф в блоке «Здоровье». Мы помогаем более 1 млн. пользователей в месяц. Сайт + сейчас создаём первое приложение (нативное).\n\nЦель должности:\n🔸Настроить процесс тестирования, предлагать и внедрять инструменты чтобы повышать эффективность тестов;\n🔸Запустить автотесты;\n🔸Формировать и развивать команду (сейчас 4 тестировщика и 15 разработчиков);\n🔸Тестировать сайт и мобильное приложение;\n🔸Не позволять багам просачиваться на прод и расстраивать пользователей.\n\nПочему точно стоит идти к нам:\n🔸Возможность выстроить и наладить процесс, сделать «как надо»;\n🔸 Социально-значимый проект, его пользователи - простые люди как ты и я;\n🔸Гибкое начало рабочего дня (с 8 до 11);\n🔸Официальное оформление и «белая» зарплата;\n🔸ДМС;\n🔸У нас есть софинансирование командных активностей;\n🔸Программа опционов для ключевых сотрудников;\n🔸Офис (в нем снеки и прочее) на ВО;\nЗарплата:\n🔸Гибко обсуждаем, вилка 130-170k\n\nЧего мы ждём от тебя:\n🔸Высшее техническое образование, курсы по тестированию;\n🔸Более 2х лет работал/а в IT-компаниях с хорошо выстроенным процессом тестирования, есть опыт автоматизации;\n🔸Работал/а с Git, Docker, SSH, Selenium, Jenkins;\n🔸Внимателен/а к деталям, требователен/а к себе и окружающим.\n\nВопросы и резюме к @Vasilisa_bu","markup":[{"type":"hashtag","offset":0,"length":9,"data":"вакансия"},{"type":"hashtag","offset":10,"length":4,"data":"спб"},{"type":"hashtag","offset":15,"length":6,"data":"питер"},{"type":"hashtag","offset":22,"length":9,"data":"fulltime"},{"type":"hashtag","offset":32,"length":7,"data":"QALead"},{"type":"bold","offset":43,"length":58,"data":""},{"type":"bold","offset":103,"length":14,"data":""},{"type":"bold","offset":399,"length":14,"data":""},{"type":"bold","offset":738,"length":31,"data":""},{"type":"bold","offset":1138,"length":8,"data":""},{"type":"bold","offset":1183,"length":20,"data":""},{"type":"bold","offset":1486,"length":18,"data":""},{"type":"handle","offset":1505,"length":12,"data":"Vasilisa_bu"}],"date":"2020-06-30T15:26:56+00:00","link":"tg://resolve?domain=qa_jobs&post=99265","tags":[{"name":"qa"},{"name":"git"},{"name":"docker"},{"name":"ssh"},{"name":"selenium"},{"name":"jenkins"}],"cities":[],"allowsRemote":false}}]}}},"context":{}}