{"hash":"f5f6bf98bd95e769321482904cbbd488f77922fd","data":{"records":{"id":"php","name":"php","belongsTo":{"totalCount":88,"pageInfo":{"totalPages":9,"currentPage":8},"edges":[{"node":{"__typename":"Job","id":"17027825664-1001110946746","title":"Js разработчик","text":"#вакансия #работа #удаленка #backend #node #nodejs #remote\nГород и адрес офиса: Москва, Савеловская\nФормат работы: удаленка\nЗанятость: полная || проектная\nЗарплатная вилка: 100-160 т.р.\n\nОписание вакансии: \nИщем опытного backend-разработчика node.js для разработки высоконадежных транзакционных сервисов интеграции с различными системами\n\nТребования:\n• Опыт работы с унаследованными системами\n• Знание PHP на уровне понимания и чтения кода будет плюсом\n• Знание и понимание работы сетевых протоколов TCP/IP, HTTP, SMTP, IMAP\n• Знание и понимание языка JavaScript и связанных с ним технологий и фреймворков\n• Опыт разработки серверных приложений\n• Понимание основных процессов разработки, умение работать в команде\n• Понимание принципов ООП, подходов в программировании и требований к транзакционным системам\n\nЗадачи:\n• Разработка высоконадежных транзакционных сервисов интеграции с различными системами\n• Поддержка и модернизация существующих систем\n\nНазвание компании: TechPlatforms (https://techpl.net)\nКонтакты:@desych79\n\n—\n\n👉 Обсуждение вакансии в чате @javascript_jobs","markup":[{"type":"hashtag","offset":0,"length":9,"data":"вакансия"},{"type":"hashtag","offset":10,"length":7,"data":"работа"},{"type":"hashtag","offset":18,"length":9,"data":"удаленка"},{"type":"hashtag","offset":28,"length":8,"data":"backend"},{"type":"hashtag","offset":37,"length":5,"data":"node"},{"type":"hashtag","offset":43,"length":7,"data":"nodejs"},{"type":"hashtag","offset":51,"length":7,"data":"remote"},{"type":"link","offset":985,"length":18,"data":"https://techpl.net"},{"type":"handle","offset":1014,"length":9,"data":"desych79"},{"type":"handle","offset":1058,"length":16,"data":"javascript_jobs"}],"date":"2020-06-17T16:37:00+00:00","link":"tg://resolve?domain=javascript_jobs_feed&post=0","tags":[{"name":"javascript"},{"name":"nodejs"},{"name":"php"},{"name":"smtp"},{"name":"dotnet"}],"cities":[{"code":"moscow"}],"allowsRemote":true}},{"node":{"__typename":"Job","id":"16997416960-1001110946746","title":"Js разработчик","text":"#вакансия \"Front-end разработчик\" г.Нур-Султан (Астана)\nПредлагаемая заработная плата 300 000 – 500 000 KZT на руки.\n🔹Информация о Работодателе:\nКазахстанская IT компания. Инновационный продукт компании успешно существует на рынке более 4 лет и насчитывает более 500 пользователей по всему Казахстану.\nМы ищем человека, который будет вовлечен в разработку данной информационной системы на длительное время.\n🔹Обязанности:\n• Разработка frontend-части проекта; \n• Доработка существующих версий проектов; \n• Проектирование пользовательских интерфейсов; \n• Кроссбраузерная и адаптивная верстка HTML5/CSS3; \n• Полное понимание предметной области и консультированаие Back-end разработчиков; \n• Анализ существующих систем и разработка способов интеграции; \n• Оптимизация клиентского портала (#JS, #CSS);\n🔹Основные требования: \n• Свободное владение #HTML и CSS; \n• Понимание препроцессоров CSS (Sass (SCSS), #Less, #Stylus, CSS3); \n• Свободное владение #JavaScript (ES6+), Vue.js (2.x); \n• Знание и опыт работы с фреймворками и библиотеками: #Angular.JS, #React.JS; \n• Владение инструментами дебаггинга; \n• Владение инструментами контроля версий (#Git); \n• #Element, #Webpack; \n• Понимание принципов построения бекэнда и серверных технологий (Node.js, #PHP, #Ruby, .NET и т.д.\n 🔹Условия: \n• Стабильно высокую зарплату от 300 000 до 500 000 тг. на руки; \n• Пятидневная рабочая неделя с 9:00 до 18:00; \n• Дружный коллектив, оказывающий поддержку во всем; \n• Возможности внедрять идеи и инициативы; \n• Возможность обучения за счет организации; \n• Работа в офисе по адресу г. Нур-Султан (Астана), ул. Иманова.\n\n📩Эл. почта для резюме: ke@recrutoman.kz\n\n—\n\n👉 Обсуждение вакансии в чате @javascript_jobs","markup":[{"type":"hashtag","offset":0,"length":9,"data":"вакансия"},{"type":"hashtag","offset":786,"length":3,"data":"JS"},{"type":"hashtag","offset":791,"length":4,"data":"CSS"},{"type":"hashtag","offset":843,"length":5,"data":"HTML"},{"type":"hashtag","offset":902,"length":5,"data":"Less"},{"type":"hashtag","offset":909,"length":7,"data":"Stylus"},{"type":"hashtag","offset":947,"length":11,"data":"JavaScript"},{"type":"hashtag","offset":1036,"length":8,"data":"Angular"},{"type":"hashtag","offset":1049,"length":6,"data":"React"},{"type":"hashtag","offset":1141,"length":4,"data":"Git"},{"type":"hashtag","offset":1151,"length":8,"data":"Element"},{"type":"hashtag","offset":1161,"length":8,"data":"Webpack"},{"type":"hashtag","offset":1246,"length":4,"data":"PHP"},{"type":"hashtag","offset":1252,"length":5,"data":"Ruby"},{"type":"link","offset":1626,"length":16,"data":"mailto:ke@recrutoman.kz"},{"type":"handle","offset":1677,"length":16,"data":"javascript_jobs"}],"date":"2020-06-17T15:08:41+00:00","link":"tg://resolve?domain=javascript_jobs_feed&post=0","tags":[{"name":"javascript"},{"name":"html"},{"name":"css"},{"name":"sass"},{"name":"vuejs"},{"name":"angularjs"},{"name":"reactjs"},{"name":"git"},{"name":"webpack"},{"name":"nodejs"},{"name":"php"},{"name":"ruby"},{"name":"dotnet"}],"cities":[],"allowsRemote":false}},{"node":{"__typename":"Job","id":"26385317888-1001075660570","title":"Php разработчик","text":"#вакансия #php #удаленка #разработчик #remote #symfony #freelance\nВакансия: PHP Developer (Symfony)\nПроект: trivago.com \nФормат работы: удаленная работа\nЗанятость: от 120 часов в месяц\nЗарплатная вилка: до 1500 руб/час (обсуждается)\nАнглийский: interview/meeting speaking\nНа один из самых больших порталов для путешествий trivago.com требуется PHP-разработчиков (Symfony), уровень миддл, сеньор.\nУдаленная работа, проектная занятость (проект 3 месяца, возможно дольше).\nНам важно, чтобы Вы уверенно работали с PHP Symfony, Docker, continuous Integration, имели опыт в API interface. Преимуществом будет опыт работы с порталами бронирования услуг, путешествий.\nОсновные задачи: развитие и поддержка функциональности портала, подробности на интервью.\nРабота под руководством технического директора, находящегося в Германии, поэтому ключевое требование – способность пройти интервью на английском языке и коммуницировать с англоговорящей командой.\nОриентировочная дата начала проекта с 1-ого июля, работа происходит по немецкому времени (с 9:00 по 18:00 по german time), т.е. с 8.00 до 17.00 московского времени. \nНа проекте отличная международная команда и комфортные условия. Оформление по договору.\nЕсли Вам это интересно, буду рада продолжить диалог и ответить на Ваши вопросы! \nКонтакт: Ирина, @ir1na_hr","markup":[{"type":"hashtag","offset":0,"length":9,"data":"вакансия"},{"type":"hashtag","offset":10,"length":4,"data":"php"},{"type":"hashtag","offset":15,"length":9,"data":"удаленка"},{"type":"hashtag","offset":25,"length":12,"data":"разработчик"},{"type":"hashtag","offset":38,"length":7,"data":"remote"},{"type":"hashtag","offset":46,"length":8,"data":"symfony"},{"type":"hashtag","offset":55,"length":10,"data":"freelance"},{"type":"link","offset":108,"length":11,"data":"http://trivago.com"},{"type":"link","offset":322,"length":11,"data":"http://trivago.com"},{"type":"handle","offset":1296,"length":9,"data":"ir1na_hr"}],"date":"2020-06-17T14:19:43+00:00","link":"tg://resolve?domain=php_jobs&post=25163","tags":[{"name":"php"},{"name":"symfony"},{"name":"docker"},{"name":"continuous-integration"}],"cities":[],"allowsRemote":true}},{"node":{"__typename":"Job","id":"26368540672-1001075660570","title":"Php разработчик","text":"#вакансия #php #Москва #разработчик\nВакансия: Fullstack Developer\nЛокация: Москва\nКомпания: Bliss Finance\nФормат работы: офис/удаленная работа\nЗанятость: Full-time\nЗарплатная вилка: от 150 000 на руки (обсуждается)\n\n🚀 О проекте\n\nМы создаем финансовую платформу, объединяющую интернет-магазины с банками и даем возможность покупателям приобретать товары в рассрочку или кредит\n\n👨‍💻 Наш будущий коллега имеет\n\n- опыт работы с PHP от 3 лет\n- опыт работы с Phalcon\n- опыт проведния интеграций с финансовыми системами\n- опыт работы с HTML, JS, CSS \n- опыт работы с базами данных SQL на уровне сложных запросов (MySQL)\n- опыт работы с CircleCI, PHPUnit\n- опыт работы с GIT\n- опыт работы с REST, SOAP\n- опыт проведения code review\n- опыт проектирования и разработки архитектуры систем\n- понимает основы DevOps\n\n🍩 Условия\n\n- работа в офисе м. Калужская\n- стабильная зарплата\n- оформление по ТК РФ\n- гибкое начало рабочего дня\n- участие в конференциях\n- перспективы профессионального и карьерного роста\n\nКонтакт: @ave_mariy","markup":[{"type":"hashtag","offset":0,"length":9,"data":"вакансия"},{"type":"hashtag","offset":10,"length":4,"data":"php"},{"type":"hashtag","offset":15,"length":7,"data":"Москва"},{"type":"hashtag","offset":23,"length":12,"data":"разработчик"},{"type":"handle","offset":1008,"length":10,"data":"ave_mariy"}],"date":"2020-06-17T10:06:56+00:00","link":"tg://resolve?domain=php_jobs&post=25147","tags":[{"name":"php"},{"name":"html"},{"name":"css"},{"name":"sql"},{"name":"mysql"},{"name":"phpunit"},{"name":"git"},{"name":"rest"},{"name":"soap"}],"cities":[{"code":"moscow"}],"allowsRemote":true}},{"node":{"__typename":"Job","id":"26351763456-1001075660570","title":"Php developer","text":"#вакансия #москва #офис #fulltime #yii #php\n\n Позиция: Senior PHP Developer\nЗанятость: полная\nКомпания: ТД ЦУМ \nЛокация: Москва\nЗ/П: до 270.000\n\n   Основные цели и задачи:\n- Разработка программных модулей продуктов компании;\n- Глубокое погружение в процессы работы интернет-магазина;\n- Участие в разработке сервис-ориентированной архитектуре приложения.\n\n   Основные обязанности:\n- Разработка и поддержка инфраструктуры интернет-проекта, мобильного приложения и внутренних сервисов компании;\n- Разработка программных модулей продуктов интернет магазина ЦУМ;\n- Оптимизация приложения под высокую нагрузку, масштабирование, поиск узких мест;\n- Интеграция со сторонними сервисами;\n- Предложение и внедрение высокотехнологичных, инновационных решений.\n\nТребования:\n- Отличное знание и опыт работы с PHP 5.3 (желательно 7) от 3 лет;\n- Понимание как устроен HTTP, REST;\n- Знание и понимание MVC архитектуры;\n- Знание и опыт работы фреймворком YII;\n- Опыт работы с одной или несколькими БД: MySQL, Redis, Mongo;\n- Опыт мониторинга и оптимизации SQL-запросов;\n\n   Условия работы:\n- Полный рабочий день.\n- Официальное оформление по трудовому договору.\n- Офис в центре Москвы.\n- ДМС.\n\nЗа подробностями в личку - @nastyaklassnaya","markup":[{"type":"hashtag","offset":0,"length":9,"data":"вакансия"},{"type":"hashtag","offset":10,"length":7,"data":"москва"},{"type":"hashtag","offset":18,"length":5,"data":"офис"},{"type":"hashtag","offset":24,"length":9,"data":"fulltime"},{"type":"hashtag","offset":34,"length":4,"data":"yii"},{"type":"hashtag","offset":39,"length":4,"data":"php"},{"type":"handle","offset":1202,"length":16,"data":"nastyaklassnaya"}],"date":"2020-06-17T07:47:26+00:00","link":"tg://resolve?domain=php_jobs&post=25131","tags":[{"name":"php"},{"name":"yii"},{"name":"rest"},{"name":"mysql"},{"name":"redis"},{"name":"sql"}],"cities":[{"code":"moscow"}],"allowsRemote":false}},{"node":{"__typename":"Job","id":"103016300544-1001089317451","title":"Qa engineer","text":"#вакансия #Москва #офис #QA #тестировщик #fulltime\n\nГород и адрес офиса: Москва, м. Новокузнецкая/Павелецкая\nФормат работы: #офис\nЗанятость: #полная\nЗП: от 80к до 120к руб. нетт\n\nSports.ru - провайдер развлечений для любителей спорта.\nЕсть спорт. Есть болельщики. Мы заполняем среду между ними, оживляем ее, наполняем общением и другими развлечениями. Мы делаем не «сайты» или «приложения», а мультиплатформенные продукты, с учетом актуальной технологической парадигмы.\n\nМы ищем Middle QA Engineer'а в наш флагманский проект Sports.ru.\nЭто главное медиа о спорте на русском языке с аудиторией 18 млн пользователей в месяц. Highload-проект с десятками тысяч RPS, состоящий из самых разных продуктов – сайтов, мобильных приложений, email-рассылок, чат-ботов и многого другого.\n\nВ данный момент мы заняты активным внедрением процесса тестирования. Под капотом - нативный js на фронте, php+perl на бэке. Все новые сервисы разрабатываем на новом стеке: vue.js+ssr+golang+graphql. Да, легаси есть - иногда попадается, но в тестирование всё же большинство задач идут на новом стеке.\n\nО задачах\nВы будете заниматься приёмкой фич и проведением регресса, написанием тестовой документации, разработкой автотестов и регистрацией ошибок в баг-трекере.\n\nО наших ожиданиях\nМы ждем, что вы уже минимум пару лет как в профессии и имеете хороший опыт ручного тестирования. Знаете различные инструменты и подходы к тестированию, обладаете навыками тест-дизайна и умеете их применять.\nПонимаете процессы разработки и тестирования, а также, что процессы не могут быть идеальными, но к этому необходимо стремиться.\nМы также ждем, что вы уже имеете навыки автоматизации и не ограничились одним инструментом.\n\nБудет плюсом\nЕсли вы уже пробовали себя в нагрузочном тестировании и автоматизации мобильных устройств.\n\nОб условиях:\nПросторный стильный офис возле м. Новокузнецкая/Третьяковская.\n“Белая” заработная плата.\nБесплатная медстраховка со стоматологией после испытательного срока.\nГибкий график работы с возможностью день-два в неделю работать удаленно.\nФрукты, снеки, чай, кофе, какао 24/7.\nКорпоративная скидка в спортзал и на занятия английским языком.\nКорпоративный футбол с тренером.\nФинансовая помощь при переезде из другого города.\nВозможности для профессионального развития.\n\nНазвание компании: Sports.ru (Tribuna Digital)\n\nКого заинтересовало, пишите мне в личку (@pbuyatova), рада буду поделиться подробностями:)","markup":[{"type":"hashtag","offset":0,"length":9,"data":"вакансия"},{"type":"hashtag","offset":10,"length":7,"data":"Москва"},{"type":"hashtag","offset":18,"length":5,"data":"офис"},{"type":"hashtag","offset":24,"length":3,"data":"QA"},{"type":"hashtag","offset":28,"length":12,"data":"тестировщик"},{"type":"hashtag","offset":41,"length":9,"data":"fulltime"},{"type":"hashtag","offset":124,"length":5,"data":"офис"},{"type":"hashtag","offset":141,"length":7,"data":"полная"},{"type":"link","offset":179,"length":9,"data":"http://Sports.ru"},{"type":"bold","offset":179,"length":9,"data":""},{"type":"bold","offset":479,"length":20,"data":""},{"type":"link","offset":525,"length":9,"data":"http://Sports.ru"},{"type":"bold","offset":1077,"length":10,"data":""},{"type":"bold","offset":1240,"length":18,"data":""},{"type":"bold","offset":1686,"length":13,"data":""},{"type":"bold","offset":1791,"length":13,"data":""},{"type":"link","offset":2284,"length":9,"data":"http://Sports.ru"},{"type":"handle","offset":2354,"length":10,"data":"pbuyatova"}],"date":"2020-06-17T07:41:47+00:00","link":"tg://resolve?domain=qa_jobs&post=0","tags":[{"name":"qa"},{"name":"php"},{"name":"perl"},{"name":"vuejs"},{"name":"go"},{"name":"graphql"}],"cities":[{"code":"moscow"}],"allowsRemote":true}},{"node":{"__typename":"Job","id":"26328694784-1001075660570","title":"Php разработчик","text":"#вакансия  #fulltime #backend  #москва  #php\nВакансия: разработчик PHP (CRM)\nКомпания: BostonGene\nГород: Москва\nФормат работы: #офис\nЗанятость: #полная\n\nМы создаем инновационный продукт – SAAS платформу поддержки принятия решений в области онкологии для врачей и ищем в команду PHP- разработчика, вместе с которым будем строить внутреннюю CRM-систему.\n\nМы ожидаем от кандидата:\n•  Опыт работы PHP программирования от 2 лет;\n•  Postgresql;\n•  Suite или Sugar;\n•  Самостоятельность, желание развиваться и находить решения сложных задач.\nБудет плюсом:\n•  Опыт использования Python;\n•  Понимание принципов RESTful-архитектуры;\n•  Опыт разработки на JavaScript/React.\nУсловия работы:\n•  Временно удаленная работа, потом возвращение в офис;\n•  Вознаграждение определяется по результатам собеседования (в зависимости от вашего опыта);\n•  Оформление по ТК РФ, ДМС;\n•  Офис в пешей доступности от станции метро Павелецкая;\n•  Перспективы карьерного роста и профессионального развития.\n\nПо всем вопросам писать @caterinatitova","markup":[{"type":"hashtag","offset":0,"length":9,"data":"вакансия"},{"type":"hashtag","offset":11,"length":9,"data":"fulltime"},{"type":"hashtag","offset":21,"length":8,"data":"backend"},{"type":"hashtag","offset":31,"length":7,"data":"москва"},{"type":"hashtag","offset":40,"length":4,"data":"php"},{"type":"hashtag","offset":127,"length":5,"data":"офис"},{"type":"hashtag","offset":144,"length":7,"data":"полная"},{"type":"handle","offset":1001,"length":15,"data":"caterinatitova"}],"date":"2020-06-16T14:34:18+00:00","link":"tg://resolve?domain=php_jobs&post=25109","tags":[{"name":"php"},{"name":"postgresql"},{"name":"python"},{"name":"javascript"},{"name":"reactjs"}],"cities":[{"code":"moscow"}],"allowsRemote":true}},{"node":{"__typename":"Job","id":"16970153984-1001110946746","title":"Js разработчик","text":"#вакансия #удаленка #fulltime #frontend #vue #nuxt #react\n\nКомпания: webland.design\nПозиция: frontend разарботчик\nФормат работы: удалённый, fulltime\n\nЗарплатная вилка: от 70 до 100 т.р на руки \n\nЗадачи:\n• Разработка веб-интерфейсов на vue.js/React\n• Активное участие в обсуждении задач.\n• Разработка нового функционала.\n• Доработка/Оптимизация существующего функционала.\n\nТребования:\n• Уверенное знание Javascript (ES6+)\n• Обязательное понимание экосистемы Vue/VueRouter/Vuex\n• Понимание принципов построения архитектуры большого приложения и принципов компонентного подхода.\n• Умение делать качественную кросс-браузерную адаптивную верстку (SCSS).\n• Опыт работы с Webpack и Babel.\n• Опыт работы с REST API\n\nБудет супер, если:\n•  Есть понимание принципов pixel perfect\n• Опыт использования серверного рендеринга (SSR) с использованием Nuxt.js.\n• Коммерческий опыт работы c React (Redux or Mobx)\n• Есть ИП или статус самозанятого\n\nСтек: \n• HTML5/JS/SCSS\n• Vue.js и/или React\n• Webpack/Babel\n• php или node.js REST API\n\nКонтакт: @alex_project\n\n—\n\n👉 Обсуждение вакансии в чате @javascript_jobs","markup":[{"type":"hashtag","offset":0,"length":9,"data":"вакансия"},{"type":"hashtag","offset":10,"length":9,"data":"удаленка"},{"type":"hashtag","offset":20,"length":9,"data":"fulltime"},{"type":"hashtag","offset":30,"length":9,"data":"frontend"},{"type":"hashtag","offset":40,"length":4,"data":"vue"},{"type":"hashtag","offset":45,"length":5,"data":"nuxt"},{"type":"hashtag","offset":51,"length":6,"data":"react"},{"type":"link","offset":69,"length":14,"data":"http://webland.design"},{"type":"handle","offset":1027,"length":13,"data":"alex_project"},{"type":"handle","offset":1075,"length":16,"data":"javascript_jobs"}],"date":"2020-06-16T10:19:35+00:00","link":"tg://resolve?domain=javascript_jobs_feed&post=0","tags":[{"name":"javascript"},{"name":"vuejs"},{"name":"reactjs"},{"name":"webpack"},{"name":"rest"},{"name":"redux"},{"name":"html"},{"name":"php"},{"name":"nodejs"},{"name":"react-redux"}],"cities":[],"allowsRemote":true}},{"node":{"__typename":"Job","id":"2212495360-1001134745498","title":"Devops engineer","text":"#вакансия #DevOps #fulltime #москва\n\nDevOps Engineer\nГород: Москва\nФормат работы: офис \nЗанятость: полная\nЗП вилка 160-250 тысяч\n\ninDriver - международный ride-hailing сервис:\n* 47 млн пользователей в 31 стране мира.\n* Входим в топ-5 мобильных сервисов для заказа поездки по итогам января 2020 года.\n* Офис возле м. Улица 1905 года.\n\nОбязанности:\n• Настройка и поддержка инфраструктуры для разработки (сервера, docker, kubernetes, helm)\n• Внедрение и поддержка Kubernetes в production\n• Создание Helm Charts\n• Настройка пайплайнов для процессов CI/CD (TeamCity)\n• Повышение отказоустойчивости работы сервисов\n\nТребования:\n• Опыт работы с операционными системами семейства Linux (CentOS/RHEL)\n• Опыт внедрения и использования Kubernetes в production\n• Опыт настройки и работы с nginx, MySQL, Redis, Prometheus, ClickHouse\n• Опыт работы с облачными провайдерами: GCP, AWS, Azure\n• Опыт использования Ansible и написания ролей и плейбуков\n• Опыт поддержки высоконагруженных сервисов на базе ОС Linux\n• Умение читать и разбираться в чужом коде: Go, PHP\n\nКонтакт для связи: @liuboushka888\n\n—\n\n👉 Обсуждение вакансии в чате @devops_jobs","markup":[{"type":"hashtag","offset":0,"length":9,"data":"вакансия"},{"type":"hashtag","offset":10,"length":7,"data":"DevOps"},{"type":"hashtag","offset":18,"length":9,"data":"fulltime"},{"type":"hashtag","offset":28,"length":7,"data":"москва"},{"type":"handle","offset":1069,"length":14,"data":"liuboushka888"},{"type":"handle","offset":1118,"length":12,"data":"devops_jobs"}],"date":"2020-06-16T07:57:58+00:00","link":"tg://resolve?domain=devops_jobs_feed&post=2110","tags":[{"name":"docker"},{"name":"kubernetes"},{"name":"linux"},{"name":"centos"},{"name":"nginx"},{"name":"mysql"},{"name":"redis"},{"name":"google-cloud-platform"},{"name":"amazon-web-services"},{"name":"azure"},{"name":"ansible"},{"name":"php"}],"cities":[{"code":"moscow"}],"allowsRemote":false}},{"node":{"__typename":"Job","id":"341835776-1001352129329","title":"Golang developer","text":"#вакансия #backend  #Go #php #fulltime #moscow \n\ninDriver - международный ride-hailing сервис:\n* 47 млн пользователей в 31 стране мира.\n* Входим в топ-5 мобильных сервисов для заказа поездки по итогам января 2020 года.\n* Офис возле м. Улица 1905 года.\n\nBackend Developer (Golang/php)\nЗП вилка 160-250 тысяч\nГород Москва, только офис фуллтайм\n\nОбязанности:\n• Разработка и поддержка backend сервисов на Golang/PHP\n• Прототипирование новых решений\n• Проведение код-ревью\n• Развитие микро-сервисного подхода\n\nТребования:\n• Знание микро-сервисных, high load архитектур\n• Опыт работы в высоконагруженных проектах \n• Опыт работы с СУБД \n\nКонтакт для связи: почта lubov.iv@indriver.com или телеграм @Liuboushka888","markup":[{"type":"hashtag","offset":0,"length":9,"data":"вакансия"},{"type":"hashtag","offset":10,"length":8,"data":"backend"},{"type":"hashtag","offset":20,"length":3,"data":"Go"},{"type":"hashtag","offset":24,"length":4,"data":"php"},{"type":"hashtag","offset":29,"length":9,"data":"fulltime"},{"type":"hashtag","offset":39,"length":7,"data":"moscow"},{"type":"link","offset":656,"length":21,"data":"mailto:lubov.iv@indriver.com"},{"type":"handle","offset":691,"length":14,"data":"Liuboushka888"}],"date":"2020-06-16T06:50:11+00:00","link":"tg://resolve?domain=gogetajobfeed&post=326","tags":[{"name":"go"},{"name":"php"}],"cities":[{"code":"moscow"}],"allowsRemote":false}}]}}},"context":{}}