{"hash":"f5f6bf98bd95e769321482904cbbd488f77922fd","data":{"records":{"id":"russia/moscow","country":{"code":"russia","ruName":"Россия","enName":"Russia"},"city":{"code":"moscow","ruName":"Москва","enName":"Moscow"},"belongsTo":{"totalCount":476,"pageInfo":{"totalPages":48,"currentPage":28},"edges":[{"node":{"__typename":"Job","id":"17109614592-1001110946746","title":"Js разработчик","text":"#вакансия #удаленно #fullstack #JavaScript #NodeJS #Vue #middle #senior\n\nГород: г. Москва, Сколково, б-р Большой\nФорма работы: удаленка\nЗанятость: полная\nЗарплатная вилка: от 120000 до 200000 рублей\nНазвание компании: ADMON\n\nВ связи с расширением штата, компания ADMON приглашает Middle/Senior Full-stack JavaScript-разработчиков, готовых стать полноценными членами нашей команды на удаленной основе или в Новосибирском офисе. ADMON – одна из ведущих российских компаний по предотвращению и расследованию мошенничества в сфере рекламы в Интернете и на мобильных устройствах с использованием высоких технологий. Основные направления деятельности компании: мониторинг и предотвращение мошенничества, аудит рекламных кампаний, разработка инновационных программных продуктов по мониторингу, обнаружению и предотвращению возникающих видов мошенничества.\n\nСтек технологий:\nNode.JS, Vue, GraphQl, Jest, Redis, Clickhouse, PostgreSQL, Docker.\n\nЧто используем в работе:\n    - Jira (Kanban), Confluence;\n   - Храним код в Gitlab, тут же CI/CD;\n    -Практикуем code review, политику частых релизов, гибкие методологии разработки;\n    -Мониторим состояние приложений с помощью: Zabbix, Grafana.\n\nВ задачи будет входить:\n    - Улучшать имеющийся функционал и разрабатывать новый (Система нотификаций, Обработка платежей, Алгоритмы атрибуции, Ads Crawler и т.д.);\n    - Писать тесты и рефакторить кодовую базу;\n    - Участвовать в принятии архитектурных решений;\n    - Работать как в составе команды, так и в одного над небольшими проектами;\n    - Участвовать в коммуникации с командой;\n    - Быть инициативным и предлагать свои идеи, в том числе, если это касается использования новых технологий — проводить code review.\n\nЧто мы предлагаем:\n    - Удаленная работа;\n    - Оформление по ТК РФ;\n    - Полностью белая ЗП;\n    -  График работы 5/2;\n    - Можно выбрать свой график работы;\n    - Наставничество по предметной области и на равной позиции;\n    - Возможность работать как в составе команды, так и возглавить со временем свое направление — мы готовы обсуждать любые ваши идеи. \n\n Контакты:@juliajudina2810\n Резюме можно присылать на почту: hr@resurs-hr.ru\n\n—\n\n👉 Обсуждение вакансии в чате @javascript_jobs","markup":[{"type":"hashtag","offset":0,"length":9,"data":"вакансия"},{"type":"hashtag","offset":10,"length":9,"data":"удаленно"},{"type":"hashtag","offset":20,"length":10,"data":"fullstack"},{"type":"hashtag","offset":31,"length":11,"data":"JavaScript"},{"type":"hashtag","offset":43,"length":7,"data":"NodeJS"},{"type":"hashtag","offset":51,"length":4,"data":"Vue"},{"type":"hashtag","offset":56,"length":7,"data":"middle"},{"type":"hashtag","offset":64,"length":7,"data":"senior"},{"type":"handle","offset":2091,"length":16,"data":"juliajudina2810"},{"type":"link","offset":2142,"length":15,"data":"mailto:hr@resurs-hr.ru"},{"type":"handle","offset":2192,"length":16,"data":"javascript_jobs"}],"date":"2020-06-22T11:12:30+00:00","link":"tg://resolve?domain=javascript_jobs_feed&post=16317","tags":[{"name":"javascript"},{"name":"nodejs"},{"name":"vuejs"},{"name":"graphql"},{"name":"redis"},{"name":"postgresql"},{"name":"docker"},{"name":"gitlab"}],"cities":[{"code":"moscow"}],"allowsRemote":true}},{"node":{"__typename":"Job","id":"71772930048-1001054966032","title":"Mobile разработчик","text":"#вакансия #mobile #Москва #android #kotlin \nГород и адрес офиса: Москва, м. Технопарк\nФормат работы: офис (пока удаленно)\nЗанятость: полная, гибкий график\nЗП:  от 180к до 250к\n\nМы - Stream, дочка МТС, IT департамент для продуктов МТС. Делаем классные и реально удобные продукты для пользователей. \n\nCейчас ищем Senior Android в продукт:\n\nМТС Live - Сервис, который позволит посетителям мероприятий получать эксклюзивный пользовательский опыт во время концертов и фестивалей, получать привилегии от МТС, быстрее и проще получать доступ к услугам на площадке.\n\nПроект новый, написание будет с 0. Выбор технологий уже за новым сотрудником. \n \nОт нас:\n- \"белая\" заработная плата с полугодовыми премиями;\n- ДМС со стоматологией + страховка;\n- корпоративная мобильная связь;\n- обучение и посещение профильных конференций.\n\nПрисоединяйся к команде, будет интересно!\n\nО компании: stream.ru\nПодробности в личке (@tanya2332)","markup":[{"type":"hashtag","offset":0,"length":9,"data":"вакансия"},{"type":"hashtag","offset":10,"length":7,"data":"mobile"},{"type":"hashtag","offset":18,"length":7,"data":"Москва"},{"type":"hashtag","offset":26,"length":8,"data":"android"},{"type":"hashtag","offset":35,"length":7,"data":"kotlin"},{"type":"bold","offset":182,"length":6,"data":""},{"type":"bold","offset":311,"length":14,"data":""},{"type":"bold","offset":338,"length":8,"data":""},{"type":"link","offset":872,"length":9,"data":"http://stream.ru"},{"type":"handle","offset":903,"length":10,"data":"tanya2332"}],"date":"2020-06-22T11:11:16+00:00","link":"tg://resolve?domain=mobile_jobs&post=68448","tags":[{"name":"mobile"},{"name":"android"},{"name":"kotlin"}],"cities":[{"code":"moscow"}],"allowsRemote":true}},{"node":{"__typename":"Job","id":"17108566016-1001110946746","title":"Js разработчик","text":"#вакансия #javascript #react #typescript #nodejs #frontend #middle #senior\n\nКомпания: #Mетрквадратный www.m2.ru\nЛокация: #москва м.Белорусская\nФормат работы: офис (удаленная до сентября) \nЗанятость: полная\nЗ/п: 200к - 260к руб. на руки\nКонтакты: @maxdmitrov\n\nЭто экосистема недвижимости, которая помогает клиентам решать любые жилищные вопросы: от поиска вариантов и оформления сделки до организации ремонта и переезда в новую квартиру. Мы также создаем решения для партнёров и профессиональных участников рынка недвижимости.\n\nЧем предстоит заниматься:\n\n•  разрабатывать один из продуктов жилищной экосистемы;\n•  прорабатывать задачи с начального этапа (декомпозиция, проработка архитектуры, демо с владельцем продукта);\n•  проводить код ревью;\n•  покрывать код unit тестами, помогать тестировщикам в написании e2e тестов;\n•  оптимизировать рендеринг и скорость загрузки страниц;\n•  разрабатывать продуктовые компоненты, используя общие UI библиотеки, и помогать в развитии этих библиотек.\n\nЧего мы ждем:\n\n• Javascript(ES6);\n• React + MobX/Redux;\n• HTML;\n• CSS;\n• Опыт кроссбраузерной верстки.\n\nБудет плюсом:\n\n• TypeScript;\n• знание протокола HTTP/HTTPS, websockets, опыт работы с REST API;\n• опыт работы с react native;\n• опыт в бекэнде на различных языках программирования;\n• опыт профилирования, оптимизации и рефакторинга кода;\n• опыт написания тестов.\n\nМы используем: \n\n•  TypeScript + React + MobX + Gatsby;\n•  NestJS + gRPC + ProtoBuf (мидл-слой, управляющий UI и обращающийся к API бэк-энда);\n•  Micro Frontend Service;\n•  GitLab (CI/CD);\n•  Yarn + Lerna;\n•  Webpack/Rollup.\n\nМы предлагаем: \n\n•  современный стек технологий;\n•  возможность влиять на архитектуру и сразу видеть результат своей работы;\n•  белая конкурентная ЗП, официальное оформление;\n•  гибкий график работы;\n•  ДМС, компенсация фитнеса, льготная ставка по ипотеке;\n•  комфортный офис в БЦ «Белая площадь» (минута от метро): лаундж-зоны, бариста, фрукты.\n\n—\n\n👉 Обсуждение вакансии в чате @javascript_jobs","markup":[{"type":"hashtag","offset":0,"length":9,"data":"вакансия"},{"type":"hashtag","offset":10,"length":11,"data":"javascript"},{"type":"hashtag","offset":22,"length":6,"data":"react"},{"type":"hashtag","offset":29,"length":11,"data":"typescript"},{"type":"hashtag","offset":41,"length":7,"data":"nodejs"},{"type":"hashtag","offset":49,"length":9,"data":"frontend"},{"type":"hashtag","offset":59,"length":7,"data":"middle"},{"type":"hashtag","offset":67,"length":7,"data":"senior"},{"type":"hashtag","offset":86,"length":15,"data":"Mетрквадратный"},{"type":"link","offset":102,"length":9,"data":"http://www.m2.ru"},{"type":"hashtag","offset":121,"length":7,"data":"москва"},{"type":"handle","offset":246,"length":11,"data":"maxdmitrov"},{"type":"handle","offset":1964,"length":16,"data":"javascript_jobs"}],"date":"2020-06-22T11:08:34+00:00","link":"tg://resolve?domain=javascript_jobs_feed&post=16316","tags":[{"name":"javascript"},{"name":"reactjs"},{"name":"typescript"},{"name":"nodejs"},{"name":"redux"},{"name":"html"},{"name":"css"},{"name":"rest"},{"name":"gitlab"},{"name":"webpack"},{"name":"react-native"}],"cities":[{"code":"moscow"}],"allowsRemote":true}},{"node":{"__typename":"Job","id":"17107517440-1001110946746","title":"Js разработчик","text":"#вакансия #работа #удаленка #backend #node #nodejs #remote\nГород и адрес офиса: Москва, Савеловская\nФормат работы: удаленка\nЗанятость: полная || проектная\nЗарплатная вилка: 100-160 т.р.\n\nОписание вакансии: \nИщем опытного backend-разработчика node.js для разработки высоконадежных транзакционных сервисов интеграции с различными системами\n\nТребования:\n• Опыт работы с унаследованными системами\n• Знание PHP на уровне понимания и чтения кода будет плюсом\n• Знание и понимание работы сетевых протоколов TCP/IP, HTTP, SMTP, IMAP\n• Знание и понимание языка JavaScript и связанных с ним технологий и фреймворков\n• Опыт разработки серверных приложений\n• Понимание основных процессов разработки, умение работать в команде\n• Понимание принципов ООП, подходов в программировании и требований к транзакционным системам\n\nЗадачи:\n• Разработка высоконадежных транзакционных сервисов интеграции с различными системами\n• Поддержка и модернизация существующих систем\n\nНазвание компании: TechPlatforms (https://techpl.net)\nКонтакты:@desych79","markup":[{"type":"hashtag","offset":0,"length":9,"data":"вакансия"},{"type":"hashtag","offset":10,"length":7,"data":"работа"},{"type":"hashtag","offset":18,"length":9,"data":"удаленка"},{"type":"hashtag","offset":28,"length":8,"data":"backend"},{"type":"hashtag","offset":37,"length":5,"data":"node"},{"type":"hashtag","offset":43,"length":7,"data":"nodejs"},{"type":"hashtag","offset":51,"length":7,"data":"remote"},{"type":"link","offset":985,"length":18,"data":"https://techpl.net"},{"type":"handle","offset":1014,"length":9,"data":"desych79"}],"date":"2020-06-22T11:06:17+00:00","link":"tg://resolve?domain=javascript_jobs_feed&post=16315","tags":[{"name":"javascript"},{"name":"nodejs"},{"name":"php"},{"name":"smtp"},{"name":"dotnet"}],"cities":[{"code":"moscow"}],"allowsRemote":true}},{"node":{"__typename":"Job","id":"1718616064-1001091028994","title":"Java developer","text":"#Junior #Middle #Java #Developer\nКомпания: #Утконос\nЛокация: #Москва\nЗ/п: до 180 000 Net\nКонтакт: @RecruiterTatianaK\nJunior/Middle Java Developer в Утконос Онлайн\n📍Наш проект:\nВ компании разрабатывается комплексная система по управлению складом (WMS). Систему пишем сами «с нуля» на микросервисной архитектуре. \nСистема является ключевой для бизнеса и проектируется под высокие нагрузки.\n📍Что нужно делать?\n25% времени:\nАвтоматизировать бизнес процессы на складе в одной из scrum команд в количестве 10 человек.\n75% времени:\nРазрабатывать E2E и нагрузочные тесты.\n📍Наш стек:\nJava 11/Kotlin, Spring Boot 2.3.0, Camunda BPM, Kafka, Kubernetes, ELK, Grafana, Prometheus\n📍Что предлагаем?\nОформление по ТК РФ, ДМС\nГибкий график\nВозможность работы из дома\nСплоченный и профессиональный коллектив\nКорпоративные скидки на utkonos.ru, tui.ru, фитнес, кино и др.\nОфис - 10 минут  от м. Краснопресненская/ м.Улица 1905 года","markup":[{"type":"hashtag","offset":0,"length":7,"data":"Junior"},{"type":"hashtag","offset":8,"length":7,"data":"Middle"},{"type":"hashtag","offset":16,"length":5,"data":"Java"},{"type":"hashtag","offset":22,"length":10,"data":"Developer"},{"type":"hashtag","offset":43,"length":8,"data":"Утконос"},{"type":"hashtag","offset":61,"length":7,"data":"Москва"},{"type":"handle","offset":98,"length":18,"data":"RecruiterTatianaK"},{"type":"link","offset":818,"length":10,"data":"http://utkonos.ru"},{"type":"link","offset":830,"length":6,"data":"http://tui.ru"}],"date":"2020-06-22T10:57:41+00:00","link":"tg://resolve?domain=jvmjobs&post=1639","tags":[{"name":"java"},{"name":"jvm"},{"name":"dotnet"},{"name":"kotlin"},{"name":"spring"},{"name":"kafka"},{"name":"kubernetes"},{"name":"spring-boot"}],"cities":[{"code":"moscow"}],"allowsRemote":false}},{"node":{"__typename":"Job","id":"1717567488-1001091028994","title":"Java developer","text":"#Senior #Java #Developer\nКомпания: #Утконос\nЛокация: #Москва\nЗ/п: до 320 000 Net\nКонтакт: @RecruiterTatianaK\nSenior Java Developer в Утконос Онлайн\n📍Наш проект:\nВ компании разрабатывается комплексная система по управлению складом (WMS). Систему пишем сами «с нуля» на микросервисной архитектуре. \nСистема является ключевой для бизнеса и проектируется под высокие нагрузки.\n📍Что нужно делать?\nАвтоматизировать бизнес процессы на складе в одной из scrum команд в количестве 10 человек, прорабатывать архитектурные решения, замещать тим лида при необходимости.\n📍Наш стек:\nJava 11/Kotlin, Spring Boot 2.3.0, Camunda BPM, Kafka, Kubernetes, ELK, Grafana, Prometheus\n📍Что предлагаем?\nОформление по ТК РФ, ДМС\nГибкий график\nВозможность работы удаленно\nСплоченный и профессиональный коллектив\nКорпоративные скидки на utkonos.ru, tui.ru, фитнес, кино и др.\nОфис - 10 минут  от м. Краснопресненская/ м.Улица 1905 года","markup":[{"type":"hashtag","offset":0,"length":7,"data":"Senior"},{"type":"hashtag","offset":8,"length":5,"data":"Java"},{"type":"hashtag","offset":14,"length":10,"data":"Developer"},{"type":"hashtag","offset":35,"length":8,"data":"Утконос"},{"type":"hashtag","offset":53,"length":7,"data":"Москва"},{"type":"handle","offset":90,"length":18,"data":"RecruiterTatianaK"},{"type":"link","offset":813,"length":10,"data":"http://utkonos.ru"},{"type":"link","offset":825,"length":6,"data":"http://tui.ru"}],"date":"2020-06-22T10:57:27+00:00","link":"tg://resolve?domain=jvmjobs&post=1638","tags":[{"name":"java"},{"name":"jvm"},{"name":"dotnet"},{"name":"kotlin"},{"name":"spring"},{"name":"kafka"},{"name":"kubernetes"},{"name":"spring-boot"}],"cities":[{"code":"moscow"},{"code":"lida"}],"allowsRemote":true}},{"node":{"__typename":"Job","id":"71767687168-1001054966032","title":"Android разработчик","text":"#вакансия #москва #офис #unity #developer #gamedev #csharp c#\n\nГород и адрес офиса: Москва, м.Автозаводская \nФормат работы: офис \nЗанятость: полная \nЗарплатная вилка: от 160 000 на руки \n\n📣 Unity Developer (gamedev)\n\n✅ Описание вакансии:\n\nAppQuantum - это успешная команда из 120 человек, которая занимается мобильным маркетингом, разработкой и паблишингом мобильных игр. Один из наших самых успешных проектов Idle Evil Clicker набрал за пол года 5 млн пользователей на iOS и Android и мы не планируем останавливаться на достигнутом.\nМы ищем сильного Unity разработчика для работы над проектами в жанре Idle / Clicker / Tycoon. У нас три запущенных проекта, сейчас работаем над четвертым.\n\n\n✅ Задачи:\n\n• Разработка клиентской части игры\n• Интеграция в проект готового контента (модели, анимации, звуки)\n• Интеграция в проект готовых VFX, написание логики их управления\n• Вёрстка UI по макетам от художников\n• Интеграция различных сторонних SDK\n\n\n✅ Требования:\n\n• Опыт работы на Unity3D (С#) от 3х лет\n• Отличное знание Unity и всех её подсистем\n• Отличное знание C#, умение писать чёткий, понятный, структурированный код\n• Отличное знание паттернов проектирования\n• Умение верстать адаптивные интерфесы в uGUI\n• Умение отлаживать и оптимизировать проекты под мобильные платформы iOS/Android\n• Понимание Рендер пайплайна Unity3D, его тонких мест и принципов оптимизации\n• Уверенные знания по работе с системой контроля версий git\n• Умение разбираться в чужом коде, проводить рефакторинг\n• Дисциплинированность и ответственность\n\n\n✅ Плюсом будет:\n\n• Участие в разработке выпущенных игр под мобильные платформы на аналогичной должности\n• Умение работать с шейдерами\n• Опыт работы с нативными плагинами (In-Apps, PUSH notifications, аналитика, реклама, социальное взаимодействие)\n• Опыт работы с ecs (Unity DOTS, Entitas)\n• Умение разрабатывать и поддерживать стабильную архитектуру\n• Коммуникабельность, yмение чётко доносить свою точку зрения и принимать точку зрения остальных участников команды\n\n\n✅ Для вас:\n\n• Конкурентная заработная плата по результатам собеседования, выплачивается 2 раза в месяц без задержек\n• Необходимое оборудование заказываем под вас\n• Возможность обучаться английскому языку с носителями каждый будний день по утрам\n• Собеседование сразу же с руководителем, который принимает решение о найме\n\nНазвание компании: AppQuantum\n\nhttps://appquantum.com/\n\nКонтакты: \ne-mail: bm@adquantum.com\ntelegram: @MishaBarinov","markup":[{"type":"hashtag","offset":0,"length":9,"data":"вакансия"},{"type":"hashtag","offset":10,"length":7,"data":"москва"},{"type":"hashtag","offset":18,"length":5,"data":"офис"},{"type":"hashtag","offset":24,"length":6,"data":"unity"},{"type":"hashtag","offset":31,"length":10,"data":"developer"},{"type":"hashtag","offset":42,"length":8,"data":"gamedev"},{"type":"hashtag","offset":51,"length":7,"data":"csharp"},{"type":"bold","offset":220,"length":18,"data":""},{"type":"bold","offset":694,"length":7,"data":""},{"type":"bold","offset":949,"length":11,"data":""},{"type":"bold","offset":1532,"length":13,"data":""},{"type":"bold","offset":2000,"length":8,"data":""},{"type":"link","offset":2351,"length":23,"data":"https://appquantum.com/"},{"type":"link","offset":2395,"length":16,"data":"mailto:bm@adquantum.com"},{"type":"handle","offset":2422,"length":13,"data":"MishaBarinov"}],"date":"2020-06-22T10:46:02+00:00","link":"tg://resolve?domain=mobile_jobs&post=68443","tags":[{"name":"mobile"},{"name":"android"},{"name":"ios"},{"name":"unity3d"},{"name":"csharp"},{"name":"git"}],"cities":[{"code":"moscow"}],"allowsRemote":false}},{"node":{"__typename":"Job","id":"71765590016-1001054966032","title":"Ios разработчик","text":"#вакансия #ios #swift #офис #москва\nм.Бауманская, полная занятость\nБелая з/п от 150.000 до 200.000 руб. на руки\niOS developer\n\nМы — команда разработки Level.Travel, сложного продукта в сфере путешествий.  За последние 8 лет мы с нуля создали и продолжаем развивать решение для онлайн-продажи путешествий. Нашу платформу используют лидеры рынка – Тинькофф Банк, OneTwoTrip, Сбербанк, TripAdvisor, Kayak, АК Барс Банк, Евросеть и многие другие. Компания Level.Travel является резидентом Инновационного центра «Сколково».\n\nОбязанности:\n🔸Разработка проекта на Swift\n🔸Разработка новых модулей приложения\n🔸Проведение code review\n🔸Пишем на VIPER, используем Realm, Swinject, SnapKit\n🔸Сбор требований и фидбэка от других команд разработчиков и дизайнеров для улучшения и развития нашего продукта\n🔸Проводить оценку и корректировать требования для развития и улучшения приложения\n\nОт Вас:\n🔸Разработка на iOS от 2х лет\n🔸Умеете писать поддерживаемый и тестируемый код и понимаете, что DRY, KISS и 🔸SOLID — не просто аббревиатуры\n🔸Умение разрабатывать многопоточные приложения\n🔸Способность планировать и приоритезировать работу\n🔸Умение находить аргументы и конструктивно реагировать на комментарии коллег\n🔸Готовность много общаться с другими командами\n\nОт нас: белая зп, официальное трудоустройство, больничные, отпуска. Скидки на изучение английского языка, техника MacBook Pro. Регулярная обратная связь и аттестации. Геймификация процессов и несколько раз в год релокейты поработать в другую страну. Клевый молодой коллектив, интересные ивенты, насыщенная корпоративная жизнь. Пинг-понг, бильярд, кальян и другие развлечения в офисе. Скидки на путешествия)\n\nСвязь по почте: vos@level.travel\nИли тут @Alyask_a","markup":[{"type":"hashtag","offset":0,"length":9,"data":"вакансия"},{"type":"hashtag","offset":10,"length":4,"data":"ios"},{"type":"hashtag","offset":15,"length":6,"data":"swift"},{"type":"hashtag","offset":22,"length":5,"data":"офис"},{"type":"hashtag","offset":28,"length":7,"data":"москва"},{"type":"bold","offset":67,"length":44,"data":""},{"type":"bold","offset":112,"length":13,"data":""},{"type":"bold","offset":127,"length":76,"data":""},{"type":"bold","offset":521,"length":12,"data":""},{"type":"bold","offset":878,"length":7,"data":""},{"type":"bold","offset":1254,"length":7,"data":""},{"type":"bold","offset":1662,"length":32,"data":""},{"type":"link","offset":1678,"length":16,"data":"mailto:vos@level.travel"},{"type":"bold","offset":1695,"length":17,"data":""},{"type":"handle","offset":1703,"length":9,"data":"Alyask_a"}],"date":"2020-06-22T10:35:56+00:00","link":"tg://resolve?domain=mobile_jobs&post=68441","tags":[{"name":"mobile"},{"name":"ios"},{"name":"swift"},{"name":"realm"}],"cities":[{"code":"moscow"}],"allowsRemote":false}},{"node":{"__typename":"Job","id":"103426293760-1001089317451","title":"Qa engineer","text":"#вакансия #москва #офис #qaengineer #qa \nГород и адрес офиса: Москва, м.Автозаводская \nФормат работы: офис \nЗанятость: полная \nЗарплатная вилка: от 60 000 на руки \n\n✅QA Engineer (gamedev)\n\nОписание вакансии: \n\nКрупный мобильный проект в жанре фентези - Dragon Champions - ищет своего QA! Вы сможете работать над интересной игрой на стыке мидкорных и хардкорных механик, в окружении команды больших профессионалов с многолетним опытом.\n\n✅Что делать:\n\n•  Тестирование мобильной игры: функциональное тестирование, юзабилити тестирование, регрессионное тестирование\n•  Составление документации для тестирования: тест-кейсы, тест-план, чек-листы\n•  Тесное обсуждение функциональности игры с командой разработки\n•  Заведение всех найденных багов в трекере (Jira)\n\n✅Требования:\n\n•  Опыт работы в тестировании от одного года\n•  Понимание основ тестирования ПО, тест-планов, чек-листов, регрессионного и функционального тестирования\n•  Огромным плюсом будет наличие опыта в тестировании игр, в особенности, мобильных игр на Unity\n•  Умение работать с Jira, Confluence и Unity также будет большим плюсом\n\n✅Для вас:\n\n•  Конкурентная заработная плата, выплачивается 2 раза в месяц\n•  Необходимое оборудование для работы\n•  Коллектив творческих и позитивных людей\n\n✅О нас:\n\n•  Просторный офис 600 метров на м. Автозаводская (3 минуты от метро и от ТТК на машине) с ультра современным дизайном и кучей ништяков (кухня с вкусняшками, кальяны каждый вечер в дружной кампании, PS4 Pro + 4K TV, аркадные автоматы с Pac-Man, Metal Slug и другими хитами геймдизайна, просторная зона отдыха, 6 переговорных комнат и т д)\n•  Команда из 120 человек занимающаяся паблишингом и маркетингом, которая готова сделать продукт успешным после его готовности\n•  Возможность бесплатно обучаться английскому языку с носителями каждый будний день\n\nНазвание компании: AppQuantum\n\nКонтакты: \ne-mail: bm@adquantum.com\ntelegram: @MishaBarinov","markup":[{"type":"hashtag","offset":0,"length":9,"data":"вакансия"},{"type":"hashtag","offset":10,"length":7,"data":"москва"},{"type":"hashtag","offset":18,"length":5,"data":"офис"},{"type":"hashtag","offset":24,"length":11,"data":"qaengineer"},{"type":"hashtag","offset":36,"length":3,"data":"qa"},{"type":"bold","offset":166,"length":21,"data":""},{"type":"bold","offset":437,"length":11,"data":""},{"type":"bold","offset":759,"length":11,"data":""},{"type":"bold","offset":1096,"length":8,"data":""},{"type":"bold","offset":1253,"length":6,"data":""},{"type":"link","offset":1863,"length":16,"data":"mailto:bm@adquantum.com"},{"type":"handle","offset":1890,"length":13,"data":"MishaBarinov"}],"date":"2020-06-22T10:31:05+00:00","link":"tg://resolve?domain=qa_jobs&post=98635","tags":[{"name":"qa"},{"name":"unity3d"}],"cities":[{"code":"moscow"}],"allowsRemote":false}},{"node":{"__typename":"Job","id":"103425245184-1001089317451","title":"Qa engineer","text":"#вакансия #qa #офис #москва\nм.Бауманская, полная занятость\nБелая з/п до 100.000руб. на руки \nQA Engineer / Тестировщик\n\n Мы — команда разработки Level.Travel, сложного продукта в сфере путешествий.  За последние 8 лет мы с нуля создали и продолжаем развивать решение для онлайн-продажи путешествий. Нашу платформу используют лидеры рынка – Тинькофф Банк, OneTwoTrip, Сбербанк, TripAdvisor, Kayak, АК Барс Банк, Евросеть и многие другие. Компания Level.Travel является резидентом Инновационного центра «Сколково».\n\nОбязанности:\n🔸Функциональное тестирование мобильных и web приложений;\n🔸Тестирование API\n🔸Сопровождение задач, мониторинг качества продукта\n🔸Документирование багов\n🔸Проверка кейсов перед релизом, тестирование на промежуточных этапах фиксов и разработки нового функционала\n🔸Оптимизация процесса тестирования внутри команды\n🔸Разработка тест-планов, тест-кейсов\n🔸Тесное общение с командой разработчиков\n🔸Прием обращений от коллег\n🔸Cоставление отчета о тестировании\n\nОт Вас:\n🔸Опыт работы от 2х лет!\n🔸Общительность, активность умение работать в команде\n🔸Представление о теории тестирования и жизненном цикле ПО\n🔸Умение описать баг, опыт работы с трекерами задач\n🔸Опыт разработки тест-планов, тест-кейсов\n🔸Базовые знания html, сss, regexp\n🔸Понимание как работает протокол http\n🔸Умение работать с перехватчиками трафика\n🔸Опыт работы с developer tools в браузере\n🔸Умение расставлять приоритеты задач\n\n\nОт нас: белая зп, официальное трудоустройство, больничные, отпуска. Скидки на изучение английского языка, техника MacBook Pro. Регулярная обратная связь и аттестации. Геймификация процессов и несколько раз в год релокейты поработать в другую страну. Клевый молодой коллектив, интересные ивенты, насыщенная корпоративная жизнь. Пинг-понг, бильярд, кальян и другие развлечения в офисе. Скидки на путешествия)\n\nСвязь по почте: vos@level.travel\nИли тут @Alyask_a","markup":[{"type":"hashtag","offset":0,"length":9,"data":"вакансия"},{"type":"hashtag","offset":10,"length":3,"data":"qa"},{"type":"hashtag","offset":14,"length":5,"data":"офис"},{"type":"hashtag","offset":20,"length":7,"data":"москва"},{"type":"bold","offset":59,"length":32,"data":""},{"type":"bold","offset":93,"length":25,"data":""},{"type":"bold","offset":121,"length":76,"data":""},{"type":"bold","offset":515,"length":12,"data":""},{"type":"bold","offset":987,"length":7,"data":""},{"type":"bold","offset":1428,"length":7,"data":""},{"type":"bold","offset":1836,"length":32,"data":""},{"type":"link","offset":1852,"length":16,"data":"mailto:vos@level.travel"},{"type":"bold","offset":1869,"length":17,"data":""},{"type":"handle","offset":1877,"length":9,"data":"Alyask_a"}],"date":"2020-06-22T10:30:36+00:00","link":"tg://resolve?domain=qa_jobs&post=98634","tags":[{"name":"qa"},{"name":"web"},{"name":"html"}],"cities":[{"code":"moscow"}],"allowsRemote":false}}]}}},"context":{}}