{"hash":"f5f6bf98bd95e769321482904cbbd488f77922fd","data":{"records":{"id":"selenium","name":"selenium","belongsTo":{"totalCount":45,"pageInfo":{"totalPages":5,"currentPage":4},"edges":[{"node":{"__typename":"Job","id":"103389593600-1001089317451","title":"Qa инженер","text":"#вакансия #QA #Волгоград #fulltime #офис\n💸ЗП вилка: от 70к до 95к NET\n👨🏻‍💻Опыт работы: от 1 года \n\nРазыскивается тестировщик в MODESCO\nПривет!\nУ нас в Волгограде три крупных интернет-сервиса, на которые мы ищем специалиста в сфере автоматического тестирования ПО.\n\n🎯 Какие будут задачи?\n-Разработка тест-кейсов и составление тестовой документации (на основе технического задания и в ходе анализа поведения пользователей);\n-тестирование веб-сервисов Text.ru (https://text.ru/), Telderi (https://www.telderi.ru/ru) и Socpublic (https://socpublic.com/): функциональное, регрессионное и на наличие известных уязвимостей;\n-написание скриптов для автоматизации тестирования;\n-ручное тестирование релизов там, где автоматизация невозможна.\n\n💪🏼 Наш идеальный кандидат:\n-знаком с современными концепциями тестирования;\n-работает с инструментами для автоматического тестирования веб-приложений (JMeter/Selenium/SoapUI или аналоги), пишет автотесты;\n-знает что такое http-протокол, минимально знаком с HTML, CSS и JavaScript;\n-умеет понятно описывать ошибки.\n\n🍩 Что предлагаем?\n-Оформление по ТК РФ и зарплату всегда вовремя;\n-уютный офис рядом с Ворошиловским ТРЦ с кофе и печеньками;\n-7-ми часовой рабочий день с возможностью выбора времени его начала;\n-бонусную систему: оплачиваемые переработки, 50% компенсация внешнего обучения за счет компании, бонус для сотрудников, занимающихся спортом;\n-интересную корпоративную жизнь: кикер, дартс, вечера настолок и крутые корпоративы.\n\n☎️ Контакты: @MarinaModesco, job@modesco.ru","markup":[{"type":"hashtag","offset":0,"length":9,"data":"вакансия"},{"type":"hashtag","offset":10,"length":3,"data":"QA"},{"type":"hashtag","offset":14,"length":10,"data":"Волгоград"},{"type":"hashtag","offset":25,"length":9,"data":"fulltime"},{"type":"hashtag","offset":35,"length":5,"data":"офис"},{"type":"bold","offset":103,"length":36,"data":""},{"type":"italic","offset":139,"length":127,"data":""},{"type":"bold","offset":269,"length":23,"data":""},{"type":"link","offset":454,"length":7,"data":"http://Text.ru"},{"type":"link","offset":463,"length":16,"data":"https://text.ru/"},{"type":"link","offset":491,"length":25,"data":"https://www.telderi.ru/ru"},{"type":"link","offset":531,"length":22,"data":"https://socpublic.com/"},{"type":"bold","offset":739,"length":29,"data":""},{"type":"bold","offset":1056,"length":19,"data":""},{"type":"bold","offset":1480,"length":12,"data":""},{"type":"handle","offset":1493,"length":14,"data":"MarinaModesco"},{"type":"link","offset":1509,"length":14,"data":"mailto:job@modesco.ru"}],"date":"2020-06-22T06:46:27+00:00","link":"tg://resolve?domain=qa_jobs&post=98600","tags":[{"name":"qa"},{"name":"dotnet"},{"name":"jmeter"},{"name":"selenium"},{"name":"html"},{"name":"css"},{"name":"javascript"}],"cities":[{"code":"volgograd"}],"allowsRemote":false}},{"node":{"__typename":"Job","id":"103246987264-1001089317451","title":"Qa инженер","text":"#job #вакансия #remote #QA #удаленка\n\nВсем привет!\n\nЯндекс.Практикум — сервис онлайн-образования. Мы помогаем людям расти — на работе и в жизни. Студенты могут освоить новую специальность, заговорить на иностранном языке и получать удовольствие от того, чем занимаются — каждый день.\n\nСейчас мы в поиске Наставников на факультет QA!\n\nКомпания: Яндекс.Практикум \nГрафик: частичная удаленная работа, 10 часов в неделю (з/п 50 тыс рублей в месяц). Можно легко совмещать с основной работой.\n\n🔹Что делает наставник?\nНаставник курирует группу из 40 студентов на протяжении всего процесса обучения (примерно 4  месяца). Он отвечает на их вопросы, проводит групповые консультации. \n\n🔹Вам подойдет роль, если у вас есть: опыт работы тестировщиком от 3х лет, опыт тестирования веб- и мобильных приложений, веб-сервисов; \nЕсть опыт с автоматизацией тестирования: selenium + язык программирования (js, python, java);\nПлюсом будет опыт преподавания и экспертной деятельности. \n\n🔹Все наставники перед работой проходят Школу наставников от Яндекс.Практикума. \n\nОткликаться можно здесь: https://praktikum.yandex.ru/job/vacancy-3\nили пишите в личку 🙌","markup":[{"type":"hashtag","offset":0,"length":4,"data":"job"},{"type":"hashtag","offset":5,"length":9,"data":"вакансия"},{"type":"hashtag","offset":15,"length":7,"data":"remote"},{"type":"hashtag","offset":23,"length":3,"data":"QA"},{"type":"hashtag","offset":27,"length":9,"data":"удаленка"},{"type":"link","offset":1074,"length":41,"data":"https://praktikum.yandex.ru/job/vacancy-3"}],"date":"2020-06-19T06:58:50+00:00","link":"tg://resolve?domain=qa_jobs&post=0","tags":[{"name":"qa"},{"name":"selenium"},{"name":"python"},{"name":"java"}],"cities":[],"allowsRemote":true}},{"node":{"__typename":"Job","id":"103177781248-1001089317451","title":"Qa engineer","text":"#вакансия #job #QA #QAEngineer #Кипр #Cyprus #Limassol #relocate #fulltime #wisebits\n\nВ нашем холдинге открыты 2 вакансии Senior Automation QA Engineer. В текущей ситуации начинаем сотрудничать удаленно и как только границы будут открыты,🛬 welcome to Cyprus!\n\nКомпания: Wisebits \nГород: Лимассол, Кипр \nЗ.п.: до 4 000€ net\n\n📎1 проект-Автоматизация тестов для UI с использованием PHP, Selenium WebDriver, Codeception\n📎 2 проект- Автоматизация UI с использованием Java, Selenium WebDriver\n\nНам важен опыт:\n✔ Автоматизации  тестирования web-приложений, используя Selenium WebDriver\n✔ Тестирования веб приложений от 4 лет:\n\n\nМы предлагаем:\nПолностью белый оклад: на старте до 4000€ в месяц после вычета всех налогов, официальное оформление (рабочая виза);\nМедицинская страховка;\nРелокационый пакет;\nПрограмма компенсации детского сада/школы\n\n\nДетали @YaMy04","markup":[{"type":"hashtag","offset":0,"length":9,"data":"вакансия"},{"type":"hashtag","offset":10,"length":4,"data":"job"},{"type":"hashtag","offset":15,"length":3,"data":"QA"},{"type":"hashtag","offset":19,"length":11,"data":"QAEngineer"},{"type":"hashtag","offset":31,"length":5,"data":"Кипр"},{"type":"hashtag","offset":37,"length":7,"data":"Cyprus"},{"type":"hashtag","offset":45,"length":9,"data":"Limassol"},{"type":"hashtag","offset":55,"length":9,"data":"relocate"},{"type":"hashtag","offset":65,"length":9,"data":"fulltime"},{"type":"hashtag","offset":75,"length":9,"data":"wisebits"},{"type":"handle","offset":849,"length":7,"data":"YaMy04"}],"date":"2020-06-18T13:03:46+00:00","link":"tg://resolve?domain=qa_jobs&post=0","tags":[{"name":"qa"},{"name":"dotnet"},{"name":"php"},{"name":"selenium"},{"name":"java"},{"name":"web"}],"cities":[],"allowsRemote":true}},{"node":{"__typename":"Job","id":"91179974656-1001067529236","title":"Python разработчик","text":"#job #вакансия  #dataengineer #remote\n\nВсем привет! Мы - PeakData AG ищем Data Engineer.\n\nPosition: Data Engineer\nCompany: Peakdata (http://peakdata.ch/)\nLocation: remote.\nSalary range in USD: 2,500 - 3,200 USD/month (gross)\nSalary range in RUB: 180 000 – 230 000 Rub/month (na ruki)\nContact: mfeldman@peakdata.ch\n\nWe are young and ambitious startup in the field of AI and Data Science looking for a  join our team. We are active in the area of web mining and Language Processing. Are you up for the challenge? \n\nResponsibilities: \n • Be able to process and integrate disparate data from different data sources\n • Be able to think with creativity, propose and lead development of data crunching software modules (mostly text analysis. NLP big plus)\n • Be able to work with version control system (Git)\n • Be able to understand software architecture and the existing workflow\n • Be able to clearly communicate in English\n • Be able to work independently in the remote work setting\n • Be able to overlap with our business hours for a great collaboration. \n\nRequirements:\n • At least 1 year of professional experience in data engineering/machine learning\n • Experienced in the relevant Python and its libraries; Especially appreciated is the knowledge of the following libraries: pandas, request, beatifulsoup, lxml, scrappy, selenium, joblib\n • Experience with backend development in Python - BIG PLUS\n • Bachelor degree in computer science –PLUS\n • Good knowledge of Docker - PLUS\n • Good documentation skills\n • Good written and spoken English\n • Strong sense of ownership and responsibility for code quality that follows best practices\n • Strong coding, problem-solving, and debugging skills\n • Awesome communication, collaboration, and self-management skills. \n\nWhat we offer:\n • Very interesting and innovative data product which includes real-world web data at scale (Tera to Petabytes)\n • Competitive salary\n • Highly professional and innovative team (most of our team members have either Masters or PhD)\n • Flexible work environment with opportunity to work remotely at  pajamas from your kitchen and still be part of interesting and innovative project 🙂 If you feel like you might be a good fit please drop us a message at mfeldman@peakdata.ch","markup":[{"type":"hashtag","offset":0,"length":4,"data":"job"},{"type":"hashtag","offset":5,"length":9,"data":"вакансия"},{"type":"hashtag","offset":16,"length":13,"data":"dataengineer"},{"type":"hashtag","offset":30,"length":7,"data":"remote"},{"type":"link","offset":133,"length":19,"data":"http://peakdata.ch/"},{"type":"link","offset":293,"length":20,"data":"mailto:mfeldman@peakdata.ch"},{"type":"link","offset":2231,"length":20,"data":"mailto:mfeldman@peakdata.ch"}],"date":"2020-06-18T08:10:06+00:00","link":"tg://resolve?domain=python_jobs&post=0","tags":[{"name":"python"},{"name":"web"},{"name":"nlp"},{"name":"git"},{"name":"pandas"},{"name":"selenium"},{"name":"docker"},{"name":"machine-learning"}],"cities":[],"allowsRemote":true}},{"node":{"__typename":"Job","id":"103043563520-1001089317451","title":"Qa engineer","text":"#СПб #СанктПетербург #вакансия #QA #fulltime #office #automation\n🏙Компания: Actimind\n📣Вакансия: QA Automation Engineer\n🌎Проект: Evernote – один из самых популярных сервисов для заметок и для предоставления единой рабочей среды.\n💰Зп: до 130 000 net\n\n🇺🇸В составе распределенной международной команды предстоит: \n🔸Разрабатывать и поддерживать автотесты на Java;\n🔸Оптимизировать Performance; \n🔸Поддерживать и развивать существующий фреймворк;\n🔸Предлагать улучшения в процессе тестирования;\n🔸Иногда тестировать вручную (не более 10% времени).\nИспользуемый стек: Java , JBehave, Selenium, немного python\n\nMust have:\n🔸Опыт автоматизации на Java, Selenium и знание ООП\n🔸Английский для работы с документацией и участия в общих митингах (intermediate)\n🔸Приветствуется владение Python, JBehave.\n\nУсловия:\n📚Возможность участвовать в обучающих конференциях от Evernote;\n🎓Экспертная команда;\n💎Спорт, медицинские компенсации, оплата обучений\nОфис рядом с м. Старая Деревня\n\nПишите в телеграм: @actimind_jobs, на почту ksenia.dryukova@actimind.com\nИли звоните +7(921)1847150","markup":[{"type":"hashtag","offset":0,"length":4,"data":"СПб"},{"type":"hashtag","offset":5,"length":15,"data":"СанктПетербург"},{"type":"hashtag","offset":21,"length":9,"data":"вакансия"},{"type":"hashtag","offset":31,"length":3,"data":"QA"},{"type":"hashtag","offset":35,"length":9,"data":"fulltime"},{"type":"hashtag","offset":45,"length":7,"data":"office"},{"type":"hashtag","offset":53,"length":11,"data":"automation"},{"type":"bold","offset":610,"length":11,"data":""},{"type":"bold","offset":799,"length":9,"data":""},{"type":"handle","offset":995,"length":14,"data":"actimind_jobs"},{"type":"link","offset":1020,"length":28,"data":"mailto:ksenia.dryukova@actimind.com"},{"type":"link","offset":1061,"length":14,"data":"tel:+7(921)1847150"}],"date":"2020-06-17T10:37:11+00:00","link":"tg://resolve?domain=qa_jobs&post=0","tags":[{"name":"qa"},{"name":"dotnet"},{"name":"java"},{"name":"selenium"},{"name":"python"}],"cities":[],"allowsRemote":false}},{"node":{"__typename":"Job","id":"103042514944-1001089317451","title":"Qa engineer","text":"#вакансия #Москва #офис\nДолжность: QA automation engineer\nКомпания: Открытая мобильная платформа\nГород: Москва, м.Парк Победы\nЗП: до 160к\nСтек: Python, Pytest, requests + cattrs, selenium\n\nУсловия:\n•ЗП до 160 000 гросс (в зависимости от ваших тех скиллов)\n•Участие в конференциях\n•ДМС\n•Гибкое начало рабочего дня \n\nЗадачи:\n•Разработка автоматизированных тестов (web + api), стремимся к 100% покрытию автотестами  (не unit)\n•Участие в развитии тестового framework'а\n•Командная работа с разработчиками и аналитиками (Scrum Dev Team)\n\nРассмотрим кандидатов с опытом в QA automation (Python) от полугода\n\nРезюме можно направить сюда: @Rita_RS \nили на почту: m.sinelnikova@getit.agency","markup":[{"type":"hashtag","offset":0,"length":9,"data":"вакансия"},{"type":"hashtag","offset":10,"length":7,"data":"Москва"},{"type":"hashtag","offset":18,"length":5,"data":"офис"},{"type":"bold","offset":35,"length":23,"data":""},{"type":"bold","offset":133,"length":5,"data":""},{"type":"bold","offset":189,"length":9,"data":""},{"type":"bold","offset":315,"length":8,"data":""},{"type":"bold","offset":565,"length":13,"data":""},{"type":"bold","offset":601,"length":6,"data":""},{"type":"handle","offset":630,"length":8,"data":"Rita_RS"},{"type":"link","offset":654,"length":26,"data":"mailto:m.sinelnikova@getit.agency"}],"date":"2020-06-17T10:28:06+00:00","link":"tg://resolve?domain=qa_jobs&post=0","tags":[{"name":"qa"},{"name":"python"},{"name":"selenium"},{"name":"web"}],"cities":[{"code":"moscow"}],"allowsRemote":false}},{"node":{"__typename":"Job","id":"91043659776-1001067529236","title":"Python разработчик","text":"#вакансия #БАРСГруп #Python #новосибирск #офис\n😊Всем привет! Ищем Python разработчиков в Новосибирский офис БАРС Груп. \nКоличество наших проектов увеличивается, мы рады принять в нашу команду новых сотрудников. \nЗП: до 110 \n\n📍 Мы используем в разработке: \n\nDjango и ExtJS для реализации Rich Internet Application; \nPython для широкого круга задач; \nContinuous Integration: Jenkins; \nSource control: git; \nTask tracking: Jira; \nИтерационный подход к выпуску релизов; \nТестирование: unittest, behave, selenium, etc; \nОС и IDE на выбор разработчика. \n\nПодробности можно уточнить в ЛС. https://bars.group","markup":[{"type":"hashtag","offset":0,"length":9,"data":"вакансия"},{"type":"hashtag","offset":10,"length":9,"data":"БАРСГруп"},{"type":"hashtag","offset":20,"length":7,"data":"Python"},{"type":"hashtag","offset":28,"length":12,"data":"новосибирск"},{"type":"hashtag","offset":41,"length":5,"data":"офис"},{"type":"link","offset":584,"length":18,"data":"https://bars.group"}],"date":"2020-06-17T05:04:21+00:00","link":"tg://resolve?domain=python_jobs&post=0","tags":[{"name":"python"},{"name":"django"},{"name":"extjs"},{"name":"jenkins"},{"name":"git"},{"name":"selenium"},{"name":"continuous-integration"}],"cities":[{"code":"novosibirsk"}],"allowsRemote":false}},{"node":{"__typename":"Job","id":"102977503232-1001089317451","title":"Qa engineer","text":"#вакансия #работа #удалёнка #fulltime #qa\nДолжность : QA Engineer\nКомпания : 6nomads.com\nФормат работы: #fulltime #remote\nЗарплата: $ 40 000 в год\n\nМолодой стартап из Сан-Франциско, призванный упростить онлайн-коммуникации для бизнеса, недавно привлек $ 4 млн инвестиций и теперь ищет удаленного QA на фул-тайм. \n\nТребования: \n•  Опыт разработки тест кейсов от 2 лет;\n•  Опыт тестирования WEB, API и мобильных iOS/Android приложений;\n•  Умение анализировать логи серверов приложений и локализовать причину сбоя;\n• Опыт интеграционного тестирования систем;\n• Знание PL/SQL;\n• Уровень английского не ниже В2.\n\nБудет плюсом:\n• Опыт работы с Rest Assured, Selenium;\n• Опыт работы с WAS, WildFly и Nginx;\n• Умение работать в Redmine или Jira.\n\nКонтакт для связи: @nastya_stret","markup":[{"type":"hashtag","offset":0,"length":9,"data":"вакансия"},{"type":"hashtag","offset":10,"length":7,"data":"работа"},{"type":"hashtag","offset":18,"length":9,"data":"удалёнка"},{"type":"hashtag","offset":28,"length":9,"data":"fulltime"},{"type":"hashtag","offset":38,"length":3,"data":"qa"},{"type":"link","offset":77,"length":11,"data":"http://6nomads.com"},{"type":"hashtag","offset":104,"length":9,"data":"fulltime"},{"type":"hashtag","offset":114,"length":7,"data":"remote"},{"type":"handle","offset":758,"length":13,"data":"nastya_stret"}],"date":"2020-06-16T18:31:08+00:00","link":"tg://resolve?domain=qa_jobs&post=0","tags":[{"name":"qa"},{"name":"web"},{"name":"ios"},{"name":"android"},{"name":"sql"},{"name":"rest"},{"name":"selenium"},{"name":"nginx"}],"cities":[],"allowsRemote":true}},{"node":{"__typename":"Job","id":"102953385984-1001089317451","title":"Qa инженер","text":"#уфа #вакансия #офис #QA #Java \n\nВакансия: 🔹Разработчик автотестов🔹\nКомпания: ИнфоТеКС\nЗ/п: до 100 000 руб. гросс\n\n🔻Что нужно делать?\n- Написание и запуск автотестов для сетевого оборудования;\n- Установка и настройка оборудования в серверной стойке;\n- Установка и настройка ПО;\n\n🔻Мы ожидаем, что у тебя есть:\n- Знание языка программирования Java (знания Java Core будет достаточно), либо любой другой ООП-язык + желание изучить Java;\n- Знание сетевых технологий (понимание того, как сетевые узлы обмениваются трафиком);\n- Знание Linux на уровне администратора;\n- Навыки работы с Selenium WebDriver будут очень большим плюсом;\n\n🔻Что предлагаем?\n- Работа в офисе в Уфе (ул.Карла Маркса)\n- Официальное трудоустройство, \"белая\" з/п.\n- Гибкое утро (8:00-11:00)\n- Бесплатные обеды в офисе или кафе.\n- Занятия в фитнес клубе.\n- ДМС.\n- Обучение внутреннее и внешнее.\n\n📲 Контакты:\nЮсупова Елена @iusupovahr\nили можно просто откликнуться на вакансию здесь: https://ufa.hh.ru/vacancy/36889979","markup":[{"type":"hashtag","offset":0,"length":4,"data":"уфа"},{"type":"hashtag","offset":5,"length":9,"data":"вакансия"},{"type":"hashtag","offset":15,"length":5,"data":"офис"},{"type":"hashtag","offset":21,"length":3,"data":"QA"},{"type":"hashtag","offset":25,"length":5,"data":"Java"},{"type":"handle","offset":892,"length":11,"data":"iusupovahr"},{"type":"link","offset":953,"length":34,"data":"https://ufa.hh.ru/vacancy/36889979"}],"date":"2020-06-16T11:28:31+00:00","link":"tg://resolve?domain=qa_jobs&post=0","tags":[{"name":"qa"},{"name":"java"},{"name":"linux"},{"name":"selenium"}],"cities":[{"code":"ufa"}],"allowsRemote":false}},{"node":{"__typename":"Job","id":"102940803072-1001089317451","title":"Qa инженер","text":"#QAинженервакансия #QAjava #автотестыjava #QAМосква #вакансияМосква #middle \nДобрый день! В настоящий момент нахожусь в поисках QА-инженера для международной аутсорсинговой компании на проект банковской сферы.\nМестоположение: Москва, м. Кутузовская, либо Нагатинская\nОплата труда: 130-160.000 рублей\nФункциональные задачи;\n•  Анализ требований\n•  Разработка автотестов на Java + Selenium\n•  Актуализация автотестов\n•  Анализ ошибок\n•  Формирование отчетов\nТребования:\n•  Опыт разработки на Java + Selenium от 2-х лет\n•  Знание инструмента Maven\n•  Знание Junit и Allure\n•  Знание XML\n•  Знание SQL (MS SQL, Oracle)\n•  Опыт работы с Git, JenkinS\n•  Опыт работы с Bug Tracking Systems (Jira, Redmine)\n•  Опыт работы с линейкой HP ALM\n•  Знание BDD (Cucumber)\nУсловия:\n•  Конкурентная заработная плата\n•  Оформление в соответствии с ТК РФ, соц. пакет\n•  Работа в команде профессионалов\n•  Обучение, наставничество в процессе работы\nБуду рада ответить на Ваши вопросы: @LyKatrin, ekaterina706712@mail.ru\n\n•","markup":[{"type":"hashtag","offset":0,"length":18,"data":"QAинженервакансия"},{"type":"hashtag","offset":19,"length":7,"data":"QAjava"},{"type":"hashtag","offset":27,"length":14,"data":"автотестыjava"},{"type":"hashtag","offset":42,"length":9,"data":"QAМосква"},{"type":"hashtag","offset":52,"length":15,"data":"вакансияМосква"},{"type":"hashtag","offset":68,"length":7,"data":"middle"},{"type":"handle","offset":965,"length":9,"data":"LyKatrin"},{"type":"link","offset":976,"length":23,"data":"mailto:ekaterina706712@mail.ru"}],"date":"2020-06-16T09:14:53+00:00","link":"tg://resolve?domain=qa_jobs&post=0","tags":[{"name":"qa"},{"name":"java"},{"name":"selenium"},{"name":"maven"},{"name":"junit"},{"name":"xml"},{"name":"sql"},{"name":"oracle"},{"name":"git"},{"name":"jenkins"},{"name":"cucumber"}],"cities":[{"code":"moscow"}],"allowsRemote":false}}]}}},"context":{}}