{"hash":"f34fd2c444a074f4e0e67d525015a008ef8e766f","data":{"records":{"id":"java","name":"java","belongsTo":{"totalCount":123,"pageInfo":{"totalPages":13,"currentPage":5},"edges":[{"node":{"__typename":"Job","id":"16207839232-1001110946746","title":"Javascript разработчик","text":"#вакансия #ReactNative #Спб #офис #middle #senior \n\nКомпания: White Code \nЛокация: Санкт-Петербург, ст.м. Петроградская\nФормат работы: офис, fulltime\nЗанятость: полная\nЗарплатная вилка: 170 000 - 300 000 Net рублей (для кандидатов уровня Senior готовы обсуждать выше) \n\n🔈Компания White Code в поисках Senior и Middle React Native developers. \n\n🌏White Code - это продуктовая IT компания, которая занимается разработкой и запуском собственных веб и мобильных приложений для международного рынка. За более чем 10-летний опыт работы ребята научились решать широкий спектр задач, на сегодняшний день их продуктами и сервисами воспользовались уже более полу миллиарда человек по всему миру. \n\nОсновные продукты, над которыми сейчас работает компания: S-browser - первый в мире веб–браузер, который защищает не только телефон, но и мобильный счет, CB.click - сервис для сокращения длинных ссылок с раширенными возможностями и статистикой, MemesTab - портал для публикации мемов, браузер CryptoTab — первый в мире браузер с функцией майнинга, Orange Pie, truWallet, HandyTab и другие. \n\n💠White Code - это профессиональная команда технарей, всего в компании 13 разработчиков, все процессы выстроены по agile, у каждого члена команды есть возможность напрямую влиять на развитие продукта и участвовать в выборе технологий. \n\n💠Что нужно знать и уметь:\n- уверенные знания JavaScript;\n- опыт работы с React Native от 1 года, React, Redux/MobX;\nЗнание и понимание native Java, Objective-C. \n\n💠Что получите вы: \n- официальное трудоустройство и белую зп;  \n- рабочее место в комфортном офисе в пешей доступности от м. Петроградская;\n- возможность быстрого карьерного роста в молодом коллективе;\n- гибкое время прихода на работу и различные бенефиты: бонусная программа, хороший дмс со стоматологией, компенсация обедов, фитнес зал при офисе, возможность выбрать удобную рабочую технику (выбор большинства iMac 27). \n\nКонтакты:\ntelegram: @sobolevavalery\nБуду рада ответить на все вопросы и рассказать подробнее о компании 😊","markup":[{"type":"hashtag","offset":0,"length":9,"data":"вакансия"},{"type":"hashtag","offset":10,"length":12,"data":"ReactNative"},{"type":"hashtag","offset":23,"length":4,"data":"Спб"},{"type":"hashtag","offset":28,"length":5,"data":"офис"},{"type":"hashtag","offset":34,"length":7,"data":"middle"},{"type":"hashtag","offset":42,"length":7,"data":"senior"},{"type":"link","offset":843,"length":8,"data":"http://CB.click"},{"type":"handle","offset":1926,"length":15,"data":"sobolevavalery"}],"date":"2020-04-07T18:36:10+00:00","link":"tg://resolve?domain=javascript_jobs_feed&post=15457","tags":[{"name":"javascript"},{"name":"dotnet"},{"name":"reactjs"},{"name":"redux"},{"name":"java"},{"name":"objective-c"},{"name":"react-native"},{"name":"react-redux"}],"cities":[],"allowsRemote":false}},{"node":{"__typename":"Job","id":"98158247936-1001089317451","title":"Qa инженер","text":"#вакансия #fulltime #тестировщик #QA #Manual #полнаязанятость #офис\nГород: #Москва\nКомпания: Инновационный Центр Айтеко\nПозиция: Тестировщик РФТ ( ручное функциональное тестирование)\nОпыт: от 1 года и выше\nФормат работы: офис\nЗанятость: полный день\n💰 Заработная плата: от 100 000 до 150 000 (в зависимости от опыта)\n\nАй-Теко - ведущий российский системный интегратор и поставщик информационных технологий для корпоративных заказчиков. ТОП-10 крупнейших IT-компаний России.\n\nЧто хотим видеть в кандидате:\n• Опыт функционального или интеграционного тестирования web-приложений (frontend & backend)\n• Опыт по написанию тест-кейсов \n• Опыт работы с требованиями\n• Опыт работы с таск и баг-трекинговыми системами (Jira)\n• Опыт тестирования API\n• Знание SQL на уровне join-ов и работы с вложенными подзапросами\n• Познания в теории тестирования, процессов и методологий разработки ПО\n\nБудет плюсом:\n• Знание и опыт разработки автотестов на Selenium (Java) или web-driver или  cucumber\n• Знание и опыт работы с HP QuickTest Professional;\n• Понимание одного из языков программирования (Java, C++).\n\nЧто предлагаем:\n• Полностью белое официальное оформление\n• Бонусы обсуждаются индивидуально\n• ДМС включая стоматологию\n• Скидки на фитнес\n• Обучение\n• Возможность участвовать в масштабных проектах, создавать то, чем будут пользоваться миллионы людей.\n\nПишите:\n @Taisia_Feo   Анастасия","markup":[{"type":"hashtag","offset":0,"length":9,"data":"вакансия"},{"type":"hashtag","offset":10,"length":9,"data":"fulltime"},{"type":"hashtag","offset":20,"length":12,"data":"тестировщик"},{"type":"hashtag","offset":33,"length":3,"data":"QA"},{"type":"hashtag","offset":37,"length":7,"data":"Manual"},{"type":"hashtag","offset":45,"length":16,"data":"полнаязанятость"},{"type":"hashtag","offset":62,"length":5,"data":"офис"},{"type":"hashtag","offset":75,"length":7,"data":"Москва"},{"type":"handle","offset":1352,"length":11,"data":"Taisia_Feo"}],"date":"2020-04-07T15:49:52+00:00","link":"tg://resolve?domain=qa_jobs&post=93611","tags":[{"name":"qa"},{"name":"web"},{"name":"sql"},{"name":"selenium"},{"name":"java"},{"name":"cucumber"}],"cities":[{"code":"moscow"}],"allowsRemote":false}},{"node":{"__typename":"Job","id":"98141470720-1001089317451","title":"Qa engineer","text":"#вакансия #QA #fulltime #офис #Кипр\nВсем привет!  В нашу команду высоконагруженного проекта разыскивается Automation QA Engineer Web с переездом на Кипр! \nГород: Лимассол\nФормат работы: офис\nКомпания: Marikit Holdings LTD \nЗанятость: полная\nЗарплатная вилка: от 2500 EUR на руки (обсуждается индивидуально).\n\n💡Основные обязанности: \n-Написание и поддержка автотестов;\n-Анализ отчетов прогонов;\n-Организация и поддержка тестового окружения. \n📌Наши пожелания:\n- Аналогичный опыт работы от 3-х лет;\n- Высшее образование в IT сфере;\n-Понимание принципов разработки и тестирования;\n-Знание методов и технологий тестирования;\n-Опыт разработки\\написания автотестов на Java\\Kotlin;\n-Опыт автоматизации на базе Selenium WebDriver+JUnit+Cucumber (+Gradle/Maven);\n-Опыт работы с баг-трекинговыми системами (Jira, Redmine, YouTrack или др.);\n-Навыки работы с системами контроля версия (Git).\n🏆Плюсы работы у нас:\n- Интересные проекты и отсутствие бюрократии;\n- Возможность гибкого начала рабочего дня;\n- Бесплатные корпоративные обеды;\n- Спортзал в офисе;\n- Помощь при переезде.\n\nБуду рада Вашим вопросам и резюме @hrkaterina","markup":[{"type":"hashtag","offset":0,"length":9,"data":"вакансия"},{"type":"hashtag","offset":10,"length":3,"data":"QA"},{"type":"hashtag","offset":14,"length":9,"data":"fulltime"},{"type":"hashtag","offset":24,"length":5,"data":"офис"},{"type":"hashtag","offset":30,"length":5,"data":"Кипр"},{"type":"underline","offset":309,"length":2,"data":""},{"type":"bold","offset":311,"length":23,"data":""},{"type":"underline","offset":442,"length":2,"data":""},{"type":"bold","offset":444,"length":16,"data":""},{"type":"underline","offset":882,"length":2,"data":""},{"type":"bold","offset":884,"length":20,"data":""},{"type":"handle","offset":1105,"length":11,"data":"hrkaterina"}],"date":"2020-04-07T14:14:37+00:00","link":"tg://resolve?domain=qa_jobs&post=93595","tags":[{"name":"qa"},{"name":"web"},{"name":"java"},{"name":"kotlin"},{"name":"selenium"},{"name":"junit"},{"name":"cucumber"},{"name":"gradle"},{"name":"maven"},{"name":"git"}],"cities":[],"allowsRemote":false}},{"node":{"__typename":"Job","id":"1426063360-1001091028994","title":"Java разработчик","text":"#разработчик #вакансия #java #developer #удаленка #офис #екб #разработка \n\nВ команду, которая производит и внедряет ПО для учета человеческих ресурсов (для HR, ага 😉), нужен классный Разработчик Java (удаленно или в офис в Екатеринбурге).\n\nСтэк:\n🔸java8, Druid (для больших данных), Hadoop;\n🔸LPSolve (для математических расчетов)\n\nЗадачи:\n🔸Разработка компонентов, приложений и интерфейсов;\n🔸Интеграции с внешними системами с помощью rabbitmq и ASM\n🔸Участие в разработке архитектуры \n🔸Написание технической документации (совместно с архитектором и техническим писателем)\n🔸Разработка побочного продукта\n🔸Разработка бэкенда системы\n\nНаши преимущества:\n🔸единый стэк для всех продуктов\n🔸почти нет легаси \n🔸низкая вертикаль (максимум 1 человек до директора) \n\nТребования:\n🔸Глубокие познания java\n🔸Уровень middle/senior\n\nЗарплата: 80 000 – 200 000 руб/мес в зависимости от вашего уровня, белая👌\n\nКонтакты и вопросы 👉 @DaryaShevelyova , darya_shevelyova@bk.ru","markup":[{"type":"hashtag","offset":0,"length":12,"data":"разработчик"},{"type":"hashtag","offset":13,"length":9,"data":"вакансия"},{"type":"hashtag","offset":23,"length":5,"data":"java"},{"type":"hashtag","offset":29,"length":10,"data":"developer"},{"type":"hashtag","offset":40,"length":9,"data":"удаленка"},{"type":"hashtag","offset":50,"length":5,"data":"офис"},{"type":"hashtag","offset":56,"length":4,"data":"екб"},{"type":"hashtag","offset":61,"length":11,"data":"разработка"},{"type":"italic","offset":75,"length":89,"data":""},{"type":"italic","offset":166,"length":18,"data":""},{"type":"bold","offset":184,"length":16,"data":""},{"type":"italic","offset":200,"length":41,"data":""},{"type":"bold","offset":241,"length":6,"data":""},{"type":"bold","offset":333,"length":8,"data":""},{"type":"bold","offset":638,"length":19,"data":""},{"type":"bold","offset":765,"length":12,"data":""},{"type":"bold","offset":827,"length":8,"data":""},{"type":"bold","offset":903,"length":18,"data":""},{"type":"handle","offset":925,"length":16,"data":"DaryaShevelyova"},{"type":"link","offset":944,"length":22,"data":"mailto:darya_shevelyova@bk.ru"}],"date":"2020-04-07T14:09:10+00:00","link":"tg://resolve?domain=jvmjobs&post=1360","tags":[{"name":"java"},{"name":"jvm"},{"name":"hadoop"},{"name":"rabbitmq"}],"cities":[],"allowsRemote":true}},{"node":{"__typename":"Job","id":"1425014784-1001091028994","title":"Java разработчик","text":"#java #вакансия #Москва #fulltime #middle #senior \nГород и адрес офиса: Москва, между метро Нагатинская и Тульская, мцк Верхние котлы \nФормат работы: офис\nЗанятость: полная\nОплата: 180-300 тыс. рублей\n\nОписание вакансии:\nКоманда Sber Product Catalog  ищет сильного Java-разработчика!🙌\nПроект Product Catalog-это облачное решение, которое позволяет бизнесу вести все свои продукты (карты, вклады, продукты партнеров и и.п) в едином месте, гибко управлять всеми элементами 4P (product,price, promotion, place) и мгновенно выводить все изменения на рынок. Архитектура системы состоит из 11 модулей, половина из них в Production, другая половина требует проектирования и разработки. Продукт активно развивается, поэтому мы хотим усилить нашу команду. От нас вы получите опыт и развитие компетенций, амбициозные задачи, карьерный рост и открытость к инновациям!\nСтек: Spring core/Security/Batch/Rest/HateOAS, ABACUSES,BPM,Versioning, Hibernate Envers/ORM/OGM, Apache Kafka, Jasper reports, Oracle/PostgreeSQL.\nПроцесс разработки : Scrum, Jira, Gitflow,Devops до Production (переход на OpenShift)\n-Оформление ТК РФ;\n     -ДМС;\n     - Белая заработная плата (оклад + годовая премия);\n     -Возможность обучения за счет компании;\n     -   Льготное кредитование;\n      -Бесплатный тренажерный зал на территории офиса;\n       - корпоративная жизнь и спортивные мероприятия;\n       -возможность карьерного роста.\n\nЖдём Вас в нашей команде!\n@TaliaHR","markup":[{"type":"hashtag","offset":0,"length":5,"data":"java"},{"type":"hashtag","offset":6,"length":9,"data":"вакансия"},{"type":"hashtag","offset":16,"length":7,"data":"Москва"},{"type":"hashtag","offset":24,"length":9,"data":"fulltime"},{"type":"hashtag","offset":34,"length":7,"data":"middle"},{"type":"hashtag","offset":42,"length":7,"data":"senior"},{"type":"handle","offset":1430,"length":8,"data":"TaliaHR"}],"date":"2020-04-07T14:08:33+00:00","link":"tg://resolve?domain=jvmjobs&post=1359","tags":[{"name":"java"},{"name":"jvm"},{"name":"spring"},{"name":"batch"},{"name":"rest"},{"name":"hibernate"},{"name":"orm"},{"name":"apache"},{"name":"kafka"},{"name":"oracle"}],"cities":[{"code":"moscow"}],"allowsRemote":false}},{"node":{"__typename":"Job","id":"1423966208-1001091028994","title":"Java разработчик","text":"#вакансия #backend #java #Java8 #middle #junior \nЛокация: Нижний-Новгород (есть хороший релокационный пакет)\nЗанятость: полная, гибкое начало дня\nЗП:  до 150 000 NET \n\n🔹 Вакансия в стабильной, международной компании, которая готова трудоустраивать новых специалистов в период пандемии🔥🔥🔥   \n\n🔹 Крупная немецкая компания Schumann GmbH ищет Java разработчиков (junior и middle уровня).\nКомпания Schumann более 20 лет, является лидером рынка в Европе поставляющем инновационные IT-решения по управлению кредитными рисками и по процессному консультированию. Кроме того в компании есть направления по разработке ПО для анализа финансовой отчетности и сегментации рынка. Продуктом компании пользуется многие известные бренды: Toshiba, Volvo, Росбанк и более 290 других компаний по всему миру.\n\n🔹 Требования:\nВ компании сформирована очень сильная команда разработки, поэтому есть возможность обучать новых специалистов.\n\nСейчас рассматривают два профиля кандидатов:\nJunior\n- законченные курсы/ пройденные стажировки/ мотивация\n- базовые знания Java\n- обязательный свободный английский и возможность проходить интервью\n\nНачинающий Middle\n\n- коммерческий опыт разработки на Java от 1-ого года;\n- очень желателен свободный английский, но можно и без него😊 \n\n🔹 Условия:\n- Расширенный релокационный пакет;\n- Оформление официальное, белая заработная плата и премиальная система;\n- ДМС;\n- Компенсация обучения английскому языку;\n-Широкие возможности профессионального и карьерного роста и разные другие плюшки и бонусы.\n\nКонтакты:\ne-mail: daria@luckyhunter.io\ntelegram: @prudentdaria\nПишите, буду рада ответить на все возможные вопросы здесь или по почте :)","markup":[{"type":"hashtag","offset":0,"length":9,"data":"вакансия"},{"type":"hashtag","offset":10,"length":8,"data":"backend"},{"type":"hashtag","offset":19,"length":5,"data":"java"},{"type":"hashtag","offset":25,"length":6,"data":"Java8"},{"type":"hashtag","offset":32,"length":7,"data":"middle"},{"type":"hashtag","offset":40,"length":7,"data":"junior"},{"type":"bold","offset":965,"length":7,"data":""},{"type":"bold","offset":1050,"length":12,"data":""},{"type":"bold","offset":1118,"length":19,"data":""},{"type":"link","offset":1533,"length":20,"data":"mailto:daria@luckyhunter.io"},{"type":"handle","offset":1564,"length":13,"data":"prudentdaria"}],"date":"2020-04-07T12:08:12+00:00","link":"tg://resolve?domain=jvmjobs&post=1358","tags":[{"name":"java"},{"name":"jvm"},{"name":"dotnet"}],"cities":[{"code":"nizhny-novgorod"}],"allowsRemote":false}},{"node":{"__typename":"Job","id":"98126790656-1001089317451","title":"Qa engineer","text":"#вакансия #москва #полнаязанятость #qaengineer\nКомпания: #Mетрквадратный ( https://m2.ru )\nЛокация: м.Белорусская (в шаге от метро) \nЗ/п: от 120к - 230к на руки\nКонтакты: @maxdmitrov\n\nЭто платформа, на которой физические лица смогут в режиме одного окна подобрать объект недвижимости, оформить на него ипотеку, произвести электронную регистрацию, сделать безопасный расчет не посещая банки и воспользоваться дополнительными услугами (страхование, дизайн, ремонт). \n\nНаш стэк:\n• Java\n • Node.js\n • React, TypeScript\n • Kafka, ElasticSearch, gRPC\n • Docker\n\nЧем предстоит заниматься:\n • анализировать и тестировать требования к разрабатываемым приложениям;\n • писать приемочные критерии к пользовательским историям;\n • проводить функциональное, регрессионное и smoke тестирование;\n • заниматься задачами по автоматизации тестирования.\n\nЧего мы ждем:\n • глубокое понимание процессов тестирования и разработки ПО;\n • опыт интеграционного тестирования:\n    - системная интеграция;\n    - компонентная интеграция\n • опыт тестирования АРI;\n • опыт автоматизации тестирования на любом стеке.\n\nБудет плюсом\n • опыт исследовательского тестирования;\n • опыт тестирования ПО с микросервисной архитектурой.\n\nМы предлагаем:\n • белая конкурентная ЗП, официальное оформление;\n • гибкий график работы, возможность выбора рабочего оборудования;\n • ДМС, компенсация фитнеса, льготная ставка по ипотеке;\n • комфортный офис в БЦ «Белая площадь» (минута от метро): лаундж-зоны, бариста, фрукты.","markup":[{"type":"hashtag","offset":0,"length":9,"data":"вакансия"},{"type":"hashtag","offset":10,"length":7,"data":"москва"},{"type":"hashtag","offset":18,"length":16,"data":"полнаязанятость"},{"type":"hashtag","offset":35,"length":11,"data":"qaengineer"},{"type":"hashtag","offset":57,"length":15,"data":"Mетрквадратный"},{"type":"link","offset":75,"length":13,"data":"https://m2.ru"},{"type":"handle","offset":171,"length":11,"data":"maxdmitrov"},{"type":"bold","offset":465,"length":11,"data":""},{"type":"bold","offset":556,"length":26,"data":""},{"type":"bold","offset":833,"length":15,"data":""},{"type":"bold","offset":1083,"length":14,"data":""},{"type":"bold","offset":1192,"length":16,"data":""}],"date":"2020-04-07T11:57:25+00:00","link":"tg://resolve?domain=qa_jobs&post=93581","tags":[{"name":"qa"},{"name":"java"},{"name":"nodejs"},{"name":"reactjs"},{"name":"typescript"},{"name":"kafka"},{"name":"elasticsearch"},{"name":"docker"}],"cities":[{"code":"moscow"}],"allowsRemote":false}},{"node":{"__typename":"Job","id":"1975517184-1001134745498","title":"Devops engineer","text":"#вакансия #fulltime #devops #удалёнка\n\n💫Компания: i-techlabs\n\nЯ ищу опытного DevOps Engineer на проект по созданию Playtech Open Platform (POP) и игровой платформы как услуги (GPAS). \nОбе платформы построены с использованием архитектуры реактивных микроуслуг и написаны на языке программирования Scala.\nОни используют базу данных No-SQL Couchbase для сохранения и хранения данных.\n\n☕️Условия:\n\n• Вилка по зп 150 000 р.-200 000+р.\n• Удалённая работа\n• Полный день\n• Гибкий график\n\n💻Требования:\n\n• Более 3 лет опыта в DevOps или администрировании Linux\n• Хороший набор навыков Linux\n• Опыт работы с контейнерами Docker (сборка и развертывание)\n• Навыки программирования на Python / Bash\n• Jenkins\n• Управление Java-приложениями\n• Intermediate English \n\n➕Плюсом:\n• Mirantis\n• Kubernetes\n• Akka cluster\n• Couchbase\n• Elasticsearch\n• Grafana\n• Prometheus\n\n☎️ Контакт: @coderhunt Надежда\n\n—\n\n👉 Обсуждение вакансии в чате @devops_jobs","markup":[{"type":"hashtag","offset":0,"length":9,"data":"вакансия"},{"type":"hashtag","offset":10,"length":9,"data":"fulltime"},{"type":"hashtag","offset":20,"length":7,"data":"devops"},{"type":"hashtag","offset":28,"length":9,"data":"удалёнка"},{"type":"handle","offset":865,"length":10,"data":"coderhunt"},{"type":"handle","offset":918,"length":12,"data":"devops_jobs"}],"date":"2020-04-07T11:32:53+00:00","link":"tg://resolve?domain=devops_jobs_feed&post=1884","tags":[{"name":"scala"},{"name":"sql"},{"name":"linux"},{"name":"docker"},{"name":"python"},{"name":"bash"},{"name":"jenkins"},{"name":"java"},{"name":"kubernetes"},{"name":"akka"},{"name":"elasticsearch"}],"cities":[],"allowsRemote":true}},{"node":{"__typename":"Job","id":"24325914624-1001075660570","title":"Php разработчик","text":"#вакансия #удаленка #php #yii\n #штат #highload #ecommerce #официально\n\nРебята, наша компания Hidden Team расширяет штат и приглашает на работу backend-разработчиков уровня middle/middle+. Мы занимаемся разработкой highload проектов в сфере e-commerce и сложных ERP систем. Сотрудничаем с топовыми веб-студиями и digital-агентствами России, любим Битрикс и возможность решать нестандартные проблемы из любой точки страны!\n\nЧто бы мы хотели видеть у наших кандидатов?\n🔸Хорошие знания программирования (PHP, ООП).\n🔸Опыт работы на фреймворке Yii/Symfony/Laravel\n🔸Опыт работы с Git.\n🔸Опыт работы в консоли linux.\n🔸Базовые знания html, java script, css.\n🔸Понимание принципов построения RESTFul сервисов.\n🔸Желателен опыт работы с чем-либо RabbitMQ, Redis, ElasticSearch, PostgreSQL.\n🔸Английский на уровне чтения технической документации.\n\nЛичные качества: аккуратность, внимательность к мелочам, самостоятельность и организованность, умение работать в команде, быстро реагировать на запросы и изменение ситуации, желание обучаться и развиваться, стремление сделать работу максимально качественно.\n\nМы предлагаем:\n🔹только удаленная работа с отлаженным процессом менеджмента проектов (трекинг в Redmine, оценка задач разработчиками);\n🔹работа над сложными e-commerce проектами для крупнейших российских веб-студий (топ-10 рейтинга рунета);\n🔹многосерверная архитектура, высокие нагрузки (500К+ посетителей/месяц);\n🔹множество различных интеграций с большими объемами данных;\n🔹индивидуальные планы развития;\n🔹обучение и семинары внутри компании, собственная он-лайн школа на стадии запуска;\n🔹перспективы карьерного роста (повышения уровня разработчика до senior/team lead, возможность релокации);\n🔹 заработная плата 70К-120К+ по итогам собеседования (белая, на руки), открытая система грейдов;\n🔹 официальное оформление по ТК РФ, оплачиваемый отпуск, удобный график (начало работы 8-11), в выходные, праздники и по ночам не работаем☺️.\n\nКонтакты: Яна @yanaizosimova","markup":[{"type":"hashtag","offset":0,"length":9,"data":"вакансия"},{"type":"hashtag","offset":10,"length":9,"data":"удаленка"},{"type":"hashtag","offset":20,"length":4,"data":"php"},{"type":"hashtag","offset":25,"length":4,"data":"yii"},{"type":"hashtag","offset":31,"length":5,"data":"штат"},{"type":"hashtag","offset":37,"length":9,"data":"highload"},{"type":"hashtag","offset":47,"length":10,"data":"ecommerce"},{"type":"hashtag","offset":58,"length":11,"data":"официально"},{"type":"handle","offset":1954,"length":14,"data":"yanaizosimova"}],"date":"2020-04-07T08:24:30+00:00","link":"tg://resolve?domain=php_jobs&post=23199","tags":[{"name":"php"},{"name":"yii"},{"name":"symfony"},{"name":"laravel"},{"name":"git"},{"name":"linux"},{"name":"html"},{"name":"java"},{"name":"css"},{"name":"rabbitmq"},{"name":"redis"},{"name":"elasticsearch"},{"name":"postgresql"}],"cities":[],"allowsRemote":true}},{"node":{"__typename":"Job","id":"98102673408-1001089317451","title":"Qa инженер","text":"#QA #вакансия #Москва #fulltime #java\n💥Команда СберТеха  ищет классного QA-инженера!🙌\n💥Проект: тестирование сервисов безопасности технологической платформы Сбербанка.\n💥Задачи: дизайн, разработка и поддержка пакетов автотестов API и UI группы продуктов платформы поддержки развития бизнеса;подготовка тест-кейсов; регистрация и отслеживание дефектов.\n💥Стек: Java,cucumber, Junit, Jenkins, Allure reports, Docker, BPM\n💥Москва, м.Нагатинская/Тульская\n💥зп: 150-250 k\n💥-Оформление ТК РФ;\n     -ДМС;\n     - Белая заработная плата (оклад + годовая премия);\n     -Возможность обучения за счет компании;\n     -   Льготное кредитование;\n      -Бесплатный тренажерный зал на территории офиса;\n       - корпоративная жизнь и спортивные мероприятия;\n       -возможность карьерного роста.\n\nЖдём Вас в нашей команде!\n@TaliaHR","markup":[{"type":"hashtag","offset":0,"length":3,"data":"QA"},{"type":"hashtag","offset":4,"length":9,"data":"вакансия"},{"type":"hashtag","offset":14,"length":7,"data":"Москва"},{"type":"hashtag","offset":22,"length":9,"data":"fulltime"},{"type":"hashtag","offset":32,"length":5,"data":"java"},{"type":"handle","offset":810,"length":8,"data":"TaliaHR"}],"date":"2020-04-07T06:39:30+00:00","link":"tg://resolve?domain=qa_jobs&post=0","tags":[{"name":"qa"},{"name":"java"},{"name":"cucumber"},{"name":"junit"},{"name":"jenkins"},{"name":"docker"}],"cities":[{"code":"moscow"}],"allowsRemote":false}}]}}},"context":{}}