{"hash":"f5f6bf98bd95e769321482904cbbd488f77922fd","data":{"records":{"id":"git","name":"git","belongsTo":{"totalCount":273,"pageInfo":{"totalPages":28,"currentPage":19},"edges":[{"node":{"__typename":"Job","id":"91365572608-1001067529236","title":"Python разработчик","text":"#вакансия #удаленка #remote #python \nВсем привет! 🌟 \nВакансия: Python developer\nФормат работы: УДАЛЕННО\nЗАнятость: полная, гибкое начало дня\nЗаработная плата: до 120.000 на руки\n\n👾 Компания АК Барс Цифровые технологии находится в поиске Python разработчика на удаленный формат работы. Это современная продуктовая компания и команда крутых профессионалов, которые разрабатывают новейшие продукты в финтех индустрии. Сейчас они работают над совершенно новым масштабным проектом, основной задачей которого является трансформация архитектуры розничного бизнеса - продукта, которым пользуются абсолютно все. В компании чистый Agile - гибкие подходы и процессы, максимум свободы и инициативности. \n\n✅Требования: \nКоманды ищут специалиста с коммерческим опытом разработки на Python от 1,5 лет.\nОт вас ожидается отличное знание Python, SQL, Git и REST.\n\n🚀В свою очередь ребята предлагают отличные условия:\n🔹Официальное оформление, полностью белую З/П\n🔹Льготные условия кредитования\n🔹Молодой и дружный коллектив, гибкий график работы, комфортная и позитивная атмосфера \n🔹Участие в уникальных инновационных  проектах в команде настоящих профессионалов\n\n✅Контакты:\nLucky Hunter\nE-mail: maria.yurkanskaya@luckyhunter.io\nTelegram: @mashaselina\n\nПишите, буду рада рассказать подробнее о вакансии и ответить на вопросы😊","markup":[{"type":"hashtag","offset":0,"length":9,"data":"вакансия"},{"type":"hashtag","offset":10,"length":9,"data":"удаленка"},{"type":"hashtag","offset":20,"length":7,"data":"remote"},{"type":"hashtag","offset":28,"length":7,"data":"python"},{"type":"link","offset":1182,"length":32,"data":"mailto:maria.yurkanskaya@luckyhunter.io"},{"type":"handle","offset":1225,"length":12,"data":"mashaselina"}],"date":"2020-06-19T07:02:03+00:00","link":"tg://resolve?domain=python_jobs&post=0","tags":[{"name":"python"},{"name":"sql"},{"name":"git"},{"name":"rest"}],"cities":[],"allowsRemote":true}},{"node":{"__typename":"Job","id":"71604109312-1001054966032","title":"Android разработчик","text":"#вакансия #android #fulltime #удаленка #middle #senior\n\nГород и адрес офиса: Уфа (удаленно)\nФормат работы: удаленка\nЗанятость: полная\nЗарплатная вилка: от 100 000 р. до 250 000\n\nОписание вакансии:\nЕсли Вы крутой аndroid разработчик, влюбленный в свое дело, обладаете опытом разработки мобильных приложений, любите использовать в работе самые современные подходы и техники, интересуетесь трендами в мобильной разработке, то эта вакансия для Вас!\n\nКлассно, если Вы:\n- Свободно владеете языком Kotlin и Java\n- Имеете опыт реактивного программирования (RxJava2)\n- Имеете опыт работы с сетевыми протоколами (HTTP, REST, JSON и др.)\n- Знакомы с концепциями ООП, знаете паттерны проектирования, принципы SOLID и умеете их применять\n- Имеете базовое понимание и опыт работы с основными архитектурными паттернами (Clean, MVP, MVVM)\n- Знакомы с основными алгоритмами и структурами данных\n- Умеете писать простой в понимании и тестируемый код\n- Умеете работать в команде и готовы активно принимать участие в жизни продукта\n\nЖелательно:\n- Опыт работы с библиотеками Moxy, Dagger2\n- Знание принципов Agile-разработки\n- Умение работать с git, CI/CD системами (у нас Gitlab)\n- Умение проводить перекрестное Code Review\n- Ссылки на проекты в Play Market, профили GitHub и StackOverflow\n\nВашими ключевыми задачами будут:\n- Разрабатывать и поддерживать мобильное приложение с нуля\n- Создавать удобный и понятный для пользователей интерфейса по макету\n- Взаимодействовать с другими командами, для совместного решения задач\n- Разрабатывать и внедрять новые интересные фичи\n\nМы предлагаем:\n- Работа над финтех проектом европейской компании.\n- Самые современные технологии разработки\n- Возможность роста, как в профессиональной так и в управленческой сфере\n\nНазвание компании: Фином-Технологии —  команда разработчиков с большим опытом создания успешных финтех продуктов.  Расширяем свою команду для работы над проектом для стран Европы. Автоматизация финансовых процессов для малого бизнеса.\n\nКонтакт для связи: @deeeana","markup":[{"type":"hashtag","offset":0,"length":9,"data":"вакансия"},{"type":"hashtag","offset":10,"length":8,"data":"android"},{"type":"hashtag","offset":19,"length":9,"data":"fulltime"},{"type":"hashtag","offset":29,"length":9,"data":"удаленка"},{"type":"hashtag","offset":39,"length":7,"data":"middle"},{"type":"hashtag","offset":47,"length":7,"data":"senior"},{"type":"bold","offset":56,"length":20,"data":""},{"type":"bold","offset":92,"length":14,"data":""},{"type":"bold","offset":116,"length":11,"data":""},{"type":"bold","offset":134,"length":10,"data":""},{"type":"bold","offset":145,"length":6,"data":""},{"type":"bold","offset":178,"length":23,"data":""},{"type":"underline","offset":446,"length":18,"data":""},{"type":"underline","offset":1013,"length":12,"data":""},{"type":"underline","offset":1271,"length":33,"data":""},{"type":"underline","offset":1554,"length":15,"data":""},{"type":"bold","offset":1736,"length":19,"data":""},{"type":"bold","offset":1972,"length":18,"data":""},{"type":"handle","offset":1991,"length":8,"data":"deeeana"}],"date":"2020-06-19T05:01:29+00:00","link":"tg://resolve?domain=mobile_jobs&post=0","tags":[{"name":"mobile"},{"name":"android"},{"name":"kotlin"},{"name":"java"},{"name":"rest"},{"name":"json"},{"name":"mvvm"},{"name":"git"},{"name":"gitlab"},{"name":"playframework"},{"name":"github"}],"cities":[{"code":"ufa"}],"allowsRemote":true}},{"node":{"__typename":"Job","id":"17054040064-1001110946746","title":"Js разработчик","text":"#вакансия #job #fulltime #frontend #спб #санкт_петербург\nВакансия: Frontend-разработчик\nКомпания: 4people https://the4people.com\nГород: Санкт-Петербург. ст.м. Обводный канал\nФормат работы: #офис\nЗанятость: #полная\nЗарплата : от 140 000 до 250 000 р. на руки💥\n\nПривет! Мы растем и активно развиваемся, поэтому ищем специалистов для работы в офисе нашей компании в Санкт-Петербурге. Это отличная возможность реализовать свои навыки и прокачаться ещё больше в команде профессионалов. Подробности в описании:\n\n🔷Задачи: \n- Разработка новых сервисов компании.\n- Оптимизация и поддержка текущих продуктов.\n- Наш стек: JavaScript, VueJS, YouTrack.\n\n🔷Добро пожаловать в нашу команду, если вы:\n- Имеете опыт разработки на JS.\n- Умеете использовать Git.\n- Знаете ООП, умеете применять на практике основные паттерны, не теряетесь при использовании объектно-ориентированного подхода в JS.\n- Знакомы с JS фреймворками (мы предпочитаем VueJS) либо являетесь гуру нативного JS.\n\n🔷Мы предлагаем:\n- Уровень заработной платы зависит от пожеланий и профессионально уровня кандидата.\n- Поездки на ИТ-конференции, митапы, учебные курсы за счет компании.\n- Возможность гибкого начала рабочего дня.\n- Бесплатные корпоративные обеды (шведский стол).\n- Абонемент в спорт зал за счет компании.\n\nБуду рада вопросам и резюме: \n✍️ @hrkaterina\n✉️ ekaterina.4people@gmail.com\n\n—\n\n👉 Обсуждение вакансии в чате @javascript_jobs","markup":[{"type":"hashtag","offset":0,"length":9,"data":"вакансия"},{"type":"hashtag","offset":10,"length":4,"data":"job"},{"type":"hashtag","offset":15,"length":9,"data":"fulltime"},{"type":"hashtag","offset":25,"length":9,"data":"frontend"},{"type":"hashtag","offset":35,"length":4,"data":"спб"},{"type":"hashtag","offset":40,"length":16,"data":"санкт_петербург"},{"type":"link","offset":106,"length":22,"data":"https://the4people.com"},{"type":"hashtag","offset":189,"length":5,"data":"офис"},{"type":"hashtag","offset":206,"length":7,"data":"полная"},{"type":"handle","offset":1305,"length":11,"data":"hrkaterina"},{"type":"link","offset":1320,"length":27,"data":"mailto:ekaterina.4people@gmail.com"},{"type":"handle","offset":1382,"length":16,"data":"javascript_jobs"}],"date":"2020-06-18T21:05:53+00:00","link":"tg://resolve?domain=javascript_jobs_feed&post=0","tags":[{"name":"javascript"},{"name":"vuejs"},{"name":"git"}],"cities":[],"allowsRemote":false}},{"node":{"__typename":"Job","id":"17048797184-1001110946746","title":"Javascript разработчик","text":"#вакансия #JavaScript #React #jenkins #HTML #CSS #офис #удаленка\n\nMiddle Frontend-разработчик (React)\nГород и адрес офиса: Новосибирск, центр и Академгородок\nФормат работы: Офис или удаленно, пятидневка\nЗанятость: Полный день\nЗарплатная вилка: от 80 000 до 130 000 руб.\n\nО компании: Компания создает и продает софт для любительской обработки видео, музыки и изображений, сотрудничает с Intel, Amazon, Google и NVIDIA.\n\nЧем предстоит заниматься:\n– разработка онлайн-программ для обработки мультимедиа (фоторедактор)\n– проведение ревью кода\n– внедрение новых технологий и подходов в разработке\n\nВ своей работе мы используем:\n– React\n– JavaScript/TypeScript\n– Webpack\n– HTML, CSS\n– Git, GitLab\n– Jenkins\n\nДля успешного выполнения задач тебе потребуется:\n– опыт работы на позиции frontend-разработчика от 1,5 лет\n– опыт разработки на React от 1 года\n– опыт удаленной работы в команде от полугода (в случае удаленной работы)\n– знание JavaScript\n\nофициальное трудоустройство с 1-го дня, белая зп\n\nНазвание компании: HR-project\nКонтакты: @nicedream13\n\n—\n\n👉 Обсуждение вакансии в чате @javascript_jobs","markup":[{"type":"hashtag","offset":0,"length":9,"data":"вакансия"},{"type":"hashtag","offset":10,"length":11,"data":"JavaScript"},{"type":"hashtag","offset":22,"length":6,"data":"React"},{"type":"hashtag","offset":29,"length":8,"data":"jenkins"},{"type":"hashtag","offset":38,"length":5,"data":"HTML"},{"type":"hashtag","offset":44,"length":4,"data":"CSS"},{"type":"hashtag","offset":49,"length":5,"data":"офис"},{"type":"hashtag","offset":55,"length":9,"data":"удаленка"},{"type":"handle","offset":1031,"length":12,"data":"nicedream13"},{"type":"handle","offset":1078,"length":16,"data":"javascript_jobs"}],"date":"2020-06-18T21:02:05+00:00","link":"tg://resolve?domain=javascript_jobs_feed&post=0","tags":[{"name":"javascript"},{"name":"reactjs"},{"name":"jenkins"},{"name":"html"},{"name":"css"},{"name":"typescript"},{"name":"webpack"},{"name":"git"},{"name":"gitlab"}],"cities":[{"code":"novosibirsk"}],"allowsRemote":true}},{"node":{"__typename":"Job","id":"17044602880-1001110946746","title":"Js разработчик","text":"#вакансия #Москва #nodejs #офис\n\nКомпания Proscom ищет Middle/Senior Backend (Node.js) разработчика\n\nФормат занятости: Офис около м. Серпуховская/Павелецкая.\nЗанятость: полная \nЗарплатная вилка: 130 000 - 240 000 рублей/месяц (по результатам собеседования)\n\nО компании: \n\nС 2013 года создаем интерфейсы, веб-сайты,\nмобильные приложения для крупных\nправительственных организаций и\nкоммерческих предприятий\n\nЗадачи:\n\nВести разработку как новых проектов, так и поддерживать уже существующий код. \n\nСтек:\n\nNode.js, GraphQL, REST, Nest.js, TypeScript, CRDT, MySQL, PostreSQL, Git, Docker\n\nТребования:\n\nОт 1 года опыта работы с Node.js, от 2х лет опыта программирования\n\nКонтакт: @mxm_at\n\n—\n\n👉 Обсуждение вакансии в чате @javascript_jobs","markup":[{"type":"hashtag","offset":0,"length":9,"data":"вакансия"},{"type":"hashtag","offset":10,"length":7,"data":"Москва"},{"type":"hashtag","offset":18,"length":7,"data":"nodejs"},{"type":"hashtag","offset":26,"length":5,"data":"офис"},{"type":"handle","offset":674,"length":7,"data":"mxm_at"},{"type":"handle","offset":716,"length":16,"data":"javascript_jobs"}],"date":"2020-06-18T20:58:51+00:00","link":"tg://resolve?domain=javascript_jobs_feed&post=0","tags":[{"name":"javascript"},{"name":"nodejs"},{"name":"graphql"},{"name":"rest"},{"name":"typescript"},{"name":"mysql"},{"name":"git"},{"name":"docker"}],"cities":[{"code":"moscow"}],"allowsRemote":false}},{"node":{"__typename":"Job","id":"17042505728-1001110946746","title":"Js developer","text":"#вакансия  #frontend #angular #js #javascript \nПозиция: Frontend developer (Middle)\nФормат работы: удаленка\nЗанятость: полная\nЗарплатная вилка: 70 000-100 000 на руки\nЗадача: помогать автоматизировать бизнес-процессы наших клиентов.\nТребования:\n-уверенное знание базовых технологий JavaScript, Angular,Typescript, HTML, CSS;\nТочно надо будет использовать:\n-Нативный JS, ES6+\n-Angular\n-Typescript\n-Кроссбраузерная вёрстка\n-S-ass/SCSS, методология БЭМ\n-Git\nКонтакты: @hr_anya, почта:a.konovalovahr@gmail.com\n\n—\n\n👉 Обсуждение вакансии в чате @javascript_jobs","markup":[{"type":"hashtag","offset":0,"length":9,"data":"вакансия"},{"type":"hashtag","offset":11,"length":9,"data":"frontend"},{"type":"hashtag","offset":21,"length":8,"data":"angular"},{"type":"hashtag","offset":30,"length":3,"data":"js"},{"type":"hashtag","offset":34,"length":11,"data":"javascript"},{"type":"handle","offset":465,"length":8,"data":"hr_anya"},{"type":"link","offset":475,"length":30,"data":"http://почта:a.konovalovahr@gmail.com"},{"type":"handle","offset":540,"length":16,"data":"javascript_jobs"}],"date":"2020-06-18T20:57:43+00:00","link":"tg://resolve?domain=javascript_jobs_feed&post=0","tags":[{"name":"javascript"},{"name":"angularjs"},{"name":"typescript"},{"name":"html"},{"name":"css"},{"name":"git"}],"cities":[],"allowsRemote":true}},{"node":{"__typename":"Job","id":"2226126848-1001134745498","title":"Devops инженер","text":"#вакансия #удаленно #devops \nВакансия: DevOps/Разработчик бандлов\nЛокация: удаленно\nЗаработная плата: от 120 до 180 тыс. руб. гросс (готовы обсуждать)\n\nArenadata – корпоративная платформа сбора и обработки больших данных на базе open-source проектов https://arenadata.tech/ Является контрибьютором open-source проектов Kafka, Clickhouse, Hadoop, Greenplum и других. Компания входит в ODPi (Linux Foundation).\n\nЧем предстоит заниматься:\n• Активно участвовать в разработке, развитии и поддержке системы управления развертыванием Big Data сервисов (Hadoop, Clickhouse, Greenplum);\n• Cозданием инфраструктурных обвязок для опенсорс проектов для автоматизации их разверток;\n• Работать c системой отслеживания ошибок (Jira);\n• Участвовать в разработке сценариев тестирования;\n• Принимать решения по выбору инструментов;\n• Участвовать в третьей линии поддержки заказчиков сервиса.\n\nЧто ожидаем:\n• Опыт автоматизации работы с помощью Ansible, опыт написания с нуля Ansible playbook;\n• Знание Linux (RHEL, CentOS, Ubuntu) на уровне администратора;\n• Опыт написания bash-скриптов;\n• Опыт работы с Git; \n• Опыт работы со стеком Hadoop.\n\nДополнительным плюсом будет:\n• Опыт работы с системами виртуализации (KVM, VMware, OpenStack);\n• Опыт работы с контейнерами: Docker, OpenShift, Kubernetes;\n• Опыт работы со Clickhouse;\n• Опыт работы со Greenplum;\n• Опыт сопровождения IT-инфраструктуры;\n• Знание Python.\n\nУ нас Вы сможете получить:\n• Работа в молодом, дружном коллективе в атмосфере стартапа, но с бонусами большой устоявшейся компании;\n• Сильная техническая экспертиза в команде;\n• Проекты внедрения в крупнейших компаниях России;\n• Возможность гибкого графика;\n• Участие в крупнейших российских и международных ИТ-конференциях и выставках;\n• Конкурентная заработная плата по результатам собеседования, ежегодный ее пересмотр по итогам аттестации\n\n✉️ Контакты: opankina@ibs.ru @itgig\n\n—\n\n👉 Обсуждение вакансии в чате @devops_jobs","markup":[{"type":"hashtag","offset":0,"length":9,"data":"вакансия"},{"type":"hashtag","offset":10,"length":9,"data":"удаленно"},{"type":"hashtag","offset":20,"length":7,"data":"devops"},{"type":"link","offset":250,"length":23,"data":"https://arenadata.tech/"},{"type":"link","offset":1854,"length":15,"data":"mailto:opankina@ibs.ru"},{"type":"handle","offset":1870,"length":6,"data":"itgig"},{"type":"handle","offset":1911,"length":12,"data":"devops_jobs"}],"date":"2020-06-18T20:27:12+00:00","link":"tg://resolve?domain=devops_jobs_feed&post=2123","tags":[{"name":"kafka"},{"name":"hadoop"},{"name":"linux"},{"name":"ansible"},{"name":"centos"},{"name":"ubuntu"},{"name":"bash"},{"name":"git"},{"name":"docker"},{"name":"kubernetes"},{"name":"python"}],"cities":[],"allowsRemote":true}},{"node":{"__typename":"Job","id":"1709178880-1001091028994","title":"Java разработчик","text":"Ищем разработчика на Java (HyperLedger) на постоянную занятость на удаленной основе в команду http://www.proleum.pro \n\nОт соискателя ожидается: \n\n- знание REST, HTTP, JSON;\n- умение создавать и  оптимизировать API;\n- умение писать тесты;\n- опыт работы с SQL- и NoSQL-базами данных;\n- знание и умение работать с Git;\n- знакомство с docker;\n- уверенный пользователь Linux;\n- знание и базовый опыт работы с Hyperledger Fabric;\n- принципы работы сетей (TCP/UDP, DNS, gRPC и http, маршрутизация/инкапсуляция, как сети связываются между собой и т.д.).\n\nОформление по законадательству РФ. Зарплата 70-200кр белая по результатам собеседования и зависит от уровня соискателя.\n\nТалантливый разработчик, найдись! Напиши в телеграм @soloway или на почту solo@proleum.pro и приходи в наш дружный коллектив совершать революцию на рынке нефтепродуктов!","markup":[{"type":"link","offset":94,"length":22,"data":"http://www.proleum.pro"},{"type":"handle","offset":720,"length":8,"data":"soloway"},{"type":"link","offset":742,"length":16,"data":"mailto:solo@proleum.pro"}],"date":"2020-06-18T17:01:52+00:00","link":"tg://resolve?domain=jvmjobs&post=1630","tags":[{"name":"java"},{"name":"jvm"},{"name":"rest"},{"name":"json"},{"name":"sql"},{"name":"nosql"},{"name":"git"},{"name":"docker"},{"name":"linux"},{"name":"dns"}],"cities":[],"allowsRemote":true}},{"node":{"__typename":"Job","id":"71586283520-1001054966032","title":"Android developer","text":"#вакансия #Juniorandroid #Android developer #kotlin #удаленно                                                                                                         Уровень дохода:💵 50 000-60 000  рублей net                                                                                                                                                                                 Требуемый опыт работы: от 1 года\nПолная занятость, дистанционно, гибкое начало рабочего дня\n \n📌Требования:\n- Нативная Android разработка (Kotlin)\n- Умение писать поддерживаемый и тестируемый код\n- Умение работать с Dagger 2\n- Умение работать с git\n- Желание развиваться и изучать новое в разработке\n- Опыт разработки приложений от 1 года\n -Знание английского языка от уровня Intermediate\n \n📌Будет плюсом:\n- Опыт работы с JNI\n- Опыт использования tensorflow\n- Опыт работы с аудио и видео\n\n📌Условия:\n- Отсутствие бюрократии\n- Время начала рабочего дня обговариваем индивидуально\n- Крутой инновационный проект - возможность самореализации и профессионального роста\n- Стабильное зарубежное финансирование\n- Десятки миллионов установок и множество глобальных партнёров\n📞Контакты @SvetikS_hr +7(963)-632-12-36 Cветлана","markup":[{"type":"hashtag","offset":0,"length":9,"data":"вакансия"},{"type":"hashtag","offset":10,"length":14,"data":"Juniorandroid"},{"type":"hashtag","offset":25,"length":8,"data":"Android"},{"type":"hashtag","offset":44,"length":7,"data":"kotlin"},{"type":"hashtag","offset":52,"length":9,"data":"удаленно"},{"type":"link","offset":184,"length":13,"data":"tel:50 000-60 000"},{"type":"handle","offset":1164,"length":11,"data":"SvetikS_hr"},{"type":"link","offset":1176,"length":17,"data":"tel:+7(963)-632-12-36"}],"date":"2020-06-18T15:22:25+00:00","link":"tg://resolve?domain=mobile_jobs&post=0","tags":[{"name":"mobile"},{"name":"android"},{"name":"kotlin"},{"name":"dotnet"},{"name":"git"},{"name":"tensorflow"}],"cities":[],"allowsRemote":true}},{"node":{"__typename":"Job","id":"71583137792-1001054966032","title":"Ios разработчик","text":"‼️Вакансия Senior IOS C++ Developer‼️\n#вакансия #IOS #developer #удаленка\nВ команде Mycelium Wallet (mycelium.com) открыта вакансия Senior IOS C++ Developer.\n💵З/П 3000-4000 USD по итогам собеседования.\nРабота удаленная 💻\n\nМы предлагаем:\n🔸Получить навыки и компетенции в одном из самых передовых и перспективных направлений финтех индустрии - blockchain;\n🔸Принять участие в разработке одного из самых популярных биткоин-стартапов;\n🔸Работать в международной команде бок о бок с ведущими специалистами в индустрии;\n🔸Возможность профессионального карьерного роста и участия в разнообразных проектах компании.\nЧем предстоит заниматься:\n🔸Разрабатывать мультивалютный крипто-валютный кошелек с кросс-платформенным ядром;\n🔸Проектировать и разрабатывать большие функциональные части приложения с привлечением других разработчиков;\n🔸Использовать cutting edge технологии, а также проверенные временем решения;\n🔸Находить решения для нестандартных задач.\nТребования:\n✔️Как минимум 3 года опыта разработки под IOS и опыта программирования на C++;\nЗнание C++ на уровне ведущего разработчика;\n✔️Знание шаблонов проектирования, опыт использования MVP и других архитектурных подходов;\n✔️Знание шаблонов проектирования пользовательских интерфейсов для iOS 9+ (Human Interface Guidelines);\n✔️Знание iOS SDK (UIKit, Foundation, CoreLocation и др.), общее понимание архитектуры iOS;\n✔️Знание особенностей UiKit: storyboards, autolayout, size classes;\n✔️Знание CocoaPods, FastLane, Xcode utils, code analyzers;\n✔️Опыт параллельного и многопоточного программирования, знание примитивов синхронизации (std::thread, std::mutex и тд);\n✔️Понимание циклов работы IOS-приложения и управления памятью;\n✔️Понимание принципов работы REST API, RPC, WS и клиент-серверных приложений;\n✔️Опыт работы с системами контроля версий (Git) и постановки задач (JIRA, TFS, Redmine);\n✔️Знание английского языка на уровне чтения документации и умения общаться в корпоративном чате.\n\nПлюсом будет:\n🔸Знание Objective-С и Swift;\n🔸Умение и понимание необходимости написания Unit tests;\n🔸Знание основ криптографии;\n🔸Опыт работы с bitcoin/etherium blockchain stack;\n🔸Наличие своих проектов на Github, в App Store и т.д.\n\n📲 Контакт : @valeritata","markup":[{"type":"hashtag","offset":38,"length":9,"data":"вакансия"},{"type":"hashtag","offset":48,"length":4,"data":"IOS"},{"type":"hashtag","offset":53,"length":10,"data":"developer"},{"type":"hashtag","offset":64,"length":9,"data":"удаленка"},{"type":"link","offset":101,"length":12,"data":"http://mycelium.com"},{"type":"handle","offset":2196,"length":11,"data":"valeritata"}],"date":"2020-06-18T14:51:09+00:00","link":"tg://resolve?domain=mobile_jobs&post=0","tags":[{"name":"mobile"},{"name":"ios"},{"name":"uikit"},{"name":"cocoapods"},{"name":"xcode"},{"name":"rest"},{"name":"git"},{"name":"tfs"},{"name":"objective-c"},{"name":"swift"},{"name":"github"}],"cities":[],"allowsRemote":true}}]}}},"context":{}}