{"hash":"f34fd2c444a074f4e0e67d525015a008ef8e766f","data":{"records":{"id":"russia/moscow","belongsTo":{"totalCount":234,"pageInfo":{"totalPages":24,"currentPage":16},"edges":[{"node":{"__typename":"Job","id":"23914872832-1001075660570","title":"Php developer","text":"#вакансия #php #senior #middle #москва \nКомпания skillbox.ru ищет в команду Middle/Senior PHP Developer (Laravel).\n\nЧем предстоит заниматься:\n •  Нужно будет продолжать развивать сервис авторизации;\n •  Поддерживать текущие проектов на Laravel + Vue;\n •  Участвовать в Code Review;\n •  Писать Unit-тесты;\n •  Ведение документации своего кода;\n •  Принимать активное участие в проектировании микросервисов и БД.\n\nЧто мы ждем от вас:\n •  Уверенные знания PHP7, MySQL, Laravel;\n •  Умение разбираться в Legacy code;\n •  Опыт работы с Redis, WebSockets;\n •  Опыт работы с системами контроля версий – git;\n •  Опыт интеграции с внешними системами по API;\n •  Хорошее знание системы Linux (Ubuntu);\n •  Ответственность и инициативность;\n •  Умение внятно выражать свои мысли устно и письменно;\n •  Умение адекватно оценивать сроки на реализацию той или иной задачи.\n\nМы предлагаем отличные условия:\n •  Белую зарплату от 150.000 net (оклад обсудим индивидуально)\n •  Возможность прохождения любых дистанционных курсов Skillbox бесплатно, а еще корпоративную скидку на изучение английского языка в Skyeng и фитнес.\n •  Рост внутри компании не ограничен, всегда найдется то, что будет интересно тебе;\n •  Корпоративные активности (волейбол, футбол, квесты, квизы, шахматы, Skillbox.fm и др.);\n •  Наша команда творит в новом и стильном офисе на м.Октябрьская;\n •  Гибкий график работы (время прихода на работу в интервале с 8 до 12) и отсутствие дресс-кода;\n\nКонтакты: alina.nesterova@skillbox.ru      @AlinalaAlina","markup":[{"type":"hashtag","offset":0,"length":9,"data":"вакансия"},{"type":"hashtag","offset":10,"length":4,"data":"php"},{"type":"hashtag","offset":15,"length":7,"data":"senior"},{"type":"hashtag","offset":23,"length":7,"data":"middle"},{"type":"hashtag","offset":31,"length":7,"data":"москва"},{"type":"link","offset":49,"length":11,"data":"http://skillbox.ru"},{"type":"bold","offset":76,"length":38,"data":""},{"type":"bold","offset":116,"length":25,"data":""},{"type":"bold","offset":412,"length":19,"data":""},{"type":"bold","offset":861,"length":31,"data":""},{"type":"link","offset":1265,"length":11,"data":"http://Skillbox.fm"},{"type":"link","offset":1461,"length":27,"data":"mailto:alina.nesterova@skillbox.ru"},{"type":"handle","offset":1494,"length":13,"data":"AlinalaAlina"}],"date":"2020-03-24T14:13:39+00:00","link":"tg://resolve?domain=php_jobs&post=22807","tags":[{"name":"php"},{"name":"laravel"},{"name":"vuejs"},{"name":"mysql"},{"name":"redis"},{"name":"git"},{"name":"linux"},{"name":"ubuntu"},{"name":"dotnet"}],"cities":[{"code":"moscow"}],"allowsRemote":false}},{"node":{"__typename":"Job","id":"1934622720-1001134745498","title":"Devops инженер","text":"#вакансия #devOps\nПривет! Крупнейший медиа холдинг ищет крутого инженера DevOps! \nЛокация: Москва, м. Тульская или Сколково\nИщем сотрудника в офис на полный рабочий день.\nУсловия: зп от 170 000 до 200 000 (обсуждается на собеседовании), комфортабельный офис, ДМС и ВЗР после испытательного срока, дополнительные скидки на услуги партнеров\n\nПроект по консолидации данных активов холдинга и созданию DMP для профилирования аудитории\n\nОсновные задачи:\n• Установка, настройка, обновление программного обеспечения\n• Поддержание отказоустойчивости веб сервисов\n• Сопровождение процесса разработки, автоматизация релизов и тестирования.\n• Управление и поддержка тестового и продуктивного окружения\n• Настройка мониторинга и оповещения о событиях\n\nНаш стек: Hadoop, Spark, Kafka\n\nОжидаем от тебя:\n• Опыт работы в качестве Инженера DevOps по сопровождению систем распределенных вычислений на основе стека Hadoop+Kafka.\n• Оркестратор процессов – Airflow\n• Опыт настройки Nginx для высоконагруженных веб сервисов.\n• Опыт работы с Docker и Kubernetes, системами мониторинга Grafana+Prometheus или подобными\n• Опыт работы с Gitlab и системами CI/CD\n\nКомпания: Национальная медиа группа https://nm-g.ru/holding/\n\nГотова рассказать детали, я всегда на связи в telegram @AnnaSafarova\nТакже буду очень признательна за рекомендации \n\nВсем хорошего дня!\n\n—\n\n👉 Обсуждение вакансии в чате @devops_jobs","markup":[{"type":"hashtag","offset":0,"length":9,"data":"вакансия"},{"type":"hashtag","offset":10,"length":7,"data":"devOps"},{"type":"link","offset":1173,"length":24,"data":"https://nm-g.ru/holding/"},{"type":"handle","offset":1254,"length":13,"data":"AnnaSafarova"},{"type":"handle","offset":1369,"length":12,"data":"devops_jobs"}],"date":"2020-03-24T11:26:47+00:00","link":"tg://resolve?domain=devops_jobs_feed&post=1845","tags":[{"name":"hadoop"},{"name":"kafka"},{"name":"nginx"},{"name":"docker"},{"name":"kubernetes"},{"name":"gitlab"}],"cities":[{"code":"moscow"}],"allowsRemote":false}},{"node":{"__typename":"Job","id":"23911727104-1001075660570","title":"Php developer","text":"#вакансия #Moscow #php #laravel #fulltime #office \n\n📌Вакансия: #PHP Middle developer\n📌Город: #Москва (м. Ботанический сад)\n📌ЗП: 150К net (готовы рассмотреть ваши ожидания)\n📌Занятость: полная/ офис \n📌Компания: АСНА (https://www.asna.ru/)\n\n✅АСНА - крупнейшее объединение аптечных сетей в России и странах СНГ. Это экосистема сервисов и продуктов, нацеленная на улучшение и развитие фармацевтического рынка России.\n\n👆Задачи:\n• создание и развитие b2c и b2b web-проектов компании;\n• участие в командной работе по разработке крупных\n• создание новых проектов компании с нуля;\n• оптимизация существующего PHP-кода и SQL-запросов.\n\n👍Что мы готовы предложить:\n• официальная («белая») заработная плата и мы соблюдаем ТК РФ.\n• переход на удаленку через 6 месяцев работы в компании; \n• мы обеспечим Вам комфортное рабочее место, мощное железо и два монитора J.\n• у нас нет бюрократии, плюс Вы сможете сами выбрать удобное время начала дня.\n• мы профессионально развиваем наших сотрудников – отправляем на курсы и профильные конференции.\n• мы следим за питанием наших сотрудников и компенсируем обеды.\n• мы даем возможность вносить свои идеи!\n• до нашего офиса можно дойти пешком от м. «Ботанический сад».\n\n🔥Наши ожидания:\n• опыт разработки на PHP от 1 года;\n• обязательно знание фреймворка Laravel;\n• опыт создания интеграционных решений с обменом информацией (JSON, XML, SOAP);\n• опыт проектирования БД и оптимизации SQL-запросов;\n• написание кода с комментариями в стиле phpDoc;\n• написание Unit тестов;\n• умение писать отказоустойчивые надежные автоматизированные системы;\n• навыки работы с *nix-системами;\n• опыт командной разработки с использованием системы контроля версий Git или Mercurial.\n\n🤝Контакты: @Kate_Guseva","markup":[{"type":"hashtag","offset":0,"length":9,"data":"вакансия"},{"type":"hashtag","offset":10,"length":7,"data":"Moscow"},{"type":"hashtag","offset":18,"length":4,"data":"php"},{"type":"hashtag","offset":23,"length":8,"data":"laravel"},{"type":"hashtag","offset":32,"length":9,"data":"fulltime"},{"type":"hashtag","offset":42,"length":7,"data":"office"},{"type":"hashtag","offset":64,"length":4,"data":"PHP"},{"type":"hashtag","offset":95,"length":7,"data":"Москва"},{"type":"link","offset":220,"length":20,"data":"https://www.asna.ru/"},{"type":"handle","offset":1708,"length":12,"data":"Kate_Guseva"}],"date":"2020-03-24T10:16:52+00:00","link":"tg://resolve?domain=php_jobs&post=22804","tags":[{"name":"php"},{"name":"laravel"},{"name":"dotnet"},{"name":"web"},{"name":"sql"},{"name":"json"},{"name":"xml"},{"name":"soap"},{"name":"git"},{"name":"mercurial"}],"cities":[{"code":"moscow"}],"allowsRemote":false}},{"node":{"__typename":"Job","id":"1377828864-1001091028994","title":"Java разработчик","text":"Вакансия: #java #spring #hibernate \nКонцепция: #IoT\nКомпания: #MTS\nЛокация: #Москва #Комсомольская #Красныеворота\nФормат работы: #работавофисе + иногда возможно удаленно работать\nЗП: 150-200 net (в замисимости от знаний и опыта)\nКонтакт: @alina_katkova почта: avkatko2@mts.ru\n\nВ команду IoT, трайба отраслевых решений требуется java-разработчик. Трайб отраслевых решений – направление внутри МТС, которое осуществляет разработку полного цикла инновационных продуктов в B2B и B2C сегментах. Основное направление – инновационные продукты в сфере интернета вещей, медицины, видео аналитики.\n\nЧто нужно делать: \n-участвовать в командной работе над решениями;\n-принимать участие в code-review;\n-участвовать в принятии архитектурных и технических решений;\n-писать качественный код;\nНаш стек:\n-Java1.8+;\n-Spring: Spring Security, Spring Data, Spring Boot и т.д.;\n-Реляционные базы (в основном Postgres) и NoSQL (InfluxDB, Mongo);\n-Restful-сервисы, JSON, клиент-серверное взаимодействие;\n-ORM Hibernate;\n-MQ: RabbitMQ.\nУсловия:\n-штат, все по ТК РФ\n-премия 20% от годового оклада сверху\n-соц.пакет\n-удаленка на время карантина :)","markup":[{"type":"hashtag","offset":10,"length":5,"data":"java"},{"type":"hashtag","offset":16,"length":7,"data":"spring"},{"type":"hashtag","offset":24,"length":10,"data":"hibernate"},{"type":"hashtag","offset":47,"length":4,"data":"IoT"},{"type":"hashtag","offset":62,"length":4,"data":"MTS"},{"type":"hashtag","offset":76,"length":7,"data":"Москва"},{"type":"hashtag","offset":84,"length":14,"data":"Комсомольская"},{"type":"hashtag","offset":99,"length":14,"data":"Красныеворота"},{"type":"hashtag","offset":129,"length":13,"data":"работавофисе"},{"type":"handle","offset":238,"length":14,"data":"alina_katkova"},{"type":"link","offset":260,"length":15,"data":"mailto:avkatko2@mts.ru"},{"type":"bold","offset":589,"length":18,"data":""},{"type":"bold","offset":776,"length":9,"data":""},{"type":"bold","offset":1011,"length":8,"data":""}],"date":"2020-03-24T09:58:43+00:00","link":"tg://resolve?domain=jvmjobs&post=1314","tags":[{"name":"java"},{"name":"jvm"},{"name":"spring"},{"name":"hibernate"},{"name":"dotnet"},{"name":"postgresql"},{"name":"nosql"},{"name":"json"},{"name":"orm"},{"name":"rabbitmq"},{"name":"spring-security"},{"name":"spring-data"},{"name":"spring-boot"}],"cities":[{"code":"moscow"}],"allowsRemote":true}},{"node":{"__typename":"Job","id":"1376780288-1001091028994","title":"Java разработчик","text":"Вакансия: #Middle #Java #SQL #Spring #JavaCore\nКомпания: #Rubbles\nЛокация: #Москва #МСК #Moscow\nЗ/П: 180-200кР NET\nКонтакты: @Julia_Nikolova\n\nВедущая российская IT-компания, занимающаяся разработкой решений для крупного бизнеса. Офисы в России и по всей Европе\n\nОпыт разработки на Java от 2х лет\n\nОбязанности:\n· Проектирование и написание кода\n· Участие в разработке продуктов, и в новых проектах\n· Устранение критических ошибок в системах\n\nТребования\n· Опыт работы со Spring стеком (Spring Boot, Spring Data, Spring MVC)\n· Уверенное знание Java Core\n· Умение работать с любой SQL базой данных\n\nУсловия: \n- Регулярные пересмотры заработной платы\n- Уютный офис в центре Москвы (кикер, пинг-понг, разные вкусности)\n- ДМС\n- Корпоративное обучение","markup":[{"type":"hashtag","offset":10,"length":7,"data":"Middle"},{"type":"hashtag","offset":18,"length":5,"data":"Java"},{"type":"hashtag","offset":24,"length":4,"data":"SQL"},{"type":"hashtag","offset":29,"length":7,"data":"Spring"},{"type":"hashtag","offset":37,"length":9,"data":"JavaCore"},{"type":"hashtag","offset":57,"length":8,"data":"Rubbles"},{"type":"hashtag","offset":75,"length":7,"data":"Москва"},{"type":"hashtag","offset":83,"length":4,"data":"МСК"},{"type":"hashtag","offset":88,"length":7,"data":"Moscow"},{"type":"handle","offset":125,"length":15,"data":"Julia_Nikolova"}],"date":"2020-03-24T09:40:32+00:00","link":"tg://resolve?domain=jvmjobs&post=1313","tags":[{"name":"java"},{"name":"jvm"},{"name":"sql"},{"name":"spring"},{"name":"dotnet"},{"name":"spring-boot"},{"name":"spring-data"},{"name":"spring-mvc"}],"cities":[{"code":"moscow"}],"allowsRemote":false}},{"node":{"__typename":"Job","id":"1375731712-1001091028994","title":"Java разработчик","text":"#Москва #java #еса #senior #middle\nГород и адрес офиса: Москва, м. Тульская, Новоданиловская наб, д.10\nФормат работы: офис (хотя в связи с последними событиями может быть и удалённо :)\nЗанятость: фулл тайм\nЗарплатная вилка: 150к-300к (в зависимости от навыков и знаний)\n\nЕдиный сервис аутентификации - это система, которая принимает решение о допуске клиентов через различные каналы обслуживания (веб, мобильное приложение, банкомат) к сервисам экосистемы Сбербанка. Система является высоконагруженной, так как одновременно может обслуживать более 10к операций в секунду.\n\nЗадачи:\n • разработка back-end web-приложения; \n • участие разработки архитектуры продукта;\n • участие в code review. \n\nОбязательно:\n· Опыт работы с Java от 2ух лет (хорошее знание core, Collections, jdbc, IO, Exceptions)\n· Опыт работы с системами сборки: maven или gradle\n· Опыт работы с БД, знание языка запросов SQL\n· Знакомство с ORM Hibernate\n\nБудет плюсом:\n· понимание многопоточности в Java;\n· знакомство со Spring Framework\n\nБонусы: \n • гибкое начало дня, отсутствие микроменеджмента и дресс-кода\n • отличная атмосфера в команде, способность слышать мнение каждого\n • современное железо (можно выбрать ноут MacOS или Windows) \n • возможность сменить проект\n • ДМС, спортзал, корпоративные мероприятия\n\nКонтакт: @hralexandra 📲","markup":[{"type":"hashtag","offset":0,"length":7,"data":"Москва"},{"type":"hashtag","offset":8,"length":5,"data":"java"},{"type":"hashtag","offset":14,"length":4,"data":"еса"},{"type":"hashtag","offset":19,"length":7,"data":"senior"},{"type":"hashtag","offset":27,"length":7,"data":"middle"},{"type":"handle","offset":1292,"length":12,"data":"hralexandra"}],"date":"2020-03-24T07:57:32+00:00","link":"tg://resolve?domain=jvmjobs&post=1312","tags":[{"name":"java"},{"name":"jvm"},{"name":"web"},{"name":"jdbc"},{"name":"maven"},{"name":"gradle"},{"name":"sql"},{"name":"orm"},{"name":"hibernate"},{"name":"spring"},{"name":"macos"},{"name":"windows"}],"cities":[{"code":"moscow"}],"allowsRemote":true}},{"node":{"__typename":"Job","id":"1374683136-1001091028994","title":"Java разработчик","text":"#fulltime #офис\n#backend #Москва\n#высоконагруженные_сервисы\n#вакансия\n#Middle_Java_dev\nвилка для middle от 180 net (и выше зависит от уровня)\n\nпозиция Middle Java dev\nО проекте:\n•Высоконагруженные сервисы\n•Разработка виртуальной мобильной связи\nЗадачи:\nРазработка нового backend функционала;\nСтек:\n • Java Core (Collection, NIO, Multithreading)  \n • Java SE (Spring), Java EE; Java 8 (Concurrency, NIO, Spring);\n • JDBC БД (Oracle);\n • Опыт работы JSON, XML, RESTful API, HTTP, SOAP, MQ; \n • Linux\nМЫ ПРЕДЛАГАЕМ:\n •  Сильная команда разработчиков\n •  Официальное оформление (ДМС, английский, спорт)\n •  Офис в центре Москвы\n •  Профессиональное развитие и участие в разработке серьезного продукта.\n\n\nКонтакты: @BetterCallOl","markup":[{"type":"hashtag","offset":0,"length":9,"data":"fulltime"},{"type":"hashtag","offset":10,"length":5,"data":"офис"},{"type":"hashtag","offset":16,"length":8,"data":"backend"},{"type":"hashtag","offset":25,"length":7,"data":"Москва"},{"type":"hashtag","offset":33,"length":26,"data":"высоконагруженные_сервисы"},{"type":"hashtag","offset":60,"length":9,"data":"вакансия"},{"type":"hashtag","offset":70,"length":16,"data":"Middle_Java_dev"},{"type":"bold","offset":167,"length":10,"data":""},{"type":"bold","offset":245,"length":7,"data":""},{"type":"bold","offset":292,"length":6,"data":""},{"type":"bold","offset":498,"length":14,"data":""},{"type":"handle","offset":710,"length":13,"data":"BetterCallOl"}],"date":"2020-03-24T07:51:42+00:00","link":"tg://resolve?domain=jvmjobs&post=1311","tags":[{"name":"java"},{"name":"jvm"},{"name":"dotnet"},{"name":"spring"},{"name":"jdbc"},{"name":"oracle"},{"name":"json"},{"name":"xml"},{"name":"soap"},{"name":"linux"}],"cities":[{"code":"moscow"}],"allowsRemote":false}},{"node":{"__typename":"Job","id":"1933574144-1001134745498","title":"Devops инженер","text":"#devops  #middle  #senior #вакансия\n\nВсем добрый вечер\n\nЯ ищу Ведущего devops / системного инженера в компанию,  которая занимается разработкой системного интегратора ПО в области виртуализации и облачных технологий.\n\nЧто хотят:\nЖелательно - высшее профильное образование и соответствующий опыт работы от 3-5 лет\nОС: Linux, Unix\nCI/CD: Jenkins, Teamcity, Travis и аналоги\nКонтейнеры: Docker\nВеб-сервисы: Ngnix, UWSGI\nМониторинг/алертинг: AppDynamics, Nagios, Zabbix etc.\nОпыт администрирования реплицированных СУБД (PostgreSQL или MariaDB, MongoDB)\nОпыт работы с elasticsearch/logstash/kibana\nAnsible, Salt\nОпыт администрирования облачных серверов (например - под платформами Amazon EC2, GoogleCloud, VmWare vSphere, OpenStack или прочих)\n\nПлюсами будут:\nустановка/обслуживание - Reverse Proxy (Nginx …), caсhing\nserver (Squid, Nginx etc.)\nустановка/обслуживание - load balancer (HAProxy, Nginx, etc.)\nBash Scripts.\nProcess Monitoring: ps, top, htop, atop, .. etc\nSystem Performance: nmon, iostat, sar, vmstat etc\nNetworking: nmap, tcpdump, ping, traceroute, airmon, etc.\nkubernetes/docker swarm\n\nОсновные обязанности:\nРазвертка контуров (dev, qas, prod)\nPerformance тестирование, нагрузочное тестирование\nСборка и обновление из репозиториев\nПоиск и устранение проблем\n\nЧто дают:\nХорошая ЗП. от 120 000 руб. до 200.000 по результатам собеседования.\nВозможна удаленная работа \nТак же есть возможность работы в офисе.\nг. Москва Сколково, возможна работа из офиса в г. Санкт-Петербурге и г Нижний Новогород (ул Грузинская).\n\nКомпания: http://asdtech.co/\n\nКонтакты: @mayke_kin\n\n—\n\n👉 Обсуждение вакансии в чате @devops_jobs","markup":[{"type":"hashtag","offset":0,"length":7,"data":"devops"},{"type":"hashtag","offset":9,"length":7,"data":"middle"},{"type":"hashtag","offset":18,"length":7,"data":"senior"},{"type":"hashtag","offset":26,"length":9,"data":"вакансия"},{"type":"link","offset":1532,"length":18,"data":"http://asdtech.co/"},{"type":"handle","offset":1562,"length":10,"data":"mayke_kin"},{"type":"handle","offset":1607,"length":12,"data":"devops_jobs"}],"date":"2020-03-24T04:12:20+00:00","link":"tg://resolve?domain=devops_jobs_feed&post=1844","tags":[{"name":"linux"},{"name":"unix"},{"name":"jenkins"},{"name":"docker"},{"name":"postgresql"},{"name":"mariadb"},{"name":"mongodb"},{"name":"elasticsearch"},{"name":"logstash"},{"name":"ansible"},{"name":"nginx"},{"name":"bash"},{"name":"kubernetes"}],"cities":[{"code":"moscow"}],"allowsRemote":true}},{"node":{"__typename":"Job","id":"23908581376-1001075660570","title":"Php разработчик","text":"#вакансия #backend #москва #офис #fulltime #php #senior #lead\n\nМой дружище из Aorti.ru собирает группу разработчиков на PHP. Большой концерн, компания работает с гос заказчиком. Деньги есть, кризис не помеха. Да, в офис, но в небольшой. Не коронизируем :)\n\nИщем: \n1. Одного могучего Lead Backend Developer\n2. Двух крутых Senior Backend Developer\n3. Сурового (одного) Middle Backend Developer\n\nДанное боевое подразделение будет заниматься разработкой интерфейсов управления всяких интересных штук.\n\nКомпания: АО “РТИ”: https://hh.ru/employer/103944\nАдрес: Москва, М Динамо\nЗанятость: полная\nРежим работы: с 9-11 до 18-20, пятница -1 час\nЗарплатная вилка: 120 - 180 т.р. на руки (уже после вычета налогов)\nПлюс: чай, кофе, санитайзер и безлимитная туалетная бумага :-D\n\nОбщие требования / пожелания:\n- PHP 7 + опыт от 3-х лет\n- SQL (PostgreSQL и PL/pgSQL) от 3х лет \n- Опыт с ОС Linux. Умение работать в Unix-окружении\n- Нет страха перех унаследованным кодом\n- Удалось поработать с Jira, Confluence, GitLab\n- Приходилось писать документацию по своему коду\n- Английский уровня чтения тех документации\n- Опыт разработки Web Services, REST, Web API\n- Было время поработать с GIS и OGC-протоколами\n- Code review удается без истерик\n- Есть смелость общаться с Заказчиком\n- Плюсуют карту: Python 3.5.6,  Django, C++ 2011 и новее\n- Удалось посмотреть на Astra Linux\n- Сложилась картина мира как написать UNIT и интеграционные тесты\n- Не пугают слова “отладка и оптимизация”\n\n→ Контакт: @dspv1\n\nПрошу сразу: резюме, о себе, ссылка на git","markup":[{"type":"hashtag","offset":0,"length":9,"data":"вакансия"},{"type":"hashtag","offset":10,"length":8,"data":"backend"},{"type":"hashtag","offset":19,"length":7,"data":"москва"},{"type":"hashtag","offset":27,"length":5,"data":"офис"},{"type":"hashtag","offset":33,"length":9,"data":"fulltime"},{"type":"hashtag","offset":43,"length":4,"data":"php"},{"type":"hashtag","offset":48,"length":7,"data":"senior"},{"type":"hashtag","offset":56,"length":5,"data":"lead"},{"type":"link","offset":78,"length":8,"data":"https://hh.ru/employer/103944"},{"type":"bold","offset":257,"length":7,"data":""},{"type":"link","offset":518,"length":29,"data":"https://hh.ru/employer/103944"},{"type":"underline","offset":721,"length":10,"data":""},{"type":"underline","offset":734,"length":28,"data":""},{"type":"bold","offset":768,"length":30,"data":""},{"type":"handle","offset":1477,"length":6,"data":"dspv1"}],"date":"2020-03-24T03:41:58+00:00","link":"tg://resolve?domain=php_jobs&post=22801","tags":[{"name":"php"},{"name":"sql"},{"name":"postgresql"},{"name":"linux"},{"name":"unix"},{"name":"gitlab"},{"name":"web"},{"name":"rest"},{"name":"python"},{"name":"django"}],"cities":[{"code":"moscow"}],"allowsRemote":false}},{"node":{"__typename":"Job","id":"1931476992-1001134745498","title":"Devops инженер","text":"#вакансия #Москва #фултайм #Экспресс42 #инженер\nГород: Москва\nКомпания: Экспресс 42\nФормат работы: офис\nЗанятость: полная\nЗарплата: от 120 000 до 200 000 рублей на руки\n\nМы небольшая команда, которая легко проводит эксперименты и быстро принимает решения. Мы делаем проекты по постановке практик DevOps, обучению DevOps практикам в технологических компаниях и корпоративном секторе.\nВ составе нашей команды тебя ждут разнообразные задачи по созданию и улучшению решений, обеспечивающих процессы разработки и эксплуатации цифровых продуктов наших клиентов. \nМы строим высокодоступную и удобную инфраструктуру, изучаем новые подходы и помогаем нашим клиентом с внедрением и адаптацией инженерных практик, таких как Непрерывная поставка, Инфраструктура как код, Централизованное логирование. \nИнструменты выбираем под задачу и потребности клиентов, среди основных, которые точно нужно знать: Kubernetes и его экосистема, Ansible, Terraform, CI-сервисы, системы контроля версий, облачные решения от разных провайдеров.\n\nМы ожидаем от тебя:\n— знание практик и инструментов логирования и мониторинга;\n— опыт описания инфраструктуры в виде кода (Ansible, Terraform, etc);\n— понимание процесса CI/CD;\n— слова Kubernetes, Prometheus, Jenkins, Gitlab, ELK, AWS, GCP не вызывают изумления, а заставляют трепетать нежное сердце инженера\n\nКлассно, если у тебя есть опыт эксплуатации веб-проектов в продакшене. И если при этом ты можешь похвастаться опытом применения нескольких перечисленных инструментов, то тебе точно нужно в Экспресс.\n\nУ нас действительно огненная команда. Мы вместе работаем, общаемся, ходим в бары, посещаем ивенты, организовываем внутренние хакатоны, готовим друг друга к выступлениям на конференциях, поддерживаем и болеем за наше общее дело.\nУ нас классно! Присоединяйся!\n\nКонтакты: Рушана @razrushana и rushana@express42.com\n\n—\n\n👉 Обсуждение вакансии в чате @devops_jobs","markup":[{"type":"hashtag","offset":0,"length":9,"data":"вакансия"},{"type":"hashtag","offset":10,"length":7,"data":"Москва"},{"type":"hashtag","offset":18,"length":8,"data":"фултайм"},{"type":"hashtag","offset":27,"length":11,"data":"Экспресс42"},{"type":"hashtag","offset":39,"length":8,"data":"инженер"},{"type":"handle","offset":1802,"length":11,"data":"razrushana"},{"type":"link","offset":1816,"length":21,"data":"mailto:rushana@express42.com"},{"type":"handle","offset":1872,"length":12,"data":"devops_jobs"}],"date":"2020-03-23T13:34:20+00:00","link":"tg://resolve?domain=devops_jobs_feed&post=1842","tags":[{"name":"kubernetes"},{"name":"ansible"},{"name":"jenkins"},{"name":"gitlab"},{"name":"amazon-web-services"},{"name":"google-cloud-platform"},{"name":"express"}],"cities":[{"code":"moscow"}],"allowsRemote":false}}]}}},"context":{}}