{"hash":"f5f6bf98bd95e769321482904cbbd488f77922fd","data":{"records":{"id":"russia/moscow","country":{"code":"russia","ruName":"Россия","enName":"Russia"},"city":{"code":"moscow","ruName":"Москва","enName":"Moscow"},"belongsTo":{"totalCount":476,"pageInfo":{"totalPages":48,"currentPage":42},"edges":[{"node":{"__typename":"Job","id":"102938705920-1001089317451","title":"Qa инженер","text":"#вакансия #москва #fulltime #middle #automation\n\n🏢Город: Москва, м. Ленинский проспект\n💻Формат: Офис\n💰З/п: до 170k на руки\n\n✌️Ищем тестировщика в команду сопровождения и развития облачной платформы собственной разработки на базе open source продуктов.\n«Лоялти энд Медиа Групп»- это современная облачная платформа - продуктовый маркетплейс и процессинг лояльности одновременно, заточенная под обработку больших массивов данных и создание продуктов и сервисов карточной лояльности для банков и мерчантов. Компания выступает как enabler и для тех, и для других, для чего реализовано большое количество интеграций с партнерами и клиентами, несколько white-label вебприложений для клиентов и набор API для онлайн-взаимодействия с приложениями клиентов и партнёров. Стратегический партнёр ЛМГ – Visa International.  \n\n📌Задачи: \n • Вам предстоит построить процесс тестирования в компании, фактически с нуля. \n • Участие в разработке правил и стандартов тестирования, поддержание высокого уровня культуры тестирования. \n • Создание и поддержка автоматизированных тестов\n • Ведение проекта – постоянная готовность предоставить полный и ясный отчет о состоянии проекта, анализ рисков, своевременное реагирование на проблемы. \n • Координация взаимодействия с другими участниками команды. \n • Выполнение всех работ, связанных с тестированием — сбор и анализ требований, разработка тестовой документации всех уровней, планирование, выдача оценок, подготовка тестовых сред и тестовых окружений, проведение циклов тестирования. \n  \n📌Требования: \n • Ясное понимание проектного подхода к работе, знакомство с различными методологиями управления проектами. \n • Опыт работы в тестировании от 2х лет. \n • Опыт использования ЯП в автоматизации тестирования  \n • Уверенные знания теории тестирования. \n • Умение составлять тестовую документацию всех уровней. \n • Английский язык на уровне чтения и написания технической документации. \n • Самостоятельность, высокий уровень личной дисциплины \n  \n📌Желательно: \n • Опыт работы с БД (PostgreSQL, PGBouncer, Redis, ElasticSearch, OpenLDAP) \n • Знание техник тестдизайна \n  \n📌Мы предлагаем: \n • Дружную команду и рабочую атмосферу с хорошим балансом творчества и задач. \n • Гибкий график. Возможна удаленная работа из дома по договоренности с командой. \n • Оплачиваемый отпуск и больничный. По предварительной договоренности у вас могут быть выходные дни для особых случаев. \n • Растущий коллектив – на данный момент около 20 человек, из которых половина – разработчики, devops и аналитики. \n • Адекватное руководство. \n • Полное отсутствие бюрократии. \n • Достойный уровень зарплаты. \n • Перспективы профессионального и карьерного роста. Мы убеждены, что компания должна инвестировать в развитие своих сотрудников и поэтому приветствуем посещение конференций, митапов, профессиональные курсы (некоторые из них возможно организовать за счет компании). \n • Офис в Москве, 7 минут от м. «Ленинский Проспект».\n\n✉️Почта: mkoneva@youhired.ru \n❗️Telegram: @nunquam2008\n📞 Телефон: +79210614118","markup":[{"type":"hashtag","offset":0,"length":9,"data":"вакансия"},{"type":"hashtag","offset":10,"length":7,"data":"москва"},{"type":"hashtag","offset":18,"length":9,"data":"fulltime"},{"type":"hashtag","offset":28,"length":7,"data":"middle"},{"type":"hashtag","offset":36,"length":11,"data":"automation"},{"type":"link","offset":2946,"length":19,"data":"mailto:mkoneva@youhired.ru"},{"type":"handle","offset":2979,"length":12,"data":"nunquam2008"},{"type":"link","offset":3004,"length":12,"data":"tel:+79210614118"}],"date":"2020-06-16T08:17:36+00:00","link":"tg://resolve?domain=qa_jobs&post=0","tags":[{"name":"qa"},{"name":"postgresql"},{"name":"redis"},{"name":"elasticsearch"}],"cities":[{"code":"moscow"}],"allowsRemote":true}},{"node":{"__typename":"Job","id":"102937657344-1001089317451","title":"Qa engineer","text":"#вакансия #Москва #fulltime #офис #qa #mobile\nКомпания: FunCorp\nВакансия:  QA mobile engineer\nОпыт работы: от 2-х лет\nЗарплата: 100 000 - 130 000 р. на руки\nМесторасположение: Москва, м. Белорусская\nЗанятость: fulltime, офис.\nNB! Удаленный вариант работы после выхода из карантина, к сожалению, не рассматриваем\nКонтактные данные: @chrschredinger или kristina@fun.co\n\nТребования\n- опыт тестирования мобильных приложений (iOS, Android) от года\n- опыт использования сниффера (Charles или Fiddler / Wireshark / Mitmproxy)\n- опыт работы с Android Studio / XCode\n- опыт работы с Firebase\n\nОбязанности\n- ручное тестирование (функциональное / регрессионное / исследовательское)\n- написание тестовых сценариев\n- тесная работа с менеджерами и разработчиками проекта\n\nУсловия\n- ДМС, включая стоматологию\n- бонусная система\n- обеды и ужины в офисе\n- бюджет на обучение и на фитнес\n- оплата участия в российских и зарубежных конференциях\n- отличный офис на м. Белорусская (БЦ «Белая площадь)","markup":[{"type":"hashtag","offset":0,"length":9,"data":"вакансия"},{"type":"hashtag","offset":10,"length":7,"data":"Москва"},{"type":"hashtag","offset":18,"length":9,"data":"fulltime"},{"type":"hashtag","offset":28,"length":5,"data":"офис"},{"type":"hashtag","offset":34,"length":3,"data":"qa"},{"type":"hashtag","offset":38,"length":7,"data":"mobile"},{"type":"bold","offset":46,"length":10,"data":""},{"type":"bold","offset":64,"length":10,"data":""},{"type":"bold","offset":94,"length":13,"data":""},{"type":"bold","offset":118,"length":10,"data":""},{"type":"bold","offset":157,"length":19,"data":""},{"type":"bold","offset":199,"length":10,"data":""},{"type":"underline","offset":226,"length":86,"data":""},{"type":"bold","offset":312,"length":19,"data":""},{"type":"handle","offset":331,"length":15,"data":"chrschredinger"},{"type":"link","offset":351,"length":15,"data":"mailto:kristina@fun.co"},{"type":"bold","offset":368,"length":11,"data":""},{"type":"bold","offset":584,"length":12,"data":""},{"type":"bold","offset":758,"length":8,"data":""}],"date":"2020-06-16T08:08:44+00:00","link":"tg://resolve?domain=qa_jobs&post=0","tags":[{"name":"qa"},{"name":"mobile"},{"name":"ios"},{"name":"android"},{"name":"xcode"},{"name":"firebase"},{"name":"android-studio"}],"cities":[{"code":"moscow"}],"allowsRemote":false}},{"node":{"__typename":"Job","id":"71349305344-1001054966032","title":"Ios разработчик","text":"#вакансия #developer #iOS #москва  #fulltime \niOS Developer\nГород: Москва\nФормат работы: офис \nЗанятость: полная\nЗП вилка: 150-250 т.р.\n\nВ штат в офис госбанка в Москве в команду нужны разработчики iOS (Swift, objective-C) для написания нативных приложений. \nОпыт: Middle (выше - приветствуется) \nПолный соц. пакет, дмс и поддержка ре-локации.\nГибкое время работы.\n\nПодробнее – пишем в личку. @okokgoogLE","markup":[{"type":"hashtag","offset":0,"length":9,"data":"вакансия"},{"type":"hashtag","offset":10,"length":10,"data":"developer"},{"type":"hashtag","offset":21,"length":4,"data":"iOS"},{"type":"hashtag","offset":26,"length":7,"data":"москва"},{"type":"hashtag","offset":35,"length":9,"data":"fulltime"},{"type":"handle","offset":393,"length":11,"data":"okokgoogLE"}],"date":"2020-06-16T08:03:13+00:00","link":"tg://resolve?domain=mobile_jobs&post=0","tags":[{"name":"mobile"},{"name":"ios"},{"name":"swift"},{"name":"objective-c"}],"cities":[{"code":"moscow"}],"allowsRemote":false}},{"node":{"__typename":"Job","id":"2213543936-1001134745498","title":"Devops инженер","text":"#вакансия #fulltime #devops #удалёнка\n\nГород и адрес офиса: г. Москва, метро Динамо, 12 минут пешком через Петровский парк\n\nФормат работы: офис и/или удалёнка\n\nЗанятость: полная\n\nЗарплатная вилка:  150 000 фикс на руки\n\nОписание вакансии: \n\nДрузья!\n\nИщем DevOps в образовательный онлайн-проект https://edu.sirius.online \nНас сейчас 15 человек. \nЗанимаемся бесплатным дополнительным образованием. \nДелаем его доступным и качественным.\n\nЧем надо заниматься:\n– осваивать и развивать существующую инфраструктуру\n– совершенствовать процессы CI/CD\n– автоматизировать и оптимизировать\n– внедрять новые технологии и идеи\n– заниматься поддержкой и обслуживанием сервисов\n\nЧто надо уметь:\n– быть активным и ответственным \n– учиться и развиваться самостоятельно\n\nНаши технологии одним списком:\nReact, Haskell, GoLang, PostgreSQL, Redis, MINIO, Янлекс.Облако, Kubernetes, Rancher, EFK, Grafana, Prometheus, GitLab CI/CD, HELM.\n\nВ начале поможем, научим, подскажем.\n\nНазвание компании: \nФонд «Талант и успех» (Образовательный центр «Сириус»), г. Сочи\n\nКонтакты:\n@szemskov\nszemskov@sirius.online\n\n—\n\n👉 Обсуждение вакансии в чате @devops_jobs","markup":[{"type":"hashtag","offset":0,"length":9,"data":"вакансия"},{"type":"hashtag","offset":10,"length":9,"data":"fulltime"},{"type":"hashtag","offset":20,"length":7,"data":"devops"},{"type":"hashtag","offset":28,"length":9,"data":"удалёнка"},{"type":"link","offset":294,"length":25,"data":"https://edu.sirius.online"},{"type":"handle","offset":1049,"length":9,"data":"szemskov"},{"type":"link","offset":1059,"length":22,"data":"mailto:szemskov@sirius.online"},{"type":"handle","offset":1116,"length":12,"data":"devops_jobs"}],"date":"2020-06-16T07:58:20+00:00","link":"tg://resolve?domain=devops_jobs_feed&post=2111","tags":[{"name":"reactjs"},{"name":"haskell"},{"name":"go"},{"name":"postgresql"},{"name":"redis"},{"name":"kubernetes"},{"name":"gitlab"}],"cities":[{"code":"moscow"},{"code":"sochi"}],"allowsRemote":true}},{"node":{"__typename":"Job","id":"2212495360-1001134745498","title":"Devops engineer","text":"#вакансия #DevOps #fulltime #москва\n\nDevOps Engineer\nГород: Москва\nФормат работы: офис \nЗанятость: полная\nЗП вилка 160-250 тысяч\n\ninDriver - международный ride-hailing сервис:\n* 47 млн пользователей в 31 стране мира.\n* Входим в топ-5 мобильных сервисов для заказа поездки по итогам января 2020 года.\n* Офис возле м. Улица 1905 года.\n\nОбязанности:\n• Настройка и поддержка инфраструктуры для разработки (сервера, docker, kubernetes, helm)\n• Внедрение и поддержка Kubernetes в production\n• Создание Helm Charts\n• Настройка пайплайнов для процессов CI/CD (TeamCity)\n• Повышение отказоустойчивости работы сервисов\n\nТребования:\n• Опыт работы с операционными системами семейства Linux (CentOS/RHEL)\n• Опыт внедрения и использования Kubernetes в production\n• Опыт настройки и работы с nginx, MySQL, Redis, Prometheus, ClickHouse\n• Опыт работы с облачными провайдерами: GCP, AWS, Azure\n• Опыт использования Ansible и написания ролей и плейбуков\n• Опыт поддержки высоконагруженных сервисов на базе ОС Linux\n• Умение читать и разбираться в чужом коде: Go, PHP\n\nКонтакт для связи: @liuboushka888\n\n—\n\n👉 Обсуждение вакансии в чате @devops_jobs","markup":[{"type":"hashtag","offset":0,"length":9,"data":"вакансия"},{"type":"hashtag","offset":10,"length":7,"data":"DevOps"},{"type":"hashtag","offset":18,"length":9,"data":"fulltime"},{"type":"hashtag","offset":28,"length":7,"data":"москва"},{"type":"handle","offset":1069,"length":14,"data":"liuboushka888"},{"type":"handle","offset":1118,"length":12,"data":"devops_jobs"}],"date":"2020-06-16T07:57:58+00:00","link":"tg://resolve?domain=devops_jobs_feed&post=2110","tags":[{"name":"docker"},{"name":"kubernetes"},{"name":"linux"},{"name":"centos"},{"name":"nginx"},{"name":"mysql"},{"name":"redis"},{"name":"google-cloud-platform"},{"name":"amazon-web-services"},{"name":"azure"},{"name":"ansible"},{"name":"php"}],"cities":[{"code":"moscow"}],"allowsRemote":false}},{"node":{"__typename":"Job","id":"1684013056-1001091028994","title":"Java разработчик","text":"#java #java11 #tarantool #lua #redis #kotlin \n\nКомпания #Иннодата (ГК Ramax) - системный интегратор с офисами в #Москва, #Питер, #Воронеж, #Иннополис. \nФормат работы #офис, #fulltime #remote\nВилка: от 200 net на руки\nКонтакт для связи: pbokarev@innodata.ru \n\n📌Задача: Нам предстоит разработать один из центральных компонентов ИТ системы крупнейшей ритейл сети.\n\nГеораспределённую mission-critical платформу, работающую в режиме 24/7 365, объединяющую информацию из всех подразделений и IT-систем, связанных с клиентом, в единый профиль. К системе предъявляются жесткие требования ко времени отклика и rps. Ядром системы мы выбрали tarantool - одно из самых навороченных imdg решений на данный момент. Мы ищем человека, который не боится новых вызовов и готов развиваться, устал от бесконечный crud'ов и хочет попробовать себя в highload. Готовы рассмотреть кандидатов разного уровня!\n\n📌Наши плюсы:\nНикакого legacy, тк проект только начинается, есть возможность поучаствовать в выборе стека. Современные технологии, мощный кластер, после окончания проекта возможность работы на других проектах (scala, BIgData)\n\n📌Стек технологий:\nJava 11;\nTarantool (Lua);\nClickhouse;\nPostgreSQL;\n\n📌Требования:\nОпыт коммерческой разработки на Java более 2 лет. Будет плюсом умение писать на Kotlin;\nSQL, опыт проектирования реляционнных баз данных;\nОпыт использования Tarantool или Redis (Lua);\nПонимание разницы OLAP и OLTP;\n\n📌Будет плюсом:\nОпыт работы с распределёнными системами;\nОпыт разработки highload систем;\nОпыт разработки многопоточных приложений;\n\n📌Обязанности:\nУчастие в проектировании архитектуры и детализации работ;\nНепосредсвенно реализация задач;\nПокрытие нового функционала тестами (unit, регрессионные);","markup":[{"type":"hashtag","offset":0,"length":5,"data":"java"},{"type":"hashtag","offset":6,"length":7,"data":"java11"},{"type":"hashtag","offset":14,"length":10,"data":"tarantool"},{"type":"hashtag","offset":25,"length":4,"data":"lua"},{"type":"hashtag","offset":30,"length":6,"data":"redis"},{"type":"hashtag","offset":37,"length":7,"data":"kotlin"},{"type":"hashtag","offset":56,"length":9,"data":"Иннодата"},{"type":"hashtag","offset":112,"length":7,"data":"Москва"},{"type":"hashtag","offset":121,"length":6,"data":"Питер"},{"type":"hashtag","offset":129,"length":8,"data":"Воронеж"},{"type":"hashtag","offset":139,"length":10,"data":"Иннополис"},{"type":"hashtag","offset":166,"length":5,"data":"офис"},{"type":"hashtag","offset":173,"length":9,"data":"fulltime"},{"type":"hashtag","offset":183,"length":7,"data":"remote"},{"type":"link","offset":236,"length":20,"data":"mailto:pbokarev@innodata.ru"}],"date":"2020-06-16T07:13:08+00:00","link":"tg://resolve?domain=jvmjobs&post=1606","tags":[{"name":"java"},{"name":"jvm"},{"name":"lua"},{"name":"redis"},{"name":"kotlin"},{"name":"dotnet"},{"name":"scala"},{"name":"postgresql"},{"name":"sql"}],"cities":[{"code":"moscow"},{"code":"voronezh"}],"allowsRemote":true}},{"node":{"__typename":"Job","id":"341835776-1001352129329","title":"Golang developer","text":"#вакансия #backend  #Go #php #fulltime #moscow \n\ninDriver - международный ride-hailing сервис:\n* 47 млн пользователей в 31 стране мира.\n* Входим в топ-5 мобильных сервисов для заказа поездки по итогам января 2020 года.\n* Офис возле м. Улица 1905 года.\n\nBackend Developer (Golang/php)\nЗП вилка 160-250 тысяч\nГород Москва, только офис фуллтайм\n\nОбязанности:\n• Разработка и поддержка backend сервисов на Golang/PHP\n• Прототипирование новых решений\n• Проведение код-ревью\n• Развитие микро-сервисного подхода\n\nТребования:\n• Знание микро-сервисных, high load архитектур\n• Опыт работы в высоконагруженных проектах \n• Опыт работы с СУБД \n\nКонтакт для связи: почта lubov.iv@indriver.com или телеграм @Liuboushka888","markup":[{"type":"hashtag","offset":0,"length":9,"data":"вакансия"},{"type":"hashtag","offset":10,"length":8,"data":"backend"},{"type":"hashtag","offset":20,"length":3,"data":"Go"},{"type":"hashtag","offset":24,"length":4,"data":"php"},{"type":"hashtag","offset":29,"length":9,"data":"fulltime"},{"type":"hashtag","offset":39,"length":7,"data":"moscow"},{"type":"link","offset":656,"length":21,"data":"mailto:lubov.iv@indriver.com"},{"type":"handle","offset":691,"length":14,"data":"Liuboushka888"}],"date":"2020-06-16T06:50:11+00:00","link":"tg://resolve?domain=gogetajobfeed&post=326","tags":[{"name":"go"},{"name":"php"}],"cities":[{"code":"moscow"}],"allowsRemote":false}},{"node":{"__typename":"Job","id":"26322403328-1001075660570","title":"Php разработчик","text":"#вакансия  #fulltime #backend  #москва #go #php\nВакансия: backend-разработчик PHP\nКомпания: Авито\nГород: Москва\nФормат работы: #офис\nЗанятость: #полная\n\n\nВам предстоит:\n-проектировать и реализовывать решения для одной из крупнейших вертикалей Авито;\n-справляться с высокой нагрузкой и быстрым ростом этой самой нагрузки;\n-участвовать в разработке продукта, которым пользуются миллионы человек.    \n\nМы ожидаем, что вы:\n-имеете опыт разработки на PHP от 3 лет;\n-понимаете, что такое ООП\n-знаете что такое паттерны проектирования, когда их применять и когда их не применять\n-знакомы с основными алгоритмами, структурами данных и способами защиты информации;\n-знаете SQL и работали с реляционными БД;\n-любите Unit-тесты и знаете как их писать.\n\nНе обязательно, но круто если Вы:\n-владеете Go или хотите на нём писать;\n-имеете опыт работы с NoSQL, системами очередей;\n-работали с Docker/Kubernetes;\n-имеете опыт коммерческой разработки микросервисной архитектуры.\n\nПо всем вопросам писать @anna_shangareeva","markup":[{"type":"hashtag","offset":0,"length":9,"data":"вакансия"},{"type":"hashtag","offset":11,"length":9,"data":"fulltime"},{"type":"hashtag","offset":21,"length":8,"data":"backend"},{"type":"hashtag","offset":31,"length":7,"data":"москва"},{"type":"hashtag","offset":39,"length":3,"data":"go"},{"type":"hashtag","offset":43,"length":4,"data":"php"},{"type":"hashtag","offset":127,"length":5,"data":"офис"},{"type":"hashtag","offset":144,"length":7,"data":"полная"},{"type":"handle","offset":985,"length":17,"data":"anna_shangareeva"}],"date":"2020-06-16T06:45:09+00:00","link":"tg://resolve?domain=php_jobs&post=25103","tags":[{"name":"php"},{"name":"sql"},{"name":"nosql"},{"name":"docker"},{"name":"kubernetes"}],"cities":[{"code":"moscow"}],"allowsRemote":false}},{"node":{"__typename":"Job","id":"71344062464-1001054966032","title":"Ios developer","text":"#вакансия #developer #iOS #moscow  #fulltime \niOS Developer\nГород: Москва\nФормат работы: офис \nЗанятость: полная\nЗП вилка: 160-290 тысяч \n\ninDriver - международный ride-hailing сервис:\n* 47 млн пользователей в 31 стране мира.\n* Входим в топ-5 мобильных сервисов для заказа поездки по итогам января 2020 года.\n* Офис возле м. Улица 1905 года.\n* Релокация в Москву для иногородних.\n\nОбязанности:\n• Разработка нового функционала приложения\n• Поддержка уже существующего функционала приложения\n• Участие в проектировании архитектуры системы\n\nТребования:\n• Отличное знание Swift и Objective-C\n•Опыт коммерческой iOS-разработки\n• Уверенное знание различных архитектурных подходов\n\nКонтакт для связи: @Liuboushka888 или lubov.iv@indriver.com","markup":[{"type":"hashtag","offset":0,"length":9,"data":"вакансия"},{"type":"hashtag","offset":10,"length":10,"data":"developer"},{"type":"hashtag","offset":21,"length":4,"data":"iOS"},{"type":"hashtag","offset":26,"length":7,"data":"moscow"},{"type":"hashtag","offset":35,"length":9,"data":"fulltime"},{"type":"handle","offset":694,"length":14,"data":"Liuboushka888"},{"type":"link","offset":713,"length":21,"data":"mailto:lubov.iv@indriver.com"}],"date":"2020-06-16T06:43:35+00:00","link":"tg://resolve?domain=mobile_jobs&post=0","tags":[{"name":"mobile"},{"name":"ios"},{"name":"swift"},{"name":"objective-c"}],"cities":[{"code":"moscow"}],"allowsRemote":false}},{"node":{"__typename":"Job","id":"71334625280-1001054966032","title":"Ios разработчик","text":"🌈 В компанию в Москве требуется Senior IOS разработчик, для работы над стриминговой платформой ^_^ \n\n💻Вакансия: #вакансия #москва #ios #офис\n🏢Компания: #Magic\n📍Локация:  #мск #москва\n💰З/п: от 200 до 280 на руки\n\n🔮Чем предстоит заниматься:\n• Разработка мобильных приложений под платформу iOS.\n• Участвовать в CodeReview.\n• Поддержка и развитие проектов, добавление нового функционала.\n\n💼Наши ожидания:\n• Опыт на Swift от 3-х лет, опыт на Obj-C;\n• Глубокие знания UIKit;\n• Опыт работы с RxSwift;\n• Глубокие знания iOS SDK.\n\n🏆Мы предлагаем:\n• Уровень заработной платы (зависит от пожеланий и профессионально уровня кандидата).\n• Возможность гибкого начала рабочего дня.\n• Офис: м. Дубровка, м.Волгоградский проспект.\n• Работа в классном офисе.\n\n📩Резюме и вопросы по вакансии жду:\n✍️ @Gleaming_Darkness\n✉️ margoshwarz@gmail.com","markup":[{"type":"hashtag","offset":114,"length":9,"data":"вакансия"},{"type":"hashtag","offset":124,"length":7,"data":"москва"},{"type":"hashtag","offset":132,"length":4,"data":"ios"},{"type":"hashtag","offset":137,"length":5,"data":"офис"},{"type":"hashtag","offset":155,"length":6,"data":"Magic"},{"type":"hashtag","offset":174,"length":4,"data":"мск"},{"type":"hashtag","offset":179,"length":7,"data":"москва"},{"type":"handle","offset":789,"length":18,"data":"Gleaming_Darkness"},{"type":"link","offset":811,"length":21,"data":"mailto:margoshwarz@gmail.com"}],"date":"2020-06-16T03:41:27+00:00","link":"tg://resolve?domain=mobile_jobs&post=0","tags":[{"name":"mobile"},{"name":"ios"},{"name":"swift"},{"name":"uikit"}],"cities":[{"code":"moscow"}],"allowsRemote":false}}]}}},"context":{}}