{"hash":"f34fd2c444a074f4e0e67d525015a008ef8e766f","data":{"records":{"id":"javascript","name":"javascript","belongsTo":{"totalCount":84,"pageInfo":{"totalPages":9,"currentPage":4},"edges":[{"node":{"__typename":"Job","id":"16221470720-1001110946746","title":"Js разработчик","text":"#вакансия #удаленка #remote #angular #javascript #киров #томск #уфа #брест #белгород #новгород\nЛокация: удаленно или офис (Н.Новгород, Томск, Киров, Уфа, Белгород, Брест)\n\nЗанятость: полная\n\nЗарплатная вилка: от 120 т.р. до 150т.р. на руки\n\nКомпания: Colvir Software Solutions\n\nТребуется senior или middle разработчик на удаленную работу\n\nЗадачи:\n\nРазработка/доработка одностраничных Web-приложений (SPA) дистанционного банковского обслуживания (на базе Angular 2+)\n\n\nПожелания к опыту соискателя:\n\nОпыт коммерческой разработки Angular 2+\n\nОпыт работы с Angular 2+ от 2 лет\n\nОпыт разработки Apache Сordova приложений;\n\nОпыт использования CSS-препроцессоров (LESS, SASS);\n\nОтличные знания JavaScript/HTML/CSS,\n\n\nСущественным плюсом будет:\n\nОпыт использования библиотек функционального программирования (Lodash);\n\nПрограммирование на платформе NodeJS;\n\nОпыт программирования по спецификации ECMAScript 6\n\nУмение читать SQL код;\n\nОпыт работы с Mercurial и(или) Git;\n\nБазовые знания администрирования Linux;\n\nАнглийский язык - на уровне чтения документации.\nМы предлагаем:\nОфициальное трудоустройство, оплачиваемые больничные и отпуск\n\nКорпоративное обучение и библиотека\n\nБесплатные медицинские онлайн-консультации «Онлайн Доктор»\n\nКорпоративные скидки на изучение английского языка\n\nКонтакты: @CTatyana или почта tchertykova@colvir.ru","markup":[{"type":"hashtag","offset":0,"length":9,"data":"вакансия"},{"type":"hashtag","offset":10,"length":9,"data":"удаленка"},{"type":"hashtag","offset":20,"length":7,"data":"remote"},{"type":"hashtag","offset":28,"length":8,"data":"angular"},{"type":"hashtag","offset":37,"length":11,"data":"javascript"},{"type":"hashtag","offset":49,"length":6,"data":"киров"},{"type":"hashtag","offset":56,"length":6,"data":"томск"},{"type":"hashtag","offset":63,"length":4,"data":"уфа"},{"type":"hashtag","offset":68,"length":6,"data":"брест"},{"type":"hashtag","offset":75,"length":9,"data":"белгород"},{"type":"hashtag","offset":85,"length":9,"data":"новгород"},{"type":"handle","offset":1291,"length":9,"data":"CTatyana"},{"type":"link","offset":1311,"length":21,"data":"mailto:tchertykova@colvir.ru"}],"date":"2020-04-09T06:37:28+00:00","link":"tg://resolve?domain=javascript_jobs_feed&post=15470","tags":[{"name":"javascript"},{"name":"angularjs"},{"name":"web"},{"name":"apache"},{"name":"css"},{"name":"sass"},{"name":"html"},{"name":"nodejs"},{"name":"sql"},{"name":"mercurial"},{"name":"git"},{"name":"linux"}],"cities":[{"code":"kirov"},{"code":"tomsk"},{"code":"ufa"},{"code":"brest"},{"code":"belgorod"}],"allowsRemote":true}},{"node":{"__typename":"Job","id":"16220422144-1001110946746","title":"Js разработчик","text":"#вакансия #Москва #remote #Javascript #frontend #middle #react #vuejs\n\nЛокация: Москва\nФормат работы: удаленка\nЗанятость: полная, гибкое начало дня\nЗП: 150 000 - 180 000 рублей до вычета налогов \n\n🔹 Открыта вакансия Frontend developer (уровня миддл) в компании Агроплем.\nАгроплем - это инновационный лабораторный кластер, который трудится над задачами по изучению генетики животных, аналитики данных ферм, почв.\nКомпания является резидентом Сколково, MVP продукта планируется на конец 2020 года.\nСейчас работают над сложным комплексным проектом по автоматизации ферм, аналогов которых нет в мире. Проект идет на стыке с IoT технологиями,  в будущем будет BigData, цифровая модель ферм.\nБекенд проектов пишется на .Net. Сейчас ребята в поиске первого фронтенд разработчика для разработки системы управления фермой (фронтенд фреймворк пока не выбран). \n\n🔹 Требования:\n- коммерческий опыт разработки на Javascript от 2- ух лет;\n- коммерческий опыт разработки на vuejs/react от 1-ого года;\n- будет плюсом опыт разработки на Node.JS\n- будет плюсом, если кандидат не относится отрицательно к .Net cтеку\n\n🔹 Что интересного есть у ребят:\n- официальное трудоустройство и белая ЗП;\n- полностью удаленная работа;\n- компенсация техники;\nа главное, возможность присоединиться к отличной команде специалистов, которые действительно горят своим делом!\n\n🔹 Контакты:\ne-mail: daria@luckyhunter.io\ntelegram: @prudentdaria\nКА: luckyhunter\nПишите, буду рада ответить на все возможные вопросы в телеграме или по почте 😊","markup":[{"type":"hashtag","offset":0,"length":9,"data":"вакансия"},{"type":"hashtag","offset":10,"length":7,"data":"Москва"},{"type":"hashtag","offset":18,"length":7,"data":"remote"},{"type":"hashtag","offset":26,"length":11,"data":"Javascript"},{"type":"hashtag","offset":38,"length":9,"data":"frontend"},{"type":"hashtag","offset":48,"length":7,"data":"middle"},{"type":"hashtag","offset":56,"length":6,"data":"react"},{"type":"hashtag","offset":63,"length":6,"data":"vuejs"},{"type":"link","offset":1362,"length":20,"data":"mailto:daria@luckyhunter.io"},{"type":"handle","offset":1393,"length":13,"data":"prudentdaria"}],"date":"2020-04-09T06:37:00+00:00","link":"tg://resolve?domain=javascript_jobs_feed&post=15469","tags":[{"name":"javascript"},{"name":"reactjs"},{"name":"vuejs"},{"name":"dotnet"},{"name":"nodejs"}],"cities":[{"code":"moscow"}],"allowsRemote":true}},{"node":{"__typename":"Job","id":"16219373568-1001110946746","title":"Js разработчик","text":"#вакансия #удаленно #react #middle+\nКомпания - VMB\nГород - Москва \nФормат - удаленная работа \nГрафик - полный рабочий день \nВилка - 150-200к рублей на руки \n\n📍Проект - “Детский проект” для поискового приложения нужно сделать веб приложение, где дети могут тыкаться с любимыми персонажами \n📍Что нужно? \nзнание React и TypeScript;\nотличное владение чистым JS;\nхорошее знание Node.js и ES6;\nхорошее знание HTML и CSS;\nумение работать с Git;\nпонимание особенностей SPA-приложений.\n📍Плюсами будут:\nпонимание принципов разработки изоморфных приложений;\nопыт разработки под мобильные браузеры;\nзнакомство с Unix-системами;\nопыт написания тестов (юнит- или интеграционных);\nопыт работы с системами сборки (Webpack, Rollup, Gulp, Grunt и т. п.);\nопыт работы с системами непрерывной интеграции (TeamСity, Travis, Jenkins, Drone и т. п.).\n📍Что предлагаем?\nУдалённую занятость \nВозможность развиваться и развивать интересный проект\n\nКонтакты \n@nariarakel","markup":[{"type":"hashtag","offset":0,"length":9,"data":"вакансия"},{"type":"hashtag","offset":10,"length":9,"data":"удаленно"},{"type":"hashtag","offset":20,"length":6,"data":"react"},{"type":"hashtag","offset":27,"length":7,"data":"middle"},{"type":"handle","offset":935,"length":11,"data":"nariarakel"}],"date":"2020-04-09T06:36:49+00:00","link":"tg://resolve?domain=javascript_jobs_feed&post=15468","tags":[{"name":"javascript"},{"name":"reactjs"},{"name":"typescript"},{"name":"nodejs"},{"name":"html"},{"name":"css"},{"name":"git"},{"name":"unix"},{"name":"webpack"},{"name":"gulp"},{"name":"gruntjs"},{"name":"jenkins"}],"cities":[{"code":"moscow"}],"allowsRemote":true}},{"node":{"__typename":"Job","id":"16218324992-1001110946746","title":"Js разработчик","text":"#вакансия #front #react #typescript #москва #генетика #javascript #nodejs #геномэксперт #барсгруп\n\nГород и адрес офиса: Москва, ст.м.Павелецкая\nФормат работы: Офис\nЗанятость: Полная \nЗарплатная вилка: от 160 до 250 000 руб. на руки\nНазвание компании: Барс Груп\nhttps://bars.group/\nПроект Геном.Эксперт  - https://genome.expert/ \n\nТребуется senior/middle front-end разработчик в крупный медицинский проект.\n\nПредметная область: Генетика.\nТекущее состояние проекта: Проект запущен как стартап, поэтому есть уникальная возможность принять участие в создании с нуля единого пространства для врачей-генетиков, лабораторных генетиков, биоинформатиков.\n\nЧем придется заниматься:\n\n-Писать микроприложения и компоненты на React;\n-Изучать исходники на Polymer, чтобы переехать на React и микросервисную архитектуру;\n-Доделывать существующую систему с использованием самописного фрэймворка(пока переезжаем на реакт, это иногда нужно будет делать)\n\nТребования:\n\n-Front-end: React(Vue), typescript, Polymer, Redux/Mobx/Vuex;\n-Межсервисное взаимодействие и API: REST/GraphQL/gRPC;\n-Инструменты для работы: Git, bitbucket, JIRA, docker, docker-compose\n\nУсловия:\n-Оформление по ТК РФ;\n-Работа в комфортабельном офисе, ст.м.Павелецкая;\n-Белая зарплата, повышающаяся по системе аттестаций несколько раз в год;\n-ДМС;\n-Перспективы карьерного роста;\n-Корпоративное обучение (тренинги, мастер-классы);\n-Корпоративная библиотека;\n-Мы рассматриваем кандидатов с возможностью переезда в Москву;\n-Возможность предоставления бесплатного жилья на первый месяц\n- График 5/2. \n\nКонтакты для связи: \n\nemail: a.starchenko@bars.group \nTelegram: @alinavelcheva \n\nbars.group\nАО «БАРС Груп» - официальный сайт компании\nАО «БАРС Груп» - российский производитель ИТ-решений и экспертный центр в сфере государственной и корпоративной информатизации.","markup":[{"type":"hashtag","offset":0,"length":9,"data":"вакансия"},{"type":"hashtag","offset":10,"length":6,"data":"front"},{"type":"hashtag","offset":17,"length":6,"data":"react"},{"type":"hashtag","offset":24,"length":11,"data":"typescript"},{"type":"hashtag","offset":36,"length":7,"data":"москва"},{"type":"hashtag","offset":44,"length":9,"data":"генетика"},{"type":"hashtag","offset":54,"length":11,"data":"javascript"},{"type":"hashtag","offset":66,"length":7,"data":"nodejs"},{"type":"hashtag","offset":74,"length":13,"data":"геномэксперт"},{"type":"hashtag","offset":88,"length":9,"data":"барсгруп"},{"type":"link","offset":261,"length":19,"data":"https://bars.group/"},{"type":"link","offset":305,"length":22,"data":"https://genome.expert/"},{"type":"link","offset":1577,"length":23,"data":"mailto:a.starchenko@bars.group"},{"type":"handle","offset":1612,"length":14,"data":"alinavelcheva"},{"type":"link","offset":1629,"length":10,"data":"http://bars.group"}],"date":"2020-04-09T06:36:29+00:00","link":"tg://resolve?domain=javascript_jobs_feed&post=15467","tags":[{"name":"javascript"},{"name":"reactjs"},{"name":"typescript"},{"name":"nodejs"},{"name":"polymerjs"},{"name":"vuejs"},{"name":"redux"},{"name":"rest"},{"name":"graphql"},{"name":"git"},{"name":"docker"},{"name":"docker-compose"}],"cities":[{"code":"moscow"}],"allowsRemote":false}},{"node":{"__typename":"Job","id":"1429209088-1001091028994","title":"Java разработчик","text":"#java #javascript #spring #middle #senior #кибербезопасность\nКомпания: #bizone #бизон \nЛокация: #москва #мск \nЗ/п: 100 - 220к\nКонтакты: @sokolovaap, d.sokolova@bi.zone\n\n- BI.ZONE (Безопасная информационная зона) -визионер российского рынка кибербезопасности.\nМы создаем инновационные продукты для анализа угроз и активной защиты от мошенничества, автоматизируем и масштабируем экспертизу наших сервисных подразделений и разрабатываем инструменты для внутреннего использования; Являемся международной компанией;\n\nЗадача:\n- Разработка уникальной платформы выявления мошенничества (Fraud Monitoring);\n\nНаш стек:\n- spring, знание maven,postgresql,apache cassandra,docker,apache kafka;\n\nЧто предлагаем?\n- Сложные задачи, прокачивающие уникальные скиллы;\n- Организовываем удаленную работу сейчас, не проблема.\n- Офис м.Комсомольская/Бауманская/Красносельская;\n- Свободный график, капсулы сна, работу на свежем воздухе, игровые приставки;\n- ДМС и фитнес и тд;\n- Профессиональный коллектив, сплошь состоящий из асов разработки сложных систем в области практической ИБ;\n- И дружную семью 24/7.","markup":[{"type":"hashtag","offset":0,"length":5,"data":"java"},{"type":"hashtag","offset":6,"length":11,"data":"javascript"},{"type":"hashtag","offset":18,"length":7,"data":"spring"},{"type":"hashtag","offset":26,"length":7,"data":"middle"},{"type":"hashtag","offset":34,"length":7,"data":"senior"},{"type":"hashtag","offset":42,"length":18,"data":"кибербезопасность"},{"type":"hashtag","offset":71,"length":7,"data":"bizone"},{"type":"hashtag","offset":79,"length":6,"data":"бизон"},{"type":"hashtag","offset":96,"length":7,"data":"москва"},{"type":"hashtag","offset":104,"length":4,"data":"мск"},{"type":"handle","offset":136,"length":11,"data":"sokolovaap"},{"type":"link","offset":149,"length":18,"data":"mailto:d.sokolova@bi.zone"},{"type":"link","offset":171,"length":7,"data":"http://BI.ZONE"}],"date":"2020-04-08T10:59:36+00:00","link":"tg://resolve?domain=jvmjobs&post=1363","tags":[{"name":"java"},{"name":"jvm"},{"name":"javascript"},{"name":"spring"},{"name":"maven"},{"name":"postgresql"},{"name":"apache"},{"name":"cassandra"},{"name":"docker"},{"name":"kafka"}],"cities":[{"code":"moscow"}],"allowsRemote":false}},{"node":{"__typename":"Job","id":"16215179264-1001110946746","title":"Js developer","text":"#вакансия  #js  #node #спб                                                                                 Вакансия: BACKEND JS DEVELOPER (NODE.JS) \n\nФормат: офис\nЛокация: санкт-петербург, метро: комендантский проспект\nЗанятость: Полная, офис\nОпыт: от 2 лет\nЗарплата: от 180000 до 300000 тыс. руб на руки\nКомпания: Aline digital agency \n\n\nУ нас комфортный офис, гибкий график работы, отличный коллектив, классные корпоративы:) Команда занимается написанием софта для крупной международной букмекерской конторы, онлайн-кинотеатра, партнерской программы и других крупных проектов. Наши офисы расположены в Киеве и Спб.\n\nТребования:\n\n🔸 Опыт коммерческой разработки на JavaScript от 2 лет;\n🔸 Опыт работы с базами данных (MySQL / Redis);\n🔸 Опыт работы с Node.js ( koa / Socket.io);\n🔸 Читаемый, комментируемый и поддерживаемый код;\n🔸 Внимательное отношение к своему и чужому коду:)\n\nОбязанности:\n\nНеобходимо будет заниматься поддержкой и развитием новой составляющей нашего сервиса на Nodejs, поэтому опыт обязателен (koa/socket.io).\n\nУсловия:\n\n🔸 Работа в современном офисе недалеко от метро;\n🔸 Оборудованное отличной техникой рабочее место;\n🔸 График 5/2 с сокращенным рабочим днем;\n🔸 Конкурентный уровень ЗП, который будет установлен по результатам собеседования;\n🔸 Перспектива карьерного роста;\n🔸 Оплачиваем ваш переезд, если вы находитесь не в Санкт-Петербурге.\n\nСтек:\n\n🔸 node.js 8+\n🔸 async/await\n🔸 mysql(native driver only/no builders/orm's)\n🔸 redis/rabbit\n🔸 socket.io\n🔸 optional:\n🔸 ramda\n\nОткликнуться: @DashaChernenkova","markup":[{"type":"hashtag","offset":0,"length":9,"data":"вакансия"},{"type":"hashtag","offset":11,"length":3,"data":"js"},{"type":"hashtag","offset":16,"length":5,"data":"node"},{"type":"hashtag","offset":22,"length":4,"data":"спб"},{"type":"link","offset":768,"length":9,"data":"http://Socket.io"},{"type":"link","offset":1021,"length":9,"data":"http://socket.io"},{"type":"link","offset":1473,"length":9,"data":"http://socket.io"},{"type":"handle","offset":1520,"length":17,"data":"DashaChernenkova"}],"date":"2020-04-07T18:38:14+00:00","link":"tg://resolve?domain=javascript_jobs_feed&post=15464","tags":[{"name":"javascript"},{"name":"nodejs"},{"name":"mysql"},{"name":"redis"},{"name":"orm"},{"name":"rabbitmq"}],"cities":[],"allowsRemote":false}},{"node":{"__typename":"Job","id":"16214130688-1001110946746","title":"Js разработчик","text":"#вакансия #JavaScript #JS #frontend #Тензор #НСК #job #разработка\nГород: Новосибирск (м. Заельцовская) или Академгородок\nФормат работы: офис #Новосибирск . \nЗанятость: #fulltime \nЗарплата: от 65 000 до 104 000 рублей +net\nДолжность: JavaScript разработчик\n\nТензор – крупная российская IT-компания, разрабатывающая продукт СБИС (sbis.ru)\n\nЖдём от вас:\n•  уверенное знание JavaScript;\n•  понимание принципов ООП в JavaScript;\n•  понимание принципов верстки, адаптивности;\n•  знакомство с системой контроля версий (такие как GIT, SVN);\n•  представление о принципах работы web-сайтов: от запроса к серверу до отрендеренной в браузере страницы.\n\nМы предлагаем: \n•  официальное трудоустройство по ТК РФ;\n•  оклад в зависимости от квалификации и уровня ответственности;\n•  премии по результатам работы от 5 до 20%;\n•  интересные проекты;\n•  комфортный офис в центре города.\n•  курсы английского языка и компенсацию занятий спортом;\n•  оформление ДМС после года работы в компании.\n\nКонтакты: Анна - am.sizova@tensor.ru\n@anet_danilova","markup":[{"type":"hashtag","offset":0,"length":9,"data":"вакансия"},{"type":"hashtag","offset":10,"length":11,"data":"JavaScript"},{"type":"hashtag","offset":22,"length":3,"data":"JS"},{"type":"hashtag","offset":26,"length":9,"data":"frontend"},{"type":"hashtag","offset":36,"length":7,"data":"Тензор"},{"type":"hashtag","offset":44,"length":4,"data":"НСК"},{"type":"hashtag","offset":49,"length":4,"data":"job"},{"type":"hashtag","offset":54,"length":11,"data":"разработка"},{"type":"hashtag","offset":141,"length":12,"data":"Новосибирск"},{"type":"hashtag","offset":168,"length":9,"data":"fulltime"},{"type":"link","offset":328,"length":7,"data":"http://sbis.ru"},{"type":"link","offset":991,"length":19,"data":"mailto:am.sizova@tensor.ru"},{"type":"handle","offset":1011,"length":14,"data":"anet_danilova"}],"date":"2020-04-07T18:38:03+00:00","link":"tg://resolve?domain=javascript_jobs_feed&post=15463","tags":[{"name":"javascript"},{"name":"dotnet"},{"name":"git"},{"name":"svn"},{"name":"web"}],"cities":[{"code":"novosibirsk"}],"allowsRemote":false}},{"node":{"__typename":"Job","id":"16213082112-1001110946746","title":"Js программист","text":"#вакансия #js #angular\n\nНазвание компании: Froot Middle Asia (ФрутМидл Эйжа)\nhttps://thefroot.com\nВилка: от 350 до 750 тысяч тенге (1 - 2К $)\nТребуемый опыт работы: 1–3 года\nГород: Алматы, Казахстан\n\nФормат: Полная занятость, полный день, можно удаленно\n\nО компании\nСегодня Froot - это 650 000 товаров в собственном маркетплейсе, 15 магазинов в Алматы, договора франшизы на 100 магазинов по всему Казахстану и успешные переговоры по экспансии на рынки Турции, Филиппин, Узбекистана, Таджикистана и Кыргызстана.\nВ 2020 году мы откроем 200 магазинов по всему Казахстану и доведём ассортимент нашего онлайн маркетплейса до 3 000 000!\n\nМы ожидаем, что программист умеет работать в команде и готов оперативно погрузится в существующий продукт. Он пишет код не «для себя» или «чтобы работало», а хорошо, аккуратно и понятно, чтобы любой член команды смог продолжить работу. Мы используем несколько серверов (тестовый, продакшен, rnd), gitflow, разветвление микросервисов.\n\nКого мы ищем?\nСамостоятельного Frontend Developer'а, сильного командного игрока, свято уважающего дедлайны и эффективную коммуникацию. Важно уметь предлагать свои идеи, делиться своим видением какие технологии могут давать результат.\n\nЧто делать:\n\nПоддерживать проекты;\nРазрабатывать новые модули и спецпроекты в существующих проектах;\nПредлагать технические решения для упрощения бизнес-процессов\nЗапускаем мобильную разработку на js\n\nТребования:\n\nЗнание современных стандартов и методов разработки веб-приложений\nОтличное знание HTML5/CSS3, JavaScript ES5/ES6\nAngular 2+\nУмение обращаться с системами сборки Grunt/Gulp/Webpack\nЗнание CSS/HTML препроцессоров (Sass/Less/Stylus/Pug)\nЗнание Git\nВнимательность к мелочам;\nУмение создавать адаптивную верстку;\nПлюсом будет:\n\nОпыт работы с Node.js\nPWA\nNativeScript\nМы предлагаем:\n· Молодой коллектив с крутой командой разработки, в которой можно быстро расти и развиваться;\n· Интересные рабочие задачи;\n· Офис на Кунаева с панорамным видом на город;\n· Стабильная заработная плата, официальное трудоустройство.\n\nКонтакты: @sanzhikee, sanzhar.sarsenbi@gmail.com, +7 702 97 65 999","markup":[{"type":"hashtag","offset":0,"length":9,"data":"вакансия"},{"type":"hashtag","offset":10,"length":3,"data":"js"},{"type":"hashtag","offset":14,"length":8,"data":"angular"},{"type":"link","offset":77,"length":20,"data":"https://thefroot.com"},{"type":"handle","offset":2034,"length":10,"data":"sanzhikee"},{"type":"link","offset":2046,"length":26,"data":"mailto:sanzhar.sarsenbi@gmail.com"},{"type":"link","offset":2074,"length":16,"data":"tel:+7 702 97 65 999"}],"date":"2020-04-07T18:37:48+00:00","link":"tg://resolve?domain=javascript_jobs_feed&post=15462","tags":[{"name":"javascript"},{"name":"angularjs"},{"name":"html"},{"name":"css"},{"name":"gruntjs"},{"name":"gulp"},{"name":"webpack"},{"name":"sass"},{"name":"git"},{"name":"nodejs"}],"cities":[{"code":"almaty"}],"allowsRemote":true}},{"node":{"__typename":"Job","id":"16212033536-1001110946746","title":"Js разработчик","text":"#вакансия #job #fulltime #frontend #спб #санкт_петербург\nВакансия: Frontend-разработчик\nКомпания: 4people https://the4people.com\nГород: Санкт-Петербург. ст.м. Обводный канал\nФормат работы: #офис\nЗанятость: #полная\nЗарплата : от 140 000 до 250 000 р. на руки💥\nВ активно развивающуюся компанию разыскивается Frontend-разработчик!\n\n❗️Задачи: \n- Разработка новых сервисов компании.\n- Оптимизация и поддержка текущих продуктов.\n- Наш стек: JavaScript, VueJS, YouTrack.\n\n💪 Добро пожаловать в нашу команду, если вы:\n- Имеете опыт разработки на JS.\n- Умеете использовать Git.\n- Знаете ООП, умеете применять на практике основные паттерны, не теряетесь при использовании объектно-ориентированного подхода в JS.\n- Знакомы с JS фреймворками (мы предпочитаем VueJS) либо являетесь гуру нативного JS.\n\n🏅Мы предлагаем:\n- Уровень заработной платы зависит от пожеланий и профессионально уровня кандидата.\n- Поездки на ИТ-конференции, митапы, учебные курсы за счет компании.\n- Возможность гибкого начала рабочего дня.\n- Бесплатные корпоративные обеды (шведский стол).\n- Абонемент в спорт зал за счет компании.\n\nЖдем вопросы и резюме: \n✍️ @hrkaterina\n✉️ ekaterina.4people@gmail.com","markup":[{"type":"hashtag","offset":0,"length":9,"data":"вакансия"},{"type":"hashtag","offset":10,"length":4,"data":"job"},{"type":"hashtag","offset":15,"length":9,"data":"fulltime"},{"type":"hashtag","offset":25,"length":9,"data":"frontend"},{"type":"hashtag","offset":35,"length":4,"data":"спб"},{"type":"hashtag","offset":40,"length":16,"data":"санкт_петербург"},{"type":"link","offset":106,"length":22,"data":"https://the4people.com"},{"type":"hashtag","offset":189,"length":5,"data":"офис"},{"type":"hashtag","offset":206,"length":7,"data":"полная"},{"type":"handle","offset":1123,"length":11,"data":"hrkaterina"},{"type":"link","offset":1138,"length":27,"data":"mailto:ekaterina.4people@gmail.com"}],"date":"2020-04-07T18:37:24+00:00","link":"tg://resolve?domain=javascript_jobs_feed&post=15461","tags":[{"name":"javascript"},{"name":"vuejs"},{"name":"git"}],"cities":[],"allowsRemote":false}},{"node":{"__typename":"Job","id":"16210984960-1001110946746","title":"Js разработчик","text":"#вакансия #fulltime #node #typescript #kubernetes #graphQL #Remote \nStrong Middle Node engineer\n\nГород: Любой(HQ в Miami, Florida)\nФормат работы: удаленно\nЗанятость: полная\nЗарплатная вилка: от $3000 - $5000\n\nКомпания StartupCraft Inc - больше инфы тут - https://startupcraft.io\n\nРабота в команде профи, полный стек ролей и четко настроенные процессы. Позиция на продукт связанный с управлением Kubernetes инфраструктурами\n\n\nТребования:\n- At least 3 years of experience with Node.js\n- At least 1 year with TypeScript\n- At least 1 year with GraphQL\n- Conversational level of English\n\nУсловия:\n- Top Salary rates\n- Company internal positive culture. We are not all about just a work\n- Personal development and professional growth. You will grow with one of the best engineers in class\n\nДля того чтоб зааплаиться - нужно выслать CV на info@startupcraft.io и указать проекты на которых вы работали, с указанием технологий и периода (от, до).  Можно так же указать референс на предыдущих местах - это плюс\n\n\nКомпания: StartupCraft Inc\nКонтакты: info@startupcraft.io","markup":[{"type":"hashtag","offset":0,"length":9,"data":"вакансия"},{"type":"hashtag","offset":10,"length":9,"data":"fulltime"},{"type":"hashtag","offset":20,"length":5,"data":"node"},{"type":"hashtag","offset":26,"length":11,"data":"typescript"},{"type":"hashtag","offset":38,"length":11,"data":"kubernetes"},{"type":"hashtag","offset":50,"length":8,"data":"graphQL"},{"type":"hashtag","offset":59,"length":7,"data":"Remote"},{"type":"link","offset":255,"length":23,"data":"https://startupcraft.io"},{"type":"link","offset":832,"length":20,"data":"mailto:info@startupcraft.io"},{"type":"link","offset":1040,"length":20,"data":"mailto:info@startupcraft.io"}],"date":"2020-04-07T18:37:12+00:00","link":"tg://resolve?domain=javascript_jobs_feed&post=15460","tags":[{"name":"javascript"},{"name":"nodejs"},{"name":"typescript"},{"name":"kubernetes"},{"name":"graphql"}],"cities":[{"code":"miami"}],"allowsRemote":true}}]}}},"context":{}}