{"hash":"f5f6bf98bd95e769321482904cbbd488f77922fd","data":{"records":{"totalCount":669,"pageInfo":{"totalPages":67,"currentPage":66},"edges":[{"node":{"id":"102741573632-1001089317451","title":"Qa инженер","text":"Тестировщик в платформу WikiVote\n\nТребования, необходимый опыт:\n* Опыт функционального тестирования от полугода\n\n* Наличие сертификатов о пройденном обучении в тестировании\n\n\nЗадача на первый месяц сотрудничества:\n1. Провести ручное тестирование пула сценариев по существующим тест-кейсам. Мы обновили версию Ruby платформы, и нужно все прогнать, не отвалилось ли чего.\n\n\nЗадачи дальше:\n1. Ручное функциональное тестирование сценариев платформы при запуске новых проектов\n\n2. Ручное функциональное тестирование новых внедренных фич\n\n3. Разработка карточек тест-кейсов\n\n4. Кроссбраузерное тестирование верстки\n\n5. Разработка автотестов для платформы (после того, как поймете, что из ручного тестирования можно автоматизировать, приветствуем инициативу и выделим часть рабочего времени чисто под это)\n\n6. Ручное тестирование на будущем проекте по разработке Windows-приложения (в основном проверка интеграции приложения с MS Office). Если сможете автоматизировать - велком. \n\nРабота полностью удаленная, всегда была такой до весны 2020 и такой останется после. В связи с этим про ресурсы:\n\n* Мы предоставляем виртуальные машины для тестирования Windows приложений \n\n* После полугода сотрудничества возможна покупка необходимого оборудования за счет компании.\n\n\nГрафик работы:\n* Стандартный 8 часовой рабочий день, удаленно\n\n* Две обязательные планерки: 10 утра мск в понедельник и пятницу; остальные дни по желанию\n\n* Максимальное отклонение от московского времени +/- 2 часа (команда и клиенты в основном находятся в этом часовом поясе, и с бОльшим отрывом очень сложно).\n\n\nЧто предлагаем:\n* Испытательный срок 3 месяца\n\n* Белое оформление \n* от 50 000\n\n#удаленка #вакансия","markup":[{"type":"hashtag","offset":1653,"length":9,"data":"удаленка"},{"type":"hashtag","offset":1663,"length":9,"data":"вакансия"}],"date":"2020-06-13T05:46:47+00:00","link":"tg://resolve?domain=qa_jobs&post=0","tags":[{"name":"qa"},{"name":"ruby"},{"name":"windows"}],"cities":[],"allowsRemote":true}},{"node":{"id":"71194116096-1001054966032","title":"Android developer","text":"#вакансия #Android #Java #middle #офис #Москва\n📣Разыскиваем Middle Android developer в новый проект от Сбербанка.\n\n💵Уровень ЗП: 220К-310К net (в зависимости от типа оформления).\n\n📝Оформление: ИП или штат компании партнера.\n\n📍Локация: офис в г.Москва, Кутузовский проспект.\n\n🧑‍💻О проекте: Разработка чата и видеозвонка с целью реализовать единое рабочее место оператора для дополнительного канала обслуживания. С помощью чатов клиент сможет переписываться со своим дистанционным клиентским менеджером по премиальному каналу в МП СБОЛ, с возможностью передачи файлов. Видеозвонок позволит установить визуальный контакт клиентом со своим менеджером с возможностью показа презентаций. На базе удаленных каналов обслуживания планируется реализовать возможность удаленного предоставления клиенту всего спектра продуктов банка.\n\n🎯Наш стек: Java, ООП, потоки и синхронизация, SOLID, clean architecture, LinkedList и ArrayList, recyclerView, виды Layout, паттерны MVP, MMVM,unit tests, коллекции, жизненному циклу активити и фрагмента.\n\nЖду Ваши резюме и буду рада ответить на все вопросы☺️\nКонтакты для связи: telegram @anisimovaane4ka","markup":[{"type":"hashtag","offset":0,"length":9,"data":"вакансия"},{"type":"hashtag","offset":10,"length":8,"data":"Android"},{"type":"hashtag","offset":19,"length":5,"data":"Java"},{"type":"hashtag","offset":25,"length":7,"data":"middle"},{"type":"hashtag","offset":33,"length":5,"data":"офис"},{"type":"hashtag","offset":39,"length":7,"data":"Москва"},{"type":"handle","offset":1118,"length":16,"data":"anisimovaane4ka"}],"date":"2020-06-12T21:20:16+00:00","link":"tg://resolve?domain=mobile_jobs&post=0","tags":[{"name":"mobile"},{"name":"android"},{"name":"java"},{"name":"dotnet"}],"cities":[{"code":"moscow"}],"allowsRemote":true}},{"node":{"id":"71186776064-1001054966032","title":"Ios разработчик","text":"#вакансия #ios #swift #middle #senior #удаленка #remote #fulltime\n\niOS-разработчик удаленно от 200 тыс. руб.\n\nГород: Москва\nФормат работы: удаленно\nЗанятость: полная\nЗарплатная вилка: от 200 000 руб. до 250 000 руб. после налогообложения\nКомпания: CORE https://core.company\nОписание вакансии:\n\nМы команда разработчиков мобильных приложений и сейчас мы ищем iOS-разработчика для одного из наших финтех-проектов.\n\nОсновные требования:\n— Опыт работы от 2-х лет;\n— Знание Objective-C и Swift;\n— Опыт работы с Rx;\n— Знание шаблонов проектирования и умение их применять;\n— Понимание принципов SOLID;\n— Знание основных алгоритмов и структур данных;\n— Умение писать поддерживаемый и тестируемый код.\n\nУсловия:\n— Полный день, гибкий график;\n— Оформление по договору ГПХ.\n\nПрисылайте ваше резюме на @tv_corecompany","markup":[{"type":"hashtag","offset":0,"length":9,"data":"вакансия"},{"type":"hashtag","offset":10,"length":4,"data":"ios"},{"type":"hashtag","offset":15,"length":6,"data":"swift"},{"type":"hashtag","offset":22,"length":7,"data":"middle"},{"type":"hashtag","offset":30,"length":7,"data":"senior"},{"type":"hashtag","offset":38,"length":9,"data":"удаленка"},{"type":"hashtag","offset":48,"length":7,"data":"remote"},{"type":"hashtag","offset":56,"length":9,"data":"fulltime"},{"type":"link","offset":253,"length":20,"data":"https://core.company"},{"type":"handle","offset":789,"length":15,"data":"tv_corecompany"}],"date":"2020-06-12T17:56:19+00:00","link":"tg://resolve?domain=mobile_jobs&post=0","tags":[{"name":"mobile"},{"name":"ios"},{"name":"swift"},{"name":"objective-c"}],"cities":[{"code":"moscow"}],"allowsRemote":true}},{"node":{"id":"16869490688-1001110946746","title":"Js developer","text":"#вакансия #удаленнаяработа #react #js\n\nГород и адрес офиса: Москва (удаленно!!)\nФормат работы: удаленная работа \nЗанятость: полная \nЗарплатная вилка: 160-180 тыс. руб. в мес. на руки. \nОписание вакансии: В компанию Айтиквик в банковский проект требуется Senior React developer\nПо стеку UI5/Reat/JS\nС опытом работы от 5 лет \nУдаленно, фулл тайм\nРабота в команде по Agile \nЖдем резюме с примером кода на реакте.\nВалентина.\nНазвание компании: Айтиквик \nКонтакты: chekalina@itquick.ru, @valentine2511\n\n—\n\n👉 Обсуждение вакансии в чате @javascript_jobs","markup":[{"type":"hashtag","offset":0,"length":9,"data":"вакансия"},{"type":"hashtag","offset":10,"length":16,"data":"удаленнаяработа"},{"type":"hashtag","offset":27,"length":6,"data":"react"},{"type":"hashtag","offset":34,"length":3,"data":"js"},{"type":"link","offset":460,"length":20,"data":"mailto:chekalina@itquick.ru"},{"type":"handle","offset":482,"length":14,"data":"valentine2511"},{"type":"handle","offset":531,"length":16,"data":"javascript_jobs"}],"date":"2020-06-12T15:02:41+00:00","link":"tg://resolve?domain=javascript_jobs_feed&post=16088","tags":[{"name":"javascript"},{"name":"reactjs"}],"cities":[{"code":"moscow"}],"allowsRemote":true}},{"node":{"id":"71180484608-1001054966032","title":"Ios developer","text":"#вакансия #IOS #Swift #Objective-C #middle #офис #Москва\n👋Приглашаем Middle IOS Developer в новый проект от Сбербанка.\n\n💸Уровень ЗП: 220К-310К net (в зависимости от типа оформления).\n\n📝Оформление: ИП или штат компании партнера.\n\n📍Локация: офис в г.Москва, Кутузовский проспект.\n\n🧑‍💻О проекте: Разработка чата и видеозвонка с целью реализовать единое рабочее место оператора для дополнительного канала обслуживания. С помощью чатов клиент сможет переписываться со своим дистанционным клиентским менеджером по премиальному каналу в МП СБОЛ, с возможностью передачи файлов. Видеозвонок позволит установить визуальный контакт клиентом со своим менеджером с возможностью показа презентаций. На базе удаленных каналов обслуживания планируется реализовать возможность удаленного предоставления клиенту всего спектра продуктов банка.\n\n🎯Мы ожидаем от вас:\n· знание Objective-C;\n· знание Swift;\n· опыт коммерческой разработки iOS-приложений не менее года;\n· опыт параллельного и многопоточного программирования;\n· опыт разработки сетевых приложений как на уровне сокетов, так и на уровне HTTP;\n· опыт работы с Core Data, Core Graphics, XML-парсером в iOS SDK;\n· умение разбираться и работать с чужим кодом.\n\nЖду Ваши резюме и буду рада ответить на все вопросы☺️\nКонтакты для связи: telegram @anisimovaane4ka","markup":[{"type":"hashtag","offset":0,"length":9,"data":"вакансия"},{"type":"hashtag","offset":10,"length":4,"data":"IOS"},{"type":"hashtag","offset":15,"length":6,"data":"Swift"},{"type":"hashtag","offset":22,"length":10,"data":"Objective"},{"type":"hashtag","offset":35,"length":7,"data":"middle"},{"type":"hashtag","offset":43,"length":5,"data":"офис"},{"type":"hashtag","offset":49,"length":7,"data":"Москва"},{"type":"handle","offset":1288,"length":16,"data":"anisimovaane4ka"}],"date":"2020-06-12T14:57:02+00:00","link":"tg://resolve?domain=mobile_jobs&post=0","tags":[{"name":"mobile"},{"name":"ios"},{"name":"swift"},{"name":"objective-c"},{"name":"dotnet"},{"name":"xml"},{"name":"core-data"}],"cities":[{"code":"moscow"}],"allowsRemote":true}},{"node":{"id":"71178387456-1001054966032","title":"Android разработчик","text":"#remote #вакансия #android #kotlin #java #fulltime #новосибирск #екатеринбург #нижний #новгород #нижнийновгород #пермь #уфа #ульяновск\nПозиция: Android Разработчик (удаленно)\nФормат работы: #удаленка\nЗанятость: полная\nЗарплатная вилка: от 80 000 руб. до 130 000 руб.\n\nОписание вакансии:\nМы ищем Android разработчика с опытом создания Android приложений от прототипа заказчика и до непосредственной публикации в Google Play.\n\nДанная позиция предполагает полную занятость (минимум 30 часовая рабочая неделя).\n\nРассматриваем Senior и Middle кандидатов.\n\nТребования:\n* опыт разработки Android приложений (ожидается, что кандидат продемонстрирует хотя бы 1 приложение в App Store, разработанного с его/ее участием)\n* знание Kotlin или Java\n* знание стандартных фреймворков и SDK\n* самое важное – умение и желание получать новые знания необходимые для работы\n\nБудет плюсом:\n* опыт работы с видео/фото\n* опыт работы с OpenGL\n* опыт работы с машинным обучением\n* опыт работы с C++\n* опыт работы с RESTful API\n* опыт контрибуции в Open Source (приложите ссылку на github, если есть на что посмотреть)\n\nНазвание компании: 4spaces\n\nКонтакты:\nВакансия – https://hh.ru/vacancy/37448182\nEmail – abalchunas@4spaces.company\nSkype – alexey.balchunas\nTelegram – https://t.me/AlexeyBalchunas","markup":[{"type":"hashtag","offset":0,"length":7,"data":"remote"},{"type":"hashtag","offset":8,"length":9,"data":"вакансия"},{"type":"hashtag","offset":18,"length":8,"data":"android"},{"type":"hashtag","offset":27,"length":7,"data":"kotlin"},{"type":"hashtag","offset":35,"length":5,"data":"java"},{"type":"hashtag","offset":41,"length":9,"data":"fulltime"},{"type":"hashtag","offset":51,"length":12,"data":"новосибирск"},{"type":"hashtag","offset":64,"length":13,"data":"екатеринбург"},{"type":"hashtag","offset":78,"length":7,"data":"нижний"},{"type":"hashtag","offset":86,"length":9,"data":"новгород"},{"type":"hashtag","offset":96,"length":15,"data":"нижнийновгород"},{"type":"hashtag","offset":112,"length":6,"data":"пермь"},{"type":"hashtag","offset":119,"length":4,"data":"уфа"},{"type":"hashtag","offset":124,"length":10,"data":"ульяновск"},{"type":"hashtag","offset":190,"length":9,"data":"удаленка"},{"type":"link","offset":1142,"length":30,"data":"https://hh.ru/vacancy/37448182"},{"type":"link","offset":1181,"length":26,"data":"http://abalchunas@4spaces.company"},{"type":"link","offset":1244,"length":28,"data":"https://t.me/AlexeyBalchunas"}],"date":"2020-06-12T13:32:37+00:00","link":"tg://resolve?domain=mobile_jobs&post=0","tags":[{"name":"mobile"},{"name":"android"},{"name":"kotlin"},{"name":"java"},{"name":"playframework"},{"name":"opengl"},{"name":"github"}],"cities":[{"code":"novosibirsk"},{"code":"perm"},{"code":"ufa"},{"code":"ulyanovsk"},{"code":"nizhny-novgorod"}],"allowsRemote":true}},{"node":{"id":"71172096000-1001054966032","title":"Ios разработчик","text":"#remote #вакансия #ios #swift #fulltime #новосибирск #екатеринбург #нижний #новгород #нижнийновгород #пермь #уфа #ульяновск\nПозиция: iOS Разработчик (удаленно)\nФормат работы: #удаленка \nЗанятость: полная\nЗарплатная вилка: от 70 000 руб. до 130 000 руб.\n\nОписание вакансии:\nТребуется iOS разработчик с опытом создания iOS приложений от прототипа заказчика и до непосредственной публикации в App Store.\nДанная позиция предполагает полную занятость (минимум 30 часовая рабочая неделя).\nРассматриваем Senior и Middle кандидатов.\n\nТребования:\n* опыт разработки iOS приложений (ожидается, что кандидат продемонстрирует хотя бы 1 приложение в App Store, разработанного с его/ее участием)\n* знание Swift\n* знание стандартных фреймворков и SDK\n* самое важное – умение и желание получать новые знания необходимые для работы\n\nБудет плюсом:\n* опыт работы с видео/фото\n* опыт работы с Metal\n* опыт работы с ARKit\n* опыт работы с Core ML\n* опыт работы с Objective-C\n* опыт работы с RESTful API\n* опыт контрибуции в Open Source (приложите ссылку на github, если есть на что посмотреть)\n\nНазвание компании: 4spaces\n\nКонтакты:\nВакансия – https://hh.ru/vacancy/37463738\nEmail – abalchunas@4spaces.company\nSkype – alexey.balchunas\nTelegram – https://t.me/AlexeyBalchunas","markup":[{"type":"hashtag","offset":0,"length":7,"data":"remote"},{"type":"hashtag","offset":8,"length":9,"data":"вакансия"},{"type":"hashtag","offset":18,"length":4,"data":"ios"},{"type":"hashtag","offset":23,"length":6,"data":"swift"},{"type":"hashtag","offset":30,"length":9,"data":"fulltime"},{"type":"hashtag","offset":40,"length":12,"data":"новосибирск"},{"type":"hashtag","offset":53,"length":13,"data":"екатеринбург"},{"type":"hashtag","offset":67,"length":7,"data":"нижний"},{"type":"hashtag","offset":75,"length":9,"data":"новгород"},{"type":"hashtag","offset":85,"length":15,"data":"нижнийновгород"},{"type":"hashtag","offset":101,"length":6,"data":"пермь"},{"type":"hashtag","offset":108,"length":4,"data":"уфа"},{"type":"hashtag","offset":113,"length":10,"data":"ульяновск"},{"type":"hashtag","offset":175,"length":9,"data":"удаленка"},{"type":"link","offset":1121,"length":30,"data":"https://hh.ru/vacancy/37463738"},{"type":"link","offset":1160,"length":27,"data":"http://abalchunas@4spaces.company/"},{"type":"link","offset":1223,"length":28,"data":"https://t.me/AlexeyBalchunas"}],"date":"2020-06-12T12:27:13+00:00","link":"tg://resolve?domain=mobile_jobs&post=0","tags":[{"name":"mobile"},{"name":"ios"},{"name":"swift"},{"name":"objective-c"},{"name":"github"}],"cities":[{"code":"novosibirsk"},{"code":"perm"},{"code":"ufa"},{"code":"ulyanovsk"},{"code":"nizhny-novgorod"}],"allowsRemote":true}},{"node":{"id":"71168950272-1001054966032","title":"Android разработчик","text":"#вакансия #android #java #kotlin #middle #senior #удаленка #remote #fulltime\n\nAndroid-разработчик удаленно от 200 тыс. руб.\n\nГород: Москва\nФормат работы: удаленно\nЗанятость: полная\nЗарплатная вилка: от 200 000 руб. до 250 000 руб. после налогообложения\nКомпания: CORE https://core.company\n\nМы команда разработчиков мобильных приложений и сейчас мы ищем Android-разработчика для одного из наших финтех-проектов.\n\nОсновные требования:\n— Опыт работы от 2-х лет;\n— Знание Java и Kotlin;\n— Опыт работы с Rx;\n— Знание шаблонов проектирования и умение их применять;\n— Понимание принципов SOLID;\n— Знание основных алгоритмов и структур данных;\n— Умение писать поддерживаемый и тестируемый код.\n\nУсловия:\n— Полный день, гибкий график;\n— Оформление по договору ГПХ.\n\nПрисылайте ваше резюме на @tv_corecompany","markup":[{"type":"hashtag","offset":0,"length":9,"data":"вакансия"},{"type":"hashtag","offset":10,"length":8,"data":"android"},{"type":"hashtag","offset":19,"length":5,"data":"java"},{"type":"hashtag","offset":25,"length":7,"data":"kotlin"},{"type":"hashtag","offset":33,"length":7,"data":"middle"},{"type":"hashtag","offset":41,"length":7,"data":"senior"},{"type":"hashtag","offset":49,"length":9,"data":"удаленка"},{"type":"hashtag","offset":59,"length":7,"data":"remote"},{"type":"hashtag","offset":67,"length":9,"data":"fulltime"},{"type":"link","offset":268,"length":20,"data":"https://core.company"},{"type":"handle","offset":783,"length":15,"data":"tv_corecompany"}],"date":"2020-06-12T11:36:40+00:00","link":"tg://resolve?domain=mobile_jobs&post=0","tags":[{"name":"mobile"},{"name":"android"},{"name":"java"},{"name":"kotlin"}],"cities":[{"code":"moscow"}],"allowsRemote":true}},{"node":{"id":"16867393536-1001110946746","title":"Js разработчик","text":"#reactjs\n#вакансия #remote #middle  #frontend \n\nREMOTE!\nВакансия: Middle ReactJS разработчик\nФормат работы: удаленная работа\nЗанятость: полная\nЗарплатная вилка: от 2000 до 3000 usd\n\n- Над нашим продуктом - соцсеть для стартапов - работает распределенная команда.\n- Стэк проекта: React.js - на фронте почти стандартный, кроме GraphQL (Apollo).\n- Мы пишем 2 версии продукта, сейчас есть 2 вакансии для ReactJS разработчиков на одну из версий. \n- Компания Заказчик - Американский стартап.\n- Все технические детали по вакансии я расскажу в переписке.\n-✌️🏠🏡 Работа удаленная.\n\nОбратите внимание:  у нас нет требования к уровню английского языка (над проектом работает распределенная команда разработчиков, все ребята общаются по-русски)\n\nРезюме, отправленное на почту, упросит и ускорит общение.\nКонтакты : \nSkype ID: anna.soutskover | Telegram: @soutskover | anna.soutskover@gmail.com\n\n—\n\n👉 Обсуждение вакансии в чате @javascript_jobs","markup":[{"type":"hashtag","offset":0,"length":8,"data":"reactjs"},{"type":"hashtag","offset":9,"length":9,"data":"вакансия"},{"type":"hashtag","offset":19,"length":7,"data":"remote"},{"type":"hashtag","offset":27,"length":7,"data":"middle"},{"type":"hashtag","offset":36,"length":9,"data":"frontend"},{"type":"handle","offset":843,"length":11,"data":"soutskover"},{"type":"link","offset":857,"length":25,"data":"mailto:anna.soutskover@gmail.com"},{"type":"handle","offset":917,"length":16,"data":"javascript_jobs"}],"date":"2020-06-12T10:39:08+00:00","link":"tg://resolve?domain=javascript_jobs_feed&post=16086","tags":[{"name":"javascript"},{"name":"reactjs"},{"name":"graphql"}],"cities":[],"allowsRemote":true}},{"node":{"id":"16866344960-1001110946746","title":"Js программист","text":"#вакансия #middle #WordPress #fullstack\n\nГород и адрес офиса: Запорожье (Украина)\nФормат работы: удаленная работа\nЗанятость: полная\nЗарплатная вилка: от 600 до 1300 usd\n\nО нас:\nНебольшая команда, сконцентрирована на WordPress разработке и ищет в команду хорошего программиста на длительное время для работы с различными проектами.\n\nСпецифика:\n● Поддержка постоянных проектов, плюс разработка новых сайтов.      \n● Общение с клиентами, как направления, так и опосредованно.\n\nУровень задач:\nОт очень простых (добавить код /   пофиксить элемент) для полного цикла разработки.\nТипичная задача - преобразование готовой верстки (возможно, с поправками) на WP тему, написанные JS и PHP кода.\n\nПрофессиональные качества соискателя:\n● Страсть к разработке, хороший самоменеджмент, желание всегда писать лучший код, а не код, просто решает задачи; Умение быстро осваивать новую технологию или предметной области;      \n● Английский на уровне не менее B2;      \n● Уметь уверенно работать с git;      \n● Хорошее знание API WP - умение перенести верстку с нуля и минимумом плагинов; написать плагин с нуля, получать данные со стороннего API; Знание ACF; Умение настроить кэширование на различных уровнях; Знание базовых принципов обеспечения безопасности проекта;      \n● Хорошее знание Node.js и npm;      \n● Умение семантической станки без CSS-фреймворков. Уверенное знание flexbox, знание основных проблем кросс-браузерную верстки; Навыки работы с Less, Scss;      \n● Умение писать JS (ES-2015 +) без jQuery;      \n● Понимание принципов работы webpack, gulp; Умение писать и изменять их конфигурацию;      \n● Навыки работы с VPS через SSH;      \n● Понимание показателей, влияющих на PageSpeed и SEO;      \n\nБыло бы плюсом:\n● Понимание принципов a11y;      \n● Подтвержденный open source contribution, выступления на конференциях, митапах;      \n● Опыт работы с Ruby, Python / Vue.js, React.js, Angular;      \n● Хорошие навыки работы с PHPStorm;      \n\nПлюшки:\n● Удаленная работа.      \n● Реальные возможности карьерного роста.      \n● Зарплата по результатам собеседования с быстрой возможностью по пересмотру по результатам работы. \n\nНазвание компании: MaximumStart\n\nКонтакты: \n- Телеграм @polinasvetlaya\n- Email polina.dubovik@gmail.com\n\n—\n\n👉 Обсуждение вакансии в чате @javascript_jobs","markup":[{"type":"hashtag","offset":0,"length":9,"data":"вакансия"},{"type":"hashtag","offset":10,"length":7,"data":"middle"},{"type":"hashtag","offset":18,"length":10,"data":"WordPress"},{"type":"hashtag","offset":29,"length":10,"data":"fullstack"},{"type":"handle","offset":2179,"length":15,"data":"polinasvetlaya"},{"type":"link","offset":2203,"length":24,"data":"mailto:polina.dubovik@gmail.com"},{"type":"handle","offset":2262,"length":16,"data":"javascript_jobs"}],"date":"2020-06-12T10:38:58+00:00","link":"tg://resolve?domain=javascript_jobs_feed&post=16085","tags":[{"name":"javascript"},{"name":"wordpress"},{"name":"php"},{"name":"git"},{"name":"nodejs"},{"name":"npm"},{"name":"css"},{"name":"jquery"},{"name":"webpack"},{"name":"gulp"},{"name":"ssh"},{"name":"seo"},{"name":"ruby"},{"name":"python"},{"name":"vuejs"},{"name":"reactjs"},{"name":"angularjs"}],"cities":[],"allowsRemote":true}}]}},"context":{}}