{"hash":"f5f6bf98bd95e769321482904cbbd488f77922fd","data":{"records":{"id":"jenkins","name":"jenkins","belongsTo":{"totalCount":70,"pageInfo":{"totalPages":7,"currentPage":1},"edges":[{"node":{"__typename":"Job","id":"72622276608-1001054966032","title":"Ios developer","text":"#вакансия #спб #ios #middle #senior #spb #офис #IoT #умныйдом \nMiddle/Senior iOS developer \nReady for Sky 🚀 \nhttps://readyforsky.com/ru/career/ \n📍 полный день, удаленно в СПб/офис м. Нарвская \nМы ищем iOS developer, который будет разрабатывать приложение, использующее данные с IoT-устройств для предоставления пользователям нужных товаров и услуг \n💡 Используем: Swift, Objective-C; Jenkins; GraphQL; RxSwift; MVC, MVVM и Viper \nВ команде: разрабатываем новый функционал приложения, внутренние фреймворки (Private pods), фреймворки для общего доступа; пишем Unit тесты; принимаем участие в создании протоколов работы с умными устройствами; Refactoring и Code-review. \nПредлагаем: \nРаботу в профессиональной команде (team lead, senior, middle), более 300 000 активных пользователей приложения. \nЗП от 130 до 250 тыс. руб. \nПосле исп.срока корпоративный английский \n📬 Пиши: @Rupeka_Natali","markup":[{"type":"hashtag","offset":0,"length":9,"data":"вакансия"},{"type":"hashtag","offset":10,"length":4,"data":"спб"},{"type":"hashtag","offset":15,"length":4,"data":"ios"},{"type":"hashtag","offset":20,"length":7,"data":"middle"},{"type":"hashtag","offset":28,"length":7,"data":"senior"},{"type":"hashtag","offset":36,"length":4,"data":"spb"},{"type":"hashtag","offset":41,"length":5,"data":"офис"},{"type":"hashtag","offset":47,"length":4,"data":"IoT"},{"type":"hashtag","offset":52,"length":9,"data":"умныйдом"},{"type":"bold","offset":63,"length":27,"data":""},{"type":"bold","offset":92,"length":13,"data":""},{"type":"link","offset":110,"length":34,"data":"https://readyforsky.com/ru/career/"},{"type":"bold","offset":203,"length":13,"data":""},{"type":"bold","offset":354,"length":11,"data":""},{"type":"bold","offset":432,"length":10,"data":""},{"type":"bold","offset":671,"length":11,"data":""},{"type":"bold","offset":870,"length":5,"data":""},{"type":"handle","offset":876,"length":14,"data":"Rupeka_Natali"}],"date":"2020-07-03T11:26:33+00:00","link":"tg://resolve?domain=mobile_jobs&post=69258","tags":[{"name":"mobile"},{"name":"ios"},{"name":"swift"},{"name":"objective-c"},{"name":"jenkins"},{"name":"graphql"},{"name":"mvvm"}],"cities":[],"allowsRemote":true}},{"node":{"__typename":"Job","id":"104346943488-1001089317451","title":"Qa инженер","text":"#вакансия #QA #automation #москва #fulltime \nКомпания: #KALABI\nЛокация: Мск, Сухаревская\nФормат работы: fulltime, офис, гибкий график\nЗ/П: 80 000 – 120 000 net.\n👉 Что потребуется от Вас:\n✔ Знание основ тестирования (жизненный цикл разработки ПО, цели тестирования, что такое качество, что такое ошибка и т.д.);\n✔ Практические знания различных видов и типов тестирования;\n✔ Знания разработки тестовой документации (сценарии, тест-кейсы, чек-листы);\n✔ Практические навыки написания автотестов на Selenium, навыки их интегрирования в Git или Jenkins;\n👉 Чем предстоит заниматься:\n✔ Проводить комплексное тестирование программного продукта (функциональное и нефункциональное);\n✔ Анализировать требования к программному продукту;\n✔ Разрабатывать автотесты и загружать их на сервер непрерывной интеграции;\n✔ Фиксировать дефекты в баг-трекер;\n✔ Обеспечивать контроль качества разрабатываемых продуктов.\n👉 Что мы предлагаем:\n✅прекрасный офис в центре Москвы, гибкий график (пару дней в неделю можно работать из дома);\n✅полностью белая зарплата, ДМС;\n✅обучение используемым технологиям, сложные и необычные задачи (некоторые из задач решаются всего в нескольких компаниях в мире).\n📞telegram:@faina_kleinman\n📮e-mail: fk@kalabi.ru","markup":[{"type":"hashtag","offset":0,"length":9,"data":"вакансия"},{"type":"hashtag","offset":10,"length":3,"data":"QA"},{"type":"hashtag","offset":14,"length":11,"data":"automation"},{"type":"hashtag","offset":26,"length":7,"data":"москва"},{"type":"hashtag","offset":34,"length":9,"data":"fulltime"},{"type":"hashtag","offset":55,"length":7,"data":"KALABI"},{"type":"handle","offset":1185,"length":15,"data":"faina_kleinman"},{"type":"link","offset":1211,"length":12,"data":"mailto:fk@kalabi.ru"}],"date":"2020-07-03T10:21:36+00:00","link":"tg://resolve?domain=qa_jobs&post=99513","tags":[{"name":"qa"},{"name":"dotnet"},{"name":"selenium"},{"name":"git"},{"name":"jenkins"}],"cities":[{"code":"moscow"}],"allowsRemote":false}},{"node":{"__typename":"Job","id":"2283798528-1001134745498","title":"Devops инженер","text":"#вакансия #Sportmaster_Labs #monitoring \n\nНазвание компании: Sportmaster Labs\nГород и адрес офиса: м. Дмитровская\nФормат работы: офис, на текущий момент удаленка (в будущем возможно частично офис)\nЗанятость: полная\nЗарплатная вилка:  от 100 000 до 300 000 рублей на руки, в зависимости от уровня кандидата\nОписание вакансии:\nМы ищем сотрудника, у которого имеется опыт построения систем мониторинга и логирования приложений, начиная с инфраструктуры, заканчивая бизнес-метриками и опыт администрирования инфраструктуры.\n\nОбязанности: \n* Внедрение, управление и развитие системы мониторинга от уровня аппаратного обеспечения до бизнес-метрик уровня приложений (метрики, зависимости, оповещения) [Zabbix, Victoria Metrics, Prometheus, etc]\n* Внедрение, управление и развитие системы логирования [Elastic Stack]\n* Внедрение, управление и развитие системы визуализации [Grafana, BI Systems, etc]\n* Разработка кастомных решений по сбору метрик, оповещений, процессинга данных\n\nЖелательно:\n* Внедрение, управление и развитие отказоустойчивой системы окрестрации контейнеров для нужд эксплуатации и не только (Kubernetes)\n* Настройка CI\\CD (Jenkins)\n* load-, stress- и chaos-тестирование инфраструктуры и сервисов\n* Опыт работы с Jaeger, OpenTracing\n* Опыт в разработке приложений (для систем мониторинга) на любом из языков программирования Python, Java\n* Опыт в эксплуатации JVM\n* Опыт администрирования web-серверов Nginx, F5, HAproxy\n\nСтав частью Sportmaster Lab, вы получите:\n* Работу в крупной стабильной российской компании - лидере на рынке розничной торговли товарами для спорта и отдыха;\n* Перспективы профессионального, карьерного и финансового роста;\n* Офис - м. Дмитровская, БЦ \"Премьер\";\n* График работы: 5/2; 8.00-17.00, 9.00-18.00 или 10.00-19.00 (можно выбрать);\n* Дисконтная карта на продукцию магазинов сети;\n* Полугодовые премии в размере 50% от суммы ежемесячного дохода;\n* Корпоративные скидки на различные виды страхования и кредитования;\n* Корпоративные программы спорта и отдыха;\n* Организованное питание в офисе (компенсация питания);\n* Обучение и сертификация за счет компании\n\nКонтакты: Для начала я (@Voffko) далее с HR сотрудниками\n\n—\n\n👉 Обсуждение вакансии в чате @devops_jobs","markup":[{"type":"hashtag","offset":0,"length":9,"data":"вакансия"},{"type":"hashtag","offset":10,"length":17,"data":"Sportmaster_Labs"},{"type":"hashtag","offset":28,"length":11,"data":"monitoring"},{"type":"handle","offset":2122,"length":7,"data":"Voffko"},{"type":"handle","offset":2189,"length":12,"data":"devops_jobs"}],"date":"2020-07-03T09:29:40+00:00","link":"tg://resolve?domain=devops_jobs_feed&post=0","tags":[{"name":"elasticsearch"},{"name":"kubernetes"},{"name":"jenkins"},{"name":"python"},{"name":"java"},{"name":"jvm"},{"name":"web"},{"name":"nginx"}],"cities":[],"allowsRemote":true}},{"node":{"__typename":"Job","id":"2279604224-1001134745498","title":"Devops инженер","text":"#вакансия\nГород: Москва, ст м Динамо, есть возможность частично работать удаленно\nЗанятость: полный рабочий день\nВилка от 150 тыс.руб. до 250 тыс. руб. \nОписание: Ищем Dev-Ops-инженера в крупный банк, с частично удаленной работой (офис в Москве, ст.м. Динамо): нужен опыт работы с Kubernetes, с Linux серверами (Centos,RHEL)\n· Хорошее знание инструментов DevOps (Docker, Jenkins/TeamCity, Ansible/Salt/Puppet/Chef), понимание принципов DevSecOps;\n· Опыт настройки веб-серверов (Apache, Nginx, JBoss/WildFly, Glassfish)\nКомпания: Новэлект, работа в Банке. \nКонтакт: +79269777845, Телеграм/ вотсапп, Юлия\n\n—\n\n👉 Обсуждение вакансии в чате @devops_jobs","markup":[{"type":"hashtag","offset":0,"length":9,"data":"вакансия"},{"type":"link","offset":565,"length":12,"data":"tel:+79269777845"},{"type":"handle","offset":637,"length":12,"data":"devops_jobs"}],"date":"2020-07-02T18:16:20+00:00","link":"tg://resolve?domain=devops_jobs_feed&post=2174","tags":[{"name":"kubernetes"},{"name":"linux"},{"name":"centos"},{"name":"docker"},{"name":"jenkins"},{"name":"ansible"},{"name":"apache"},{"name":"nginx"},{"name":"jboss"}],"cities":[{"code":"moscow"}],"allowsRemote":true}},{"node":{"__typename":"Job","id":"1773142016-1001091028994","title":"Java разработчик","text":"#спб #офис #java #middle #senior\n\nМесто работы: Санкт-Петербург, м. Лиговский проспект\nКомпания: Санкт-Петербургский Информационно аналитический центр\nФормат работы: офис ( на текущий момент удаленно)\nЗанятость: полная, гибкое начало дня\nЗарплатная вилка: до 200 на руки, 100% белая\n\n«Санкт-Петербургский Информационно-аналитический центр» с 1980 года улучшает качество жизни петербуржцев, автоматизируя городские процессы и государственные органы. В портфолио компании - 50 действующих проектов в Санкт-Петербурге и других регионах. Наши проекты побеждают в общероссийских и международных конкурсах.\n\nСодержание работы:\n- Требуется Java разработчик в Agile команду разработки государственных информационных систем.\n\nОбязанности:\n- Проектирование, разработка и развитие информационных систем с использованием технологий: Java, Postgres/Oracle, ElasticSearch, Spring Boot, Kafka, React, Ansible, Docker, Kubernetes, Jenkins и других\n\nТребования:\n- опыт веб-разработки на Java от 3-х лет;\n- знание ООП, SQL;\n- опыт разработки моделей БД;\n- умение думать и желание развиваться;\n- умение и желание решать сложные технические задачи;\n- высшее техническое образование;\n- знание английского языка (уровень чтения профессиональной литературы);\n\nЖелательно:\n- опыт работы со Spring Boot\n- опыт работы с React\n- опыт работы с СУБД Postgres или другой\n- опыт работы с Gradle\n- опыт работы с брокерами сообщений (Kafka, RabbitMQ);\n- знакомство с оркестраторами (Kubernetes, Swarm);\n- знание современных инженерных практик и инструментов (XP, TDD, Continuous delivery и т.п.).\n\nО команде:\n- мы работаем в компактных командах;\n- избегаем бюрократии и фокусируемся на реальных потребностях граждан нашего города;\n- осуществляем полный цикл разработки от выявления требований, до внедрения и сопровождения;\n- проводим ежедневные митинги, совместные обсуждения возле доски и регулярные ретроспективы;\n- стремимся к постоянному персональному и командному росту и развитию!\n\nВ портфолио команды информационные системы, функционирующие в СПб, других регионах РФ и на международном уровне:\n- Аналитическая платформа поддержки принятия решений по управлению городом;\n- Культура Петербурга\n- Общедоступные библиотеки Санкт-Петербурга\n- Государственные архивы Санкт-Петербурга\n- Приграничный электронный архив\n\nМы готовы предложить успешным кандидатам :\n- влиться в большой дружный коллектив, стать частью команды увлеченных, целеустремленных людей;\n- конкурентоспособный уровень заработной платы, который мы готовы обсудить с успешными кандидатами на собеседовании;\n- бонусы и премии по результатам работы;\n- оплачиваемые отпуска и больничные, полностью «белая» заработная плата дважды в месяц;\n- оплата обучения (тренинги, семинары, конференции);\n- широкие возможности для повышения личного мастерства и профессионального роста;\n- рабочий график – пятидневка с 9 до 18 часов, по пятницам до 17;\n- офис около ст. метро «Лиговский проспект»;\n- возможность внести свой значимый вклад в развитие городской автоматизации!\n\nБуду рад ответить на ваши вопросы о команде и проектах @akozhin","markup":[{"type":"hashtag","offset":0,"length":4,"data":"спб"},{"type":"hashtag","offset":5,"length":5,"data":"офис"},{"type":"hashtag","offset":11,"length":5,"data":"java"},{"type":"hashtag","offset":17,"length":7,"data":"middle"},{"type":"hashtag","offset":25,"length":7,"data":"senior"},{"type":"handle","offset":3051,"length":8,"data":"akozhin"}],"date":"2020-07-02T15:01:55+00:00","link":"tg://resolve?domain=jvmjobs&post=1691","tags":[{"name":"java"},{"name":"jvm"},{"name":"postgresql"},{"name":"oracle"},{"name":"elasticsearch"},{"name":"spring"},{"name":"kafka"},{"name":"reactjs"},{"name":"ansible"},{"name":"docker"},{"name":"kubernetes"},{"name":"jenkins"},{"name":"sql"},{"name":"gradle"},{"name":"rabbitmq"},{"name":"spring-boot"}],"cities":[],"allowsRemote":true}},{"node":{"__typename":"Job","id":"2276458496-1001134745498","title":"Devops инженер","text":"#вакансия #офис #fulltime #devops #Будва_Черногория\n\nВакансия: DevOps\nКомпания: Alar Studios\nАдрес: Будва, Черногория\nФормат работы: удаленно на время пандемии, далее офис\nЗанятость: full time\nЗ.п вилка: 1700-2300 eur (на руки)\n\nКомпания Alar Studios занимается разработкой крупных технологически тяжелых проектов на заказ для западных заказчиков. Предлагаем возможность развиваться в комфортных условиях мягкого климата Черногории на берегу моря (офис).\n\n📌Требования:\n    • Знание Jenkins, Ansible;\n    • Отличное знание Linux и опыт от 2-х лет;\n    • Кристально ясное понимание TCP/IP;\n    • Общее понимание ИТ-безопасности, зачем нужна и каковы пути ее достижения;\n    • Опыт работы с PostgreSQL или другой open source RDBMS;\n    • Опыт работы в инфраструктуре AWS или подобной;\n    • Отличное знание и понимание RDBMS как такового: в частности, знание SQL, зачем нужны и как работают индексы;\n    • Знание и понимание HTTP;\n    • Хотя бы basic English;\n    • Горячее желание учиться новому!\n📌 Приветствуется:\n    • Знание Python;\n    • Опыт работы с Flask или Django;\n    • Опыт с Amazon VPC и dedicated hosts;\n    • Опыт с Celery, Redis;\n    • Знание git.\n📌Основные задачи:\n    • Разработка архитектуры (в том числе high load, horizontal scalability);\n    • Администрирование инфраструктуры (Linux, Amazon AWS);\n    • Поиск и отладка проблем, работа с серверным кодом;\n    • Написание автоматизации (Ansible);\n    • Быть частью команды и взаимодействовать с командой разработчиков.\n📌 Мы предлагаем\n    • Интересные проекты;\n    • Оплачиваемые отпуска; \n    • Двойную почасовую оплату согласованной переработки сверх рабочего времени (OVERTIME);\n    • Возможность работы в нашем офисе в Черногории, фактически, в раю на берегу Адриатического моря — до моря 10 минут пешком (поможем с переездом вам и семье).\nРазмер зарплат по опыту/знаниям (если хорошо знаете все из списка и есть опыт, то верхняя планка). Рост по производительности.\nДополнительные инструкции: Для интервью будет необходимо сделать тестовое задание.\nВаше CV прошу направлять на pakhomova@alarstudios.com или в @daikirey\n\n—\n\n👉 Обсуждение вакансии в чате @devops_jobs","markup":[{"type":"hashtag","offset":0,"length":9,"data":"вакансия"},{"type":"hashtag","offset":10,"length":5,"data":"офис"},{"type":"hashtag","offset":16,"length":9,"data":"fulltime"},{"type":"hashtag","offset":26,"length":7,"data":"devops"},{"type":"hashtag","offset":34,"length":17,"data":"Будва_Черногория"},{"type":"link","offset":2054,"length":25,"data":"mailto:pakhomova@alarstudios.com"},{"type":"handle","offset":2086,"length":9,"data":"daikirey"},{"type":"handle","offset":2130,"length":12,"data":"devops_jobs"}],"date":"2020-07-02T12:47:28+00:00","link":"tg://resolve?domain=devops_jobs_feed&post=2171","tags":[{"name":"jenkins"},{"name":"ansible"},{"name":"linux"},{"name":"postgresql"},{"name":"amazon-web-services"},{"name":"sql"},{"name":"python"},{"name":"flask"},{"name":"django"},{"name":"redis"},{"name":"git"}],"cities":[],"allowsRemote":true}},{"node":{"__typename":"Job","id":"2274361344-1001134745498","title":"Devops инженер","text":"#вакансия #офис #DevSecOps #Москва\nДобрый день! \nМеня зовут Дмитрий и я ищу крутого спеца в команду Swordfish Security!!\n\nКомпания специализируется на сервисах запуска практик безопасной разработки ПО, создании центров компетенций для своих Клиентов, оказывает услуги аутсорсинга экспертизы в области безопасного ПО, а также разрабатывает собственные продуктовые решения для автоматизации ряда индустриальных задач в области DevSecOps.\nЭто интернациональная команда с офисами в Санкт-Петербурге, Москве, Софии (Болгария) и  Нью-Йорке (США).\nSwordfish Security является технологическим партнером ведущих игроков-разработчиков решений на рынке DevSecOps – Checkmarx, Sonatype, Netsparker, Wallarm.\n\nЧем будем заниматься вместо работы:\n• Работа с инструментами статического анализа кода (SAST), контроля open source компонент (OSA/SCA) и динамического анализа приложений (DAST);\n• Разбор результатов анализа SAST/SCA/DAST;\n• Анализ выявленных дефектов, проверка, приоритезация, поиск решения для их устранения;\n• Разработка специальных правил анализа исходного кода;\n• Участие в развитии выделенного сегмента или практики безопасной разработки;\n• Участие в проработке процесса Application Security вместе с командой.\n\nЧто хотим видеть в нашем Спеце: \n• Опыт разработки на Java или Python;\n• Умение читать и разбираться в чужом коде на различных языках программирования;\n• Понимание принципов процесса DevOps;\n• Уверенная работа с Unix системами;\n• Умение находить и эксплуатировать уязвимости;\n• Опыт работы с инструментами безопасности:\n  SAST (Checkmarx, Fortify, Solar Incode) - в приоритете;\n\nКруто Если ты знаешь и умеешь :\n* DAST (NetSparker, Acunetix, HP WebInspect, Burp Enterprise, Wallarm FAST);\n* OSA / SCA (Nexus IQ, WhiteSource, BlackDuck, Dependency Checker);\n* Опыт работы с широким инструментальным стеком разработки:\n* Teamcity/Jenkins/Gitlab CI,\n* Bitbucket/GitLab,\n* Jira/Confluence,\n* Nexus Repo/Jfrog Artifactory,\n* Docker/Kubernetes;\n\nЧем вознаградим:\n• Возможность развиваться и получать уникальный опыт;\n• Гибкий график рабочего времени;\n• «Белая» заработная плата от 100 000 до 180 000 руб. \n• Соц. Пакет и ДМС со стоматологией, компенсация спортивных занятий.\n\n\n\nИнтересно?? Пиши отвечу на все вопросы!!\n@tankograin\n\n—\n\n👉 Обсуждение вакансии в чате @devops_jobs","markup":[{"type":"hashtag","offset":0,"length":9,"data":"вакансия"},{"type":"hashtag","offset":10,"length":5,"data":"офис"},{"type":"hashtag","offset":16,"length":10,"data":"DevSecOps"},{"type":"hashtag","offset":27,"length":7,"data":"Москва"},{"type":"handle","offset":2227,"length":11,"data":"tankograin"},{"type":"handle","offset":2273,"length":12,"data":"devops_jobs"}],"date":"2020-07-02T09:54:11+00:00","link":"tg://resolve?domain=devops_jobs_feed&post=2169","tags":[{"name":"java"},{"name":"python"},{"name":"unix"},{"name":"jenkins"},{"name":"gitlab"},{"name":"docker"},{"name":"kubernetes"}],"cities":[{"code":"moscow"}],"allowsRemote":false}},{"node":{"__typename":"Job","id":"104201191424-1001089317451","title":"Qa инженер","text":"#вакансия #QA #Java #QAAutomation #Москва #офис \n\nВакансия: QA Lead (Тест-Менеджер)\nГород: Москва м. Технопарк \nЗарплата: от 250 000 рублей до 290 000 рублей на руки\nФормат: офис, полный день, полная занятость\nКомпания Innovative People \n\n🕘 Чем предстоит заниматься:\n• планирование тестирования;\n• выстраивание процессов тестирования среди 8 команд с упором на автоматизацию;\n• выстраивать CI/CD проекта;\n• налаживание взаимодействия QA инженеров в нескольких командах;\n• поддерживать и развивать разработанные решения по автоматизации;\n• исследовать новые технологии и внедрять их на проекте;\n• принятие решений о внедрении / обновлении программного обеспечения.\n\n🕒 От кандидата ожидаем:\n• опыт в тестировании от 4х лет\n• опыт в автотестировании от 3х лет\n• опыт руководства группой тестировщиков от 2х лет\n• практический опыт применения практик тест-дизайна\n• умение проектировать тест-кейсы и подготавливать тестовые данные для тестирования\n• хорошие знание Java, библиотек\n• уверенное использование и понимание как работает под капотом Selenium Webdriver (Selenide и Appium для мобильных платформ)\n• опыт написания собственного фреймворка\n• опыт работы в unix системах\n• опыт работы с API (Soap, Rest)\n• опыт использование git\n• опыт использование CI (желательно, но не обязательно Jenkins)\n• опыт работы с Docker\n• опыт составления запросов SQL\n• опыт управления непрямыми (функциональными) подчиненными\n• умение контролировать несколько проектов одновременно\n• умение мотивировать команду, опыт управления рисками, мониторинг эффективности процессов\n\n🕧 Предлагаем:\n• все по ТК РФ\n• ДМС со стоматологией, программа лояльности\n• Macbook \n• адекватное руководство и лояльные процессы\n• большое комьюнити, классные команды\n• помогаем с релокацией!\n\nРезюме и вопросы @Priboch","markup":[{"type":"hashtag","offset":0,"length":9,"data":"вакансия"},{"type":"hashtag","offset":10,"length":3,"data":"QA"},{"type":"hashtag","offset":14,"length":5,"data":"Java"},{"type":"hashtag","offset":20,"length":13,"data":"QAAutomation"},{"type":"hashtag","offset":34,"length":7,"data":"Москва"},{"type":"hashtag","offset":42,"length":5,"data":"офис"},{"type":"handle","offset":1771,"length":8,"data":"Priboch"}],"date":"2020-07-02T09:23:09+00:00","link":"tg://resolve?domain=qa_jobs&post=99374","tags":[{"name":"qa"},{"name":"java"},{"name":"selenium"},{"name":"unix"},{"name":"soap"},{"name":"rest"},{"name":"git"},{"name":"jenkins"},{"name":"docker"},{"name":"sql"}],"cities":[{"code":"moscow"}],"allowsRemote":false}},{"node":{"__typename":"Job","id":"2272264192-1001134745498","title":"Devops инженер","text":"Приветствую! \n\nУ нас ведется подбор на роль  “Devops” в Сбербанк-Технологии, в проект Школьная цифровая платформа.  \n\nОбразовательная цифровая платформа - SaaS решение для обучения, позволяющее автоматизировать\nразличные виды образовательной деятельности. Гибкость платформы позволяет применить ее в\nразличных областях обучения на всех этапах образовательного процесса. \n\nТребования:\n• Опыт администирования Linux от 3-х лет (поддержка prod)\n• Автоматизация рутинных задач (bash, python)\n• Опыт работы с Ansible\n• Опыт разворачивания инструментов мониторинга: Prometheus, Grafana, Zabbix или аналоги\n• Опыт настройки CI/CD (Jenkins, Gitlab, Bitbucket)\n• Контейнеризация (docker) и оркестрация (Kubernetes)\n• ELK\n• Требуется понимание основ сетей, работы стека TCP/IP\n\nЖелательно:\n• опыт работы с Сeph.\n• опыт администрирования PostgreSQL, MongoDB\n\nУсловия работы:\n• работа в одной из крупнейших ИТ организаций в России;\n• команда профессионалов, готовых поддержать ваши инициативы;\n• мощное железо, дополнительные мониторы и всё, что нужно для продуктивной работы;\n• возможность работы с новыми технологиями;\n• ДМС и дополнительные \"плюшки\" от организации;\n• прозрачная система бонусов и премий, достойная зарплата (размер обсудим на\nсобеседовании);\n• яркая и насыщенная корпоративная жизнь.\n\n🧗‍♂График работы обговаривается и full-time\n\n 🌁Место работы город Москва. \nМетро Савеловская.\n\n💰Доход обговаривается индивидуально после   интервью. Подбор ведется на различные уровни. \nДоходная вилка от 170к до 230к gross + годовая премия!\n\n#вакансия #devops \nЕсли интересно🤔, пишите 🤗\n@KristiSberHR\n\n—\n\n👉 Обсуждение вакансии в чате @devops_jobs","markup":[{"type":"hashtag","offset":1538,"length":9,"data":"вакансия"},{"type":"hashtag","offset":1548,"length":7,"data":"devops"},{"type":"handle","offset":1585,"length":13,"data":"KristiSberHR"},{"type":"handle","offset":1633,"length":12,"data":"devops_jobs"}],"date":"2020-07-02T06:22:12+00:00","link":"tg://resolve?domain=devops_jobs_feed&post=2167","tags":[{"name":"linux"},{"name":"bash"},{"name":"python"},{"name":"ansible"},{"name":"jenkins"},{"name":"gitlab"},{"name":"docker"},{"name":"kubernetes"},{"name":"postgresql"},{"name":"mongodb"}],"cities":[{"code":"moscow"}],"allowsRemote":false}},{"node":{"__typename":"Job","id":"104108916736-1001089317451","title":"Qa engineer","text":"#вакансия #QA #тестировщик #middle #senior #москва #офис #fulltime\n\nКомпания: СберТех\nЛокация: г. Москва\nЗ/п: 130-250k\n \nСберТех приглашает в команду QA Engineer. Так же того, кто желает обучаться автоматизации на JS/CodeceptJS или уже состоявшегося автоматизатора\n\n💻 Делаем образовательную цифровую платформу - SaaS решение для персонализированного обучения в школах, IT Bootcamp Сбербанка. Сейчас масштабируемся и выходим на университеты\n\nСтек проекта:\nBack: Java 8+, Spring 5, SpringBoot 2, PostgreSQL, MongoDB, Flyway\n﻿Front: ReactJS, Typescript, Apollo-client, Styled-Components\nAutomationQA: API - Java/TestNG; UI - JavaScript/CodeceptJS\nInfracture: Jenkins, Allure, Bitbucket, Jira, EFK, Grafana\nEnvironment: Docker, Kubernetes, Ceph\n\nЧем предстоит заниматься:\n🔹проходить регресс текущего функционала\n🔹разрабатывать кейсы параллельно разработке нового функционала\n🔹проводить анализ требований для новых фич и давать свое заключение\n🔹участвовать в расширении тестовой модели\n🔹автоматизировать регресс, поддерживать старый функционал, писать тесты для новых фич\n\nОжидания от квалификации:\n🔹умение работать с DevTools, различать Get & Post-запросы\n🔹знание видов тестирования, умение отличить функциональное тестирование от нефункционального, понимание зачем и когда нужен regress, end-2-end и smoke testing\n🔹умение/желание тестировать UI\n🔹опыт работы с технической документацией, анализом макетов и составлением тестовой документации \n🔹умение чётко и внятно составлять баг-репорты в таск-трекере (у нас Jira)\n🔹умение писать понятные для других тест-кейсы без лишней информации\n🔹опыт взаимодействия с Rest-API\n\nПлюсом будет:\n🔹если слова cross platform testing & cross device testing не вызывают ступора, на примете есть полезные applications для тестирования UI\n🔹если уже ступил на путь познания JavaScript или Java\n🔹шапочное или личное знакомство с GraphQL\n🔹опыт работы в Agile-команде\n\nПредлагаем:\n✔достойную зарплату (оклад + высокая годовая премия) \n✔профессиональное развитие: конференции, митапы, обучение в Корпоративном университете Сбербанка\n✔ДМС, страховку от несчастных случаев, льготные условия ипотеки, скидки от компаний-партнеров, бесплатный тренажёрный зал\n✔офис А класса в БЦ «Северное Сияние» (5 мин от м. Савеловская), удалёнка до конца июля\n\nЕсли интересно - буду рада обсудить, вот мои контакты:\n📲 @karprokar\n📩 KVProlomova@sberbank.ru","markup":[{"type":"hashtag","offset":0,"length":9,"data":"вакансия"},{"type":"hashtag","offset":10,"length":3,"data":"QA"},{"type":"hashtag","offset":14,"length":12,"data":"тестировщик"},{"type":"hashtag","offset":27,"length":7,"data":"middle"},{"type":"hashtag","offset":35,"length":7,"data":"senior"},{"type":"hashtag","offset":43,"length":7,"data":"москва"},{"type":"hashtag","offset":51,"length":5,"data":"офис"},{"type":"hashtag","offset":57,"length":9,"data":"fulltime"},{"type":"bold","offset":68,"length":8,"data":""},{"type":"bold","offset":86,"length":7,"data":""},{"type":"bold","offset":105,"length":3,"data":""},{"type":"bold","offset":121,"length":40,"data":""},{"type":"bold","offset":442,"length":12,"data":""},{"type":"bold","offset":743,"length":24,"data":""},{"type":"bold","offset":1074,"length":24,"data":""},{"type":"bold","offset":1627,"length":12,"data":""},{"type":"bold","offset":1908,"length":10,"data":""},{"type":"handle","offset":2340,"length":10,"data":"karprokar"},{"type":"link","offset":2354,"length":23,"data":"mailto:KVProlomova@sberbank.ru"}],"date":"2020-06-30T20:08:43+00:00","link":"tg://resolve?domain=qa_jobs&post=99286","tags":[{"name":"qa"},{"name":"java"},{"name":"spring"},{"name":"postgresql"},{"name":"mongodb"},{"name":"reactjs"},{"name":"typescript"},{"name":"javascript"},{"name":"jenkins"},{"name":"docker"},{"name":"kubernetes"},{"name":"rest"},{"name":"graphql"}],"cities":[{"code":"moscow"}],"allowsRemote":true}}]}}},"context":{}}