{"hash":"f34fd2c444a074f4e0e67d525015a008ef8e766f","data":{"records":{"id":"net-core","name":"net-core","belongsTo":{"totalCount":24,"pageInfo":{"totalPages":3,"currentPage":3},"edges":[{"node":{"__typename":"Job","id":"42991616-1001375797688","title":".net разработчик","text":"#вакансия #москва #офис Разработчика C# (fullstack)\nот 150 000 руб. на руки\nНаша IT команда ведет активную разработку различных IT проектов: учетную ERP систему, ряд Web порталов, служебного софта и много другое.\nСейчас мы в поисках талантливого Разработчика C# (fullstack).\nНаш основной стэк технологий: .Net (4.8/Core, WCF, SQL 2017, EF, ServiceStack OrmLite), разработка на современном железе.\nВас ждут интересные задачи в очень атмосферной компании!\nНаши ожидания\n • Опыт разработки на C#, понимание паттернов и принципов проектирования.\n • Знание MS SQL, опыт написания и оптимизации запросов.\n • Знание JS, Angular.\n • Умение разбираться в чужом коде;\n • Навыки работы в команде;\n • Чтение технической литературы на английском языке.\nБудут плюсом:\n • Знание CSS\n • Опыт работы с ServiceStack\n • Опыт разработки на .Net Core\nМы рассматриваем кандидатов с частичным совпадением наших ожиданий и ваших умений, а также продвинутых профессионалов с опытом более 3-х лет.\nОсновные задачи нового сотрудника\n • Участие в разработке новых проектов в компании (сервисы, webApp, интернет-магазин, CRM система).\n • Поддержка и развитие существующих приложений и сервисов.\n • Контроль качества реализованных решений.\n • Активно следить за актуальными технологиями!\nМы предлагаем:\n • Cовременные технологии и подходы к разработке, спринты Agile (на Jetbrains YouTrack)\n • Позитивную атмосферу и дружный коллектив, демократичную обстановку\n • График работы 5/2, часы работы обсуждаются\n • Оформление и соц. пакет в соответствии с Трудовым Кодексом\n • Корпоративные скидки на весь портфель брендов\n • Корпоративные подарки на праздники\n • Ароматный кофе и чай в неограниченном количестве\n • Уютный Open space на 7-8 человек\n • Офис в 10 мин. от м. Спортивная и МЦК Лужники","markup":[{"type":"hashtag","offset":0,"length":9,"data":"вакансия"},{"type":"hashtag","offset":10,"length":7,"data":"москва"},{"type":"hashtag","offset":18,"length":5,"data":"офис"},{"type":"bold","offset":24,"length":27,"data":""},{"type":"bold","offset":246,"length":28,"data":""},{"type":"bold","offset":454,"length":13,"data":""},{"type":"bold","offset":740,"length":13,"data":""},{"type":"bold","offset":972,"length":33,"data":""},{"type":"bold","offset":1258,"length":14,"data":""}],"date":"2019-11-06T18:11:42+00:00","link":"tg://resolve?domain=DotNetRuJobsFeed&post=41","tags":[{"name":"dotnet"},{"name":"csharp"},{"name":"web"},{"name":"wcf"},{"name":"sql"},{"name":"angularjs"},{"name":"css"},{"name":"net-core"}],"cities":[{"code":"moscow"}],"allowsRemote":false}},{"node":{"__typename":"Job","id":"38797312-1001375797688","title":".net developer","text":"#офис #вакансия \nНижний Новгород\nMiddle C# Developer Full Stack\nЗп 80-120к руб на руки\n\nРассматриваем иногородних!\n\nОбязанности:\n• участие в разработке новых сервисов на C# / .NET Core\n• поддержка и развитие существующих продуктов и сервисов на C# / WPF / .NET Core\n• участие в проектировании архитектуры, планировании релизов, совершенствовании процессов разработки\n• участие во всех этапах разработки продуктов (от идеи/прототипа до релиза)\n\nТребования:\n• высшее техническое образование \n• работа только в офисе полный рабочий день, дистанционная работа не рассматривается (но оказываем материальную и другую поддержку для тех, кто готов к переезду в Нижний Новгород)\n\nПриветствуются:\n• собственный проект или участие в opensource\n• опыт работы по Agile (Scrum, Kanban, XP).\n• умение находить нестандартные, простые технические решения\n• опыт разработки Web-сервисов,\n• опыт работы с Doсker, Kubernetes\n• опыт написания unit-тестов и разработки по TDD\n\nКлючевые навыки\nC#.NET Framework WPF AgileExtreme Programming Unit Testing.NET Core ASP.NET LINQ MVC ООП MySQL JavaScript HTML SQL CSS\n\nВопросы/отклики писать сюда: @hr_rodnaya, enn369347@gmail.com","markup":[{"type":"hashtag","offset":0,"length":5,"data":"офис"},{"type":"hashtag","offset":6,"length":9,"data":"вакансия"},{"type":"link","offset":1022,"length":11,"data":"http://Testing.NET"},{"type":"link","offset":1039,"length":7,"data":"http://ASP.NET"},{"type":"handle","offset":1120,"length":11,"data":"hr_rodnaya"},{"type":"link","offset":1133,"length":19,"data":"mailto:enn369347@gmail.com"}],"date":"2019-11-04T13:41:16+00:00","link":"tg://resolve?domain=DotNetRuJobsFeed&post=37","tags":[{"name":"dotnet"},{"name":"csharp"},{"name":"wpf"},{"name":"web"},{"name":"kubernetes"},{"name":"linq"},{"name":"mysql"},{"name":"javascript"},{"name":"html"},{"name":"sql"},{"name":"css"},{"name":"net-core"},{"name":"unit-testing"},{"name":"asp-net"}],"cities":[{"code":"nizhny-novgorod"}],"allowsRemote":false}},{"node":{"__typename":"Job","id":"34603008-1001375797688","title":".net разработчик","text":"#вакансия #dotNET #dotnetcore #офис #backend #SQL #docker #middle #senior #воронеж\n\nМы - компания \"Терра Ассистанс\" - ищем в свою команду человека, который любит свою работу и готов к самореализации.\nНаша команда растет, поэтому мы открыли новый офис по адресу: \nгород Воронеж\nул. Спортивная набережная д. 23б\nФормат: офис\n#удалёнка возможна после стажа работы в компании\nЗанятость: полная\nЗарплатная вилка от 80К до 95К\n\nНаша компания с 2013 года создаёт для пользователей автомобилей ассистанс-сервис.\nКто с нами работает?\nКрупнейшие мировые бренды, автомобильные дилеры, ведущие сервисные компании — каждый наш заказчик уникален, поэтому мы разрабатываем и предлагаем индивидуальные решения.\nВ чем наше отличие?\nВ нашей работе мы имеем дело с нестандартными ситуациями и в нашей отрасли каждая ситуация, каждый новый проект уникален. \n\nВ задачи будет входить проектирование и разработка серверной части приложений, тестирование приложений, проектирование, анализ работы баз данных, доработка, поддержка существующих приложений. \n\nПо мимо молодого и дружного коллектива, мы предлагаем:\n- бонусы по результатам работы;\n- возможности профессионального развития и роста;\n- работа в комфортабельном офисном помещении на набережной Воронежского водохранилища: обеденная зона (чай, кофе за счет компании), релакс-зона, душевая, уютный интерьер;\n- оформление по ТК с первого рабочего дня\n\nДля нас очень важно:\n- знание и опыт работы с MSSQL, T-SQL\nC#\nEntity framework, ASP .NET MVC, ASP .NET Core\nDocker\nNginx\n- знание технического английского языка\n- знание MongoDB желательно, но не критично  \n- ответственность, умение работать в команде\n\nhttps://terra-assistance.ru/\n\nКонтакты\n@I_Kristale","markup":[{"type":"hashtag","offset":0,"length":9,"data":"вакансия"},{"type":"hashtag","offset":10,"length":7,"data":"dotNET"},{"type":"hashtag","offset":18,"length":11,"data":"dotnetcore"},{"type":"hashtag","offset":30,"length":5,"data":"офис"},{"type":"hashtag","offset":36,"length":8,"data":"backend"},{"type":"hashtag","offset":45,"length":4,"data":"SQL"},{"type":"hashtag","offset":50,"length":7,"data":"docker"},{"type":"hashtag","offset":58,"length":7,"data":"middle"},{"type":"hashtag","offset":66,"length":7,"data":"senior"},{"type":"hashtag","offset":74,"length":8,"data":"воронеж"},{"type":"hashtag","offset":323,"length":9,"data":"удалёнка"},{"type":"link","offset":1637,"length":28,"data":"https://terra-assistance.ru/"},{"type":"handle","offset":1676,"length":11,"data":"I_Kristale"}],"date":"2019-10-31T11:53:40+00:00","link":"tg://resolve?domain=DotNetRuJobsFeed&post=33","tags":[{"name":"dotnet"},{"name":"csharp"},{"name":"sql"},{"name":"docker"},{"name":"sql-server"},{"name":"nginx"},{"name":"mongodb"},{"name":"entity-framework"},{"name":"asp-net"},{"name":"net-core"},{"name":"asp-net-mvc"},{"name":"asp-net-core"}],"cities":[{"code":"voronezh"}],"allowsRemote":true}},{"node":{"__typename":"Job","id":"33554432-1001375797688","title":".net разработчик","text":"Ребята, #вакансия прилетела: \n\nРазыскиваю .NET разработчика уровня #middle/#senior с опытом работы на .NET Core. Запускаем проект для ведущего сервиса доставки еды в Москве и Петербурге, нагрузка примерно 1 000 000 пользователей. Нужно будет закладывать архитектуру и реализовывать проект с нуля.\n\nТребования:\nГлубокое знание технологического стека Microsoft, включая C#, MS SQL, ASP.NET, MVC/ASP.NET Core и тд.;\nОпыт работы с реляционными базами данных MS-SQL/PostgreSQL;\nЗнание и практический опыт использования правильных инженерных практик (юнит тестирование, автотесты, рефакторинг, CI, DevOps и др)\n\nУдалённая работа, офис, если живете в Ульяновске, полный день. \n\nРезюме присылать сюда: @VladislavAg\n\nВилка: 60 000 - 180 000 рублей","markup":[{"type":"hashtag","offset":8,"length":9,"data":"вакансия"},{"type":"hashtag","offset":67,"length":7,"data":"middle"},{"type":"hashtag","offset":75,"length":7,"data":"senior"},{"type":"link","offset":380,"length":7,"data":"http://ASP.NET"},{"type":"link","offset":393,"length":7,"data":"http://ASP.NET"},{"type":"handle","offset":694,"length":12,"data":"VladislavAg"}],"date":"2019-10-31T09:39:14+00:00","link":"tg://resolve?domain=DotNetRuJobsFeed&post=32","tags":[{"name":"dotnet"},{"name":"csharp"},{"name":"sql"},{"name":"postgresql"},{"name":"net-core"},{"name":"asp-net"},{"name":"asp-net-mvc"},{"name":"asp-net-core"}],"cities":[],"allowsRemote":false}}]}}},"context":{}}