{"hash":"f5f6bf98bd95e769321482904cbbd488f77922fd","data":{"records":{"id":"symfony","name":"symfony","belongsTo":{"totalCount":21,"pageInfo":{"totalPages":3,"currentPage":3},"edges":[{"node":{"__typename":"Job","id":"26294091776-1001075660570","title":"Php разработчик","text":"#вакансия #удалённо #фронтенд #javascript #AngularJs #Symfony\n\nКомпания: Промрукав\nО компании: Компания «Промрукав» — это торгово-производственная организация, с 1999 года динамично развивающаяся на рынке кабеленесущих систем. \nФормат работы: удалённая работа, график работы 5/2, частичная занятость (<5 ч/день), по желанию возможна работа в офисе\nПроект: B2B Ecommerce\nЗаработная плата: от 50 000 и выше (на руки)\nЗадачи/Обязанности: \nПоддержка и развитие e-commerce проектов компании: b2b-платформа, сайт: \n- разработка новых сервисов компании\n- оптимизация и поддержка текущих продуктов\n- улучшать имеющийся функционал и разрабатывать новый \n- участвовать в принятии архитектурных решений\n- способного к эффективному взаимодействию удалённо или в офисе\n- чёткое следование установленным Вами же срокам \n- оперативное решение проблем   \nСтек: \n  LAMP/LEMP для оптовой онлайн торговли.\n  PHP 7, MySQL, Nginx, Nodejs\n  Фреймворки: Symfony (Symfony console component, Symfony process component, Swift Mailer)\n  Модульная сетка и внешний вид: gentelella\n  Фреймворки: bootstrap, AngularJs\n\nТребования:\n•  Опыт работы от 3х лет\n•  Уверенное знание , MySQL, OOP, Composer, Design patterns в целом, Git.  PHP 7 \n•  Навыки работы в Linux, Apache/nginx, Bootstrap (Gentelella), AngularJs, Nodejs (сборщик js -> gulp на nodejs работает + различные js компоненты). \n•  Приветствуются знания в области интеграции сайта с 1С (использование Web- и HTTP-сервисов) \n\nЧто предлагаем: \nМы не web-студия и не зарабатываем, продавая Ваши способности третьим лицам, поэтому для разработчика наши проекты — это возможность заниматься одним интересным делом без необходимости каждый раз вникать в новый проект и тонкости его работы. Преимущества работы у нас это:\n • стабильный ежемесячный заработок в формате удалённой работы с оформление по ТК; \n • небольшой, но очень дружный коллектив (ИТ-отдел);\n • один руководитель;  \n • возможность посещения всероссийских и международных IT-конференций;\n • возможность принимать участие в корпоративных мероприятиях (проезд оплачивается)\n\nКонтакт для связи: \nTelegram: @dnmit","markup":[{"type":"hashtag","offset":0,"length":9,"data":"вакансия"},{"type":"hashtag","offset":10,"length":9,"data":"удалённо"},{"type":"hashtag","offset":20,"length":9,"data":"фронтенд"},{"type":"hashtag","offset":30,"length":11,"data":"javascript"},{"type":"hashtag","offset":42,"length":10,"data":"AngularJs"},{"type":"hashtag","offset":53,"length":8,"data":"Symfony"},{"type":"handle","offset":2095,"length":6,"data":"dnmit"}],"date":"2020-06-14T14:06:14+00:00","link":"tg://resolve?domain=php_jobs&post=25076","tags":[{"name":"php"},{"name":"javascript"},{"name":"angularjs"},{"name":"symfony"},{"name":"mysql"},{"name":"nginx"},{"name":"nodejs"},{"name":"swift"},{"name":"bootstrap"},{"name":"git"},{"name":"linux"},{"name":"apache"},{"name":"gulp"},{"name":"web"}],"cities":[],"allowsRemote":true}}]}}},"context":{}}