{"hash":"f34fd2c444a074f4e0e67d525015a008ef8e766f","data":{"records":{"id":"yii","name":"yii","belongsTo":{"totalCount":13,"pageInfo":{"totalPages":2,"currentPage":1},"edges":[{"node":{"__typename":"Job","id":"24391974912-1001075660570","title":"Php разработчик","text":"#вакансия #удаленка#php #yii\n #штат #highload #ecommerce #официально\n\nРебята, наша компания Hidden Team расширяет штат и приглашает на работу backend-разработчиков уровня middle/middle+ c опытом работы на фреймворке Yii. Мы занимаемся разработкой highload проектов в сфере e-commerce и сложных ERP систем. Сотрудничаем с топовыми веб-студиями и digital-агентствами России.\n\nЧто бы мы хотели видеть у наших кандидатов?\n🔸Хорошие знания программирования (PHP, ООП).\n🔸Опыт работы на фреймворке Yii/Laravel/Symfony\n🔸Опыт работы с Git.\n🔸Опыт работы в консоли linux.\n🔸Базовые знания html, java script, css.\n🔸Понимание принципов построения RESTFul сервисов.\n🔸Желателен опыт работы с чем-либо RabbitMQ, Redis, ElasticSearch, PostgreSQL.\n🔸Английский на уровне чтения технической документации.\n\nЛичные качества: аккуратность, внимательность к мелочам, самостоятельность и организованность, умение работать в команде, быстро реагировать на запросы и изменение ситуации, желание обучаться и развиваться, стремление сделать работу максимально качественно.\n\nМы предлагаем:\n🔹только удаленная работа с отлаженным процессом менеджмента проектов (трекинг в Redmine, оценка задач разработчиками);\n🔹работа над сложными e-commerce проектами для крупнейших российских веб-студий (топ-10 рейтинга рунета);\n🔹многосерверная архитектура, высокие нагрузки (500К+ посетителей/месяц);\n🔹множество различных интеграций с большими объемами данных;\n🔹индивидуальные планы развития;\n🔹обучение и семинары внутри компании, собственная он-лайн школа на стадии запуска;\n🔹перспективы карьерного роста (повышения уровня разработчика до senior/team lead, возможность релокации);\n🔹 заработная плата 70К-120К+ по итогам собеседования (белая, на руки), открытая система грейдов;\n🔹 официальное оформление по ТК РФ, оплачиваемый отпуск, удобный график (начало работы 8-11), в выходные, праздники и по ночам не работаем☺️.\n\nКонтакты: Яна @yanaizosimova","markup":[{"type":"hashtag","offset":0,"length":9,"data":"вакансия"},{"type":"hashtag","offset":24,"length":4,"data":"yii"},{"type":"hashtag","offset":30,"length":5,"data":"штат"},{"type":"hashtag","offset":36,"length":9,"data":"highload"},{"type":"hashtag","offset":46,"length":10,"data":"ecommerce"},{"type":"hashtag","offset":57,"length":11,"data":"официально"},{"type":"handle","offset":1906,"length":14,"data":"yanaizosimova"}],"date":"2020-04-10T10:05:28+00:00","link":"tg://resolve?domain=php_jobs&post=23262","tags":[{"name":"php"},{"name":"yii"},{"name":"laravel"},{"name":"symfony"},{"name":"git"},{"name":"linux"},{"name":"html"},{"name":"java"},{"name":"css"},{"name":"rabbitmq"},{"name":"redis"},{"name":"elasticsearch"},{"name":"postgresql"}],"cities":[],"allowsRemote":true}},{"node":{"__typename":"Job","id":"16240345088-1001110946746","title":"Js разработчик","text":"#вакансия #Ярославль\n#javascript #js #fullstack \nГород Ярославль(Ярославская область)\nРабота в офисе \nПолная занятость \nЗаработная плата от 60 000 до 80 000 руб. на руки \nWeb разработчик \nТребования: \n-Уверенное знание JavaScript,HTML,CSS;\n-Понимание принципов MVC;\n-Опыт работы с Git;\n-Умение тестировать и документировать собственный код,а также работать с чужим; \n-Умение пользоваться командной строкой Linux(bash,shell,etc)\nБудет плюсом: \n-PHP\n-Опыт работы с extjs;\n-Опыт работы с Yii,Vue;\n-Опыт работы в bugtracing системах (Redmine);\n-Опыт коммерческой разработки ПО.\nКомпания «Сетевые решения»\nПо вопросам в телеграмм @Nbagama или ват сап 8962 956 62 04 Анастасия\n\n—\n\n👉 Обсуждение вакансии в чате @javascript_jobs","markup":[{"type":"hashtag","offset":0,"length":9,"data":"вакансия"},{"type":"hashtag","offset":10,"length":10,"data":"Ярославль"},{"type":"hashtag","offset":21,"length":11,"data":"javascript"},{"type":"hashtag","offset":33,"length":3,"data":"js"},{"type":"hashtag","offset":37,"length":10,"data":"fullstack"},{"type":"handle","offset":625,"length":8,"data":"Nbagama"},{"type":"link","offset":646,"length":14,"data":"tel:8962 956 62 04"},{"type":"handle","offset":705,"length":16,"data":"javascript_jobs"}],"date":"2020-04-10T09:12:51+00:00","link":"tg://resolve?domain=javascript_jobs_feed&post=15488","tags":[{"name":"javascript"},{"name":"web"},{"name":"html"},{"name":"css"},{"name":"git"},{"name":"linux"},{"name":"bash"},{"name":"shell"},{"name":"php"},{"name":"extjs"},{"name":"yii"},{"name":"vuejs"}],"cities":[{"code":"yaroslavl"}],"allowsRemote":false}},{"node":{"__typename":"Job","id":"24342691840-1001075660570","title":"Php разработчик","text":"#вакансия #Новосибирск #офис #удаленно#FullStack#Middle #Senior#PHP#JavaScript\n\nГород: Новосибирск\nФормат работы: в офисе/удаленно\nЗанятость: полная\nЗарплатная вилка: от 100 000 до 200 000 руб. на руки\nНазвание компании: ВилайнТВ\n\nНужен FullStack разработчик для создания и развития нового проекта видео- тематики. Данная компания разрабатывает и поддерживает облачные хранилища. Проекту уже более 7 лет, в своей нише занимает второе место в мире, аналог на рынке России turbobit, аналог в мире rapidgator, основные рынки это США, Европа, сейчас выходят на Азию, в России не работают. \n\nСтек технологий: Хранилище - OpenStack Swift, BackEnd - Nodejs, PHP (Yii1, Yii2, Laravel), FrontEnd - React, BD - MySql, Postgres, Mongo, Elastic, Доставка - Jenkins, Docker, Kubernetes.\n\nЧто хотят:\n• программирование на JS хотя бы 1 год.\n• программирование на PHP хотя бы 2 года\n• решение любой front-задачи начинать с составления модели данных.\n• уметь работать со сложными SQL-запросами.\n• самостоятельно уметь планировать свою работу.\n• опыт создания сайтов «под ключ»\n• навыки работы с системами контроля версий\n• обязательное понимание валидной, кросс-браузерной и адаптивной верстки.\n\nЧто дают:\n• Работа в офисе или возможность работать удаленно на полный рабочий день;\n• Трудоустройство в соответствии с ТК РФ;\n• График работы с Пн по Пт;\n• Просторный офис в центре Новосибирска либо удаленно;\n• Гибкое начало рабочего дня.\n\nБудет плюсом, если работали с большими проектами.\n\nВопросы : @juliajudina2810\njuliajudina2810@gmail.com","markup":[{"type":"hashtag","offset":0,"length":9,"data":"вакансия"},{"type":"hashtag","offset":10,"length":12,"data":"Новосибирск"},{"type":"hashtag","offset":23,"length":5,"data":"офис"},{"type":"handle","offset":1481,"length":16,"data":"juliajudina2810"},{"type":"link","offset":1498,"length":25,"data":"mailto:juliajudina2810@gmail.com"}],"date":"2020-04-09T10:05:09+00:00","link":"tg://resolve?domain=php_jobs&post=23215","tags":[{"name":"php"},{"name":"javascript"},{"name":"swift"},{"name":"nodejs"},{"name":"yii"},{"name":"laravel"},{"name":"reactjs"},{"name":"mysql"},{"name":"postgresql"},{"name":"elasticsearch"},{"name":"jenkins"},{"name":"docker"},{"name":"kubernetes"},{"name":"sql"}],"cities":[{"code":"novosibirsk"}],"allowsRemote":true}},{"node":{"__typename":"Job","id":"24325914624-1001075660570","title":"Php разработчик","text":"#вакансия #удаленка #php #yii\n #штат #highload #ecommerce #официально\n\nРебята, наша компания Hidden Team расширяет штат и приглашает на работу backend-разработчиков уровня middle/middle+. Мы занимаемся разработкой highload проектов в сфере e-commerce и сложных ERP систем. Сотрудничаем с топовыми веб-студиями и digital-агентствами России, любим Битрикс и возможность решать нестандартные проблемы из любой точки страны!\n\nЧто бы мы хотели видеть у наших кандидатов?\n🔸Хорошие знания программирования (PHP, ООП).\n🔸Опыт работы на фреймворке Yii/Symfony/Laravel\n🔸Опыт работы с Git.\n🔸Опыт работы в консоли linux.\n🔸Базовые знания html, java script, css.\n🔸Понимание принципов построения RESTFul сервисов.\n🔸Желателен опыт работы с чем-либо RabbitMQ, Redis, ElasticSearch, PostgreSQL.\n🔸Английский на уровне чтения технической документации.\n\nЛичные качества: аккуратность, внимательность к мелочам, самостоятельность и организованность, умение работать в команде, быстро реагировать на запросы и изменение ситуации, желание обучаться и развиваться, стремление сделать работу максимально качественно.\n\nМы предлагаем:\n🔹только удаленная работа с отлаженным процессом менеджмента проектов (трекинг в Redmine, оценка задач разработчиками);\n🔹работа над сложными e-commerce проектами для крупнейших российских веб-студий (топ-10 рейтинга рунета);\n🔹многосерверная архитектура, высокие нагрузки (500К+ посетителей/месяц);\n🔹множество различных интеграций с большими объемами данных;\n🔹индивидуальные планы развития;\n🔹обучение и семинары внутри компании, собственная он-лайн школа на стадии запуска;\n🔹перспективы карьерного роста (повышения уровня разработчика до senior/team lead, возможность релокации);\n🔹 заработная плата 70К-120К+ по итогам собеседования (белая, на руки), открытая система грейдов;\n🔹 официальное оформление по ТК РФ, оплачиваемый отпуск, удобный график (начало работы 8-11), в выходные, праздники и по ночам не работаем☺️.\n\nКонтакты: Яна @yanaizosimova","markup":[{"type":"hashtag","offset":0,"length":9,"data":"вакансия"},{"type":"hashtag","offset":10,"length":9,"data":"удаленка"},{"type":"hashtag","offset":20,"length":4,"data":"php"},{"type":"hashtag","offset":25,"length":4,"data":"yii"},{"type":"hashtag","offset":31,"length":5,"data":"штат"},{"type":"hashtag","offset":37,"length":9,"data":"highload"},{"type":"hashtag","offset":47,"length":10,"data":"ecommerce"},{"type":"hashtag","offset":58,"length":11,"data":"официально"},{"type":"handle","offset":1954,"length":14,"data":"yanaizosimova"}],"date":"2020-04-07T08:24:30+00:00","link":"tg://resolve?domain=php_jobs&post=23199","tags":[{"name":"php"},{"name":"yii"},{"name":"symfony"},{"name":"laravel"},{"name":"git"},{"name":"linux"},{"name":"html"},{"name":"java"},{"name":"css"},{"name":"rabbitmq"},{"name":"redis"},{"name":"elasticsearch"},{"name":"postgresql"}],"cities":[],"allowsRemote":true}},{"node":{"__typename":"Job","id":"24299700224-1001075660570","title":"Php разработчик","text":"#вакансия #удаленка #битрикс #bitrix #php #yii\n #штат #highload #ecommerce #официально\n\nРебята, наша компания Hidden Team расширяет штат и приглашает на работу backend-разработчиков уровня middle/middle+. Мы занимаемся разработкой highload проектов в сфере e-commerce и сложных ERP систем. Сотрудничаем с топовыми веб-студиями и digital-агентствами России, любим Битрикс и возможность решать нестандартные проблемы из любой точки страны!\n\nЧто бы мы хотели видеть у наших кандидатов?\n🔸Хорошие знания программирования (PHP, ООП).\n🔸Опыт работы на фреймворке Yii\n🔸Большой опыт реализации проектов на 1С-Битрикс: написание модулей и компонентов, кастомизация свойств.\n🔸Опыт работы с Git.\n🔸Опыт работы в консоли linux.\n🔸Базовые знания html, java script, css.\n🔸Понимание принципов построения RESTFul сервисов.\n🔸Желателен опыт работы с чем-либо RabbitMQ, Redis, ElasticSearch, PostgreSQL.\n🔸Английский на уровне чтения технической документации.\n\nЛичные качества: аккуратность, внимательность к мелочам, самостоятельность и организованность, умение работать в команде, быстро реагировать на запросы и изменение ситуации, желание обучаться и развиваться, стремление сделать работу максимально качественно.\n\nМы предлагаем:\n🔹только удаленная работа с отлаженным процессом менеджмента проектов (трекинг в Redmine, оценка задач разработчиками);\n🔹работа над сложными e-commerce проектами для крупнейших российских веб-студий (топ-10 рейтинга рунета);\n🔹многосерверная архитектура, высокие нагрузки (500К+ посетителей/месяц);\n🔹множество различных интеграций с большими объемами данных;\n🔹индивидуальные планы развития;\n🔹обучение и семинары внутри компании, собственная он-лайн школа на стадии запуска;\n🔹перспективы карьерного роста (повышения уровня разработчика до senior/team lead, возможность релокации);\n🔹 заработная плата 70К-120К+ по итогам собеседования (белая, на руки), открытая система грейдов;\n🔹 официальное оформление по ТК РФ, оплачиваемый отпуск, удобный график (начало работы 8-11), в выходные, праздники и по ночам не работаем☺️.\n\nКонтакты: Яна @yanaizosimova","markup":[{"type":"hashtag","offset":0,"length":9,"data":"вакансия"},{"type":"hashtag","offset":10,"length":9,"data":"удаленка"},{"type":"hashtag","offset":20,"length":8,"data":"битрикс"},{"type":"hashtag","offset":29,"length":7,"data":"bitrix"},{"type":"hashtag","offset":37,"length":4,"data":"php"},{"type":"hashtag","offset":42,"length":4,"data":"yii"},{"type":"hashtag","offset":48,"length":5,"data":"штат"},{"type":"hashtag","offset":54,"length":9,"data":"highload"},{"type":"hashtag","offset":64,"length":10,"data":"ecommerce"},{"type":"hashtag","offset":75,"length":11,"data":"официально"},{"type":"handle","offset":2060,"length":14,"data":"yanaizosimova"}],"date":"2020-04-06T07:30:27+00:00","link":"tg://resolve?domain=php_jobs&post=23174","tags":[{"name":"php"},{"name":"yii"},{"name":"git"},{"name":"linux"},{"name":"html"},{"name":"java"},{"name":"css"},{"name":"rabbitmq"},{"name":"redis"},{"name":"elasticsearch"},{"name":"postgresql"}],"cities":[],"allowsRemote":true}},{"node":{"__typename":"Job","id":"24242028544-1001075660570","title":"Php разработчик","text":"#php #developer #middle #senior #fulltime #удалённо #job #вакансия #remote #фуллтайм #fulltime #удаленно #удаленка #удалёнка #удаленно \n #москва \n✔️ Вакансия: PHP developer\nЗП: до 160k net\nФормат работы: полная/удаленно\nКомпания: МТС \n\nКрупная российская телекоммуникационная компания приглашает присоединиться PHP разработчика к проекту доработки приложения, позволяющее абонентам эффективно и комфортно управлять финансами абонентского счета.\n\n ✔️ Задачи:\n• Доработка CMS бэкенда проекта;\n• Доработка бэкенда проекта;\n• Интеграции решений с внешними системами;\n• Интеграция решения с мобильными приложениями;\n• Разработка веб-приложений с использованием PHP 5.3, 5.6, 7.3.\n\n✔️ Предлагаем: \n• Официальное трудоустройство;\n• Повышение квалификации;\n•  Удаленная работа из дома.\n\n✔️ Пожелания к Вашему опыту:\n• Знание отличий версий PHP 5.3, 5.6, 7.3;\n• Понимание принципов ООП, MVP;\n• Опыт работы с #Yii2, #Laravel;\n• Работа с БД: PL/SQL, MySQL, MS SQL;\n• Опыт работы с JavaScript, jQuery, Bootstrap, CSS, HTML;\n• Опыт работы с Yii2, Laravel;\n• Работа с БД: PL/SQL, MySQL, MS SQL;\n• Знание команд Unix/Windows;\n• Опыт разработки пользовательских интерфейсов;\n• Опыт работы с системами контроля версий: TFS/SVN/GIT.\n\nКонтактное лицо: @OlgaVzh","markup":[{"type":"hashtag","offset":0,"length":4,"data":"php"},{"type":"hashtag","offset":5,"length":10,"data":"developer"},{"type":"hashtag","offset":16,"length":7,"data":"middle"},{"type":"hashtag","offset":24,"length":7,"data":"senior"},{"type":"hashtag","offset":32,"length":9,"data":"fulltime"},{"type":"hashtag","offset":42,"length":9,"data":"удалённо"},{"type":"hashtag","offset":52,"length":4,"data":"job"},{"type":"hashtag","offset":57,"length":9,"data":"вакансия"},{"type":"hashtag","offset":67,"length":7,"data":"remote"},{"type":"hashtag","offset":75,"length":9,"data":"фуллтайм"},{"type":"hashtag","offset":85,"length":9,"data":"fulltime"},{"type":"hashtag","offset":95,"length":9,"data":"удаленно"},{"type":"hashtag","offset":105,"length":9,"data":"удаленка"},{"type":"hashtag","offset":115,"length":9,"data":"удалёнка"},{"type":"hashtag","offset":125,"length":9,"data":"удаленно"},{"type":"hashtag","offset":137,"length":7,"data":"москва"},{"type":"bold","offset":158,"length":15,"data":""},{"type":"bold","offset":204,"length":16,"data":""},{"type":"bold","offset":447,"length":11,"data":""},{"type":"bold","offset":676,"length":16,"data":""},{"type":"bold","offset":779,"length":29,"data":""},{"type":"hashtag","offset":899,"length":5,"data":"Yii2"},{"type":"hashtag","offset":906,"length":8,"data":"Laravel"},{"type":"handle","offset":1233,"length":8,"data":"OlgaVzh"}],"date":"2020-04-02T08:52:06+00:00","link":"tg://resolve?domain=php_jobs&post=23119","tags":[{"name":"php"},{"name":"dotnet"},{"name":"yii"},{"name":"laravel"},{"name":"sql"},{"name":"mysql"},{"name":"javascript"},{"name":"jquery"},{"name":"bootstrap"},{"name":"css"},{"name":"html"},{"name":"unix"},{"name":"windows"},{"name":"tfs"},{"name":"svn"},{"name":"git"}],"cities":[{"code":"moscow"}],"allowsRemote":true}},{"node":{"__typename":"Job","id":"24228397056-1001075660570","title":"Php разработчик","text":"#вакансия #Москва #fulltime #php #офис #middle #senior\n  \nВакансия: Ведущий backend разработчик (PHP)\nГород: #Москва (м. Парк Победы)\nЗП: от 120К net (готовы рассмотреть ваши ожидания)\nЗанятость: полная / офис \nКомпания: Румиком (https://ru-mi.com/)\n\n📌 Компания Румиком, крупнейший реселлер экосистемы Xiaomi на российском рынке и странах СНГ, ищет увлеченного PHP-профи в свою команду.\n\n📌 Задачи:\n•  Поддержка высоконагруженного ecommerce-проекта (интернет-магазина с посещаемостью больше 1 миллиона пользователей в месяц) в качестве ведущего программиста: доработки по функционалу, фронтенд- и бэкенд-работы при обновлении дизайна разделов и так далее;\n•  Перевод интернет-магазина на новую платформу;\n•  Разработка экосистемы небольших лидген-сайтов для подразделений, входящих в ГК (в будущем — контроль внешних подрядчиков);\n•  Оптимизация скорости работы сайтов;\n•  Интеграционные связки 1С — CRM — сайт.\n\n📌 Что мы готовы предложить:\n•  Практикуем современный подход к работе — мы даем свободу действий и творчества; \n•  Комфортный офис в 7 минутах пешком от станции метро \"Парк Победы\"; \n•  Программы коучинга и горизонтальное обучение в отделах; \n•  Уютный бизнес-центр с фитнес-залом и бассейном; \n•  С удовольствием делимся всем, что сами знаем, \"закрытость\" - не про нас.\n\n📌 Наши ожидания:\n•  Опыт разработки на OpenCart любой версии (от 1.5), понимание модели MVC;\n•  Опыт разработки на РНР от 3-х лет. В ваше портфолио могут входить как решения на CMS, CMF и на фреймворках (Yii 2, Laravel и пр.), так и на популярных CMS (1C-Bitrix, Netcat, MODx);\n•  Хорошие навыки по фронтенду, включая интеграцию верстки, опыт разработки на JavaScript (jQuery);\n•  Опыт работы с реляционными БД: MySQL, PostgreSQL как плюс для соискателя;\n•  Опыт работы с Git. Будет отлично, если работали с Docker.\n\n✉️ Для связи:\nПочта: hr.administrator@digmi.agency\nТелеграм: @dnikiforova","markup":[{"type":"hashtag","offset":0,"length":9,"data":"вакансия"},{"type":"hashtag","offset":10,"length":7,"data":"Москва"},{"type":"hashtag","offset":18,"length":9,"data":"fulltime"},{"type":"hashtag","offset":28,"length":4,"data":"php"},{"type":"hashtag","offset":33,"length":5,"data":"офис"},{"type":"hashtag","offset":39,"length":7,"data":"middle"},{"type":"hashtag","offset":47,"length":7,"data":"senior"},{"type":"hashtag","offset":109,"length":7,"data":"Москва"},{"type":"link","offset":230,"length":18,"data":"https://ru-mi.com/"},{"type":"link","offset":1826,"length":29,"data":"mailto:hr.administrator@digmi.agency"},{"type":"handle","offset":1866,"length":12,"data":"dnikiforova"}],"date":"2020-04-01T14:40:24+00:00","link":"tg://resolve?domain=php_jobs&post=23106","tags":[{"name":"php"},{"name":"dotnet"},{"name":"yii"},{"name":"laravel"},{"name":"javascript"},{"name":"jquery"},{"name":"mysql"},{"name":"postgresql"},{"name":"git"},{"name":"docker"}],"cities":[{"code":"moscow"}],"allowsRemote":false}},{"node":{"__typename":"Job","id":"24184356864-1001075660570","title":"Php разработчик","text":"#вакансия #удаленно #php #symfony #junior\nРасположение: Санкт-Петербург\nФормат работы: удаленно\nЗанятость: полная\nЗп: от 20 до 50 т.р. на руки\n\nО компании: Мы питерская компания LandPro занимаемся помощью бизнесу в организации и ведении дел, ищем в команду 2 начинающих разработчиков, на полностью удаленную работу. \n\nНаш стек: php 7+, symfony 4.4, CSS/Js, jQuery\n\nТребования: \n- Наличие коммерческого опыта желательно но не обязательно\n- Железная сила воли (так как вы работает на удаленке)\n- Уверенное знание php \n- Понимание/Опыт работы с одним из фреймворков symfony/laravel/yii\n- Понимание/опыт работы с MySQL бд \n\nДля связи писать сюда: @elcorporation","markup":[{"type":"hashtag","offset":0,"length":9,"data":"вакансия"},{"type":"hashtag","offset":10,"length":9,"data":"удаленно"},{"type":"hashtag","offset":20,"length":4,"data":"php"},{"type":"hashtag","offset":25,"length":8,"data":"symfony"},{"type":"hashtag","offset":34,"length":7,"data":"junior"},{"type":"handle","offset":643,"length":14,"data":"elcorporation"}],"date":"2020-03-31T14:05:15+00:00","link":"tg://resolve?domain=php_jobs&post=23064","tags":[{"name":"php"},{"name":"symfony"},{"name":"css"},{"name":"jquery"},{"name":"laravel"},{"name":"yii"},{"name":"mysql"}],"cities":[],"allowsRemote":true}},{"node":{"__typename":"Job","id":"24183308288-1001075660570","title":"Php разработчик","text":"#вакансия #fullstack #PHP #Javascript #middle #fulltime #офис #спб\nРасположение: Санкт-Петербург, м. Балтийская \nФормат работы, занятость: офис, полная, гибкое начало дня\nЗП: до 150 000 руб.\n\nО компании: Мы - фабрика мебели «THE IDEA» (www.theidea.ru), с 2014 года занимаемся производством и продажей уникальных предметов домашнего интерьера, радующих своих обладателей каждый день. Сейчас мы в поиске своего fullstack разработчика, который вместе с нашей командой поможет выполнить множество интересных задач, первостепенные из которых: поддержание и развитие нашего сайта, написание тестов, совершенствование системы разработки.\n\nНаш стек: PHP 5.6/7.0, MySQL, HTML/CSS/JavaScript, jQuery, Lodash, Scss, Autoprefixer, PostCSS, Bootstrap 4, Webpack/Gulp. \n\nПомимо этого, наш сайт создан на PrestaShop, что позволит Вам получить/прокачать навыки работы с  фреймворком Symfony.\nВ свою очередь наш CTO готов вкладыватрься в сотрудников и обеспечивать им профессиональный и карьерный рост :)\n\nТребования:\n- Опыт разработки на PHP от 2-х лет c одни из фреймворков: Laravel/Yii2, Symfony;\n- Знание MySQL;\n- Опыт работы с jQuery.\n\nУсловия:\n- Официальное трудоустройство;\n- Работа напрямую с собственником бизнеса, возможность реализации собственных идей; \n- Дружественная рабочая среда с возможностью карьерного и профессионального роста;\n\nКонтакты:\ne-mail: the.idea.hr@gmail.com\ntelegram: @marina_ilmanova\nПишите, если интересно, буду рада ответить на все вопросы 😊","markup":[{"type":"hashtag","offset":0,"length":9,"data":"вакансия"},{"type":"hashtag","offset":10,"length":10,"data":"fullstack"},{"type":"hashtag","offset":21,"length":4,"data":"PHP"},{"type":"hashtag","offset":26,"length":11,"data":"Javascript"},{"type":"hashtag","offset":38,"length":7,"data":"middle"},{"type":"hashtag","offset":46,"length":9,"data":"fulltime"},{"type":"hashtag","offset":56,"length":5,"data":"офис"},{"type":"hashtag","offset":62,"length":4,"data":"спб"},{"type":"link","offset":236,"length":14,"data":"http://www.theidea.ru"},{"type":"link","offset":1351,"length":21,"data":"mailto:the.idea.hr@gmail.com"},{"type":"handle","offset":1383,"length":16,"data":"marina_ilmanova"}],"date":"2020-03-31T13:43:56+00:00","link":"tg://resolve?domain=php_jobs&post=23063","tags":[{"name":"php"},{"name":"javascript"},{"name":"mysql"},{"name":"html"},{"name":"css"},{"name":"jquery"},{"name":"bootstrap"},{"name":"webpack"},{"name":"gulp"},{"name":"symfony"},{"name":"laravel"},{"name":"yii"}],"cities":[],"allowsRemote":false}},{"node":{"__typename":"Job","id":"23928504320-1001075660570","title":"Php разработчик","text":"#вакансия #Екатеринбург #екб #fulltime #php7 #Yii\nООО \"66 Бит\" — профессиональный разработчик программного обеспечения, специализирующийся на разработке под заказ не типовых IT проектов, ориентированных на международные рынки и крупных государственных заказчиков.\n\nВ связи с расширением компании, мы готовы взять в нашу команду талантливого и целеустремленного PHP разработчика.\n\nНаша основная специализация - разработка сложных программных продуктов на заказ. Мы будем рады всем тем, для кого IT – это призвание и любимое занятие.\n\nОбязанности:\n\n🏅разрабатывать backend-часть сайтов / сервисов;\n🏅разрабатывать CRUD админку на Yii2;\n🏅разрабатывать RESTful API на Yii2;\n\nТребования:\n🏅уверенные знание PHP 7‚ ООП;\n🏅знание Yii2 (или аналогичного фреймворка);\n🏅знание БД (MySQL‚ PostgreSQL): хорошее знание SQL‚ знание тонкостей оптимизации запросов;\n🏅уверенные знания HTML/HTML5‚ CSS‚ AJAX‚ препроцессоры;\n🏅опыт использования системы контроля версий – Git.\n\nБудет плюсом:\n🏅опыт работы с Gitlab-ci, Vue.js, Jira, Confluence;\n🏅опыт внедрения GraphQL в API.\n\nНаш стек технологий:\n🏅Инфраструктура на базе Docker и Gitlab-CI на собственных серверах (CI/CD);\n🏅Elastiсsearch + Kibana для поиска и анализа данных;\n🏅MySQL, PostgreSQL;\n🏅PHP 7+ Yii2;\n🏅Mysql, Redis, RabbitMQ;\n🏅Vue.js на фронте.\n\nУсловия:\n\n🔎Интересные задачи;\n👩🏼‍💻👨🏽‍💻Дружный молодой коллектив;\n⏱Плавающее начало рабочего дня;\n🏢Офис в центре, удобная транспортная развязка;\n📈Большие возможности профессионального роста;\n\n💰Вознаграждение зависит от уровня квалификации и устанавливается по итогам выполнения тестового задания;\n🍪🥤Кола, печеньки, чай, кофе и сок в ассортименте.\n\nКонтакты: @chapnow","markup":[{"type":"hashtag","offset":0,"length":9,"data":"вакансия"},{"type":"hashtag","offset":10,"length":13,"data":"Екатеринбург"},{"type":"hashtag","offset":24,"length":4,"data":"екб"},{"type":"hashtag","offset":29,"length":9,"data":"fulltime"},{"type":"hashtag","offset":39,"length":5,"data":"php7"},{"type":"hashtag","offset":45,"length":4,"data":"Yii"},{"type":"handle","offset":1666,"length":8,"data":"chapnow"}],"date":"2020-03-25T05:44:55+00:00","link":"tg://resolve?domain=php_jobs&post=22820","tags":[{"name":"php"},{"name":"yii"},{"name":"mysql"},{"name":"postgresql"},{"name":"sql"},{"name":"html"},{"name":"css"},{"name":"ajax"},{"name":"git"},{"name":"gitlab"},{"name":"vuejs"},{"name":"graphql"},{"name":"docker"},{"name":"redis"},{"name":"rabbitmq"}],"cities":[],"allowsRemote":false}}]}}},"context":{}}