{"hash":"f34fd2c444a074f4e0e67d525015a008ef8e766f","data":{"records":{"id":"swift","name":"swift","belongsTo":{"totalCount":22,"pageInfo":{"totalPages":3,"currentPage":1},"edges":[{"node":{"__typename":"Job","id":"66441969664-1001054966032","title":"Ios разработчик","text":"#вакансия #юнити  #unity #удаленка \nUnity Разработчик \nФормат работы: удаленка\nИщу разработчика, готового и умеющего учить. У меня есть проект (мой), который нужно сделать, это довольно простая игра - головоломка, я бы хотел сам её сделать и поддерживать. У меня 4 года опыта работы ПМ и полгода опыта работы на Swift (iOS), общие принципы программирования уже понимаю, хочу переключится на Юнити. Формат занятий - по скайпу, приблизительно 1 час вечером, примерно в 18 по МСК, также есть возможность днем в районе 13-15 по МСК. По оплате - 800р/час.","markup":[{"type":"hashtag","offset":0,"length":9,"data":"вакансия"},{"type":"hashtag","offset":10,"length":6,"data":"юнити"},{"type":"hashtag","offset":18,"length":6,"data":"unity"},{"type":"hashtag","offset":25,"length":9,"data":"удаленка"}],"date":"2020-04-10T14:50:13+00:00","link":"tg://resolve?domain=mobile_jobs&post=63364","tags":[{"name":"mobile"},{"name":"ios"},{"name":"unity3d"},{"name":"swift"}],"cities":[],"allowsRemote":true}},{"node":{"__typename":"Job","id":"66435678208-1001054966032","title":"Ios разработчик","text":"#вакансия #IOS #swift #RxSwift #Realm #нижнийновгород\nГород: Нижний Новгород\nФормат работы: офис\nЗанятость: полная\nЗ\\П: от 170 000 до 250 000 на руки\n\n📌О компании:\n\nМы международная IT-компания со штаб-квартирой в Ирландии. Уже больше 5 лет наша профессиональная команда занимается разработкой проектов в области финтех, социальных медиа и e-commerce.\n\n📌Продукты, над которыми мы работаем:\n\nmeNetwork социальная сеть с системой вознаграждения пользователей\nmeMarket торговая площадка\nmePay платежный сервис\n\n🔗В этом году мы планируем разработку и внедрение в продукт крупных фич, поэтому нам требуется IOS Разработчик.\n\n📌Задачи:\n\nРазработка нового функционала приложения;\nПоддержка существующего функционала приложений;\nCode review.\n\n📌Требования:\n\n📌Архитектура:\n\nMVVM + Clean;\nОднонаправленная.\n\n📌Стек технологий:\n\nЯзык разработки Swift;\nИспользуем библиотеку RxSwift;\nRealm база данных;\nMoya для запросов на сервер;\nВерстка UI в коде.\n\n📌Условия:\n\nМеждународная команда профессионалов;\nКонкурентная заработная плата, по результатам собеседования;\nКарьерный рост, профессиональное развитие;\nОтличный старт для начинающих специалистов;\nУникальные мотивационные программы;\nПрограмма ДМС “Премиум”;\nКорпоративная онлайн-библиотека;\nАктивная корпоративная жизнь;\nНовейшее оборудование на выбор;\nКомфортабельный офис с современным дизайном.\n\nБолее подробную информацию можно получить по контактам указанным ниже, а также обратившись в ЛС.\n📩Oleg.Oltybaev@all.me\n📲+7 (996) 009-06-82 (Telegram, WhatsApp, Viber)","markup":[{"type":"hashtag","offset":0,"length":9,"data":"вакансия"},{"type":"hashtag","offset":10,"length":4,"data":"IOS"},{"type":"hashtag","offset":15,"length":6,"data":"swift"},{"type":"hashtag","offset":22,"length":8,"data":"RxSwift"},{"type":"hashtag","offset":31,"length":6,"data":"Realm"},{"type":"hashtag","offset":38,"length":15,"data":"нижнийновгород"},{"type":"link","offset":1441,"length":22,"data":"http://📩Oleg.Oltybaev@all.me"},{"type":"link","offset":1466,"length":18,"data":"tel:+7 (996) 009-06-82"}],"date":"2020-04-10T14:23:03+00:00","link":"tg://resolve?domain=mobile_jobs&post=63358","tags":[{"name":"mobile"},{"name":"ios"},{"name":"swift"},{"name":"realm"},{"name":"mvvm"}],"cities":[{"code":"nizhny-novgorod"}],"allowsRemote":false}},{"node":{"__typename":"Job","id":"66427289600-1001054966032","title":"Ios разработчик","text":"#вакансия #ios #swift #fulltime #офис #objective-c\nВакансия: IOS разработчик\nГород: Москва. \nФормат работы: офис (удаленно на время карантина)\nЗанятость: полная\nОпыт: 3 года коммерческой разработки. 1 год разработки на Swift.\nЗарплатная вилка: 120 000 net - 150 000 net.\nВсем привет!\nНаш клиент - крупнейшая финансовая организация, развивающая ИТ - проекты в направлениях Data Science, мобильная разработка, анализ бизнес процессов.\n\n📌Чем нужно заниматься:\n-Писать код.\n-Проводить декомпозицию и оценку задач.\n-Работать вместе с аналитиками и дизайнерами плечом к плечу.\n-Участвовать в проектировании архитектуры приложения.\n-Участвовать  в code rewiew.\n\n📌Требования:\n-Опыт коммерческой разработки от 3-х лет.\n-Опыт разработки под IOS от 1 года.\n-Знание swift.\n- Знание шаблонов проектирования, принципов SOLID и их применение.\n-Знание и опыт работы с архитектурой VIPER или MVC.\n-Опыт разработки клиент - серверных приложений, понимание REST API.\n-Умение работать с AutoLayout (будет плюсом использование SnapKit).\n\n✅ Желательно:\n-Знание Objective-c.\n-Опыт работы с CoreDat, геолокацией, Push Notification.\n-Опыт работы с Git, Confluence, Jira.\n-Опыт работы в Agile проектах.\n\n✅ Условия:\n-Оформление по ТК РФ\n- ДМС.\n- Посещение конференций.\n- Обучение за счёт компании.\n- Дисконт программы от компаний партнёров.\n\nКонтакты:\n@Mariam_Volkova\n📩MVolkova@globalcareer.eu\n📲8(999)169-20-38\n(Telegram, Whatsapp)","markup":[{"type":"hashtag","offset":0,"length":9,"data":"вакансия"},{"type":"hashtag","offset":10,"length":4,"data":"ios"},{"type":"hashtag","offset":15,"length":6,"data":"swift"},{"type":"hashtag","offset":22,"length":9,"data":"fulltime"},{"type":"hashtag","offset":32,"length":5,"data":"офис"},{"type":"hashtag","offset":38,"length":10,"data":"objective"},{"type":"handle","offset":1327,"length":15,"data":"Mariam_Volkova"},{"type":"link","offset":1343,"length":26,"data":"http://📩MVolkova@globalcareer.eu"},{"type":"link","offset":1372,"length":15,"data":"tel:8(999)169-20-38"}],"date":"2020-04-10T13:15:17+00:00","link":"tg://resolve?domain=mobile_jobs&post=63350","tags":[{"name":"mobile"},{"name":"ios"},{"name":"swift"},{"name":"objective-c"},{"name":"dotnet"},{"name":"rest"},{"name":"git"}],"cities":[{"code":"moscow"}],"allowsRemote":true}},{"node":{"__typename":"Job","id":"66418900992-1001054966032","title":"Ios разработчик","text":"#вакансия #москва #офис #senior #ios #developer #gamedev #swift \nГород и адрес офиса: Москва, м.Автозаводская \nФормат работы: офис \nЗанятость: полная \nЗарплатная вилка: от 250 000 до 300 000 на руки \n\n\n✅ Senior Developer (iOS/Swift) \n\nОписание вакансии: \n\nМы - успешная команда из 100 человек, которая занимается: \n• разработкой собственных мобильных игр и приложений \n• паблишингом мобильных игр \n• рекламой и маркетингом мобильных приложений (реклама на Facebook, Google и т.д.) \nЗа последние 3 года мы привлекли более 100 млн пользователей в наши собственные мобильные приложения и приложения наших клиентов и партнеров, потратив на это более $80 млн. \nУ нас есть все составляющие чтобы делать готовые продукты известными и популярными. Мы ищем сильного и талантливого разработчика для усиления нашей текущей слаженно работающей команды и выведения нашего Fitness & Health iOS приложения Fitingo на лидирующие позиции в мире (уже сейчас приложение занимало позиции ТОП 13 в США и ТОП 6 в Великобритании с более чем 400,000 установок и более чем 45,000 совершенных покупок).\n\n✅Задачи: \n\n•  Разрабатывать новый функционал\n•  Рефакторить и оптимизировать код\n•  Писать код. Больше логики, меньше UI. Например - хранить историю и прогресс; сделать leaderboard по странам; добавить чат, аналитику и a/b тесты; Apple Health, Watch, Music и TV\n•  Участвовать в Code Review\nТекущий стек: Swift 5.1, MVPC, AVFoundation, UserNotifications, Realm, StoreKit, Firebase, PushWoosh, Facebook, Python.\n\n✅Требования: \n\n•  Опыт работы разработчиком iOS приложений от 3х лет\n•  Отличное знание Swift\n•  Уверенное знание SOLID и паттернов проектирования\n•  Умение профилировать приложение (Батарейка, утечки и вот это все)\n•  Опыт работы с системой контроля версий\n•  Наличие выпущенных проектов на Swift\n•  Желание делать красивые, интересные и популярные приложения\n\n✅Будет плюсом: \n\n•  Умение/желание писать небольшие серверные скрипты (например на Python)\n•  Умение автоматизировать рутинные процессы\n•  Умение рефакторить код итеративно\n•  Адекватный перфекционизм\n\n\n✅Для вас: \n\n•  Конкурентная заработная плата, выплачивается 2 раза в месяц\n•  Необходимое оборудование для работы\n•  Возможность набрать команду и выстроить всю работу под себя в краткосрочной перспективе\n•  Оформление по ТК РФ, оплачиваемые больничные, 28 дней оплачиваемого отпуска в год\n•  Возможны регулярные бонусы по результатам работы проектов\n•  Собеседование с лицом принимающим решение\n•  Возможность коммуницировать с людьми, которые принимают продуктовые решения\n\n✅О нас: \n\n•  Просторный офис 600 метров на м. Автозаводская (3 минуты от метро и от ТТК на машине) с ультра современным дизайном и кучей ништяков (кухня с вкусняшками, кальяны каждый вечер в дружной кампании, PS4 Pro + 4K TV, аркадные автоматы с Pac-Man, Metal Slug и другими хитами геймдизайна, просторная зона отдыха, 5 переговорных комнат и т д)\n•  Команда из 100 человек занимающаяся паблишингом и маркетингом, готовая сделать продукт успешным после его готовности\n•  Возможность обучаться английскому языку с носителями каждый будний день по утрам\n•  Менторы и инвесторы, создавшие большое количество успешных IT компаний (оборот в 2018 году более 140 млн долларов)\n\nНазвание компании: AppQuantum \n\nКонтакты: \ne-mail: bm@adquantum.com\ntelegram: @MishaBarinov","markup":[{"type":"hashtag","offset":0,"length":9,"data":"вакансия"},{"type":"hashtag","offset":10,"length":7,"data":"москва"},{"type":"hashtag","offset":18,"length":5,"data":"офис"},{"type":"hashtag","offset":24,"length":7,"data":"senior"},{"type":"hashtag","offset":32,"length":4,"data":"ios"},{"type":"hashtag","offset":37,"length":10,"data":"developer"},{"type":"hashtag","offset":48,"length":8,"data":"gamedev"},{"type":"hashtag","offset":57,"length":6,"data":"swift"},{"type":"link","offset":3254,"length":16,"data":"mailto:bm@adquantum.com"},{"type":"handle","offset":3281,"length":13,"data":"MishaBarinov"}],"date":"2020-04-10T11:32:47+00:00","link":"tg://resolve?domain=mobile_jobs&post=63342","tags":[{"name":"mobile"},{"name":"ios"},{"name":"swift"},{"name":"realm"},{"name":"firebase"},{"name":"python"}],"cities":[{"code":"moscow"}],"allowsRemote":false}},{"node":{"__typename":"Job","id":"66416803840-1001054966032","title":"Android разработчик","text":"#вакансия #Moscow #fulltime #react #reactnative #senior\n\n✅Вакансия: React Native Senior dev\n✅Город: Москва \n✅ЗП: 200К - 250K net (рассмотрим ваши ожидания)\n✅Занятость: полная/ офис \n✅Компания: Нью Мед Солюшнс_ibolit.pro\n\n💥ibolit.pro– российская телемедицинская платформа, помогающая врачам и пациентам оставаться на связи в любой точке мира. Если вы хотите развиваться в перспективном направлении телемедицины, заниматься настоящими делами и сутью (никакой бюрократии и лишних согласований) и хотите получить разносторонний опыт – мы ждем Вас! \n❗️Сейчас мы ищем ведущего разработчика мобильных приложений, построенных на базе фреймворка React Native.\n\n👆Задачи:\nВам предстоит развивать мобильные приложения для докторов и пациентов, предоставляющих коммуникационные телемедицинские сервисы (чаты, видеоконференции), функционал работы с медицинской картой, записью на приемы и другие медицинские сервисы.\n\n👍Что мы готовы предложить:\n• «белоснежные» условия по оформлению;\n• достойная заработная плата;\n• ДМС;\n• бюджет на обучение и посещение конференций;\n• гибкий график;\n• комфортный офис в центре Москвы;\n• мы всегда приветствуем инициативу!\n\n👀Наши ожидания:\n• отличные знания React-стека;\n• отличное знание фреймворка React Native;\n• обязательным является наличие навыков нативной разработки мобильных приложений хотя бы для одной из плафторм - iOS(Swift) или Android(Kotlin).\n\n🤝Контакты: @Kate_Guseva","markup":[{"type":"hashtag","offset":0,"length":9,"data":"вакансия"},{"type":"hashtag","offset":10,"length":7,"data":"Moscow"},{"type":"hashtag","offset":18,"length":9,"data":"fulltime"},{"type":"hashtag","offset":28,"length":6,"data":"react"},{"type":"hashtag","offset":35,"length":12,"data":"reactnative"},{"type":"hashtag","offset":48,"length":7,"data":"senior"},{"type":"handle","offset":1395,"length":12,"data":"Kate_Guseva"}],"date":"2020-04-10T11:15:40+00:00","link":"tg://resolve?domain=mobile_jobs&post=63340","tags":[{"name":"mobile"},{"name":"android"},{"name":"ios"},{"name":"reactjs"},{"name":"dotnet"},{"name":"swift"},{"name":"kotlin"},{"name":"react-native"}],"cities":[{"code":"moscow"}],"allowsRemote":false}},{"node":{"__typename":"Job","id":"66410512384-1001054966032","title":"Mobile developer","text":"#вакансия  #iOS  #developer  #swift  #middle  #senior  #иннополис  #казань\n\nMobile Frontend Developer – iOS\n\nCompany: NNG\nVacancy: Middle/Senior iOS Developer\nLocation: Innopolis, Kazan\nWork format: office\nEmployment: full time\nS/p: from 180 to 250 k net\n\nAt NNG we develop the next generation of navigation and infotainment technology to improve driving experience, working with 7 of the top 10 car manufacturers worldwide. Headquartered in Hungary, we have a global footprint with coverage in almost 200 countries and 12 company offices worldwide. We have recently established a new development center in Kazan, tasked with delivering customized cutting-edge solutions to Russian vehicle manufacturers. In addition, the Kazan office will also develop independent, reusable software components for the global market, primarily frontend software (JavaScript, iOS and Android) and Java backend microservices.\n\nWhat would be your job? \n♦️ Work on mobile and automotive navigation software development\n🔹Work on various projects with international clients from all parts of the world\n♦️ Work in close cooperation with project managers and development teams both locally and in the Budapest office\n🔹Design, develop, code, test and debug; own your code\n\nIf you have... \n♦️Experience developing, testing, and releasing iOS apps\n🔹Knowledge of Objective-C and Swift, UIKit\n♦️Experience collaborating with designers on usability and aesthetics of apps\n🔹Strong experience in writing and maintaining testable code and unit tests\n♦️Experience with git-based version control systems\n🔹Strong written and verbal communication skills in English\n♦️ Experience working with global teams\nmoreover, you have any of the following: \n🔹Familiarity with JavaScript\n♦️Familiarity with Flutter\n🔹Experience in Agile development, especially SaFE and SCRUM\n♦️Willingness to get familiar with new technologies\n🔹Experience in working as a team player\nWhat can we give you in return? \n♦️ A job at a successful global company in Innopolis, where you can learn from the best\n🔹Serious professional challenges\n♦️A secure and well-paid job\n🔹The opportunity to develop the navigation software of the future in the present\n♦️A youthful team\n🔹The opportunity of working abroad for several weeks\n\nContacts: ✒️hr.vkulneva@gmail.com, @viktoriyakulneva","markup":[{"type":"hashtag","offset":0,"length":9,"data":"вакансия"},{"type":"hashtag","offset":11,"length":4,"data":"iOS"},{"type":"hashtag","offset":17,"length":10,"data":"developer"},{"type":"hashtag","offset":29,"length":6,"data":"swift"},{"type":"hashtag","offset":37,"length":7,"data":"middle"},{"type":"hashtag","offset":46,"length":7,"data":"senior"},{"type":"hashtag","offset":55,"length":10,"data":"иннополис"},{"type":"hashtag","offset":67,"length":7,"data":"казань"},{"type":"link","offset":2275,"length":23,"data":"http://✒️hr.vkulneva@gmail.com"},{"type":"handle","offset":2300,"length":17,"data":"viktoriyakulneva"}],"date":"2020-04-10T09:54:55+00:00","link":"tg://resolve?domain=mobile_jobs&post=63334","tags":[{"name":"mobile"},{"name":"android"},{"name":"ios"},{"name":"swift"},{"name":"dotnet"},{"name":"javascript"},{"name":"java"},{"name":"objective-c"},{"name":"uikit"},{"name":"git"},{"name":"flutter"}],"cities":[{"code":"kazan"},{"code":"budapest"}],"allowsRemote":false}},{"node":{"__typename":"Job","id":"66405269504-1001054966032","title":"Mobile разработчик","text":"#вакансия #работа #СанктПетербург #iOS #CICD #Swift #fulltime #офис\nГород: Санкт-Петербург, м. Чкаловская\nФорма работы: офис\nЗанятость: полная\nЗарплатная вилка: от 120 000 до 270 000 net.\nВсем привет!\nМы петербургская IT-компания, разработчик мобильного приложения «Кошелёк». \n«Кошелёк» заменяет бумажник и избавляет от необходимости носить с собой пластик: пользователи хранят в нем дисконтные и банковские карты. Чтобы получить скидку, достаточно показать на кассе карту с экрана смартфона, а, чтобы оплатить покупку – приложить NFC-смартфон к терминалу оплаты.\nВ сфере платежей мы сотрудничаем с банками (ВТБ, Альфа Банк, Почта Банк, Райффайзенбанк, Открытие и другие) и международными платежными системами Mastercard и Visa.\nНаши результаты:\n9 млн + зарегистрированных пользователей,\n180 млн + оцифрованных карт.\n\nМы находимся в поисках мобильного инженера в инфраструктурную часть iOS core команды. Позиция подойдет для специалиста с опытом в мобильном девопсе. Основная часть работы будет связана с тем, чтобы помогать остальной мобильной команде повышать автоматизацию, и ускорения скорости создания и тестирования новых фич. Дополнительно в работу будет входить всё что связано с мониторингом, автоматическими проверками и автоматизацией в целом. Ищем любознательного человека, который сможет помогать в сборе бэклога для инфраструктурной команды и проактивно предлагать идеи.\n\n🔸Чем предстоит заниматься:\n•  На первых этапах есть описанный бэклог требований, что необходимо реализовать для развития инфраструктуры - CI/CD, интеграций с JIRA/Slack, и т.д. В дальнейшем предстоит помогать формировать данный бэклог, помогая остальной команде и решая их запросы;\n•  Создавать автоматические проверки и подключать системы мониторинга;\n•  Улучшать CI/CD и отвечать за инфраструктуру;\n•  Улучшать время сборки и стабильность билдов;\n•  Администрировать Apple Developer + Firebase;\n•  Автоматизировать ручные задачи.\n\n🔸Технический стек:\n•  Кодовая база: 70% - Objective-C, 30% - Swift (активно переводим проект на Swift);\n•  Минимальная поддерживаемая версия: iOS 10;\n•  Багтрэкинг и документация: Jira + Confluence;\n•  Система контроля версий: Git;\n•  CI/CD: GitLab CI/CD (Запустили месяц назад);\n•  Архитектура: Приложение строится на паттерне Application coordinator. Постепенно разбиваем приложение на независимые модули. Также переводим UI на компоненты с кастомизацией на сервере;\n•  Хранение данных: CoreData;\n•  Дизайн в Zeplin;\n•  Высокие требования к безопасности приложения, т.к. работаем не только с программами лояльности, но и с банковскими продуктами, что требует защищать данные, как на уровне хранения приложением, так и на уровне передачи данных.\n\n🔸Мы предлагаем:\n•  Гибкий график и высокую степень самостоятельности;\n•  Оплату мобильной связи, компенсацию оплаты питания;\n•  Оформление по ТК РФ с первого дня, ДМС после испытательного срока.\nИнформацию о компании можно найти по ссылке: https://cardsmobile.ru/ \n\nКонтакты: katerinaziryukova\nПочта: e.ziryukova@cardsmobile.ru","markup":[{"type":"hashtag","offset":0,"length":9,"data":"вакансия"},{"type":"hashtag","offset":10,"length":7,"data":"работа"},{"type":"hashtag","offset":18,"length":15,"data":"СанктПетербург"},{"type":"hashtag","offset":34,"length":4,"data":"iOS"},{"type":"hashtag","offset":39,"length":5,"data":"CICD"},{"type":"hashtag","offset":45,"length":6,"data":"Swift"},{"type":"hashtag","offset":52,"length":9,"data":"fulltime"},{"type":"hashtag","offset":62,"length":5,"data":"офис"},{"type":"link","offset":2910,"length":23,"data":"https://cardsmobile.ru/"},{"type":"link","offset":2971,"length":26,"data":"mailto:e.ziryukova@cardsmobile.ru"}],"date":"2020-04-10T09:16:32+00:00","link":"tg://resolve?domain=mobile_jobs&post=63329","tags":[{"name":"mobile"},{"name":"ios"},{"name":"swift"},{"name":"dotnet"},{"name":"firebase"},{"name":"objective-c"},{"name":"git"},{"name":"gitlab"}],"cities":[],"allowsRemote":false}},{"node":{"__typename":"Job","id":"98338603008-1001089317451","title":"Qa инженер","text":"#вакансия #москва #fulltime #фуллтайм #офис #тестировщик #qa \n\nОнлайн-кинотеатр ivi\n\nИнженер по автоматизации тестирования Android\nот 140 т.р. на руки \nНаш основной стек python+pytest (готовы рассматривать с другим стеком технологий) \n\nОбязанности:\n• Автоматизация функциональных и интеграционных тестов Android-приложений (ivi, Kids, приложение для Android TV);\n• Поддержка и доработка существующих фреймворков клиентского тестирования;\n• Разработка архитектурных тестовых решений.\n\nТребования:\n• Умение тестировать (составление тест-кейсов, структурный подход к планированию тестирования);\n• Опыт работы с *nix системами (Linux);\n• Знание bash/zsh на уровне пользователя (cd, mkdir, vim, grep, tail и т.п.);\n• Опыт программирования на любом из объектно-ориентированных языков программирования (Python, Java, Kotlin, C#, Swift);\n• Общее понятие о том, как работает клиент-серверные мобильные приложения: что такое DNS, HTTP(S), JSON, RESTful-сервисы;\n• Опыт работы с Appium, UI Automator или Espresso.\n\nУсловия:\n• Офис в 5 минутах ходьбы от м. \"Дмитровская\";\n• У нас гибкий график, мы начинаем до 11 часов дня;\n• Трудоустройство по ТК РФ;\n• ДМС + стоматология после прохождения испытательного срока;\n• Подписка на ivi;\n• Пакет релокации для соискателей со всей России.\n\nПишите @daria144, на почту dsereda@ivi.ru или откликайтесь здесь https://hh.ru/vacancy/35897596","markup":[{"type":"hashtag","offset":0,"length":9,"data":"вакансия"},{"type":"hashtag","offset":10,"length":7,"data":"москва"},{"type":"hashtag","offset":18,"length":9,"data":"fulltime"},{"type":"hashtag","offset":28,"length":9,"data":"фуллтайм"},{"type":"hashtag","offset":38,"length":5,"data":"офис"},{"type":"hashtag","offset":44,"length":12,"data":"тестировщик"},{"type":"hashtag","offset":57,"length":3,"data":"qa"},{"type":"bold","offset":63,"length":21,"data":""},{"type":"bold","offset":236,"length":13,"data":""},{"type":"bold","offset":484,"length":12,"data":""},{"type":"bold","offset":1004,"length":9,"data":""},{"type":"handle","offset":1278,"length":9,"data":"daria144"},{"type":"link","offset":1298,"length":14,"data":"mailto:dsereda@ivi.ru"},{"type":"link","offset":1336,"length":30,"data":"https://hh.ru/vacancy/35897596"}],"date":"2020-04-10T07:56:02+00:00","link":"tg://resolve?domain=qa_jobs&post=93783","tags":[{"name":"qa"},{"name":"android"},{"name":"python"},{"name":"linux"},{"name":"bash"},{"name":"vim"},{"name":"grep"},{"name":"java"},{"name":"kotlin"},{"name":"swift"},{"name":"dns"},{"name":"json"}],"cities":[{"code":"moscow"}],"allowsRemote":false}},{"node":{"__typename":"Job","id":"66374860800-1001054966032","title":"Ios разработчик","text":"#вакансия #iOS #москва #офис #fulltime #swift \n\nКомпания: \"Доктор на работе\" - социальная сеть для врачей. Самая стабильная отрасль сейчас:  Фарма+ Digital.\nМесто работы: Сейчас удалёнка, потом Москва, м. Новослободская, 3 минуты от метро\nЗП:  от 200к до 240к рублей на руки, белая\n\nИщем еще одного iOS разработчика.  \n\n🤟Особенности: новый проект, без легаси. Технологии: Swift, MVVM, Alamofire, Codable, Realm, RxSwift, SignalR, WebSockets.\n\n🔥Задача: создание новой Ленты врача с нуля, доработка существующего мессенджера для наших пользователей.\n\n🔥 Условия:\n* зп от 200к до 240к рублей на руки, белая;\n* сейчас работаем из дома, потом в офисе, ст. м. Новослободская, 3 м. от метро. \n\n\n👉Вакансию можно посмотреть здесь: https://dev.doktornarabote.ru/ios\n👉 Отклики ждем здесь:  hr@doktornarabote.ru или в Telegram: @KseniaRyakhovskaya","markup":[{"type":"hashtag","offset":0,"length":9,"data":"вакансия"},{"type":"hashtag","offset":10,"length":4,"data":"iOS"},{"type":"hashtag","offset":15,"length":7,"data":"москва"},{"type":"hashtag","offset":23,"length":5,"data":"офис"},{"type":"hashtag","offset":29,"length":9,"data":"fulltime"},{"type":"hashtag","offset":39,"length":6,"data":"swift"},{"type":"bold","offset":299,"length":16,"data":""},{"type":"bold","offset":565,"length":40,"data":""},{"type":"link","offset":725,"length":33,"data":"https://dev.doktornarabote.ru/ios"},{"type":"link","offset":783,"length":20,"data":"mailto:hr@doktornarabote.ru"},{"type":"handle","offset":820,"length":19,"data":"KseniaRyakhovskaya"}],"date":"2020-04-09T16:57:47+00:00","link":"tg://resolve?domain=mobile_jobs&post=63300","tags":[{"name":"mobile"},{"name":"ios"},{"name":"swift"},{"name":"mvvm"},{"name":"realm"},{"name":"signalr"}],"cities":[{"code":"moscow"}],"allowsRemote":true}},{"node":{"__typename":"Job","id":"66367520768-1001054966032","title":"Ios developer","text":"#вакансия #ios #swift \n\nВсем привет! \n\nОткрыта позиция на должность: \n🔥Middle IOS developer🔥 \n\nКрупнейший европейский банк\n\nАдрес: м. Войковская\n\nФормат работы: офис\nЗанятость: полня\n\nЗарплатная вилка от 150000 до 250000\n\nТебе предстоит:\n\n• Разрабатывать мобильное приложение; \n• Разрабатывать нативные iOS приложения (Swift); \n• Разработка интеграции с серверным APls (REST, SOAP); \n\nЖдем от тебя:\n• Опыт работы от 2х лет;\n• Опыт работы от 1 года на Swift;\n• Уверенное знание IOS SDK, XCode;\n\nМожешь рассчитывать на:\n• Реализацию своего профессионального потенциала в крупном современном Банке;\n• Привлекательные финансовые условия;\n• Дополнительные интересные бенефиты;\n\nКонтакт @vika_nkl","markup":[{"type":"hashtag","offset":0,"length":9,"data":"вакансия"},{"type":"hashtag","offset":10,"length":4,"data":"ios"},{"type":"hashtag","offset":15,"length":6,"data":"swift"},{"type":"handle","offset":683,"length":9,"data":"vika_nkl"}],"date":"2020-04-09T14:19:50+00:00","link":"tg://resolve?domain=mobile_jobs&post=63293","tags":[{"name":"mobile"},{"name":"ios"},{"name":"swift"},{"name":"rest"},{"name":"soap"},{"name":"xcode"}],"cities":[],"allowsRemote":false}}]}}},"context":{}}