{"hash":"f5f6bf98bd95e769321482904cbbd488f77922fd","data":{"records":{"id":"git","name":"git","belongsTo":{"totalCount":273,"pageInfo":{"totalPages":28,"currentPage":3},"edges":[{"node":{"__typename":"Job","id":"17315135488-1001110946746","title":"Js разработчик","text":"#вакансия #разработчик #senior #NodeJs #фуллтайм #Иннополис\n\nГород и адрес офиса: РТ, г.Иннополис, ул. Университетская 7.\nФормат работы: офис.\nЗанятость: полная.\n\n💸ЗП: от 80 до 180 тыс.руб. (на руки) (обсуждаемо)\n\nОписание вакансии: \n\nКомпания Zen.Car\n\n⭐️Стек: Node.Js, Nestjs, TypeScript,  TypeOrm, GraphQL, PostgreSQL, Redis.\n\n🔹Требования:\n- Опыт в WEB-программировании от 3х лет;\n- Знания ES6/ES7 на уровне не ниже middle;\n- Опыт работы с реляционными БД;\n- Знание основ систем контроля версий (Git);\n- Умение работать в команде и писать код \n\n💥Будет плюсом:\n- опыт работы с Express.js, Nestjs,TypeScript, TypeOrm, GraphQL ;\n- опыт создания высоконагруженных проектов;\n- опыт создания собственных проектов;\n- TTD.\n   \nОбязанности:\n- Разработка нового функционала в существующем продукте;\n- Улучшение и оптимизация текущего кода;\n- Взаимодействие с командой frontend-разработки.\n\n🔸Условия:\n* комфортный офис в г.Иннополис;\n* 3-х разовое питание в офисе за счет компании;\n* помощь в получении арендного жилья в городе Иннополис;\n* скидка на фитнес.\n \n📩Контакты: \nэл.п.: anna@sayhire.agency; \nтелеграм: @anika0801.\n\n—\n\n👉 Обсуждение вакансии в чате @javascript_jobs","markup":[{"type":"hashtag","offset":0,"length":9,"data":"вакансия"},{"type":"hashtag","offset":10,"length":12,"data":"разработчик"},{"type":"hashtag","offset":23,"length":7,"data":"senior"},{"type":"hashtag","offset":31,"length":7,"data":"NodeJs"},{"type":"hashtag","offset":39,"length":9,"data":"фуллтайм"},{"type":"hashtag","offset":49,"length":10,"data":"Иннополис"},{"type":"link","offset":1076,"length":19,"data":"mailto:anna@sayhire.agency"},{"type":"handle","offset":1108,"length":10,"data":"anika0801"},{"type":"handle","offset":1154,"length":16,"data":"javascript_jobs"}],"date":"2020-07-02T10:41:33+00:00","link":"tg://resolve?domain=javascript_jobs_feed&post=16513","tags":[{"name":"javascript"},{"name":"nodejs"},{"name":"typescript"},{"name":"graphql"},{"name":"postgresql"},{"name":"redis"},{"name":"web"},{"name":"git"},{"name":"express"}],"cities":[],"allowsRemote":false}},{"node":{"__typename":"Job","id":"72533147648-1001054966032","title":"Android разработчик","text":"#Android #Kotlin #вакансия #офис #Санкт-Петербург\nЗанятость: полная, опыт: 1-3  лет\nЗарплатная вилка: от 80 т.р до 160 т.р\n\nЧем предстоит заниматься:\n•  Разработкой приложений разного профиля под андроид\n\nТребования:\n•  Знание Kotlin\n•  Знание архитектуры OS Android\n•  Опыт разработки UI компонентов\n•  Опыт работы с геолокацией и GPS\n•  Знание систем контроля версий (Git)\n•  Обязательно: примеры работ с геолокацией/картами/gps\n\nБудет плюсом:\n•  Опыт работы с видео\n•  Реализованные проекты в Google Play\n\nМы предлагаем:\n•  Участие в разработке интересных проектов\n•  Возможность быть проактивным, влиять на процессы и общий результат\n•  Молодую команду увлеченных людей\n•  Комфортную лаундж зону, овощи, фрукты, закуски\nВ сопроводительном письме просим указать примеры работ с геолокацией /картами/gps.\nНазвание компании: AI.People\nРезюме прислать: dina.maystruk@aipeople.ru, либо в телеграм @dinochkamay","markup":[{"type":"hashtag","offset":0,"length":8,"data":"Android"},{"type":"hashtag","offset":9,"length":7,"data":"Kotlin"},{"type":"hashtag","offset":17,"length":9,"data":"вакансия"},{"type":"hashtag","offset":27,"length":5,"data":"офис"},{"type":"hashtag","offset":33,"length":6,"data":"Санкт"},{"type":"link","offset":853,"length":25,"data":"mailto:dina.maystruk@aipeople.ru"},{"type":"handle","offset":896,"length":12,"data":"dinochkamay"}],"date":"2020-07-02T10:30:36+00:00","link":"tg://resolve?domain=mobile_jobs&post=69173","tags":[{"name":"mobile"},{"name":"android"},{"name":"kotlin"},{"name":"git"},{"name":"playframework"}],"cities":[],"allowsRemote":false}},{"node":{"__typename":"Job","id":"72530001920-1001054966032","title":"Ios developer","text":"#вакансия #ios #developer #iosdeveloper #москва #мск \n\nIOS Developer\nКомпания: Азбука Вкуса\nЛокация: Москва, офис\nм. Парк Победы/Кутузовская\nЗанятость: fulltime\nЗ/п: 150-210k ₽ net  \nКонтакты: @observer69\n\nУсловия\n● Официальное оформление с соблюдением ТК РФ;\n● Организация внешнего обучения;\n● Участие в конференциях и хакатонах;\n● ДМС;\n● Возможность работать из дома пару раз в неделю;\n● Комфортный офис в шаговой доступности от м. Парк Победы / Кутузовская;\n● Большая команда IT - профессионалов;\n● Интересные задачи\n\nТребования\n● Имеешь опыт iOS-разработки от 3-х лет;\n● Знаешь и любишь Swift, без вопросов можешь разобраться с кодом на Objective-C;\n● Имеешь опыт интеграции различных социальных сетей в проект;\n● Умеешь работать в AppStoreConnect и developer.apple.com, понимаешь зачем нужны сертификаты;\n● Знаешь принципы SOLID, структуры данных, паттерны проектирования и программирования;\n● Знаешь что таĸое MVC, MVVM, MVP etc. понимаешь их плюсы и\nминуты;\n● Работал с Realm;\nУверенно делаешь сложный UI, знаешь и понимаешь Autolayout, понимаешь когда лучше отказаться от него;\n● Сможешь обьяснить разницу между процессом и потоĸом, знаешь ĸаĸ\nработает многопоточность;\n● Знаком с HTTP, REST, Websocket, JSON и т.д.;\n● Работал с git (терминал или приложение);\n● Умеешь \"гуглить\" и воспринимать информацию на английском;\n● Терпимо относишься ĸ чужому ĸоду, даже если сильно не нравится;\n● Умеешь аргументировано и последовательно отстаивать свою\nпозицию;\n● Сможешь оценить задачу, и выполнить ее в сроĸ;\n● Интересуешься “а ĸаĸ это устроено внутри?”\n\nЗадачи\n1. Развивать и поддерживать существующие приложения;\n2. Проводить code review;\n3. Развивать IOS инфраструктуру в компании;\n4. Активно участвовать в жизни команды.","markup":[{"type":"hashtag","offset":0,"length":9,"data":"вакансия"},{"type":"hashtag","offset":10,"length":4,"data":"ios"},{"type":"hashtag","offset":15,"length":10,"data":"developer"},{"type":"hashtag","offset":26,"length":13,"data":"iosdeveloper"},{"type":"hashtag","offset":40,"length":7,"data":"москва"},{"type":"hashtag","offset":48,"length":4,"data":"мск"},{"type":"bold","offset":55,"length":23,"data":""},{"type":"bold","offset":92,"length":8,"data":""},{"type":"bold","offset":141,"length":10,"data":""},{"type":"bold","offset":161,"length":5,"data":""},{"type":"bold","offset":183,"length":10,"data":""},{"type":"handle","offset":193,"length":11,"data":"observer69"},{"type":"bold","offset":206,"length":8,"data":""},{"type":"bold","offset":521,"length":11,"data":""},{"type":"link","offset":754,"length":19,"data":"http://developer.apple.com"},{"type":"bold","offset":1557,"length":9,"data":""},{"type":"bold","offset":1617,"length":2,"data":""},{"type":"bold","offset":1643,"length":2,"data":""},{"type":"bold","offset":1687,"length":2,"data":""}],"date":"2020-07-02T10:23:24+00:00","link":"tg://resolve?domain=mobile_jobs&post=69170","tags":[{"name":"mobile"},{"name":"ios"},{"name":"dotnet"},{"name":"swift"},{"name":"objective-c"},{"name":"mvvm"},{"name":"realm"},{"name":"rest"},{"name":"websocket"},{"name":"json"},{"name":"git"}],"cities":[{"code":"moscow"}],"allowsRemote":false}},{"node":{"__typename":"Job","id":"367001600-1001352129329","title":"Golang разработчик","text":"Ребят, всем привет! \nПостараюсь кратко, подробности в ЛС. Заранее напишу, что это Москва (фултайм/офис), компания Lofty. Ищем в команду как Midle так и Senior Go разработчиков.\nВообщем если хочется в highload, добро пожаловать!)\n\nО проекте:\nЭто высоконагруженное backend приложение для рассылки web push-уведомлений, обслуживающее на данный момент более 100млн показов в сутки. \nЧем у нас предстоит заниматься:\nПрофилировать и оптимизировать существующие сервисы;\nПроводить доработки и интеграцию их в действующий код и инфраструктуру;\nРеализовывать новые бизнес-требования внутри сервиса;\nУстранять возникающие баги в сервисе.\n\nЧто мы ждем от кандидата:\nНавыки работы с Git;\nУверенное знание Golang;\nПонимание технологий HTTP, REST;\nОпыт работы в Unix-окружении.\n\nБудет совсем круто, если вы:\nРаботали с highload-проектами;\nПонимаете и уважаете концепцию CI/CD.\nНаш стек технологий: Golang, Gitlab, MySQL, JS, RabbitMQ, Docker, Ansible, Clickhouse\n\nУсловия: \nЗаработная плата от 130 000 до 300 000 руб. на руки, естественно зависит от уровня, преимущественно смотрим \"мидов\", но и \"джуны\" нам тоже интересны.\n\nНаш сайт: `https://www.lofty.today/\n#вакансия#golang","markup":[{"type":"link","offset":1122,"length":24,"data":"https://www.lofty.today/"}],"date":"2020-07-02T10:02:20+00:00","link":"tg://resolve?domain=gogetajobfeed&post=350","tags":[{"name":"go"},{"name":"web"},{"name":"git"},{"name":"rest"},{"name":"unix"},{"name":"gitlab"},{"name":"mysql"},{"name":"rabbitmq"},{"name":"docker"},{"name":"ansible"}],"cities":[{"code":"moscow"}],"allowsRemote":false}},{"node":{"__typename":"Job","id":"17313038336-1001110946746","title":"Js разработчик","text":"#вакансия #frontEnd  #удаленка\nИщем frontend developer в компанию Датурум - разработчик и поставщик платформы WikiVote, которую мы внедряем в крупные организации. Платформа создает среду, в которой сотрудники делятся идеями по совершенствованию своей компании, улучшению рабочих процессов, а руководство прислушивается к идеям и внедряет их. \n\n🚩Заработная плата: от 80 000 до 150 000 руб\nЛокация: РФ, удаленно\nРежим работы: полная занятость, 8 часовой рабочий день\n\n🚩Требования: опыт от 2х лет\nCSS3, HTML5, JavaScript\nVue.js второй версии, webpack\nопыт в работе с REST или GraphQL\nумение верстать или писать JS код с учетом возможностей IE11\nуверенное использование Git\n\n🚩Чем заниматься: внедрением платформы в гос и частные крупные учреждения, исследовательские штуки типа разработки всяких умных алгоритмов для платформы.\nТакже примерно раз в год мы делаем крупный проект по заказной разработке ПО, у нас в портфолио: Windows-приложение рабочий блокнот УИК для помощи участковым избирательным комиссиям, чтобы лучше проводить выборы,  MVP банка на блокчейне, и тд.\n\n🚩Что предлагаем: Испытательный срок 3 месяца, белое оформление в штат, своевременную оплату\n\nРезюме @irensergeeva","markup":[{"type":"hashtag","offset":0,"length":9,"data":"вакансия"},{"type":"hashtag","offset":10,"length":9,"data":"frontEnd"},{"type":"hashtag","offset":21,"length":9,"data":"удаленка"},{"type":"handle","offset":1172,"length":13,"data":"irensergeeva"}],"date":"2020-07-02T09:44:12+00:00","link":"tg://resolve?domain=javascript_jobs_feed&post=16511","tags":[{"name":"javascript"},{"name":"css"},{"name":"html"},{"name":"vuejs"},{"name":"webpack"},{"name":"rest"},{"name":"graphql"},{"name":"git"},{"name":"windows"}],"cities":[],"allowsRemote":true}},{"node":{"__typename":"Job","id":"26957840384-1001075660570","title":"Php developer","text":"#вакансия #php #senior #middle #laravel #москва #fulltime \nКомпания skillbox.ru ищет в команду Middle/Senior PHP Developer (Laravel).\n\nЧем предстоит заниматься:\n •  Нужно будет продолжать развивать сервис авторизации;\n •  Поддерживать текущие проекты на Laravel + Vue;\n •  Участвовать в Code Review;\n •  Писать Unit-тесты;\n •  Ведение документации своего кода;\n •  Принимать активное участие в проектировании микросервисов и БД.\n\nЧто мы ждем от вас:\n •  Уверенные знания PHP7, MySQL, Laravel;\n •  Умение разбираться в Legacy code;\n •  Опыт работы с Redis, WebSockets;\n •  Опыт работы с системами контроля версий – git;\n •  Опыт интеграции с внешними системами по API;\n •  Хорошее знание системы Linux (Ubuntu);\n •  Ответственность и инициативность;\n •  Умение внятно выражать свои мысли устно и письменно;\n •  Умение адекватно оценивать сроки на реализацию той или иной задачи.\n\nМы предлагаем отличные условия:\n •  Белую зарплату от 150.000 net (оклад обсудим индивидуально)\n •  Возможность прохождения любых дистанционных курсов Skillbox бесплатно, а еще корпоративную скидку на изучение английского языка в Skyeng и фитнес.\n •  Рост внутри компании не ограничен, всегда найдется то, что будет интересно тебе;\n •  Корпоративные активности (волейбол, футбол, квесты, квизы, шахматы, Skillbox.fm и др.);\n •  Наша команда творит в новом и стильном офисе на м.Октябрьская;\n •  Гибкий график работы (время прихода на работу в интервале с 8 до 12) и отсутствие дресс-кода;\n\nКонтакты: mariya.reshetova@skillbox.ru      @marieresh","markup":[{"type":"hashtag","offset":0,"length":9,"data":"вакансия"},{"type":"hashtag","offset":10,"length":4,"data":"php"},{"type":"hashtag","offset":15,"length":7,"data":"senior"},{"type":"hashtag","offset":23,"length":7,"data":"middle"},{"type":"hashtag","offset":31,"length":8,"data":"laravel"},{"type":"hashtag","offset":40,"length":7,"data":"москва"},{"type":"hashtag","offset":48,"length":9,"data":"fulltime"},{"type":"link","offset":68,"length":11,"data":"http://skillbox.ru"},{"type":"bold","offset":95,"length":38,"data":""},{"type":"bold","offset":135,"length":25,"data":""},{"type":"bold","offset":430,"length":19,"data":""},{"type":"bold","offset":879,"length":31,"data":""},{"type":"link","offset":1283,"length":11,"data":"http://Skillbox.fm"},{"type":"link","offset":1479,"length":28,"data":"mailto:mariya.reshetova@skillbox.ru"},{"type":"handle","offset":1513,"length":10,"data":"marieresh"}],"date":"2020-07-02T09:30:52+00:00","link":"tg://resolve?domain=php_jobs&post=25709","tags":[{"name":"php"},{"name":"laravel"},{"name":"vuejs"},{"name":"mysql"},{"name":"redis"},{"name":"git"},{"name":"linux"},{"name":"ubuntu"},{"name":"dotnet"}],"cities":[{"code":"moscow"}],"allowsRemote":false}},{"node":{"__typename":"Job","id":"104201191424-1001089317451","title":"Qa инженер","text":"#вакансия #QA #Java #QAAutomation #Москва #офис \n\nВакансия: QA Lead (Тест-Менеджер)\nГород: Москва м. Технопарк \nЗарплата: от 250 000 рублей до 290 000 рублей на руки\nФормат: офис, полный день, полная занятость\nКомпания Innovative People \n\n🕘 Чем предстоит заниматься:\n• планирование тестирования;\n• выстраивание процессов тестирования среди 8 команд с упором на автоматизацию;\n• выстраивать CI/CD проекта;\n• налаживание взаимодействия QA инженеров в нескольких командах;\n• поддерживать и развивать разработанные решения по автоматизации;\n• исследовать новые технологии и внедрять их на проекте;\n• принятие решений о внедрении / обновлении программного обеспечения.\n\n🕒 От кандидата ожидаем:\n• опыт в тестировании от 4х лет\n• опыт в автотестировании от 3х лет\n• опыт руководства группой тестировщиков от 2х лет\n• практический опыт применения практик тест-дизайна\n• умение проектировать тест-кейсы и подготавливать тестовые данные для тестирования\n• хорошие знание Java, библиотек\n• уверенное использование и понимание как работает под капотом Selenium Webdriver (Selenide и Appium для мобильных платформ)\n• опыт написания собственного фреймворка\n• опыт работы в unix системах\n• опыт работы с API (Soap, Rest)\n• опыт использование git\n• опыт использование CI (желательно, но не обязательно Jenkins)\n• опыт работы с Docker\n• опыт составления запросов SQL\n• опыт управления непрямыми (функциональными) подчиненными\n• умение контролировать несколько проектов одновременно\n• умение мотивировать команду, опыт управления рисками, мониторинг эффективности процессов\n\n🕧 Предлагаем:\n• все по ТК РФ\n• ДМС со стоматологией, программа лояльности\n• Macbook \n• адекватное руководство и лояльные процессы\n• большое комьюнити, классные команды\n• помогаем с релокацией!\n\nРезюме и вопросы @Priboch","markup":[{"type":"hashtag","offset":0,"length":9,"data":"вакансия"},{"type":"hashtag","offset":10,"length":3,"data":"QA"},{"type":"hashtag","offset":14,"length":5,"data":"Java"},{"type":"hashtag","offset":20,"length":13,"data":"QAAutomation"},{"type":"hashtag","offset":34,"length":7,"data":"Москва"},{"type":"hashtag","offset":42,"length":5,"data":"офис"},{"type":"handle","offset":1771,"length":8,"data":"Priboch"}],"date":"2020-07-02T09:23:09+00:00","link":"tg://resolve?domain=qa_jobs&post=99374","tags":[{"name":"qa"},{"name":"java"},{"name":"selenium"},{"name":"unix"},{"name":"soap"},{"name":"rest"},{"name":"git"},{"name":"jenkins"},{"name":"docker"},{"name":"sql"}],"cities":[{"code":"moscow"}],"allowsRemote":false}},{"node":{"__typename":"Job","id":"364904448-1001352129329","title":"Golang разработчик","text":"#вакансия #Golang #middle #Senior #Moscow \n\nНазвание компании: Loft\nНазвание вакансии: Golang разработчик \nЗарплатная вилка 100-180 тыс/мес\nГород: Москва\nСписок языков, которые необходимо знать: Русский, Английский (на уровне чтения тех. документации)\nФотрмат работы: офис\n\nПриложение для знакомств LOFT (https://loft-app.com/) - это простой и безопасный способ расширить свой круг общения. Можно встречаться с мужчинами и девушками, которые находятся рядом с вами, или знакомиться с людьми по всему миру.\n\nИдея LOFT - адекватная аудитория, которая открыта к диалогу. Вы знаете тех, с кем общаетесь. \nКому подходит LOFT? Адекватной, современной, молодой аудитории, которая любит технологичные фишки и хочет узнавать людей ближе. \n\nМы - команда LOFT, и мы тоже современные, молодые и классные.\n\nЧто предстоит делать\nРабота над интересным проектом в небольшой компании (штат 28 человек).\nРазработка и поддержка backend для нового дейтинг-проекта.\nНаписание API для веб и мобильных приложений\nСоздание нагруженных сервисов с нуля.\n\n\nСтек технологий, которые мы используем:\n·      Backend: GO / MongoDB / Redis / WebSockets\n·      Frontend: Angular / Vue / Flutter / Swift \n·      PM: Git / Jira / Gitlab\n\nЧто нужно уметь\nОпыт программирования backend от 1 года\nУверенное владение Golang \nОбщее представление о том, как работать с очередями сообщений \nОпыт работы с базами данных разных типов\nУмение и желание покрывать код тестами\nОпыт оценки проектов и задач\nСпособность укладываться в оценки с разумной погрешностью\nЗнания английского языка на уровне чтения тех. документации\n\nУсловия и преимущества\nСложный и интересный проект\nПотенциал для роста, как специалиста\nКомандная работа\nКорпоративные мероприятия\nВ офисе без ограничений чай/кофе, печенье\nPlayStation\n\nКонтакты @Sandevl","markup":[{"type":"hashtag","offset":0,"length":9,"data":"вакансия"},{"type":"hashtag","offset":10,"length":7,"data":"Golang"},{"type":"hashtag","offset":18,"length":7,"data":"middle"},{"type":"hashtag","offset":26,"length":7,"data":"Senior"},{"type":"hashtag","offset":34,"length":7,"data":"Moscow"},{"type":"link","offset":305,"length":21,"data":"https://loft-app.com/"},{"type":"handle","offset":1771,"length":8,"data":"Sandevl"}],"date":"2020-07-02T08:22:20+00:00","link":"tg://resolve?domain=gogetajobfeed&post=348","tags":[{"name":"go"},{"name":"mongodb"},{"name":"redis"},{"name":"angularjs"},{"name":"vuejs"},{"name":"flutter"},{"name":"swift"},{"name":"git"},{"name":"gitlab"}],"cities":[{"code":"moscow"}],"allowsRemote":false}},{"node":{"__typename":"Job","id":"72516370432-1001054966032","title":"Android developer","text":"#вакансия #android #developer #androiddeveloper #москва #мск \n\nAndroid Developer\nКомпания: Азбука Вкуса\nЛокация: Москва, офис\nм. Парк Победы/Кутузовская\nЗанятость: fulltime\nЗ/п: 150-210k ₽ net  \nКонтакты: @observer69\n\nУсловия\n● Официальное оформление с соблюдением ТК РФ;\n● Организация внешнего обучения;\n● Участие в конференциях и хакатонах;\n● ДМС;\n● Возможность работать из дома пару раз в неделю;\n● Комфортный офис в шаговой доступности от м. Парк Победы / Кутузовская;\n● Большая команда IT - профессионалов;\n● Интересные задачи\n\nТребования\n● Опыт разработĸи под Android от 2х лет;\n● Опыт разработĸи ĸлиент-серверных приложений;\n● Уверенное знание Kotlin/Java и Android SDK;\n● Сможешь обьяснить разницу между процессом и потоĸом, знаешь ĸаĸ\nработает многопоточность;\n● Понимание принципов SOLID, и желание писать чистый ĸод;\n● Работал с git (терминал или приложение);\n● Опублиĸованные в Google Play приложения, в разработĸе ĸоторых\nпринимали участие.\n\nЖелательно\n● Опыт разработĸи e-commerce или retail приложений;\n● Умение писать тесты;\n● Наличие аĸĸаунта на Github/Gitlab/Bitbucket c отĸрытыми проеĸтами.\n\nЗадачи\n1. Развивать и поддерживать существующие приложения;\n2. Проводить code review;\n3. Развивать Android инфраструктуру в компании;\n4. Активно участвовать в жизни команды.","markup":[{"type":"hashtag","offset":0,"length":9,"data":"вакансия"},{"type":"hashtag","offset":10,"length":8,"data":"android"},{"type":"hashtag","offset":19,"length":10,"data":"developer"},{"type":"hashtag","offset":30,"length":17,"data":"androiddeveloper"},{"type":"hashtag","offset":48,"length":7,"data":"москва"},{"type":"hashtag","offset":56,"length":4,"data":"мск"},{"type":"bold","offset":63,"length":27,"data":""},{"type":"bold","offset":104,"length":8,"data":""},{"type":"bold","offset":153,"length":10,"data":""},{"type":"bold","offset":173,"length":5,"data":""},{"type":"bold","offset":195,"length":10,"data":""},{"type":"handle","offset":205,"length":11,"data":"observer69"},{"type":"bold","offset":218,"length":8,"data":""},{"type":"bold","offset":533,"length":11,"data":""},{"type":"bold","offset":955,"length":11,"data":""},{"type":"bold","offset":1111,"length":9,"data":""},{"type":"bold","offset":1171,"length":2,"data":""},{"type":"bold","offset":1197,"length":2,"data":""},{"type":"bold","offset":1245,"length":2,"data":""}],"date":"2020-07-02T08:09:06+00:00","link":"tg://resolve?domain=mobile_jobs&post=69157","tags":[{"name":"mobile"},{"name":"android"},{"name":"dotnet"},{"name":"kotlin"},{"name":"java"},{"name":"git"},{"name":"playframework"},{"name":"github"},{"name":"gitlab"}],"cities":[{"code":"moscow"}],"allowsRemote":false}},{"node":{"__typename":"Job","id":"104180219904-1001089317451","title":"Qa engineer","text":"#Москва  #QA  #вакансия #офис\nКомпания: Start.ru\n\nМы ищем коллег, которые смогут влиться в нашу команду и вместе с нами развивать и совершенствовать наш сервис!\nУ Вас есть возможность стать частью команды, развивающей первую в Восточной Европе студию с собственным международным VOD сервисом.\nВ данный момент мы усиляем нашу команду по тестированию и в поисках позиций Backend QA Engineer и QA Automation Engineer (python)\n\n———————————\nДолжность: Backend QA Engineer\nЗарплатная вилка: От 80.р. до 120т.р. по результатам собеседования\n\nКакие задачи вы будете решать:\n- Прогон описаных кейсов в TestRail и документация найденых дефектов;\n- Тестирование API (программного интерфейса платформы);\n- Разработка тестовых сценариев;\n- Взаимодействие с разработчиками и сопровождение дефектов до полного их решения;\n- Отладка и сбор логов в процессе воспроизведения проблем\n- Проведение регрессионного тестирования\n\nЧего мы хотим:\n- Вас не пугает работа с командной строкой чаще чем работа с графическим интерфейсом\n- Работа с chromedev tools и командной строкой (bash);\n- Знание и понимания клиент-серверной архитектуры приложений;\n- Понимание принципов работы веб-приложений;\n- Умение грамотно составлять свои мысли в предложения и описывать дефекты, чтобы понятно было разработчикам;\n- Навыки работы с технической документацией, анализ и вычленение требований;\n- Работали с программами-снифферами и проксями траффика (charles/wireshark/fiddler/mitmproxy etc)\n\nБудет плюсом:\n- Если знаете python на уровне, достаточном для автоматизации и сможете прочитать код который на нем написан\n- Знаете что такое DOM-дерево, локаторы и селекторы в контексте веб-приложения\n\n—————————\nДолжность: QA Automation Engineer\nЗарплатная вилка: От 130.р. до 170т.р. по результатам собеседования\n\nУ нас:\nВ нашем проекте есть автоматизация тестирования как API, так и WEB UI. \nНаш стек: Python3, PyTest, Requests, Selenium WebDriver, Selenoid, DB clients (MongoDB, PostgreSQL), JSON validation (jsonschema), TestRail API, Telegram API, GitLab CI. \nПомимо автотестов мы разрабатываем проект нагрузочного тестирования на Locust.\n\nВаши задачи:\n- Расширение покрытия автотестов API, WEB UI\n- Поддержка автотестов в актуальном состоянии\n- Анализ прохождения тестов с возможным заведением багов в Jira\n- Ревью кода\n- Ведение тестовой - документации\n- Написание сценариев нагрузочного тестирования\n\nТребования:\n- Хорошее знание теории тестирования\n- Опыт автоматизированного тестирования от 2х лет\n- Знание Python3, PyTest\n- Навыки написания и использования тестовой документации\n- Умение писать простые запросы на SQL и в MongoDB\n- Навыки работы с Git\n- Обсуждение проблем приложения с разработчиками\n\nБудет плюсом:\n- Опыт написания архитектуры проекта автотестов с нуля\n- Работа с Docker, Docker Compose\n- Опыт работы с Telegram API\n- Опыт описания JSON схем для валидации ответов API\n- Базовые знания в Linux\n\nОт нас:\n- На данный момент условия сотрудничества удаленные, но при нормализации ситуации мы выйдем в офис\n- Офис в районе Хамовники (территориально м.Киевская, м. Спортивная в 20.мин ходьбы)\n- График работы: 5/2 начинаем с 9  до 11 (в целом гибкий - главное результат);\n- Оформление в соответствии с ТК РФ (белая зарплата, отпускные, больничные);\n- Все возможности для прокачки имеющихся скиллов и получения новых;\n- Драйвовая и высокопрофессиональная команда единомышленников;\n- Возможность стать частью динамично развивающегося видеосервиса.\n\n\nВопросы и отклики по вакансии писать в tlgrm: @unambo OR emailto: v.selyanin@start.ru","markup":[{"type":"hashtag","offset":0,"length":7,"data":"Москва"},{"type":"hashtag","offset":9,"length":3,"data":"QA"},{"type":"hashtag","offset":14,"length":9,"data":"вакансия"},{"type":"hashtag","offset":24,"length":5,"data":"офис"},{"type":"link","offset":40,"length":8,"data":"http://Start.ru"},{"type":"handle","offset":3471,"length":7,"data":"unambo"},{"type":"link","offset":3491,"length":19,"data":"mailto:v.selyanin@start.ru"}],"date":"2020-07-02T07:33:55+00:00","link":"tg://resolve?domain=qa_jobs&post=99354","tags":[{"name":"qa"},{"name":"python"},{"name":"bash"},{"name":"web"},{"name":"selenium"},{"name":"mongodb"},{"name":"postgresql"},{"name":"json"},{"name":"gitlab"},{"name":"sql"},{"name":"git"},{"name":"docker"},{"name":"linux"},{"name":"docker-compose"}],"cities":[{"code":"moscow"},{"code":"kiev"}],"allowsRemote":false}}]}}},"context":{}}