{"hash":"f5f6bf98bd95e769321482904cbbd488f77922fd","data":{"records":{"totalCount":669,"pageInfo":{"totalPages":67,"currentPage":28},"edges":[{"node":{"id":"1738539008-1001091028994","title":"Java программист","text":"#вакансия #Java #Sofware #Kazan\n\n❗️В команду CloudALly ищем Java Инженера-программиста (Middle). \nГород: Казань\nЗарплатная вилка: до 150.000 руб.\nФормат работы: офис/удаленно\nЗанятость: полная\nПроект: резервное копирование данных CloudALly.com. \n\nЧем предстоит заниматься:\n• проектирование, разработка и оптимизация многопоточной высоконагруженной системы;\n• code review коллег;\n• разработка серверной части системы.\n\nМы ждём от вас:\n• опыт разработки на Java 2+ года;\n• опыт работы в Linux-окружении;\n• знание REST/SOAP API;\n• опыт написания Unit тестирования;\n• знакомство с Agile методологией разработки. \n\nМы предлагаем:\n• официальное трудоустройство по ТК РФ;\n• дружный коллектив;\n• гибкий график;\n• ДМС (на сотрудников и членов семьи);\n• компенсация курсов английского языка.\n\nКонтакты: \nТелеграм: @NailyaKhanipova\ne-mail: nhanipova@cloudally.com","markup":[{"type":"hashtag","offset":0,"length":9,"data":"вакансия"},{"type":"hashtag","offset":10,"length":5,"data":"Java"},{"type":"hashtag","offset":16,"length":8,"data":"Sofware"},{"type":"hashtag","offset":25,"length":6,"data":"Kazan"},{"type":"link","offset":230,"length":13,"data":"http://CloudALly.com"},{"type":"handle","offset":804,"length":16,"data":"NailyaKhanipova"},{"type":"link","offset":829,"length":23,"data":"mailto:nhanipova@cloudally.com"}],"date":"2020-06-25T13:47:09+00:00","link":"tg://resolve?domain=jvmjobs&post=1658","tags":[{"name":"java"},{"name":"jvm"},{"name":"linux"},{"name":"rest"},{"name":"soap"}],"cities":[{"code":"kazan"}],"allowsRemote":true}},{"node":{"id":"17153654784-1001110946746","title":"Js разработчик","text":"#вакансия #react #redux #москва #офис #javascript\n\nГород: Москва (ст.м. Аэропорт), также города с тем же часовым поясом.\n\nФормат работы: full-time, remote.\n\nЗанятость: полная. \n\nВилка: 100-250 т.р. на руки.\n\nФункционал:\n\n• Разработка WEB приложений;\n\n• Рефакторинг Legacy кода;\n\n• Написание и поддержка сложных модулей, реализованных на стеке технологий React;\n\n• Участие в оценке сроков, трудоёмкости и проектирование приложений.\n\nПрофессиональные знания: знание JavaScript и его особенностей; знание React / Redux, Node.js, пакетных менеджеров (Yarn / npm); умение работать с Git; понимание стратегий оптимизации web-приложения.\n\nНазвание компании: Локо-Банк\nhttps://www.lockobank.ru//\nhttps://hh.ru/vacancy/37365811\n\nКонтакты: @hrlocko","markup":[{"type":"hashtag","offset":0,"length":9,"data":"вакансия"},{"type":"hashtag","offset":10,"length":6,"data":"react"},{"type":"hashtag","offset":17,"length":6,"data":"redux"},{"type":"hashtag","offset":24,"length":7,"data":"москва"},{"type":"hashtag","offset":32,"length":5,"data":"офис"},{"type":"hashtag","offset":38,"length":11,"data":"javascript"},{"type":"link","offset":661,"length":26,"data":"https://www.lockobank.ru//"},{"type":"link","offset":688,"length":30,"data":"https://hh.ru/vacancy/37365811"},{"type":"handle","offset":730,"length":8,"data":"hrlocko"}],"date":"2020-06-25T13:40:52+00:00","link":"tg://resolve?domain=javascript_jobs_feed&post=16359","tags":[{"name":"javascript"},{"name":"reactjs"},{"name":"redux"},{"name":"web"},{"name":"nodejs"},{"name":"npm"},{"name":"git"},{"name":"react-redux"}],"cities":[{"code":"moscow"}],"allowsRemote":true}},{"node":{"id":"17152606208-1001110946746","title":"Js разработчик","text":"#вакансия #frontend #vue #senior #middle #remote #офис #удаленка\n\nГород: Москва, м. Славянский бульвар\nФормат работы: офис, удаленное сотрудничество\nЗанятость: полная, гибкий график (обсуждаем)\nЗарплатная вилка: от 80 000 рублей до 240 000 рублей на руки\nНазвание компании: ФГБУ «ИАЦ МЧС России»\nКонтакты для связи: @mxrkin\n\nНа данный момент отдел разработки программного обеспечения формирует команду JS-разработчиков для поддержки существующих и реализации новых проектов.\n\nТребования для соискателей:\n— уверенные знания Javascript, знание стандартов ECMAScript;\n— знание и опыт применения фреймворка Vue.js и использование элементов экосистемы фреймворка (vuex, vue-router);\n— опыт использования систем сборки - webpack, gulp, parcel. Опыт написания конфигов для webpack;\n— владение препроцессорами CSS - SASS/LESS;\n— опыт использования Prettier, ESLint;\n— гражданство РФ (местонахождение так же РФ).\n\nПлюсом будет:\n— владение Node.js или знание других языков программирования;\n— активные профили в сообществах habrahabr, habr Q&A, участие в opensource проектах, активный профиль github;\n— опыт работы с библиотекой D3.js;\n— опыт работы с картографическими библиотеками.\n\nТрудоустройство официальное по ТК РФ, социальный пакет.\nНа территории имеется столовая для сотрудников, спортивные площадки, футбольное и баскетбольное поле.\nРабота не является государственной службой.\n\nСобеседование проходит в три этапа — общение с руководителем, выполнение тестового задания (простое задание на 15-30 минут), предложение сотрудничества. \n\nЕсли вас заинтересовала вакансия, обращайтесь в тг @mxrkin. Большим плюсом будет, если первым сообщением прикрепите резюме и поделитесь ссылками на проекты, в которых принимали активное участие, или ссылку на гитхаб с кодом, который, по-вашему мнению, сможет показать все ваши знания и навыки.","markup":[{"type":"hashtag","offset":0,"length":9,"data":"вакансия"},{"type":"hashtag","offset":10,"length":9,"data":"frontend"},{"type":"hashtag","offset":20,"length":4,"data":"vue"},{"type":"hashtag","offset":25,"length":7,"data":"senior"},{"type":"hashtag","offset":33,"length":7,"data":"middle"},{"type":"hashtag","offset":41,"length":7,"data":"remote"},{"type":"hashtag","offset":49,"length":5,"data":"офис"},{"type":"hashtag","offset":55,"length":9,"data":"удаленка"},{"type":"handle","offset":316,"length":7,"data":"mxrkin"},{"type":"handle","offset":1584,"length":7,"data":"mxrkin"}],"date":"2020-06-25T13:40:01+00:00","link":"tg://resolve?domain=javascript_jobs_feed&post=16358","tags":[{"name":"javascript"},{"name":"vuejs"},{"name":"webpack"},{"name":"gulp"},{"name":"css"},{"name":"sass"},{"name":"nodejs"},{"name":"github"}],"cities":[{"code":"moscow"}],"allowsRemote":true}},{"node":{"id":"103716749312-1001089317451","title":"Qa engineer","text":"#вакансия #QA #manual #fulltime #remote #офис\n\nФормат работы: офис или удаленно\nРасположение: Санкт-Петербург \nЗанятость: полная, гибкое начало дня\nЗП: до 200k gross\n\n🔹 Компания OCS Labs более 25 лет на рынке IT и является ведущим дистрибьютером по всем продуктовым направлениям IT рынка. \nРегиональная сеть офисов OCS включает 27 городов в России, компания работает с более чем 8500 партнеров, среди которых 500 продуктовых линеек от ведущих мировых вендеров. \n\n🔸Сейчас команда находится в поиске Senior Manual QA Engineer, который будет готов в дальнейшем вырасти в teamlead’a, и в перспективе возглавить направление тестирования в R&D отделе.\nНа текущий момент в команде уже есть 1 ручной тестировщик и 1 автотестировщик (python).\nПредстоит заниматься тестированием сервиса взаимодествия вендоров; \n\n🔹  Требования:\n— Опыт тестирования Web от 2 лет;\n— Умение оценивать и распределять задачи в команде;\n— Опыт менторства/руководства командой;\n— Опыт тестирования API;\n\nБольшим плюсом будет:\n— Понимание b2b сервисов;\n— Навыки автотестирования, будет возможность расти и развиваться в этом направлении; \n\n🔹  Условия:\n— Официальное трудоустройство, белая заработная плата;\n— Комфортный офис на Б.Сампсониевском (Петербург), также для московских специалистов есть возможность работать в московском офисе: Румянцево, офисный парк «Комсити» или удаленно; \n— Техника предоставляется в соответствии с пожеланиями специалиста;\n— Внутреннее обучение;\n— Годовая дотация;\n— Дружественная рабочая среда с возможностью карьерного и профессионального роста;\n\n🔹 Контакты:\ne-mail: maria@luckyhunter.io\ntelegram: @Maria_Rey","markup":[{"type":"hashtag","offset":0,"length":9,"data":"вакансия"},{"type":"hashtag","offset":10,"length":3,"data":"QA"},{"type":"hashtag","offset":14,"length":7,"data":"manual"},{"type":"hashtag","offset":22,"length":9,"data":"fulltime"},{"type":"hashtag","offset":32,"length":7,"data":"remote"},{"type":"hashtag","offset":40,"length":5,"data":"офис"},{"type":"bold","offset":500,"length":6,"data":""},{"type":"bold","offset":507,"length":18,"data":""},{"type":"bold","offset":570,"length":10,"data":""},{"type":"link","offset":1571,"length":20,"data":"mailto:maria@luckyhunter.io"},{"type":"handle","offset":1602,"length":10,"data":"Maria_Rey"}],"date":"2020-06-25T12:44:52+00:00","link":"tg://resolve?domain=qa_jobs&post=0","tags":[{"name":"qa"},{"name":"python"},{"name":"web"}],"cities":[],"allowsRemote":true}},{"node":{"id":"26588741632-1001075660570","title":"Php разработчик","text":"РАЗРАБОТЧИК НА PHP УДАЛЕННО\n#вакансия #php #удаленно #Wordpress \n#fullstack #middle #senior \nФормат работы: Удалённая \nЗанятость: частичная, проектная, от 20 часов в неделю.  \nГрафик гибкий, но необходимо быть на связи с 9.00 до 18.00 по МСК, чтобы иметь возможность ответить на возникающие вопросы. \nЗарплатная вилка: от 50 тыс. руб. Зп 2 р в месяц или попроектная оплата (определяем по результатам собеседования)\nО нас: Веб-студия Денир  denir.ru  \nРазрабатываем сайты, лендинги, а также программные продукты для автоматизации малого бизнеса. На рынке уже 9 лет.\n\nИщем программиста в команду для работы над сайтами и сервисами на php.\n\nТребования к кандидату:\n • Опыт программирования на языке PHP от 2-х лет;\n\n • Опыт работы с MySQL,\n\n • Опыт работы с WP от 1го года,\n\n • Ответственность,\n\n • Соблюдение поставленных сроков. \n\n\nОбязанности:\n • Разработка с нуля сайтов, лендингов, интернет-магазинов,\n\n • Доработка и поддержка разработанных проектов,\n\n • Разработка сервисов на php back-front.\n\n\nМы гарантируем:\n • Интересные задачи, \n\n • Актуальный стек технологий,\n\n • Cпланированные понятные задачи,\n\n • Гибкий график,\n\n • Профессиональную команду,\n\n • Возможность получать обратную связь по результатам работы.\n\n\nКонтактное лицо: @irinadenchik (Ирина), auditdenisova@yandex.ru (рабочая почта)","markup":[{"type":"hashtag","offset":28,"length":9,"data":"вакансия"},{"type":"hashtag","offset":38,"length":4,"data":"php"},{"type":"hashtag","offset":43,"length":9,"data":"удаленно"},{"type":"hashtag","offset":53,"length":10,"data":"Wordpress"},{"type":"hashtag","offset":65,"length":10,"data":"fullstack"},{"type":"hashtag","offset":76,"length":7,"data":"middle"},{"type":"hashtag","offset":84,"length":7,"data":"senior"},{"type":"bold","offset":108,"length":9,"data":""},{"type":"bold","offset":130,"length":44,"data":""},{"type":"bold","offset":176,"length":14,"data":""},{"type":"link","offset":440,"length":8,"data":"http://denir.ru/"},{"type":"bold","offset":566,"length":70,"data":""},{"type":"bold","offset":638,"length":23,"data":""},{"type":"bold","offset":831,"length":12,"data":""},{"type":"bold","offset":999,"length":15,"data":""},{"type":"handle","offset":1237,"length":13,"data":"irinadenchik"},{"type":"link","offset":1260,"length":23,"data":"mailto:auditdenisova@yandex.ru"}],"date":"2020-06-25T12:40:27+00:00","link":"tg://resolve?domain=php_jobs&post=25357","tags":[{"name":"php"},{"name":"wordpress"},{"name":"mysql"}],"cities":[],"allowsRemote":true}},{"node":{"id":"356515840-1001352129329","title":"Go разработчик","text":"MT Group (mtgroupit.com) #go_вакансия #вакансия\n\nСписок необходимых навыков:\nGo-swagger, http/https, REST, gRPC, SQL, Docker\nЗарплатные вилка после налогов в стандартной валюте расчетов компании:\n100 - 200 рублей (в зависимости от уровня)\nЗарплатная вилка в долларах после налогов (необязательно, если основная валюта расчета компании - доллары):\nЖелательно договор с ИП\nДоступна ли удалённая работа:\nУдаленная\nГород:\nСПБ, Париж \nСписок языков, которые необходимо знать (русский/английский или какие-либо еще), а так же язык, на котором проходят митинги:\nРусский, желательно английский\nНазвание компании:\nРазработка ПО\nКонтактное лицо:\n@Lisss13, +7 921 976 84 15","markup":[{"type":"link","offset":10,"length":13,"data":"http://mtgroupit.com"},{"type":"hashtag","offset":25,"length":12,"data":"go_вакансия"},{"type":"hashtag","offset":38,"length":9,"data":"вакансия"},{"type":"handle","offset":636,"length":8,"data":"Lisss13"},{"type":"link","offset":646,"length":16,"data":"tel:+7 921 976 84 15"}],"date":"2020-06-25T12:11:48+00:00","link":"tg://resolve?domain=gogetajobfeed&post=340","tags":[{"name":"go"},{"name":"swagger"},{"name":"rest"},{"name":"sql"},{"name":"docker"}],"cities":[{"code":"paris"}],"allowsRemote":true}},{"node":{"id":"355467264-1001352129329","title":"Golang разработчик","text":"#вакансия\n\nВакансия: Golang Developer (Middle\\Senior)\n\nСписок необходимых навыков:\n● Опыт промышленной разработки на go от 2х лет\n● Опыт работы с реляционными базами данных (хотя бы с одной из популярных)\n● Опыт работы nosql базами данных (хотя бы одной из: mongodb/redis)\n● Понимание паттернов проектирование и понимание, в каких случаях ими можно\nпренебречь\n● Умение работать в команде: взаимодействие с продактами, тестировщиками и\nдругими разработчиками\n● Понимание 12factor app\n● Понимание процессов разработки и их устройства: code review, CI/CD, цикл жизни\nзадачи\n\nБудет плюсом:\n● Опыт работы с php\n● Опыт работы с kafka\n● Поинмание DDD\n● Понимание принципов масштабирования систем\n● Опыт работы с grpc\n● Понимание принципов event sourcing, cqrs\n\nЗарплатная вилка после налогов в стандартной валюте расчетов компании: 100 000 - 220 000 рублей\n\nДоступна ли удалённая работа: нет\n\nГород: Москва\n\nСписок языков, которые необходимо знать: Русский\n\nНазвание компании: Mafin\n\nДополнительное описание:\n\nНабираем команду разработчиков разного уровня. Работа в проектных группах по 7 человек.\n\n\nО компании: Mafin.ru - это онлайн-платформа персональных страховых сервисов. Insurtech стартап компании \"АбсолютТех\", получивший инвестирование в размере $50 млн\n\nЗадачи:\n● Полный цикл разработки: взаимодействие с продуктами/проджектами, декомпозиция\nфичей, написание кода(go) и тестов\n● Участие в проектировании микросервисной архитектуры\n● Использование helm для описания деплоя сервисов\n● Написание новых и дописывание текущих микросервисов на go\n\nУсловия: \n● НС с первого рабочего дня, ДМС по истечении испытательного срока (3 месяца);\n● Skyeng скидка 50% (в том числе занятия с носителями языка);\n● Новый красивый офис в тренде современных IT компаний с капсулами для сна и уютной кухней;\n● Бесплатное обучение; доступ к онлайн-библиотеке;\n● Огромное количество корпоративных мероприятий\n● Гибкое начало рабочего дня до 11-00\n● Agile, Scrum методология ведения проектов\n● Есть релокационный пакет\n● График работы 5\\2, офис 2 дня в неделю на время ограничительных мер\n\nКонтактное лицо: Илья @rudenko_telegram","markup":[{"type":"hashtag","offset":0,"length":9,"data":"вакансия"},{"type":"link","offset":1105,"length":8,"data":"http://Mafin.ru"},{"type":"handle","offset":2088,"length":17,"data":"rudenko_telegram"}],"date":"2020-06-25T11:42:38+00:00","link":"tg://resolve?domain=gogetajobfeed&post=339","tags":[{"name":"go"},{"name":"nosql"},{"name":"mongodb"},{"name":"redis"},{"name":"php"},{"name":"kafka"}],"cities":[{"code":"moscow"}],"allowsRemote":true}},{"node":{"id":"17151557632-1001110946746","title":"Js разработчик","text":"#вакансия #работа #frontend #react #redux #js #typescript #ульяновск #крснодар #нижнийновгород #самара #тольятти #ижевск #воронеж #казань #fulltime #удаленно #офис \n\nMiddle/Senior frontend разработчик React/Redux\nКомпания: Норд Клан\nГород: Ульяновск\nФормат: в офисе, удаленно, если живете не в Ульяновске\nЗарплатная вилка: от 70 до 150k на руки\n\n\nМы ищем разработчика в нашу команду NORD CLAN.  \nМы разрабатываем системы для бизнеса в области финтеха, медицины и фудтеха. Так же разрабатываем собственные продукты связанные с машинным обучением, распознаванием образов и компьютерным зрением. \n\nПо задачам:\n\nРазработка пользовательских интерфейсов в стеке React + Redux\nПроектирование, выбор и доработка архитектурных и технологических решений\nПроведение code-review Frontend-команды\nРазработка прототипов для отработки новых идей\n\nПо тербованиям:\nРеальный опыт работы с React;\nУверенные знания в HTML, CSS;\nНавыки работы с Git.\n\nБудет плюсом:\nОпыт работы на других языках (например, Java);\nАнглийский язык уровня Upper Intermediate.\n\n\nУ нас нет бюрократии, четко выстроены процессы разработки, мы любим и чтим ТК РФ и белую зп\n\n\nПисать в Telegram: @Dinovikova1477","markup":[{"type":"hashtag","offset":0,"length":9,"data":"вакансия"},{"type":"hashtag","offset":10,"length":7,"data":"работа"},{"type":"hashtag","offset":18,"length":9,"data":"frontend"},{"type":"hashtag","offset":28,"length":6,"data":"react"},{"type":"hashtag","offset":35,"length":6,"data":"redux"},{"type":"hashtag","offset":42,"length":3,"data":"js"},{"type":"hashtag","offset":46,"length":11,"data":"typescript"},{"type":"hashtag","offset":58,"length":10,"data":"ульяновск"},{"type":"hashtag","offset":69,"length":9,"data":"крснодар"},{"type":"hashtag","offset":79,"length":15,"data":"нижнийновгород"},{"type":"hashtag","offset":95,"length":7,"data":"самара"},{"type":"hashtag","offset":103,"length":9,"data":"тольятти"},{"type":"hashtag","offset":113,"length":7,"data":"ижевск"},{"type":"hashtag","offset":121,"length":8,"data":"воронеж"},{"type":"hashtag","offset":130,"length":7,"data":"казань"},{"type":"hashtag","offset":138,"length":9,"data":"fulltime"},{"type":"hashtag","offset":148,"length":9,"data":"удаленно"},{"type":"hashtag","offset":158,"length":5,"data":"офис"},{"type":"handle","offset":1149,"length":15,"data":"Dinovikova1477"}],"date":"2020-06-25T11:31:56+00:00","link":"tg://resolve?domain=javascript_jobs_feed&post=16357","tags":[{"name":"javascript"},{"name":"reactjs"},{"name":"redux"},{"name":"typescript"},{"name":"html"},{"name":"css"},{"name":"git"},{"name":"java"},{"name":"react-redux"}],"cities":[{"code":"ulyanovsk"},{"code":"samara"},{"code":"izhevsk"},{"code":"voronezh"},{"code":"kazan"}],"allowsRemote":true}},{"node":{"id":"2257584128-1001134745498","title":"Devops инженер","text":"#вакансия #офис #fulltime #devops #Будва_Черногория\n\nВакансия: DevOps\nКомпания: Alar Studios\nАдрес: Будва, Черногория\nФормат работы: удаленно на время пандемии, далее офис\nЗанятость: full time\nЗ.п вилка: 1700-2300 eur (на руки)\n\nКомпания Alar Studios занимается разработкой крупных технологически тяжелых проектов на заказ для западных заказчиков. Предлагаем возможность развиваться в комфортных условиях мягкого климата Черногории на берегу моря (офис).\n\n📌Требования:\n    • Знание Jenkins, Ansible;\n    • Отличное знание Linux и опыт от 2-х лет;\n    • Кристально ясное понимание TCP/IP;\n    • Общее понимание ИТ-безопасности, зачем нужна и каковы пути ее достижения;\n    • Опыт работы с PostgreSQL или другой open source RDBMS;\n    • Опыт работы в инфраструктуре AWS или подобной;\n    • Отличное знание и понимание RDBMS как такового: в частности, знание SQL, зачем нужны и как работают индексы;\n    • Знание и понимание HTTP;\n    • Хотя бы basic English;\n    • Горячее желание учиться новому!\n📌 Приветствуется:\n    • Знание Python;\n    • Опыт работы с Flask или Django;\n    • Опыт с Amazon VPC и dedicated hosts;\n    • Опыт с Celery, Redis;\n    • Знание git.\n📌Основные задачи:\n    • Разработка архитектуры (в том числе high load, horizontal scalability);\n    • Администрирование инфраструктуры (Linux, Amazon AWS);\n    • Поиск и отладка проблем, работа с серверным кодом;\n    • Написание автоматизации (Ansible);\n    • Быть частью команды и взаимодействовать с командой разработчиков.\n📌 Мы предлагаем\n    • Интересные проекты;\n    • Оплачиваемые отпуска; \n    • Двойную почасовую оплату согласованной переработки сверх рабочего времени (OVERTIME);\n    • Возможность работы в нашем офисе в Черногории, фактически, в раю на берегу Адриатического моря — до моря 10 минут пешком (поможем с переездом вам и семье).\nРазмер зарплат по опыту/знаниям (если хорошо знаете все из списка и есть опыт, то верхняя планка). Рост по производительности.\nДополнительные инструкции: Для интервью будет необходимо сделать тестовое задание.\nВаше CV прошу направлять на pakhomova@alarstudios.com или в @daikirey\n\n—\n\n👉 Обсуждение вакансии в чате @devops_jobs","markup":[{"type":"hashtag","offset":0,"length":9,"data":"вакансия"},{"type":"hashtag","offset":10,"length":5,"data":"офис"},{"type":"hashtag","offset":16,"length":9,"data":"fulltime"},{"type":"hashtag","offset":26,"length":7,"data":"devops"},{"type":"hashtag","offset":34,"length":17,"data":"Будва_Черногория"},{"type":"link","offset":2054,"length":25,"data":"mailto:pakhomova@alarstudios.com"},{"type":"handle","offset":2086,"length":9,"data":"daikirey"},{"type":"handle","offset":2130,"length":12,"data":"devops_jobs"}],"date":"2020-06-25T11:11:19+00:00","link":"tg://resolve?domain=devops_jobs_feed&post=2153","tags":[{"name":"jenkins"},{"name":"ansible"},{"name":"linux"},{"name":"postgresql"},{"name":"amazon-web-services"},{"name":"sql"},{"name":"python"},{"name":"flask"},{"name":"django"},{"name":"redis"},{"name":"git"}],"cities":[],"allowsRemote":true}},{"node":{"id":"2256535552-1001134745498","title":"Devops инженер","text":"#вакансия #devops #docker #kubernetes\n\nВакансия: DevOps\nКомпания: Potok.io\nГород и адрес офиса: Москва, м. Марьина Роща, м. Савёловская\nФормат работы: удаленно на время пандемии, далее офис\nЗанятость: полная\nЗарплатная вилка: от 120 до 200к (net)\n\nМы - SaaS-решение по автоматизации бизнес-процессов в рамках подбора. Ищем человека, который возьмет на себя построение нашей инфраструктуры и CI/CD. Сейчас делаем всё силами команды разработки, а задач уже набралось на полноценного специалиста\nНаш стэк - ubuntu, ruby, postgres, elasticsearch, redis.\n\n🔹Чем предстоит заниматься:\n-настройка CI/CD\n-инфраструктурная поддержка продакшена - мониторинг, логи, деплой, вот это вот всё :)\n-запаковка SaaS-решения в коробку и развертка на серверах клиентов\n\n🔹Мы ищем человека, который:\n-имеет опыт работы DevOps специалистом от 2-х лет\n-имеет опыт администрирования Ubuntu\n-опыт работы с Docker и Kubernetes\n-навыки в сфере автоматизации процессов настройки и управления серверами (puppet, ansible, chef)\n-системы мониторинга и логинорования \nТакже большим плюсом будет опыт работы с PostgreSQL и Elasticsearch\n\n🔹Условия:\n-индивидуальное обсуждение зарплатных ожиданий \n-честное трудоустройство на 100%\n-классный ДМС\n-график 5/2 в среднем с 10 до 19\n-команду, нацеленную на общий результат и интересные задачи\n-дух стартапа + стабильность большой компании \n\nКонтакты: @yulianka_95\n\n—\n\n👉 Обсуждение вакансии в чате @devops_jobs","markup":[{"type":"hashtag","offset":0,"length":9,"data":"вакансия"},{"type":"hashtag","offset":10,"length":7,"data":"devops"},{"type":"hashtag","offset":18,"length":7,"data":"docker"},{"type":"hashtag","offset":26,"length":11,"data":"kubernetes"},{"type":"link","offset":66,"length":8,"data":"http://Potok.io"},{"type":"handle","offset":1362,"length":12,"data":"yulianka_95"},{"type":"handle","offset":1409,"length":12,"data":"devops_jobs"}],"date":"2020-06-25T11:10:32+00:00","link":"tg://resolve?domain=devops_jobs_feed&post=2152","tags":[{"name":"docker"},{"name":"kubernetes"},{"name":"dotnet"},{"name":"ubuntu"},{"name":"ruby"},{"name":"postgresql"},{"name":"elasticsearch"},{"name":"redis"},{"name":"ansible"}],"cities":[{"code":"moscow"}],"allowsRemote":true}}]}},"context":{}}