{"hash":"f5f6bf98bd95e769321482904cbbd488f77922fd","data":{"records":{"id":"dotnet","name":"dotnet","belongsTo":{"totalCount":172,"pageInfo":{"totalPages":18,"currentPage":1},"edges":[{"node":{"__typename":"Job","id":"72624373760-1001054966032","title":"Android developer","text":"#вакансия #Middle+ #Android developer #kotlin #удаленно                                                                                                         Уровень дохода:💵 130 000-150 000  рублей net                                                                                                                                                                                 Требуемый опыт работы: 2-4 года\nПолная занятость, дистанционно, гибкое начало рабочего дня\n \n📌Требования:\n- Нативная Android разработка (Kotlin)\n- Умение писать поддерживаемый и тестируемый код\n- Умение работать с Dagger 2\n- Умение работать с git\n- Желание развиваться и изучать новое в разработке\n- Опыт разработки приложений от 2 лет\n -Знание английского языка от уровня Intermediate\n \n📌Будет плюсом:\n- Опыт работы с JNI\n- Опыт использования tensorflow\n- Опыт работы с аудио и видео\n\n📌Условия:\n- Отсутствие бюрократии\n- Время начала рабочего дня обговариваем индивидуально\n- Крутой инновационный проект - возможность самореализации и профессионального роста\n- Стабильное зарубежное финансирование\n- Десятки миллионов установок и множество глобальных партнёров\n📞Контакты @SvetikS_hr +7(963)-632-12-36 Cветлана","markup":[{"type":"hashtag","offset":0,"length":9,"data":"вакансия"},{"type":"hashtag","offset":10,"length":7,"data":"Middle"},{"type":"hashtag","offset":19,"length":8,"data":"Android"},{"type":"hashtag","offset":38,"length":7,"data":"kotlin"},{"type":"hashtag","offset":46,"length":9,"data":"удаленно"},{"type":"handle","offset":1158,"length":11,"data":"SvetikS_hr"},{"type":"link","offset":1170,"length":17,"data":"tel:+7(963)-632-12-36"}],"date":"2020-07-03T11:32:22+00:00","link":"tg://resolve?domain=mobile_jobs&post=69260","tags":[{"name":"mobile"},{"name":"android"},{"name":"kotlin"},{"name":"dotnet"},{"name":"git"},{"name":"tensorflow"}],"cities":[],"allowsRemote":true}},{"node":{"__typename":"Job","id":"17361272832-1001110946746","title":"Js разработчик","text":"#вакансия #node.js #typescript #офис #москва #мск #частичноудаленка \nГород и адрес офиса:  #москва #мск  #калужская\nФормат работы: офис, фултайм, гибкий график, можно несколько дней в неделю удаленно\nЗанятость: полная\nЗарплатная вилка: 160-230 т.р. net \nОписание вакансии: \nИщу сейчас Node.js разработчика в компанию, разрабатывающую собственную платформу для бесконтактных заказов: QR приложение (облачный киоск), мобильные приложения и терминалы самообслуживания для сетей ресторанов и кофеен. Продукт позволяет автоматизировать процесс заказа, сбора, оплаты и выдачи заказа - и сделать эти шаги бесконтактными.\n\nОформление белое, сейчас сильно масштабируем наш продукт и есть все возможные перспективы роста 😊\nНазвание компании:  Star-Staff\nКонтакты: пишите на этот тг @yuliaataman","markup":[{"type":"hashtag","offset":0,"length":9,"data":"вакансия"},{"type":"hashtag","offset":10,"length":5,"data":"node"},{"type":"hashtag","offset":19,"length":11,"data":"typescript"},{"type":"hashtag","offset":31,"length":5,"data":"офис"},{"type":"hashtag","offset":37,"length":7,"data":"москва"},{"type":"hashtag","offset":45,"length":4,"data":"мск"},{"type":"hashtag","offset":50,"length":17,"data":"частичноудаленка"},{"type":"hashtag","offset":91,"length":7,"data":"москва"},{"type":"hashtag","offset":99,"length":4,"data":"мск"},{"type":"hashtag","offset":105,"length":10,"data":"калужская"},{"type":"handle","offset":773,"length":12,"data":"yuliaataman"}],"date":"2020-07-03T11:24:50+00:00","link":"tg://resolve?domain=javascript_jobs_feed&post=16557","tags":[{"name":"javascript"},{"name":"nodejs"},{"name":"typescript"},{"name":"dotnet"}],"cities":[{"code":"moscow"}],"allowsRemote":true}},{"node":{"__typename":"Job","id":"104346943488-1001089317451","title":"Qa инженер","text":"#вакансия #QA #automation #москва #fulltime \nКомпания: #KALABI\nЛокация: Мск, Сухаревская\nФормат работы: fulltime, офис, гибкий график\nЗ/П: 80 000 – 120 000 net.\n👉 Что потребуется от Вас:\n✔ Знание основ тестирования (жизненный цикл разработки ПО, цели тестирования, что такое качество, что такое ошибка и т.д.);\n✔ Практические знания различных видов и типов тестирования;\n✔ Знания разработки тестовой документации (сценарии, тест-кейсы, чек-листы);\n✔ Практические навыки написания автотестов на Selenium, навыки их интегрирования в Git или Jenkins;\n👉 Чем предстоит заниматься:\n✔ Проводить комплексное тестирование программного продукта (функциональное и нефункциональное);\n✔ Анализировать требования к программному продукту;\n✔ Разрабатывать автотесты и загружать их на сервер непрерывной интеграции;\n✔ Фиксировать дефекты в баг-трекер;\n✔ Обеспечивать контроль качества разрабатываемых продуктов.\n👉 Что мы предлагаем:\n✅прекрасный офис в центре Москвы, гибкий график (пару дней в неделю можно работать из дома);\n✅полностью белая зарплата, ДМС;\n✅обучение используемым технологиям, сложные и необычные задачи (некоторые из задач решаются всего в нескольких компаниях в мире).\n📞telegram:@faina_kleinman\n📮e-mail: fk@kalabi.ru","markup":[{"type":"hashtag","offset":0,"length":9,"data":"вакансия"},{"type":"hashtag","offset":10,"length":3,"data":"QA"},{"type":"hashtag","offset":14,"length":11,"data":"automation"},{"type":"hashtag","offset":26,"length":7,"data":"москва"},{"type":"hashtag","offset":34,"length":9,"data":"fulltime"},{"type":"hashtag","offset":55,"length":7,"data":"KALABI"},{"type":"handle","offset":1185,"length":15,"data":"faina_kleinman"},{"type":"link","offset":1211,"length":12,"data":"mailto:fk@kalabi.ru"}],"date":"2020-07-03T10:21:36+00:00","link":"tg://resolve?domain=qa_jobs&post=99513","tags":[{"name":"qa"},{"name":"dotnet"},{"name":"selenium"},{"name":"git"},{"name":"jenkins"}],"cities":[{"code":"moscow"}],"allowsRemote":false}},{"node":{"__typename":"Job","id":"72612839424-1001054966032","title":"Mobile разработчик","text":"#вакансия #ios #senior #middle #objective_c \n\nОчень важен опыт работы с Core Data\n\nГород: #Москва, м. Павелецкая или удалённо\nФормат работы: #офис, #удалёнка, #гибкие_часы \n\nЗанятость: полная  \nЗарплатная вилка: от 200к до 250к руб. net \nОписание вакансии: \n\nМы разрабатываем облачные CRM решения с широким использованием мобильных устройств.   \nСейчас мы ищем middle  и senior iOS разработчиков в команду, которая внедряет приложение CT Mobile в архитектуру CRM наших клиентов в Европе.\n\nhttps://apps.apple.com/us/app/ct-mobile-for-salesforce/id1234947996\n\nНазвание компании: Customertimes.com\nКонтакты: mikhail.zinoviev@ctconsult.ru","markup":[{"type":"hashtag","offset":0,"length":9,"data":"вакансия"},{"type":"hashtag","offset":10,"length":4,"data":"ios"},{"type":"hashtag","offset":15,"length":7,"data":"senior"},{"type":"hashtag","offset":23,"length":7,"data":"middle"},{"type":"hashtag","offset":31,"length":12,"data":"objective_c"},{"type":"hashtag","offset":90,"length":7,"data":"Москва"},{"type":"hashtag","offset":141,"length":5,"data":"офис"},{"type":"hashtag","offset":148,"length":9,"data":"удалёнка"},{"type":"hashtag","offset":159,"length":12,"data":"гибкие_часы"},{"type":"link","offset":489,"length":67,"data":"https://apps.apple.com/us/app/ct-mobile-for-salesforce/id1234947996"},{"type":"link","offset":577,"length":17,"data":"http://Customertimes.com"},{"type":"link","offset":605,"length":29,"data":"mailto:mikhail.zinoviev@ctconsult.ru"}],"date":"2020-07-03T09:46:34+00:00","link":"tg://resolve?domain=mobile_jobs&post=69249","tags":[{"name":"mobile"},{"name":"ios"},{"name":"objective-c"},{"name":"dotnet"},{"name":"core-data"}],"cities":[{"code":"moscow"}],"allowsRemote":true}},{"node":{"__typename":"Job","id":"104336457728-1001089317451","title":"Qa инженер","text":"#вакансия #москва #fulltime #middle #automation\n🏢Город: Москва, м. Павелецкая\n💻Формат: Офис\n💰З/п: от 180 до 250 т.р net\n\nИщем тестировщика в команду мобильного тестирования, на один из наших крупнейших проектов. Коротко о проекте: крупный американский заказчик (входит в топ 3 фарм компании США) .\nПроекту больше года, приложение вышло в прод, есть реальные пользователи, работаем над новыми релизами, добавляем новый функционал\nИщем специалиста, с опытом автоматизации тестирования мобильных приложений (желательно Android)\n\nCustomertimes – это международный системный интегратор, который работает  в США, России и более чем 50 странах мира. Мы работаем с крупнейшими мировыми поставщиками программного обеспечения, такими как Salesforce, Pega, SAP, а также предоставляем собственные разработки для крупных и средних компаний. \nНаши офисы расположены в Москве, Нью-Йорке, Киеве, Минске, Риге, Лондоне, Торонто\n📌Задачи: \n • Анализ технической документации и требований к системе\n•Написание, отладка и поддержание в актуальном состоянии автоматизированных скриптов \n•Проведение автоматизированного тестирования\n•Настройка, управление и поддержание тестового фреймворка для автоматизации. Участие в создании нового фреймворка для автоматизированного тестирования, если это требуется на проекте.\n•Внедрение и настройка инструментов и утилит необходимых для проведения автоматизированного тестирования \n•Фиксация обнаруженных во время автоматизированного тестирования дефектов в Jira, согласно внутренним инструкциям и регламентам принятым на проекте\n•Взаимодействие с командой ручного тестирования и командой разработки с целью локализации и исправления обнаруженных дефектов\n•Разработка инструкций и документации  \n📌Требования: \n • Ясное понимание проектного подхода к работе, знакомство с различными методологиями управления проектами. \n • Опыт работы в  автоматизированном  тестировании от 2х лет. \n • Опыт проведения  автоматизированного тестирования (mobile/Web)\n • Уверенные знание ООП (Java) \n • Английский язык на уровне Intermediate и выше\n • Самостоятельность, высокий уровень личной дисциплины \n  \n  \nМы предлагаем: \n • Работу в дружном и быстроразвивающемся международном коллективе.\n•Решение сложных задач;\n•Возможность повысить уровень своего профессионализма и познакомиться с лучшими мировыми практиками наших клиентов;\n•Возможность поучаствовать в строительстве международного бизнеса             в области ИТ и занять достойное место в команде.\n•Принять участие в построении эффективных бизнес-процессов компании, их автоматизации.\n•Обучение по курсам компании: Tester, Salesforce Specialist\n•Подготовку и оплату сдачи экзамена Salesforce Administrator\n•Возможность сертификации по ISTQB в качестве KPI на первый год работы\nTelegram: @Surkofff\nТелефон: +7 916 824 11 34","markup":[{"type":"hashtag","offset":0,"length":9,"data":"вакансия"},{"type":"hashtag","offset":10,"length":7,"data":"москва"},{"type":"hashtag","offset":18,"length":9,"data":"fulltime"},{"type":"hashtag","offset":28,"length":7,"data":"middle"},{"type":"hashtag","offset":36,"length":11,"data":"automation"},{"type":"handle","offset":2754,"length":9,"data":"Surkofff"},{"type":"link","offset":2773,"length":16,"data":"tel:+7 916 824 11 34"}],"date":"2020-07-03T09:33:49+00:00","link":"tg://resolve?domain=qa_jobs&post=99503","tags":[{"name":"qa"},{"name":"dotnet"},{"name":"android"},{"name":"mobile"},{"name":"web"},{"name":"java"}],"cities":[{"code":"moscow"},{"code":"toronto"}],"allowsRemote":false}},{"node":{"__typename":"Job","id":"17344495616-1001110946746","title":"Javascript разработчик","text":"#вакансия #frontend #vue #москва #fulltime #офис\n\nГород: Москва м. Парк культуры(5 минут)\nФормат: в офисе\nЗанятость: полная\nЗарплатная вилка: 180 000 - 220 000 рублей в месяц net (на руки)\n\nВсякие преимущества:\nВ нашей команде крутые ребята создатели и топы: \nKupiVip, Avito и других лидеров рынка.\nМы работаем в одной из самых быстрорастущих отраслей - FoodTech.\nРабота в современном офисе - WeWork. Кофе, печеньки, бесплатное пиво по вечерам.\nВозможность учиться, развиваться и много работать. \nДМС + стоматология.\n\nЧем занимаемся:\nРазрабатываем систему для сборки и доставки продуктов для сети Пятерочка, микросервисная архитектура, большое кол-во фронтовых (админка, рабочее приложение, операторская).\n\nВаши задачи: \nРазработка архитектуры сложного SPA приложения\nПроект новый - можно влиять участвовать и предлагать новые решения.\nРазработка ведется по спринтам.\n\nНам очень важно:\nАктивность, ответственность и прочие лучшие человеческие качества. Верим, что компанию делают люди.\nА также опыт на Vue от 1 года.\nОпыт на фронте от 3-х лет.  \n\nКомпания: X5 Retail Group (подразделение X5FoodTech)\n\nКонтакты: \nДарья\n@Daryanepevnaya\n+7 925 175 175 2 \ndarya.nepevnaya@x5.ru","markup":[{"type":"hashtag","offset":0,"length":9,"data":"вакансия"},{"type":"hashtag","offset":10,"length":9,"data":"frontend"},{"type":"hashtag","offset":20,"length":4,"data":"vue"},{"type":"hashtag","offset":25,"length":7,"data":"москва"},{"type":"hashtag","offset":33,"length":9,"data":"fulltime"},{"type":"hashtag","offset":43,"length":5,"data":"офис"},{"type":"handle","offset":1118,"length":15,"data":"Daryanepevnaya"},{"type":"link","offset":1134,"length":16,"data":"tel:+7 925 175 175 2"},{"type":"link","offset":1152,"length":21,"data":"mailto:darya.nepevnaya@x5.ru"}],"date":"2020-07-03T07:36:36+00:00","link":"tg://resolve?domain=javascript_jobs_feed&post=16541","tags":[{"name":"javascript"},{"name":"vuejs"},{"name":"dotnet"}],"cities":[{"code":"moscow"}],"allowsRemote":false}},{"node":{"__typename":"Job","id":"104324923392-1001089317451","title":"Qa инженер","text":"#вакансия #работа #QA  #ручное #москва #fulltime #офис\n\nКомпания: X5FoodTech\n\nQA ручное тестирование\n\nГород: Москва м. Парк культуры(5 минут)\nФормат: в офисе\nЗанятость: полная\nЗарплатная вилка: до 100 000  рублей в месяц net (на руки)\n\nВсякие преимущества:\nВ нашей команде крутые ребята создатели и топы: \nKupiVip, Avito и других лидеров рынка.\nМы работаем в одной из самых быстрорастущих отраслей - FoodTech.\nРабота в современном офисе - WeWork. Кофе, печеньки, бесплатное пиво по вечерам.\nВозможность учиться, развиваться и много работать. \nДМС + стоматология.\n\nПродукт, который нужно тестировать:\nСсылка на мобильное приложение: http://app.5-delivery.ru/\n\nЗадачи:\nРучное тестирование мобильных приложений,\nЗаведение дефектов в системе баг-трекинга;\nСоставление тестовых сценариев и поддержка их в актуальном состоянии;\nПодготовка отчетов о тестировании;\nВзаимодействие с разработчиками, продакт-менеджером;\n\nПожелания к твоему опыту:\nЗнание методов и методик тестирования;\nОпыт работы с REST API, HTTP/HTTPS, JSON;\nОпыт тестирования с помощью Chrome DevTools\n\nБудет плюсом:\nПонимание как работают мобильные приложения и опыт их тестирования;\nРабота с базами данных. \n\nКонтакты: \nДарья\n@Daryanepevnaya\n+7 925 175 175 2 \ndarya.nepevnaya@x5.ru","markup":[{"type":"hashtag","offset":0,"length":9,"data":"вакансия"},{"type":"hashtag","offset":10,"length":7,"data":"работа"},{"type":"hashtag","offset":18,"length":3,"data":"QA"},{"type":"hashtag","offset":23,"length":7,"data":"ручное"},{"type":"hashtag","offset":31,"length":7,"data":"москва"},{"type":"hashtag","offset":39,"length":9,"data":"fulltime"},{"type":"hashtag","offset":49,"length":5,"data":"офис"},{"type":"link","offset":632,"length":25,"data":"http://app.5-delivery.ru/"},{"type":"handle","offset":1188,"length":15,"data":"Daryanepevnaya"},{"type":"link","offset":1204,"length":16,"data":"tel:+7 925 175 175 2"},{"type":"link","offset":1222,"length":21,"data":"mailto:darya.nepevnaya@x5.ru"}],"date":"2020-07-03T07:23:09+00:00","link":"tg://resolve?domain=qa_jobs&post=99492","tags":[{"name":"qa"},{"name":"dotnet"},{"name":"rest"},{"name":"json"}],"cities":[{"code":"moscow"}],"allowsRemote":false}},{"node":{"__typename":"Job","id":"17342398464-1001110946746","title":"Js разработчик","text":"#вакансия #remote #frontend #fullstack #Angular #Node #middle #senior #remote\n\nФормат работы: remote \nЗанятость: fulltime\nВилка: 120 - 220k net \n\nНа протяжении 14 лет наша команда создает кастомные веб/мобильные приложения и дизайн. \nПриглашаем к сотрудничеству на удаленной постоянной основе опытного fullstack разработчика со знанием Angular 9 и Node.js\n\nПроект:  сервис для разработчиков\n\nЗадачи: fullstack разработка front-end и back-end на Angular 9 и Node.js \n\nНазвание компании: Softlight \n\nТребования: \nОпыт в разработке front-end на Angular от 2-х лет \nОпыт в разработке back-end на Node.js от 2-х лет \nработа в команде\nРазговорный английский - Intermediate и выше \n\nМы предлагаем:\n- Полностью удаленную работу\n- Интересный зарубежный сервис для разработчиков (USA)\n- Пятидневная рабочая неделя ( с 9-10 до 18-19 МСК), госпраздники - выходные\n- Оформление ИП\n- Оплачиваемый отпуск и больничный \n- Работу в слаженной опытной команде\n\nКонтакты: @MikeHR или mzaharov@softlightllc.com","markup":[{"type":"hashtag","offset":0,"length":9,"data":"вакансия"},{"type":"hashtag","offset":10,"length":7,"data":"remote"},{"type":"hashtag","offset":18,"length":9,"data":"frontend"},{"type":"hashtag","offset":28,"length":10,"data":"fullstack"},{"type":"hashtag","offset":39,"length":8,"data":"Angular"},{"type":"hashtag","offset":48,"length":5,"data":"Node"},{"type":"hashtag","offset":54,"length":7,"data":"middle"},{"type":"hashtag","offset":62,"length":7,"data":"senior"},{"type":"hashtag","offset":70,"length":7,"data":"remote"},{"type":"handle","offset":952,"length":7,"data":"MikeHR"},{"type":"link","offset":964,"length":25,"data":"mailto:mzaharov@softlightllc.com"}],"date":"2020-07-03T06:42:56+00:00","link":"tg://resolve?domain=javascript_jobs_feed&post=16539","tags":[{"name":"javascript"},{"name":"angularjs"},{"name":"nodejs"},{"name":"dotnet"}],"cities":[],"allowsRemote":true}},{"node":{"__typename":"Job","id":"17337155584-1001110946746","title":"Js разработчик","text":"#вакансия #node.js #typescript #офис #москва #мск #remote #удаленка \nГород и адрес офиса:  #москва #мск  #арбатская\nФормат работы: офис, фултайм, гибкий график, можно удаленно (с редкими встречами в мск, поэтому важно, чтобы вы жили не очень далеко от мск)\nЗанятость: полная\nЗарплатная вилка: 180-250 т.р. net \nОписание вакансии: \nИщу сейчас Node.js разработчика в финтех проект (Openbanking, psd2) -  это новый продукт в онлайн покупках на европейском рынке, со своей «платежкой», которое сделает эту сферу более технологичной и еще проще и доступнее для пользователей:\n- новое удобное решение для b2c клиентов (мобильное приложение)\n- выгодные условия для b2b партнеров (низкие комиссии за транзакции)\n\nОформление белое, проект полностью с нуля, только собираем команду, есть возможность максимального влияния на продукт, на выбор технологий и построение процессов.\n\nНазвание компании:  Star-Staff\nКонтакты: пишите на этот тг @yuliaataman","markup":[{"type":"hashtag","offset":0,"length":9,"data":"вакансия"},{"type":"hashtag","offset":10,"length":5,"data":"node"},{"type":"hashtag","offset":19,"length":11,"data":"typescript"},{"type":"hashtag","offset":31,"length":5,"data":"офис"},{"type":"hashtag","offset":37,"length":7,"data":"москва"},{"type":"hashtag","offset":45,"length":4,"data":"мск"},{"type":"hashtag","offset":50,"length":7,"data":"remote"},{"type":"hashtag","offset":58,"length":9,"data":"удаленка"},{"type":"hashtag","offset":91,"length":7,"data":"москва"},{"type":"hashtag","offset":99,"length":4,"data":"мск"},{"type":"hashtag","offset":105,"length":10,"data":"арбатская"},{"type":"handle","offset":928,"length":12,"data":"yuliaataman"}],"date":"2020-07-02T17:44:34+00:00","link":"tg://resolve?domain=javascript_jobs_feed&post=16534","tags":[{"name":"javascript"},{"name":"nodejs"},{"name":"typescript"},{"name":"dotnet"}],"cities":[{"code":"moscow"}],"allowsRemote":true}},{"node":{"__typename":"Job","id":"1775239168-1001091028994","title":"Java разработчик","text":"#middle #senior #Java #Spring #backend #developer #вакансия \nЛокация: Cанкт-Петербург\nЗанятость: полная, гибкое начало дня\n*до окончания пандемии работа удаленная, далее работа в офисе\nЗ/п: 130 – 200 k net.\nКомпания: CSI\nКонтакты: @Danny_Ushakova\nМы продуктовая компания CSI, создающая решения для автоматизации торговых сетей.  \nМы ищем крутых разработчиков, ответственных за собственный код, любящих тесты и понимающих важность unit тестов. Разработчиков, которые с радостью забывают про бюрократию, которые умеют защищать собственные решения и хотят сделать этот мир лучше!  \n💥JAVA developer (высоконагруженные сервисы лояльности)  \nКлючевой задачей будет разработка нового и доработка нашего продукта -  существующего функционала системы Set Retail 10. \n🔵Стек:\n• Java от 2 лет.\n• Spring (Web, Data, Cloud), Kafka.\n• Опыт разработки микросервисов.\n• Опыт проектирования базы данных.\n• SQL (желательно PostgreSQL), JDBC, Hibernate.\n• Git, Gradle.\n🔵Будет плюсом:\n• Опыт работы с J2EE (EJB3, JAX-WS, JAXB, JPA2).\n• Знание Linux.\n• Опыт работы с Redis, MongoDB, Docker, Hashicorp Nomad, Ansible.\n\nМы предлагаем:\n• возможность каждый день видеть результаты своей работы;\n• официальное оформление, белая зарплата, отпуск согласно ТК РФ;\n• гибкий график работы;\n• ДМС со стоматологией, 100% оплата больничных;\n• курсы английского языка в офисе;\n• посещение тренингов, конференций;\n• работа по Agile в команде высокопрофессиональных разработчиков;\n• возможности профессионального роста, четкая схема повышения зарплаты;\n• работа в современном и комфортном офисе в центре города (Чкаловcкий пр-т);\n• оборудованные столовые, чай, кофе, фрукты, печеньки и PlayStation;\n• командные тимбилдинги, футбольная команда.","markup":[{"type":"hashtag","offset":0,"length":7,"data":"middle"},{"type":"hashtag","offset":8,"length":7,"data":"senior"},{"type":"hashtag","offset":16,"length":5,"data":"Java"},{"type":"hashtag","offset":22,"length":7,"data":"Spring"},{"type":"hashtag","offset":30,"length":8,"data":"backend"},{"type":"hashtag","offset":39,"length":10,"data":"developer"},{"type":"hashtag","offset":50,"length":9,"data":"вакансия"},{"type":"handle","offset":231,"length":15,"data":"Danny_Ushakova"}],"date":"2020-07-02T15:12:35+00:00","link":"tg://resolve?domain=jvmjobs&post=1693","tags":[{"name":"java"},{"name":"jvm"},{"name":"spring"},{"name":"dotnet"},{"name":"web"},{"name":"cloud"},{"name":"kafka"},{"name":"sql"},{"name":"postgresql"},{"name":"jdbc"},{"name":"hibernate"},{"name":"git"},{"name":"gradle"},{"name":"jaxb"},{"name":"jpa"},{"name":"linux"},{"name":"redis"},{"name":"mongodb"},{"name":"docker"},{"name":"ansible"}],"cities":[],"allowsRemote":true}}]}}},"context":{}}