{"hash":"f5f6bf98bd95e769321482904cbbd488f77922fd","data":{"records":{"id":"soap","name":"soap","belongsTo":{"totalCount":38,"pageInfo":{"totalPages":4,"currentPage":3},"edges":[{"node":{"__typename":"Job","id":"103721992192-1001089317451","title":"Qa инженер","text":"#офис #Москва #вакансия #QA #fulltime  #тестировщик #Middle #ручное тестирование\n\nКомпания ООО Rondem (IT-интегратор) специализируется на построении систем управления IT, разработке и тестированию ПО. Нашими клиентами являются крупные банки и системные интеграторы, для которых мы ведем десятки проектов.\n\n❗Мы ищем инженера по функциональному тестированию (Middle) для крупного Московского банка \n\n      Требования:\n• Ручное тестирование · CSS · HTML · XML · Restful api · SQL;\n• Опыт работы тестировщиком;  \n• Опыт написания тест кейсов по технической документации;  \n• Знание жизненного цикла программного обеспечения и теории тестирования;  \n• Знание и опыт работы с системами баг трекинга Atlassian JIRA, HP ALM и пр.;\n• Знание программ SOAP UI, MS SQL, POSTMAN, GitLab как +;  \n• SQL (простые запросы);  \n• Начальные знания Java.\n\nОбязанности:\n• Выполнение различных видов тестирования (функциональное, регрессионное, интеграционное);\n• Обнаружение, регистрация и отслеживание дефектов в bug-tracking системе;\n• Разработка тест-кейсов, чек-листов, тест-дизайнов;\n• Отчетность по результату тестирования;\n• Взаимодействие с разработчиками, аналитиками.\n\n▪️Условия:\nУДАЛЕННЫЙ ГРАФИК НЕ РАССМАТРИВАЕТСЯ!\n• Работа в офисе м.Бауманская г. Москва\n• ДМС\n• График работы по согласованию с Заказчиком и командой\n• Работа в дружном коллективе единомышленников\n• Оформление по ТК РФ\n• Зп: до 140 к (обсуждается по результатам собеседования)\n\n\n▪️Резюме 📩 kudrina@rondem.ru или в лс.","markup":[{"type":"hashtag","offset":0,"length":5,"data":"офис"},{"type":"hashtag","offset":6,"length":7,"data":"Москва"},{"type":"hashtag","offset":14,"length":9,"data":"вакансия"},{"type":"hashtag","offset":24,"length":3,"data":"QA"},{"type":"hashtag","offset":28,"length":9,"data":"fulltime"},{"type":"hashtag","offset":39,"length":12,"data":"тестировщик"},{"type":"hashtag","offset":52,"length":7,"data":"Middle"},{"type":"hashtag","offset":60,"length":7,"data":"ручное"},{"type":"link","offset":1449,"length":17,"data":"mailto:kudrina@rondem.ru"}],"date":"2020-06-25T13:52:39+00:00","link":"tg://resolve?domain=qa_jobs&post=98917","tags":[{"name":"qa"},{"name":"css"},{"name":"html"},{"name":"xml"},{"name":"sql"},{"name":"soap"},{"name":"gitlab"},{"name":"java"}],"cities":[{"code":"moscow"}],"allowsRemote":false}},{"node":{"__typename":"Job","id":"1738539008-1001091028994","title":"Java программист","text":"#вакансия #Java #Sofware #Kazan\n\n❗️В команду CloudALly ищем Java Инженера-программиста (Middle). \nГород: Казань\nЗарплатная вилка: до 150.000 руб.\nФормат работы: офис/удаленно\nЗанятость: полная\nПроект: резервное копирование данных CloudALly.com. \n\nЧем предстоит заниматься:\n• проектирование, разработка и оптимизация многопоточной высоконагруженной системы;\n• code review коллег;\n• разработка серверной части системы.\n\nМы ждём от вас:\n• опыт разработки на Java 2+ года;\n• опыт работы в Linux-окружении;\n• знание REST/SOAP API;\n• опыт написания Unit тестирования;\n• знакомство с Agile методологией разработки. \n\nМы предлагаем:\n• официальное трудоустройство по ТК РФ;\n• дружный коллектив;\n• гибкий график;\n• ДМС (на сотрудников и членов семьи);\n• компенсация курсов английского языка.\n\nКонтакты: \nТелеграм: @NailyaKhanipova\ne-mail: nhanipova@cloudally.com","markup":[{"type":"hashtag","offset":0,"length":9,"data":"вакансия"},{"type":"hashtag","offset":10,"length":5,"data":"Java"},{"type":"hashtag","offset":16,"length":8,"data":"Sofware"},{"type":"hashtag","offset":25,"length":6,"data":"Kazan"},{"type":"link","offset":230,"length":13,"data":"http://CloudALly.com"},{"type":"handle","offset":804,"length":16,"data":"NailyaKhanipova"},{"type":"link","offset":829,"length":23,"data":"mailto:nhanipova@cloudally.com"}],"date":"2020-06-25T13:47:09+00:00","link":"tg://resolve?domain=jvmjobs&post=1658","tags":[{"name":"java"},{"name":"jvm"},{"name":"linux"},{"name":"rest"},{"name":"soap"}],"cities":[{"code":"kazan"}],"allowsRemote":true}},{"node":{"__typename":"Job","id":"1728053248-1001091028994","title":"Java разработчик","text":"Вакансия: #java #backend #spring #javadeveloper #middle #senior \nКомпания: Центр Информационных Технологий \nЛокация: #регион #Екатеринбург \nФормат работы: #офис #fulltime \nЗ/п: 100-200 NET \n \nМы в поисках разработчиков Java уровня Middle и Senior.\n \nЦентр Информационных Технологий — российская инжиниринговая компания, которая создает эксклюзивные ИТ-решения и услуги для межведомственного электронного взаимодействия на национальном и международном уровнях. \n\nУ нас вы получите: \n- удобное и современное железо; \n- поддержку от команды единомышленников; \n- полностью белую заработную плату - нам важно, чтобы наши сотрудники были уверены в завтрашнем дне; \n- возможность получить опыт в крупных проектах и изучить новые технологии. \n\nЧем нужно будет заниматься: \nРазрабатывать новые и дорабатывать существующие компоненты интеграционной шины. \n\nЧто мы ожидаем от вас: \n- Высшее техническое образование, желательно в сфере информационных технологий; \n- Опыт работы в области разработки информационных систем от 3 лет; \n- Опыт управления командами разработчиков; \n- Знания и умения применять на практике шаблоны проектирования и интеграции корпоративных приложений; \n- Глубокие знания Java, Java SE, Java EE; \n- Опыт работы с XML-ориентированными топологиями - WebSeivices (SOAP), WSDL/XSD, XML. \n\nБудет плюсом: \nЗнание платформы JBossFuse (Elasticsearch, Zookeeper, Apache Kafka, Apache Camel, Apache Active MQ, Apache CXF). \n \nЕсли предложение интересно, пишите мне в телеграм @mariacentreit или на почту mariya.odintseva@centre-it.com","markup":[{"type":"hashtag","offset":10,"length":5,"data":"java"},{"type":"hashtag","offset":16,"length":8,"data":"backend"},{"type":"hashtag","offset":25,"length":7,"data":"spring"},{"type":"hashtag","offset":33,"length":14,"data":"javadeveloper"},{"type":"hashtag","offset":48,"length":7,"data":"middle"},{"type":"hashtag","offset":56,"length":7,"data":"senior"},{"type":"hashtag","offset":117,"length":7,"data":"регион"},{"type":"hashtag","offset":125,"length":13,"data":"Екатеринбург"},{"type":"hashtag","offset":155,"length":5,"data":"офис"},{"type":"hashtag","offset":161,"length":9,"data":"fulltime"},{"type":"handle","offset":1479,"length":14,"data":"mariacentreit"},{"type":"link","offset":1507,"length":30,"data":"mailto:mariya.odintseva@centre-it.com"}],"date":"2020-06-23T13:27:21+00:00","link":"tg://resolve?domain=jvmjobs&post=1648","tags":[{"name":"java"},{"name":"jvm"},{"name":"spring"},{"name":"dotnet"},{"name":"xml"},{"name":"soap"},{"name":"xsd"},{"name":"elasticsearch"},{"name":"apache"},{"name":"kafka"},{"name":"apache-camel"}],"cities":[],"allowsRemote":false}},{"node":{"__typename":"Job","id":"103458799616-1001089317451","title":"Qa engineer","text":"#Москва #вакансия #QA #fulltime #test #office\n\n💻Компания: СберТех.\n🧰Вакансия: QA Engineer.\n🏢Офис: Москва, м. Нагатинская/м. Тульская/ м. Верхние Котлы.\n💰ЗП: от 150 000 Net.\n\n📂Проект: Разработка платформы для управления бизнес-процессами Банка и Цифровой Платформы Sber.\n\n🗓Задачи:\n• Работа в роли тестировщика в scrum команде.\n• Написание, актуализация тестовых сценариев и их прохождение (API, UI).\n• Проведение функционального, регрессионного, интеграционного и других видов тестирования.\n• Регистрация, отслеживание и верификация дефектов.\n• Участие в развитии команды и процессов тестирования.\n\n📌Требования: \n• Опыт написания тестовых сценариев, чек-листов, составления сложных интеграционных сценариев.\n• Знание теории тестирования, понимание видов тестирования и необходимости их применения на различных этапах реализации проекта.\n• Опыт анализа и тестирования требований.\n• Опыт тестирования rest/soap сервисов.\n• Опыт работы с BPM системами, понимание нотации BPMN 2.0.\n\n📎Cтек: REST, XML, XSD, JSON, SQL, BPMN 2.0, Docker, Kubernetes, Openshift, Kafka.\n\n🔰Условия:\n• Оформление ТК РФ.\n• ДМС для сотрудников и скидки на медицинскую страховку для родственников;\n• Высокая белая заработная плата (оклад + годовая премия).\n• Возможность обучения за счет компании, посещения IT-конференций.\n• Бесплатный тренажерный зал на территории офиса.\n• Корпоративная жизнь и спортивные мероприятия.\n\n📩Готов ответить на интересующие вопросы - @Dmiryy","markup":[{"type":"hashtag","offset":0,"length":7,"data":"Москва"},{"type":"hashtag","offset":8,"length":9,"data":"вакансия"},{"type":"hashtag","offset":18,"length":3,"data":"QA"},{"type":"hashtag","offset":22,"length":9,"data":"fulltime"},{"type":"hashtag","offset":32,"length":5,"data":"test"},{"type":"hashtag","offset":38,"length":7,"data":"office"},{"type":"handle","offset":1443,"length":7,"data":"Dmiryy"}],"date":"2020-06-22T15:07:24+00:00","link":"tg://resolve?domain=qa_jobs&post=98666","tags":[{"name":"qa"},{"name":"dotnet"},{"name":"rest"},{"name":"soap"},{"name":"xml"},{"name":"xsd"},{"name":"json"},{"name":"sql"},{"name":"docker"},{"name":"kubernetes"},{"name":"kafka"}],"cities":[{"code":"moscow"}],"allowsRemote":false}},{"node":{"__typename":"Job","id":"103423148032-1001089317451","title":"Qa инженер","text":"#вакансия #QA #Java #QAAutomation #Москва #офис \n\nВакансия: QA Lead (Тест-Менеджер)\nГород: Москва м. Технопарк \nЗарплата: от 250 000 рублей до 290 000 рублей на руки\nФормат: офис, полный день, полная занятость\nКомпания Innovative People \n\n🔝 Проект единого окна сотрудника отделения - оптимизация и автоматизация операций, которые сотрудник проводит для ЮЛ в отделении авторизуемся в приложении через SFA.\n9 модулей. Суть проекта - высадить всех сотрудников отделений в одно приложение, которое максимально автоматизирует их деятельность и избавит от необходимости использовать до 29 различных программ для проведения сервисного обслуживания клиентов в отделении.\n\n🕘 Чем предстоит заниматься:\n• планирование тестирования;\n• выстраивание процессов тестирования среди 8 команд с упором на автоматизацию;\n• выстраивать CI/CD проекта;\n• налаживание взаимодействия QA инженеров в нескольких командах;\n• поддерживать и развивать разработанные решения по автоматизации;\n• исследовать новые технологии и внедрять их на проекте;\n• принятие решений о внедрении / обновлении программного обеспечения.\n\n🕒 От кандидата ожидаем:\n• опыт в тестировании от 4х лет\n• опыт в автотестировании от 3х лет\n• опыт руководства группой тестировщиков от 2х лет\n• практический опыт применения практик тест-дизайна\n• умение проектировать тест-кейсы и подготавливать тестовые данные для тестирования\n• хорошие знание Java, библиотек\n• уверенное использование и понимание как работает под капотом Selenium Webdriver (Selenide и Appium для мобильных платформ)\n• опыт написания собственного фреймворка\n• опыт работы в unix системах\n• опыт работы с API (Soap, Rest)\n• опыт использование git\n• опыт использование CI (желательно, но не обязательно Jenkins)\n• опыт работы с Docker\n• опыт составления запросов SQL\n• опыт управления непрямыми (функциональными) подчиненными\n• умение контролировать несколько проектов одновременно\n• умение мотивировать команду, опыт управления рисками, мониторинг эффективности процессов\n\n🕧 Предлагаем:\n• все по ТК РФ\n• ДМС со стоматологией, программа лояльности\n• Macbook \n• адекватное руководство и лояльные процессы\n• большое комьюнити, классные команды\n• помогаем с релокацией!\n\nРезюме и вопросы @Priboch","markup":[{"type":"hashtag","offset":0,"length":9,"data":"вакансия"},{"type":"hashtag","offset":10,"length":3,"data":"QA"},{"type":"hashtag","offset":14,"length":5,"data":"Java"},{"type":"hashtag","offset":20,"length":13,"data":"QAAutomation"},{"type":"hashtag","offset":34,"length":7,"data":"Москва"},{"type":"hashtag","offset":42,"length":5,"data":"офис"},{"type":"handle","offset":2197,"length":8,"data":"Priboch"}],"date":"2020-06-22T10:08:51+00:00","link":"tg://resolve?domain=qa_jobs&post=98632","tags":[{"name":"qa"},{"name":"java"},{"name":"selenium"},{"name":"unix"},{"name":"soap"},{"name":"rest"},{"name":"git"},{"name":"jenkins"},{"name":"docker"},{"name":"sql"}],"cities":[{"code":"moscow"}],"allowsRemote":false}},{"node":{"__typename":"Job","id":"103421050880-1001089317451","title":"Qa инженер","text":"Юлия Романова, [17.06.20 14:29]\n#вакансия #спб #fulltime #qa #удаленно\n\nКомпания: Smart Design (smddev.com) \n\nДолжность: Инженер по ручному и автоматизированному тестированию (QA & Automation Engineer)\n\nИщем инженера по тестированию BSS сотового оператора.\nБольшая распределенная команда (~30 человек).\nНужно хорошо уметь тестировать вручную и, когда это выгодно, суметь автоматизировать.\n\n\nНаши пожелания к кандидатам:\n✔️Опыт работы с Java или любым другим высокоуровневым языком программирования на уровне, достаточном для самостоятельного написания игры \"Сапёр\"\n✔️Опыт работы в консоли linux на уровне, достаточном для для решения задач:\nпоиск и изменение строк в файле\nуправление системными процессами\n✔️Опыт взаимодействия с REST API на уровне, достаточном для того, чтобы получить из ВКонтакте имя и фамилию своего аккаунта, не используя браузер\n\nПлюсом будет:\n✔️Опыт работы с протоколом SOAP\n✔️Профессиональный опыт функционального тестирования\n✔️Опыт работы с JUnit, Gradle, Oracle\n\nУсловия:\n✔️\"Белая\" зарплата до 110K gross\n✔️ДМС\n✔️ Работа в удаленном режиме на данный момент, далее в уютном офисе.\n\nhttps://spb.hh.ru/vacancy/37540632\n\nМои контакты: @romanovaya iyliia.romanova@smddev.com","markup":[{"type":"hashtag","offset":32,"length":9,"data":"вакансия"},{"type":"hashtag","offset":42,"length":4,"data":"спб"},{"type":"hashtag","offset":47,"length":9,"data":"fulltime"},{"type":"hashtag","offset":57,"length":3,"data":"qa"},{"type":"hashtag","offset":61,"length":9,"data":"удаленно"},{"type":"link","offset":96,"length":10,"data":"http://smddev.com"},{"type":"link","offset":1109,"length":34,"data":"https://spb.hh.ru/vacancy/37540632"},{"type":"handle","offset":1159,"length":11,"data":"romanovaya"},{"type":"link","offset":1171,"length":26,"data":"mailto:iyliia.romanova@smddev.com"}],"date":"2020-06-22T10:04:08+00:00","link":"tg://resolve?domain=qa_jobs&post=98630","tags":[{"name":"qa"},{"name":"java"},{"name":"linux"},{"name":"rest"},{"name":"soap"},{"name":"junit"},{"name":"gradle"},{"name":"oracle"}],"cities":[],"allowsRemote":true}},{"node":{"__typename":"Job","id":"1712324608-1001091028994","title":"Java разработчик","text":"#java #fulltime\n\nНа проект от одного из лидирующих российских банков требуется\nMiddle Java Developer (backend)\n\nЛокация: Москва, ул. Сретенка\nФормат работы: Офис\nЗанятость: полная\n\nВилка зп: 150 000 - 180 000 рублей/месяц нетто\n\nСтек: \nSpring, Hibernate, Maven, JMS, REST, SOAP, Git, Jenkins, UML, TestNG.\n\nТребования: \n- Опыт от 2х лет разработки высоко-нагруженных и отказоустойчивых фронтальных систем.\n- Знание основных методологий разработки программного обеспечения, включая гибкие методологии.\n- Опыт командной разработки.\n- Умение разбираться в чужом коде, писать чистый и понятный код для других разработчиков, опыт написания автотестов.\n- Уверенное знание Java Core (типы данных, Collections Framework, JMM...)\n- Знание парадигм ООП и их реализации в Java.\n- Знание структур данных и алгоритмов.\n- Знание шаблонов проектирования (GoF)\n\nКонтакт: @mxm_at","markup":[{"type":"hashtag","offset":0,"length":5,"data":"java"},{"type":"hashtag","offset":6,"length":9,"data":"fulltime"},{"type":"handle","offset":855,"length":7,"data":"mxm_at"}],"date":"2020-06-19T13:20:17+00:00","link":"tg://resolve?domain=jvmjobs&post=1633","tags":[{"name":"java"},{"name":"jvm"},{"name":"spring"},{"name":"hibernate"},{"name":"maven"},{"name":"rest"},{"name":"soap"},{"name":"git"},{"name":"jenkins"}],"cities":[{"code":"moscow"}],"allowsRemote":false}},{"node":{"__typename":"Job","id":"1706033152-1001091028994","title":"Java разработчик","text":"#вакансия #backend #java #fulltime #офис #spring\n\n🔷 Вакансия: JAVA разработчик\nФормат работы: офис/удалёнка\nЗанятость: полная \nЗ/п: от 185 000 до 230 000 рублей на руки\nКомпания: Екомобайл\nСфера деятельности: разработка инфраструктурных IT решений\nЛокация: Зеленоград (25 минут от м. Речной вокзал)\n\n🔷 Основные задачи\n• работа в команде разработчиков над проектами с нуля;\n• доработка и поддержка существующих решений;\n• интеграции с внешними информационными системами;\n• участие в проектировании архитектуры приложений и БД;\n\n🔷 Требования\n• Опыт коммерческой разработки\n• Java SE 8 и выше;\n• Принципы ООП;\n• Spring / Spring Boot (Data, MVC, Security, Cloud);\n• Hibernate или MyBatis;\n• PostgreSQL;\n• Apache Tomcat или Eclipse Jetty или другой app server;\n• Опыт работы с сервисами REST/SOAP.\n\n🔷 Мы предлагаем\n• стабильную зарплату по результатам собеседования;\n• оформление по ТК РФ;\n• гибкий график работы;\n• возможность удалённой работы в перспективе;\n• интересные, творческие задачи;\n• перспектива для личного и профессионального роста.\n\n🔷 Контакт: @devstd","markup":[{"type":"hashtag","offset":0,"length":9,"data":"вакансия"},{"type":"hashtag","offset":10,"length":8,"data":"backend"},{"type":"hashtag","offset":19,"length":5,"data":"java"},{"type":"hashtag","offset":25,"length":9,"data":"fulltime"},{"type":"hashtag","offset":35,"length":5,"data":"офис"},{"type":"hashtag","offset":41,"length":7,"data":"spring"},{"type":"bold","offset":53,"length":27,"data":""},{"type":"bold","offset":304,"length":16,"data":""},{"type":"bold","offset":532,"length":11,"data":""},{"type":"bold","offset":800,"length":14,"data":""},{"type":"bold","offset":1056,"length":2,"data":""},{"type":"handle","offset":1058,"length":7,"data":"devstd"}],"date":"2020-06-18T11:27:13+00:00","link":"tg://resolve?domain=jvmjobs&post=1627","tags":[{"name":"java"},{"name":"jvm"},{"name":"spring"},{"name":"cloud"},{"name":"hibernate"},{"name":"postgresql"},{"name":"apache"},{"name":"tomcat"},{"name":"eclipse"},{"name":"jetty"},{"name":"rest"},{"name":"soap"},{"name":"spring-boot"}],"cities":[],"allowsRemote":true}},{"node":{"__typename":"Job","id":"103149469696-1001089317451","title":"Qa инженер","text":"Юлия Романова, [17.06.20 14:29]\n#вакансия #спб #fulltime #qa #удаленно\n\nКомпания: Smart Design (smddev.com) \n\nДолжность: Инженер по ручному и автоматизированному тестированию (QA & Automation Engineer)\n\nИщем инженера по тестированию BSS сотового оператора.\nБольшая распределенная команда (~30 человек).\nНужно хорошо уметь тестировать вручную и, когда это выгодно, суметь автоматизировать.\n\n\nНаши пожелания к кандидатам:\n✔️Опыт работы с Java или любым другим высокоуровневым языком программирования на уровне, достаточном для самостоятельного написания игры \"Сапёр\"\n✔️Опыт работы в консоли linux на уровне, достаточном для для решения задач:\nпоиск и изменение строк в файле\nуправление системными процессами\n✔️Опыт взаимодействия с REST API на уровне, достаточном для того, чтобы получить из ВКонтакте имя и фамилию своего аккаунта, не используя браузер\n\nПлюсом будет:\n✔️Опыт работы с протоколом SOAP\n✔️Профессиональный опыт функционального тестирования\n✔️Опыт работы с JUnit, Gradle, Oracle\n\nУсловия:\n✔️\"Белая\" зарплата до 110K gross\n✔️ДМС\n✔️ Работа в удаленном режиме на данный момент, далее в уютном офисе.\n\nhttps://spb.hh.ru/vacancy/37540632\n\nМои контакты: @romanovaya iyliia.romanova@smddev.com","markup":[{"type":"hashtag","offset":32,"length":9,"data":"вакансия"},{"type":"hashtag","offset":42,"length":4,"data":"спб"},{"type":"hashtag","offset":47,"length":9,"data":"fulltime"},{"type":"hashtag","offset":57,"length":3,"data":"qa"},{"type":"hashtag","offset":61,"length":9,"data":"удаленно"},{"type":"link","offset":96,"length":10,"data":"http://smddev.com"},{"type":"link","offset":1109,"length":34,"data":"https://spb.hh.ru/vacancy/37540632"},{"type":"handle","offset":1159,"length":11,"data":"romanovaya"},{"type":"link","offset":1171,"length":26,"data":"mailto:iyliia.romanova@smddev.com"}],"date":"2020-06-18T09:08:47+00:00","link":"tg://resolve?domain=qa_jobs&post=0","tags":[{"name":"qa"},{"name":"java"},{"name":"linux"},{"name":"rest"},{"name":"soap"},{"name":"junit"},{"name":"gradle"},{"name":"oracle"}],"cities":[],"allowsRemote":true}},{"node":{"__typename":"Job","id":"1704984576-1001091028994","title":"Java разработчик","text":"#вакансия  #офис #удалёнка #DevOps #Java\n\nкомпания: #JTSOFT\nгород: #Москва\nвилка: 200-260+ на рук\nконтакты: @reanimatsiya\n\n\n🧑🏻‍💻Я ищу ведущего Java-разработчика со знанием Spring Boot и DevOps практик в компанию JTSOFT.\n\nJTSOFT - это аутсорсинговая IT компания, которая уже 7 лет специализируемся на разработке программных решений в сферах b2b, b2g. \n\nКомпания имеет статус IBM Premier Business Partner и работает практически со всей линейкой IBM. \nКоманды JTSOFT внедряли Универсальную Электронную Карту, разрабатывали приложения и формы для банка «Возрождение», а также реализовали проект по визуализации и контролю системы БД IBM Tivoli.\n\n🤝Вам будут рады при:\n\n✔️Опыте работы не менее 5 лет на Java Core, Java 8+\n✔️Уверенном знании фреймворков Spring\n✔️Знании принципов и шаблонов проектирования\n✔️Опыте профилирования, оптимизации и решения performance-проблем Java-приложений\n✔️Опыте проектирования API (REST, GRPC и т.д.)\n✔️Опыте работы с разными системами оркестрации (Kubernetes, OpenShift, Mesos/Marathon);\n✔️Знании Apache Kafka, MongoDB, Elasticsearch, Docker\n✔️Опыте написания инфраструктурных скриптов на Ansible\n\n\n➕Огромным плюсом будет:\n\n▪️Опыт работы с реляционными БД;\n▪️Опыт работы с SOAP;\n▪️Знакомство с методологией Agile, Scrum.\n\n\n🍪 Компания предоставляет все необходимое:\n\n👌🏻ТК РФ\n👌🏻Ваш вклад в разработку всегда будет учтен, так как работа происходит в небольших автономных группах, обеспечивающих полный цикл разработки.\n👌🏻Компания предоставляет современное и удобное оборудование\n👌🏻Комфортный офис в бизнес-центре \"Технопарк\", в двух минутах ходьбы от м. Технопарк или удаленно при согласовании с командой","markup":[{"type":"hashtag","offset":0,"length":9,"data":"вакансия"},{"type":"hashtag","offset":11,"length":5,"data":"офис"},{"type":"hashtag","offset":17,"length":9,"data":"удалёнка"},{"type":"hashtag","offset":27,"length":7,"data":"DevOps"},{"type":"hashtag","offset":35,"length":5,"data":"Java"},{"type":"hashtag","offset":52,"length":7,"data":"JTSOFT"},{"type":"hashtag","offset":67,"length":7,"data":"Москва"},{"type":"handle","offset":108,"length":13,"data":"reanimatsiya"}],"date":"2020-06-18T08:57:14+00:00","link":"tg://resolve?domain=jvmjobs&post=1626","tags":[{"name":"java"},{"name":"jvm"},{"name":"spring"},{"name":"rest"},{"name":"kubernetes"},{"name":"apache"},{"name":"kafka"},{"name":"mongodb"},{"name":"elasticsearch"},{"name":"docker"},{"name":"ansible"},{"name":"soap"},{"name":"spring-boot"}],"cities":[{"code":"moscow"}],"allowsRemote":true}}]}}},"context":{}}