{"hash":"f5f6bf98bd95e769321482904cbbd488f77922fd","data":{"records":{"id":"python","name":"python","belongsTo":{"totalCount":130,"pageInfo":{"totalPages":13,"currentPage":4},"edges":[{"node":{"__typename":"Job","id":"103949533184-1001089317451","title":"Qa engineer","text":"#Москва #вакансия #QA #manual  #python\n\nДолжность: QA Engineer \nКомпания: Andromeda Lab\nЗП: до 120 000 \nФормат работы: офис, гибкое начало дня\nЗанятость: полная\n\n\nКого мы ищем:\nОпыт в тестировании от 1 года.\nЧеловека который готов заниматься ручным тестированием 80% времени и 20% времени - автоматизацией. Со временем доля автоматизации вырастет до 50%. \nЕсли у вас не хватает каких-то скиллов - готовы учить и помогать развиваться. Мы очень ценим проактивность и готовность менять все вокруг себя. \n\nЗадачи:\n- Тестирование ERP-системы (состоит из более чем 40 приложений, объединенные в одну экосистему)\n- Введение документации для тестирования (Создание тест-кейсов, чек-листов и т.д.)\n- Тестирование мобильного приложения \n- Тестирование API\n- Участие в автоматизации тестирования продуктов компании\n\nОбязанности:\n- Понимание жизненного цикла разработки продукта\n- Знание теории и видов тестирования,  умение вести тестовую документацию;\n- Умение локализовать баги и оформлять баг репорты\n- Понимание и умение применять техники тест-дизайна\n- Тестирование API\n- Опыт использование Postman\n- Понимание мобильного тестирования \n- Знание и умение пользования командной строкой UNIX\n- Знание SQL (простые запросы), Git\n- Умение использовать снифферы (Charles,Fiddler и т.д.)\n- Понимание как работать с Docker\n- Начальные знания Python либо желание выучить в ближайшее время\n\nПредлагаем:\n- белая зп (до 120 000, зависит от опыта);\n- уютный офис в Moscow City (сладости, печенки,кофе\\чай,PS4 и т.д.);\n- ДМС,  курсы английского, участие в конференциях. \n\nРезюме скидывать в лс.","markup":[{"type":"hashtag","offset":0,"length":7,"data":"Москва"},{"type":"hashtag","offset":8,"length":9,"data":"вакансия"},{"type":"hashtag","offset":18,"length":3,"data":"QA"},{"type":"hashtag","offset":22,"length":7,"data":"manual"},{"type":"hashtag","offset":31,"length":7,"data":"python"}],"date":"2020-06-29T07:59:15+00:00","link":"tg://resolve?domain=qa_jobs&post=99134","tags":[{"name":"qa"},{"name":"python"},{"name":"unix"},{"name":"sql"},{"name":"git"},{"name":"docker"}],"cities":[{"code":"moscow"}],"allowsRemote":false}},{"node":{"__typename":"Job","id":"17179869184-1001110946746","title":"Js разработчик","text":"#вакансия #JavaScript #Node.js #Екатеринбург\n\nГород: Екатеринбург\nФормат: Обсуждаемый (офис/удаленка)\nзанятость: Полная\nУровень: Junior/Middle\nзп: 30 000 - 80 000 ₽ net\n\nО компании: YetiCrab (https://yeticrab.org/) - команда специалистов по разработке различных приложений (web, desktop, mobile) и сервисов на основе web-технологий. У нас много интересных проектов с заказчиками по всему миру. Мы ищем к себе в команду ответственного человека, который хочет и готов активно расти как разработчик и специалист.\n\nОбязанности:\n- Разработка Web и мобильных приложений на JavaScript с применением современных framework-ов\n- Исследование и внедрение новых тенденций и технологий\n\nТребования:\n- Хорошее знание JavaScript (ES5, ES6), HTML, CSS\n- Опыт работы с современными фреймворками (Angular/React/Vue)\n- Понимание REST\n- Умение пользоваться Git\n- Навыки работы в команде\n\nБудет плюсом:\n- Опыт работы с WebSockets и GraphQL\n- Разговорный английский язык\n- Знание Node.js и опыт работы с Express.js/KOA/Nest.js/Next.js\n- Приветствуется знание React Native или Ionic\n- Понимание работы с CI/CD\n- Опыт работы с Electron.js, PWA\n- Знание Python\n\nМы предлагаем:\n- Гибкий график работы\n- Просторный офис\n- Возможность удаленной работы\n- Рабочий ноутбук MacBook Apple\n- Чай, кофе, печеньки и другие плюшки в офисе\n- Постоянное обучение, развитие скиллов\n- Поддержку от команды единомышленников\n- Возможность получить опыт в разных проектах и изучить новые технологии\n- Поездки на IT-конференции\n\nКонтакты: @artemkuzvesov\n\n—\n\n👉 Обсуждение вакансии в чате @javascript_jobs","markup":[{"type":"hashtag","offset":0,"length":9,"data":"вакансия"},{"type":"hashtag","offset":10,"length":11,"data":"JavaScript"},{"type":"hashtag","offset":22,"length":5,"data":"Node"},{"type":"hashtag","offset":31,"length":13,"data":"Екатеринбург"},{"type":"link","offset":147,"length":15,"data":"tel:30 000 - 80 000"},{"type":"link","offset":192,"length":21,"data":"https://yeticrab.org/"},{"type":"handle","offset":1494,"length":14,"data":"artemkuzvesov"},{"type":"handle","offset":1543,"length":16,"data":"javascript_jobs"}],"date":"2020-06-27T12:12:37+00:00","link":"tg://resolve?domain=javascript_jobs_feed&post=16384","tags":[{"name":"javascript"},{"name":"nodejs"},{"name":"dotnet"},{"name":"web"},{"name":"mobile"},{"name":"html"},{"name":"css"},{"name":"angularjs"},{"name":"reactjs"},{"name":"vuejs"},{"name":"rest"},{"name":"git"},{"name":"graphql"},{"name":"express"},{"name":"electron"},{"name":"python"},{"name":"react-native"}],"cities":[],"allowsRemote":true}},{"node":{"__typename":"Job","id":"72111620096-1001054966032","title":"Ios разработчик","text":"#вакансия #москва #офис #senior #ios #developer #gamedev #swift \nГород и адрес офиса: Москва, м.Автозаводская \nФормат работы: офис \nЗанятость: полная \nЗарплатная вилка: от 250 000 до 300 000 на руки \n\n\n✅ Senior iOS Developer \n\nОписание вакансии: \n\nМы - успешная команда из 120 человек, которая занимается: \n• разработкой собственных мобильных игр и приложений \n• паблишингом мобильных игр \n• рекламой и маркетингом мобильных приложений (реклама на Facebook, Google и т.д.) \nЗа последние 3 года мы привлекли более 100 млн пользователей в наши собственные мобильные приложения и приложения наших клиентов и партнеров, потратив на это более $80 млн. \n\nУ нас есть все составляющие чтобы делать готовые продукты известными и популярными. Мы ищем сильного и талантливого разработчика для усиления нашей текущей слаженно работающей команды и выведения нашего Fitness & Health iOS приложения Fitingo на лидирующие позиции в мире (уже сейчас приложение занимало позиции ТОП 13 в США и ТОП 6 в Великобритании с более чем 400,000 установок и более чем 45,000 совершенных покупок).\n\n✅Задачи: \n\n•  Разрабатывать новый функционал\n•  Рефакторить и оптимизировать код\n•  Писать код. Больше логики, меньше UI. Например - хранить историю и прогресс; сделать leaderboard по странам; добавить чат, аналитику и a/b тесты; Apple Health, Watch, Music и TV\n•  Участвовать в Code Review\n\nТекущий стек: Swift 5.1, MVPC, AVFoundation, UserNotifications, Realm, StoreKit, Firebase, PushWoosh, Facebook, Python.\n\n✅Требования: \n\n•  Опыт работы разработчиком iOS приложений от 3х лет\n•  Отличное знание Swift\n•  Уверенное знание SOLID и паттернов проектирования\n•  Умение профилировать приложение (Батарейка, утечки и вот это все)\n•  Опыт работы с системой контроля версий\n•  Наличие выпущенных проектов на Swift\n•  Желание делать красивые, интересные и популярные приложения\n\n✅Будет плюсом: \n\n•  Умение/желание писать небольшие серверные скрипты (например на Python)\n•  Умение автоматизировать рутинные процессы\n•  Умение рефакторить код итеративно\n•  Адекватный перфекционизм\n\n\n✅Для вас: \n\n•  Конкурентная заработная плата, выплачивается 2 раза в месяц\n•  Необходимое оборудование для работы\n•  Возможность набрать команду и выстроить всю работу под себя в краткосрочной перспективе\n•  Оформление по ТК РФ, оплачиваемые больничные, 28 дней оплачиваемого отпуска в год\n•  Возможны регулярные бонусы по результатам работы проектов\n•  Собеседование с лицом принимающим решение\n•  Возможность коммуницировать с людьми, которые принимают продуктовые решения\n\n✅О нас: \n\n•  Просторный офис 600 метров на м. Автозаводская (3 минуты от метро и от ТТК на машине) с ультра современным дизайном и кучей ништяков (кухня с вкусняшками, кальяны каждый вечер в дружной кампании, PS4 Pro + 4K TV, аркадные автоматы с Pac-Man, Metal Slug и другими хитами геймдизайна, просторная зона отдыха, 5 переговорных комнат и т д)\n•  Команда из 100 человек занимающаяся паблишингом и маркетингом, готовая сделать продукт успешным после его готовности\n•  Возможность обучаться английскому языку с носителями каждый будний день по утрам\n•  Менторы и инвесторы, создавшие большое количество успешных IT компаний (оборот в 2018 году более 140 млн долларов)\n\nНазвание компании: AppQuantum \n\nКонтакты: \ne-mail: vika@adquantum.com\ntelegram: @wikki13","markup":[{"type":"hashtag","offset":0,"length":9,"data":"вакансия"},{"type":"hashtag","offset":10,"length":7,"data":"москва"},{"type":"hashtag","offset":18,"length":5,"data":"офис"},{"type":"hashtag","offset":24,"length":7,"data":"senior"},{"type":"hashtag","offset":32,"length":4,"data":"ios"},{"type":"hashtag","offset":37,"length":10,"data":"developer"},{"type":"hashtag","offset":48,"length":8,"data":"gamedev"},{"type":"hashtag","offset":57,"length":6,"data":"swift"},{"type":"link","offset":3248,"length":18,"data":"mailto:vika@adquantum.com"},{"type":"handle","offset":3277,"length":8,"data":"wikki13"}],"date":"2020-06-26T16:57:05+00:00","link":"tg://resolve?domain=mobile_jobs&post=68771","tags":[{"name":"mobile"},{"name":"ios"},{"name":"swift"},{"name":"realm"},{"name":"firebase"},{"name":"python"}],"cities":[{"code":"moscow"}],"allowsRemote":false}},{"node":{"__typename":"Job","id":"103810072576-1001089317451","title":"Qa инженер","text":"#вакансия #qa #automation #автоматизация #python #selenium\nГород и адрес офиса:  Москва, м. Новокузнецкая\nФормат работы: офис, пока работаем удаленно\nЗанятость: полная\nЗарплатная вилка: до 140-150к на руки\nОписание вакансии: \nИщу сейчас Специалиста по автоматизированному тестированию в It-компанию, разрабатывающую сервисы для e-commerce по оптимизации финансов и логистики. Ребята строят качественную автоматизированную систему финансирования с точной оценкой рисков и целую экосистему взаиморасчётов на рынке e-commerce. \nНа данный момент открыто новое направление - реализация современной платежной системы внутри данной платформы.\n\nИщем автоматизатора, с опытом работы с Python, Selenium от 1,5 лет.\nПредлагаем: белое оформление, финансирование обучения, офис рядом с м.Новокузнецкая.\nКомпания: pimpey\nКонтакты: Юля, @yuliaataman","markup":[{"type":"hashtag","offset":0,"length":9,"data":"вакансия"},{"type":"hashtag","offset":10,"length":3,"data":"qa"},{"type":"hashtag","offset":14,"length":11,"data":"automation"},{"type":"hashtag","offset":26,"length":14,"data":"автоматизация"},{"type":"hashtag","offset":41,"length":7,"data":"python"},{"type":"hashtag","offset":49,"length":9,"data":"selenium"},{"type":"handle","offset":822,"length":12,"data":"yuliaataman"}],"date":"2020-06-26T11:25:40+00:00","link":"tg://resolve?domain=qa_jobs&post=99001","tags":[{"name":"qa"},{"name":"python"},{"name":"selenium"}],"cities":[{"code":"moscow"}],"allowsRemote":true}},{"node":{"__typename":"Job","id":"103716749312-1001089317451","title":"Qa engineer","text":"#вакансия #QA #manual #fulltime #remote #офис\n\nФормат работы: офис или удаленно\nРасположение: Санкт-Петербург \nЗанятость: полная, гибкое начало дня\nЗП: до 200k gross\n\n🔹 Компания OCS Labs более 25 лет на рынке IT и является ведущим дистрибьютером по всем продуктовым направлениям IT рынка. \nРегиональная сеть офисов OCS включает 27 городов в России, компания работает с более чем 8500 партнеров, среди которых 500 продуктовых линеек от ведущих мировых вендеров. \n\n🔸Сейчас команда находится в поиске Senior Manual QA Engineer, который будет готов в дальнейшем вырасти в teamlead’a, и в перспективе возглавить направление тестирования в R&D отделе.\nНа текущий момент в команде уже есть 1 ручной тестировщик и 1 автотестировщик (python).\nПредстоит заниматься тестированием сервиса взаимодествия вендоров; \n\n🔹  Требования:\n— Опыт тестирования Web от 2 лет;\n— Умение оценивать и распределять задачи в команде;\n— Опыт менторства/руководства командой;\n— Опыт тестирования API;\n\nБольшим плюсом будет:\n— Понимание b2b сервисов;\n— Навыки автотестирования, будет возможность расти и развиваться в этом направлении; \n\n🔹  Условия:\n— Официальное трудоустройство, белая заработная плата;\n— Комфортный офис на Б.Сампсониевском (Петербург), также для московских специалистов есть возможность работать в московском офисе: Румянцево, офисный парк «Комсити» или удаленно; \n— Техника предоставляется в соответствии с пожеланиями специалиста;\n— Внутреннее обучение;\n— Годовая дотация;\n— Дружественная рабочая среда с возможностью карьерного и профессионального роста;\n\n🔹 Контакты:\ne-mail: maria@luckyhunter.io\ntelegram: @Maria_Rey","markup":[{"type":"hashtag","offset":0,"length":9,"data":"вакансия"},{"type":"hashtag","offset":10,"length":3,"data":"QA"},{"type":"hashtag","offset":14,"length":7,"data":"manual"},{"type":"hashtag","offset":22,"length":9,"data":"fulltime"},{"type":"hashtag","offset":32,"length":7,"data":"remote"},{"type":"hashtag","offset":40,"length":5,"data":"офис"},{"type":"bold","offset":500,"length":6,"data":""},{"type":"bold","offset":507,"length":18,"data":""},{"type":"bold","offset":570,"length":10,"data":""},{"type":"link","offset":1571,"length":20,"data":"mailto:maria@luckyhunter.io"},{"type":"handle","offset":1602,"length":10,"data":"Maria_Rey"}],"date":"2020-06-25T12:44:52+00:00","link":"tg://resolve?domain=qa_jobs&post=0","tags":[{"name":"qa"},{"name":"python"},{"name":"web"}],"cities":[],"allowsRemote":true}},{"node":{"__typename":"Job","id":"2257584128-1001134745498","title":"Devops инженер","text":"#вакансия #офис #fulltime #devops #Будва_Черногория\n\nВакансия: DevOps\nКомпания: Alar Studios\nАдрес: Будва, Черногория\nФормат работы: удаленно на время пандемии, далее офис\nЗанятость: full time\nЗ.п вилка: 1700-2300 eur (на руки)\n\nКомпания Alar Studios занимается разработкой крупных технологически тяжелых проектов на заказ для западных заказчиков. Предлагаем возможность развиваться в комфортных условиях мягкого климата Черногории на берегу моря (офис).\n\n📌Требования:\n    • Знание Jenkins, Ansible;\n    • Отличное знание Linux и опыт от 2-х лет;\n    • Кристально ясное понимание TCP/IP;\n    • Общее понимание ИТ-безопасности, зачем нужна и каковы пути ее достижения;\n    • Опыт работы с PostgreSQL или другой open source RDBMS;\n    • Опыт работы в инфраструктуре AWS или подобной;\n    • Отличное знание и понимание RDBMS как такового: в частности, знание SQL, зачем нужны и как работают индексы;\n    • Знание и понимание HTTP;\n    • Хотя бы basic English;\n    • Горячее желание учиться новому!\n📌 Приветствуется:\n    • Знание Python;\n    • Опыт работы с Flask или Django;\n    • Опыт с Amazon VPC и dedicated hosts;\n    • Опыт с Celery, Redis;\n    • Знание git.\n📌Основные задачи:\n    • Разработка архитектуры (в том числе high load, horizontal scalability);\n    • Администрирование инфраструктуры (Linux, Amazon AWS);\n    • Поиск и отладка проблем, работа с серверным кодом;\n    • Написание автоматизации (Ansible);\n    • Быть частью команды и взаимодействовать с командой разработчиков.\n📌 Мы предлагаем\n    • Интересные проекты;\n    • Оплачиваемые отпуска; \n    • Двойную почасовую оплату согласованной переработки сверх рабочего времени (OVERTIME);\n    • Возможность работы в нашем офисе в Черногории, фактически, в раю на берегу Адриатического моря — до моря 10 минут пешком (поможем с переездом вам и семье).\nРазмер зарплат по опыту/знаниям (если хорошо знаете все из списка и есть опыт, то верхняя планка). Рост по производительности.\nДополнительные инструкции: Для интервью будет необходимо сделать тестовое задание.\nВаше CV прошу направлять на pakhomova@alarstudios.com или в @daikirey\n\n—\n\n👉 Обсуждение вакансии в чате @devops_jobs","markup":[{"type":"hashtag","offset":0,"length":9,"data":"вакансия"},{"type":"hashtag","offset":10,"length":5,"data":"офис"},{"type":"hashtag","offset":16,"length":9,"data":"fulltime"},{"type":"hashtag","offset":26,"length":7,"data":"devops"},{"type":"hashtag","offset":34,"length":17,"data":"Будва_Черногория"},{"type":"link","offset":2054,"length":25,"data":"mailto:pakhomova@alarstudios.com"},{"type":"handle","offset":2086,"length":9,"data":"daikirey"},{"type":"handle","offset":2130,"length":12,"data":"devops_jobs"}],"date":"2020-06-25T11:11:19+00:00","link":"tg://resolve?domain=devops_jobs_feed&post=2153","tags":[{"name":"jenkins"},{"name":"ansible"},{"name":"linux"},{"name":"postgresql"},{"name":"amazon-web-services"},{"name":"sql"},{"name":"python"},{"name":"flask"},{"name":"django"},{"name":"redis"},{"name":"git"}],"cities":[],"allowsRemote":true}},{"node":{"__typename":"Job","id":"92282028032-1001067529236","title":"Python разработчик","text":"#вакансия #django #drf #python #postgresql #fulltime #remote \n \nКоманда Cactus Vision ищет разработчика Python (Middle) на полную занятость. Важно, чтобы человек любил то, чем он занимается, и был готов трудиться в дружеской команде единомышленников.\nМы – организация, работающая по принципам Бирюзовой парадигмы. Это значит, что мы придерживаемся самоуправления и самоорганизации. Наши сотрудники работают сообща, вместе преодолевая трудности. Мы не боимся брать на себя новые роли и развиваться в них. Если у человека есть цель, миссия, которым он готов следовать, трудясь на благо компании – мы вам рады.\n\nУ разработчиков компании Cactus Vision есть возможность не просто писать код, но и участвовать в развитии Бирюзовой организации, раскрывать свой потенциал и расти. Присоединяйся!\n\nЧто вам предстоит:\n- Разработка нового функционала;\n- Рефакторинг legacy и некорректных решений;\n- Проектирование архитектуры и БД;\n- Разработка интеграционных решений;\n\nЧто от вас нужно:\n- Уверенное знание Python 3.x+;\n- Уверенное знание PostgreSQL;\n- Опыт работы не менее 2 лет, в том числе в команде;\n- Умение писать тесты (знание TDD приветствуется);\n- Опыт проектирования архитектуры приложений, в том числе БД;\n- Умение ориентироваться в больших объемах информации;\n- Уровень английского языка, необходимого для чтения технической документации;\n- Ответственность и желание развиваться.\n\nЧто мы готовы предоставить:\n- Возможность трудиться удаленно;\n- Работа в дружной команде;\n- Помощь и поддержка в реализации личной миссии;\n- Возможность попробовать в себя различных ролях.\n\nВознаграждение труда: 50000 - 85000р в месяц, по результатам.\n\nПо всем вопросам писать 👉 @iboman\n+79996342441","markup":[{"type":"hashtag","offset":0,"length":9,"data":"вакансия"},{"type":"hashtag","offset":10,"length":7,"data":"django"},{"type":"hashtag","offset":18,"length":4,"data":"drf"},{"type":"hashtag","offset":23,"length":7,"data":"python"},{"type":"hashtag","offset":31,"length":11,"data":"postgresql"},{"type":"hashtag","offset":43,"length":9,"data":"fulltime"},{"type":"hashtag","offset":53,"length":7,"data":"remote"},{"type":"link","offset":1594,"length":13,"data":"tel:50000 - 85000"},{"type":"handle","offset":1662,"length":7,"data":"iboman"},{"type":"link","offset":1670,"length":12,"data":"tel:+79996342441"}],"date":"2020-06-25T10:30:47+00:00","link":"tg://resolve?domain=python_jobs&post=88007","tags":[{"name":"python"},{"name":"django"},{"name":"postgresql"}],"cities":[],"allowsRemote":true}},{"node":{"__typename":"Job","id":"92279930880-1001067529236","title":"Python developer","text":"#вакансия #senior #upperintermediate #fullstack #remote\nкомпания s-o-services\nз\\п 2800-3800$, оформление по ип (компании в рф нет)\nзаказчик американское издательство\nконтакты @erzentd\n\nТребования:\n\n4+ years of demonstrated experience successfully launching complex projects on time\n2+ years of experience as a full-time developer for a web app, custom software product or organization web site\n3+ years of experience with most or all of the following: Python & Django, relational DBs, jQuery & JavaScript, HTML, CSS/LESS, Git\nExperience with the following technologies preferred but not required: MongoDB, PostgreSQL, Elasticsearch,\nWordPress, CDNs, uWSGI, Redis, Celery, Jenkins, Sentry, New Relic, Nginx, CentOS, RabbitMQ, React, \nSalesforce, Marketo, high availability systems, or graph databases\nOrganized, detail and deadline oriented, highly focused\nAbility to prioritize & manage multiple projects at one time; cool under pressure\nAnalytical thinker with strong/creative problem solving skills\nExperience with Agile development methodologies\nStrong written and verbal communication skills\nAn interest in government, elections, and associated datasets","markup":[{"type":"hashtag","offset":0,"length":9,"data":"вакансия"},{"type":"hashtag","offset":10,"length":7,"data":"senior"},{"type":"hashtag","offset":18,"length":18,"data":"upperintermediate"},{"type":"hashtag","offset":37,"length":10,"data":"fullstack"},{"type":"hashtag","offset":48,"length":7,"data":"remote"},{"type":"handle","offset":175,"length":8,"data":"erzentd"}],"date":"2020-06-25T10:25:16+00:00","link":"tg://resolve?domain=python_jobs&post=88005","tags":[{"name":"python"},{"name":"web"},{"name":"django"},{"name":"jquery"},{"name":"javascript"},{"name":"html"},{"name":"css"},{"name":"git"},{"name":"mongodb"},{"name":"postgresql"},{"name":"elasticsearch"},{"name":"wordpress"},{"name":"redis"},{"name":"jenkins"},{"name":"nginx"},{"name":"centos"},{"name":"rabbitmq"},{"name":"reactjs"}],"cities":[],"allowsRemote":true}},{"node":{"__typename":"Job","id":"92278882304-1001067529236","title":"Python разработчик","text":"#вакансия #python #fulltime #office #remote #Senior #Lead #backend #офис #удаленка #работа\n\nЗп от 160 000 net \nКомпания в поисках Lead Python  удаленно.\nНеобходимые навыки:\n🔹Software development experience 5+, \n🔹Experience with Django (Django ORM, Django Rest Framework (1+years);\n🔹Experience with AWS services: Lambda, API Gateway, SNS, SQS, SES, S3, RDS, VPC, EC2, CloudWatch, etc.\n🔹Experience writing API and working / integration with API of third-party services;\n🔹Knowledge of the GraphQL API (Graphene will be a plus)\n🔹Knowledge of SQL (PostgreSQL relational DBMS will be a plus)\n🔹Knowledge of CloudFormation in AWS and Terraform;\n🔹Ability to read code and understand it at the level of business logic;\n🔹Ability to work with general abstract tasks;\n🔹Written and spoken English is a MUST (B2+)\n\nКонтакты: @Nataly_3 или на почту: n.mazepa@art2hires.com","markup":[{"type":"hashtag","offset":0,"length":9,"data":"вакансия"},{"type":"hashtag","offset":10,"length":7,"data":"python"},{"type":"hashtag","offset":18,"length":9,"data":"fulltime"},{"type":"hashtag","offset":28,"length":7,"data":"office"},{"type":"hashtag","offset":36,"length":7,"data":"remote"},{"type":"hashtag","offset":44,"length":7,"data":"Senior"},{"type":"hashtag","offset":52,"length":5,"data":"Lead"},{"type":"hashtag","offset":58,"length":8,"data":"backend"},{"type":"hashtag","offset":67,"length":5,"data":"офис"},{"type":"hashtag","offset":73,"length":9,"data":"удаленка"},{"type":"hashtag","offset":83,"length":7,"data":"работа"},{"type":"handle","offset":820,"length":9,"data":"Nataly_3"},{"type":"link","offset":844,"length":22,"data":"mailto:n.mazepa@art2hires.com"}],"date":"2020-06-25T10:24:20+00:00","link":"tg://resolve?domain=python_jobs&post=88004","tags":[{"name":"python"},{"name":"dotnet"},{"name":"django"},{"name":"orm"},{"name":"rest"},{"name":"amazon-web-services"},{"name":"aws-lambda"},{"name":"graphql"},{"name":"sql"},{"name":"postgresql"}],"cities":[],"allowsRemote":true}},{"node":{"__typename":"Job","id":"92275736576-1001067529236","title":"Python developer","text":"#вакансия #python #Django #vacancy #IT  #remote\n\nI’m looking for a very strong python developer to become one of key engineers for one of our clients. The client is a US-based startup developing revolutionary products in the Gaming and Lottery industries using NFC and SmartCard-based solutions. This role is extremely important for our client as it has the responsibility of coordinating with the whole team to provide a backend and APIs that support mobile and web clients, as well as third-party integrations.\n\nLocation: Remote\nJob Type: Full-time, contract\nIndustries: Technology, Gaming, Lottery\nLanguages: English, Russian\nPay Rate: $25/hr - $35/hr depending on experience\nProbationary Period: 1 month\nStart Date: ASAP\n\nQualifications\nBS in Information Systems, Engineering, other related discipline \n6-10 years Software Engineering experience\n4-6+ years of work experience developing in Python\n2-3+ years developing on the Django platform\nWorking experience with microservices architecture.\nSolid understanding of data structures, coding standards, best practices\nDevelopment experience in Cloud and DevSecOps environments\nExperience working with relational databases and various data formats and technologies.\nExperience with test-driven development\nExperience working in adaptive methodologies like Agile, DevOps and Scrum, etc.\nStrong written and communication skills required.\nMust be a self-starter/self-directed member of the team\nProficient with Git\nB2+ CEFR English level\n\nFor more information, write to the PM.","markup":[{"type":"hashtag","offset":0,"length":9,"data":"вакансия"},{"type":"hashtag","offset":10,"length":7,"data":"python"},{"type":"hashtag","offset":18,"length":7,"data":"Django"},{"type":"hashtag","offset":26,"length":8,"data":"vacancy"},{"type":"hashtag","offset":35,"length":3,"data":"IT"},{"type":"hashtag","offset":40,"length":7,"data":"remote"}],"date":"2020-06-25T10:09:29+00:00","link":"tg://resolve?domain=python_jobs&post=88001","tags":[{"name":"python"},{"name":"django"},{"name":"mobile"},{"name":"web"},{"name":"cloud"},{"name":"git"}],"cities":[],"allowsRemote":true}}]}}},"context":{}}