{"hash":"f5f6bf98bd95e769321482904cbbd488f77922fd","data":{"records":{"id":"russia/moscow","country":{"code":"russia","ruName":"Россия","enName":"Russia"},"city":{"code":"moscow","ruName":"Москва","enName":"Moscow"},"belongsTo":{"totalCount":476,"pageInfo":{"totalPages":48,"currentPage":13},"edges":[{"node":{"__typename":"Job","id":"360710144-1001352129329","title":"Golang разработчик","text":"#вакансия #удаленка#Москва#Golang\n\nВсем привет!\n\nВакансия: Golang разработчик \nУровень: мидл- мидл\nЗанятость: полная\nФормат работы: удаленка\nМесто работы: офис в Мск \nКомпания:  ylab.io\nПродукт: банковский софт на микросервисах\nЗП: от 80 000 до 110 000 \n\nСтек:\nGoLang, Docker, gitlab, Kubernetes, PostgreSQL, MongoDB, REST API, gRPC\n\nКонтактное лицо:\n@hrylab","markup":[{"type":"hashtag","offset":0,"length":9,"data":"вакансия"},{"type":"link","offset":178,"length":7,"data":"http://ylab.io"},{"type":"handle","offset":351,"length":7,"data":"hrylab"}],"date":"2020-06-29T16:15:45+00:00","link":"tg://resolve?domain=gogetajobfeed&post=344","tags":[{"name":"go"},{"name":"docker"},{"name":"gitlab"},{"name":"kubernetes"},{"name":"postgresql"},{"name":"mongodb"},{"name":"rest"}],"cities":[{"code":"moscow"}],"allowsRemote":true}},{"node":{"__typename":"Job","id":"1766850560-1001091028994","title":"Java разработчик","text":"#Java #developer #job #офис\n\nВакансия: Java-разработчик \n\nКомпания: Selecty\n\nГород: Москва, Санкт-Петербург, Новосибирск, Самара\n\nФормат работы: Офис\n\nЗанятость: full timе\n\nЗарплатная вилка: 320k net \n\nОписание вакансии:\n\nРазработка ПО для одного из крупнейших российских банков.\n\nОбязанности:\n• Разработка под Java, фреймворк: Spring boot\n• Разработка в рамках микросервисной архитектуры\n• Проектирование интерфейсов взаимодействия с другими системами.\n• Работа в тесном сотрудничестве со специалистами фронтенд разработки, тестирования и аналитиками.\n• Работа по гибким методологиям разработки.\n\nCтек технологий:\n• Java 8-11, Kotlin.\n• Spring/Springboot.\n• PostgreSQL/Oracle, Kafka, Redis\n• Maven/Gradle\n• Docker/Kubernetes(или OpenShift).\n\nНаши ожидания от кандидата:\n• уверенное владение Java, понимание принципов работы JVM. Знание основных библиотек и шаблонов проектирования.\n• опыт использования Spring Framework (boot, mvc, data, secutity...)\n• опыт работы с многопоточностью и асинхронностью.\n• опыт работы с базами данных, умение писать и оптимизировать запросы.\n• опыт работы с распределёнными хранилищами и системами.\n• знание HTTP, REST, SOAP.\n• опыт работы с фреймворками и инструментами автоматического тестирования (junit, postman, jmeter).\n\nМы предлагаем:\n•  Оформление согласно ТК РФ.\n•  Заработная плата полностью \"белая\".\n•  ДМС.\n•  Оплата корпоративной мобильной связи.\n•  Внутреннее, внешнее обучение (сертификаты).\n•  Льготные программы от компаний – партнеров.\n\nКонтакты: @lelya01\nolga.afonina@selecty.ru","markup":[{"type":"hashtag","offset":0,"length":5,"data":"Java"},{"type":"hashtag","offset":6,"length":10,"data":"developer"},{"type":"hashtag","offset":17,"length":4,"data":"job"},{"type":"hashtag","offset":22,"length":5,"data":"офис"},{"type":"handle","offset":1497,"length":8,"data":"lelya01"},{"type":"link","offset":1506,"length":23,"data":"mailto:olga.afonina@selecty.ru"}],"date":"2020-06-29T16:07:55+00:00","link":"tg://resolve?domain=jvmjobs&post=1685","tags":[{"name":"java"},{"name":"jvm"},{"name":"dotnet"},{"name":"spring"},{"name":"kotlin"},{"name":"postgresql"},{"name":"oracle"},{"name":"kafka"},{"name":"redis"},{"name":"maven"},{"name":"gradle"},{"name":"docker"},{"name":"kubernetes"},{"name":"rest"},{"name":"soap"},{"name":"junit"},{"name":"jmeter"},{"name":"spring-boot"}],"cities":[{"code":"moscow"},{"code":"novosibirsk"},{"code":"samara"}],"allowsRemote":false}},{"node":{"__typename":"Job","id":"1765801984-1001091028994","title":"Java разработчик","text":"#вакансия #удаленка\n\nJava Engineer\nФормат работы: #fulltime #remote\nОфис: Москва, метро Китай-город\nЗарплата: $ 60 000 в год\nКонтакт для связи: @nastya_stret\n\nКомпания-разработчик обучающих приложений для детей 3-6 лет и их родителей ищет опытного Java Engineer. В команде сейчас 32 человека, все работают удаленно из России, Белоруссии и Украины. Мы активно растем и привлекаем новые таланты.\n\nПредстоящие задачи связаны с:\n • валидацией подписок Apple/Google/Amazon;\n • клиент-серверными фичами;\n • аналитическим сервисом и визуализацией метрик через Grafana;\n • сервисом пуш-уведомлений;\n • интеграциями со сторонними сервисами (Facebook, Amplitude, adjust, Mailchimp);\n • созданием админки;\n • безопасностью.\n\nТребования:\n\n- Технический английский;\n- Владение или желание научиться и использовать Kotlin.\n\nПервоначальный отбор осуществляется через 6nomads.com","markup":[{"type":"hashtag","offset":0,"length":9,"data":"вакансия"},{"type":"hashtag","offset":10,"length":9,"data":"удаленка"},{"type":"hashtag","offset":50,"length":9,"data":"fulltime"},{"type":"hashtag","offset":60,"length":7,"data":"remote"},{"type":"handle","offset":144,"length":13,"data":"nastya_stret"},{"type":"link","offset":852,"length":11,"data":"http://6nomads.com"}],"date":"2020-06-29T16:06:58+00:00","link":"tg://resolve?domain=jvmjobs&post=1684","tags":[{"name":"java"},{"name":"jvm"},{"name":"kotlin"}],"cities":[{"code":"moscow"}],"allowsRemote":true}},{"node":{"__typename":"Job","id":"72286732288-1001054966032","title":"Ios разработчик","text":"#вакансия #ios #офис #удаленка #Москва #fulltime\n\nГород: Москва\nФормат работы: офис/удаленная работа\nЗанятость: полная\nЗарплатная вилка: от 130 000 до 200 000\n\nКомпания: Лига Цифровой Экономики \n\nЛига Цифровой Экономики — это 3 500 человек и  1 000 проектов цифровой трансформации каждый год!\n\nНаши клиенты — лидеры рынка в ключевых отраслях экономики и государственного сектора. Мы гордимся нашей экспертизой и знаковыми проектами.\n\n🟢Мы пишем iOS-приложение для крупного ритейлера по продаже электроники и уже прошли довольно большой путь. Как ты уже понял, останавливаться мы не собираемся.\n\nМы постоянно растём и прямо сейчас ищем в команду хорошего iOS-разработчика, который будет с нами и в горе, и в радости.\n\nМы разрабатываем на последней версии Swift, используем VIPER. А также, пишем unit-тесты, используем моднейший CI/CD, ратуем за чистую архитектуру и не боимся экспериментировать.\n\n🔹Чего тебя ждёт на нашем проекте:\n\nРазработка нового функционала приложения – на горизонте маячит большое количество интересных фич, включая геймификацию.\nПоддержка и сопровождение существующего функционала – приложение уже довольно большое и за ним нужно ухаживать: не давать зарастать багами и следить за unit-тестами;\nУчастие в обсуждениях по развитию приложения и его архитектуры;\nРефакторинг устаревших модулей проекта;\n\n🔹Кого мы ищем:\n\nУверенное знание языка Swift, UIKit, Foundation и среды разработки в целом;\nПонимание архитектуры VIPER;\nОпыт написания Unit-тестов приветствуется;\nПонимание принципов SOLID;\nОпыт работы с системами контроля версий (Git);\nКоммуникабельность;\nЖелание обучаться и развиваться;\nУмение разбираться в чужом коде без приступов тошноты.\n\nПо всем вопросам пишите в ЛС: @Bogdan_Ln","markup":[{"type":"hashtag","offset":0,"length":9,"data":"вакансия"},{"type":"hashtag","offset":10,"length":4,"data":"ios"},{"type":"hashtag","offset":15,"length":5,"data":"офис"},{"type":"hashtag","offset":21,"length":9,"data":"удаленка"},{"type":"hashtag","offset":31,"length":7,"data":"Москва"},{"type":"hashtag","offset":39,"length":9,"data":"fulltime"},{"type":"handle","offset":1701,"length":10,"data":"Bogdan_Ln"}],"date":"2020-06-29T15:45:55+00:00","link":"tg://resolve?domain=mobile_jobs&post=68938","tags":[{"name":"mobile"},{"name":"ios"},{"name":"swift"},{"name":"uikit"},{"name":"git"}],"cities":[{"code":"moscow"}],"allowsRemote":true}},{"node":{"__typename":"Job","id":"358612992-1001352129329","title":"Golang разработчик","text":"#вакансия #Москва #офис #удаленка #Golang #fulltime\n\nГород и адрес офиса: Москва, м. Новокузнецкая/Павелецкая\nФормат работы: #офис, #удаленка\nЗанятость: #полная\nЗП: от 120к до 200к руб. нетт\n\nSports.ru – ведущий спортивный сайт в России. Мы строим сообщества людей, увлекающихся разными видами спорта, помогаем им развиваться и даем им площадку для общения. Сейчас мы ищем Backend-разработчика (Golang/PHP) в команду нашего проекта Betting Insider.\n\nBetting Insider — социальная сеть для любителей ставок. Мы верим, что ставки — неотъемлемая часть рынка спортивных развлечений, и стремимся сделать этот рынок прозрачнее и интереснее для пользователей. Мы не принимаем ставок на реальные деньги, но даем пользователям множество вспомогательных сервисов, которые делают их игру проще, безопаснее и интереснее.\n\nО задачах:\nВы будете участвовать в продуктовой разработке на всех стадиях: от обсуждения фич и проработки архитектуры до деплоя и мониторинга работы.\nРазрабатывать микросервисы на Go, перевода на них наш монолит на PHP. Поддержкой монолита тоже нужно будет заниматься. Разрабатывать GraphQL API для web-версии и приложений iOS и Android.\nОптимизировать работу приложений, искать проблемы с производительностью и надежностью. Покрывать код тестами и проводить код ревью.\nЕще сможете принять участие в разработке core сервисов для sports.ru и других наших проектов с MAU больше 20 млн.\n\nО технологиях:\nGo как основной язык. PHP сервис для поддержки и переписывания на Go.\nGraphQL для клиентов. gRPC и JSON over HTTP для межсервисного взаимодействия.\nРазвертывание docker контейнеров в kubernetes. Деплой через gitlab CI и helm чарты.\nМониторинг, трейсинг и алертинг c помощью Grafana и Prometheus, Kibana, Sentry, Elasticsearch APM.\nPostgres 12 и MySQL 8.0.\nNsq и RabbitMQ в качестве очереди событий. Redis для Pub/Sub.\n\nО наших ожиданиях:\nМы ожидаем, что вы имеете опыт разработки микросервисов на Go. Имеете опыт работы с PHP и все еще можете и хотите с ним взаимодействовать. Имеете навыки построения производительных и отказоустойчивых систем.\nЗнаете основы используемых технологий и понимаете, как их использовать: SQL, Go, PHP, message queue, сетевое взаимодействие, кеширование, системы мониторинга и т.д.\nУ вас есть опыт написания тестов равного уровня: Unit, Integration, E2E.\nОпыт взаимодействия с GraphQL и gRPC будет плюсом.\nКлассно, если вы любите спорт. Еще лучше, если вы интересуетесь ставками.\n\nОб условиях: \nПросторный стильный офис возле м. Новокузнецкая/Третьяковская.\n“Белая” заработная плата.\nБесплатная медстраховка со стоматологией после испытательного срока.\nГибкий график работы с возможностью день-два в неделю работать удаленно,\nФрукты, снеки, чай, кофе, какао 24/7.\nКорпоративная скидка в спортзал и на занятия английским языком.\nКорпоративный футбол с тренером.\nФинансовая помощь при переезде из другого города.\nВозможности для профессионального развития.\n\nНазвание компании: Sports.ru (Tribuna Digital)\nКому интересно, пишите в личку (@pbuyatova), поделюсь подробностями)","markup":[{"type":"hashtag","offset":0,"length":9,"data":"вакансия"},{"type":"hashtag","offset":10,"length":7,"data":"Москва"},{"type":"hashtag","offset":18,"length":5,"data":"офис"},{"type":"hashtag","offset":24,"length":9,"data":"удаленка"},{"type":"hashtag","offset":34,"length":7,"data":"Golang"},{"type":"hashtag","offset":42,"length":9,"data":"fulltime"},{"type":"hashtag","offset":125,"length":5,"data":"офис"},{"type":"hashtag","offset":132,"length":9,"data":"удаленка"},{"type":"hashtag","offset":153,"length":7,"data":"полная"},{"type":"link","offset":192,"length":9,"data":"http://Sports.ru"},{"type":"link","offset":1338,"length":9,"data":"http://sports.ru"},{"type":"link","offset":2913,"length":9,"data":"http://Sports.ru"},{"type":"handle","offset":2973,"length":10,"data":"pbuyatova"}],"date":"2020-06-29T15:38:06+00:00","link":"tg://resolve?domain=gogetajobfeed&post=342","tags":[{"name":"go"},{"name":"php"},{"name":"graphql"},{"name":"web"},{"name":"ios"},{"name":"android"},{"name":"json"},{"name":"docker"},{"name":"kubernetes"},{"name":"gitlab"},{"name":"elasticsearch"},{"name":"postgresql"},{"name":"mysql"},{"name":"rabbitmq"},{"name":"redis"},{"name":"sql"}],"cities":[{"code":"moscow"}],"allowsRemote":true}},{"node":{"__typename":"Job","id":"17227055104-1001110946746","title":"Js разработчик","text":"#вакансия #seniordev #frontend #javascript #react #vue #angular #fulltime #office \n\nSenior/Middle Frontend Developer\nЛокация: Москва, м. Таганская\nФормат работы: офис\nЗанятость: полная\nЗарплатная вилка: 175к – 235к\nКомпания: WhoIsBlogger(WIB), www.whoisblogger.com \n\nМы разрабатываем аналитический продукт, который позволяет нашим клиентам принимать обоснованные решения при планировании рекламных кампаний с помощью блогеров.\n\nМы ищем человека для создания фронтенда веб-приложения, в котором наши клиенты смогут быстро получать доступ к нужным данным о блогерах, а также вести историю своих рекламных кампаний и проектов.\n\nЧто нужно делать?\n• разработка пользовательской платформы;\n• согласование требований с бизнес-заказчиками, дизайнерами и бэкенд командой;\n• разработка архитектурных решений, поиск и внедрение необходимых технологий, поиск узких мест в работе систем, оптимизация и рефакторинг;\n• внедрение методик и инструментов для повышения качества кода и продукта.\n\nЧто нужно уметь?\n• опыт работы не менее 3-х лет в роли фронтенд-разработчика;\n• уверенное владение HTML, CSS, JavaScript, TypeScript;\n• опыт самостоятельной разработки фронтенда с использованием современного стека: React/Angular/Vue.js, Redux/MobX, Webpack;\n• готовность и желание встать у истоков фронтенд-разработки в компании, оставаясь на первых порах единственным фронтенд-разработчиком;\n• высокая степень самостоятельности, ответственности и работоспособности, желание развиваться и достигать результатов в кратчайшие сроки.\n\nБудет плюсом:\n• опыт реализации многомодульных и высоконагруженных проектов;\n• опыт разработки SPA;\n• опыт использования D3.js;\n• умение работать с БД PostgreSQL, MongoDB;\n• опыт работы с облачными провайдерами, предпочтительно AWS;\n• умение собирать и анализировать пользовательское поведение в Google Analytics, Яндекс.Метрике и подобных системах.\n\nКонтакты: akurdin@whoisblogger.com, @ifeelKud, +7(903)505-38-32","markup":[{"type":"hashtag","offset":0,"length":9,"data":"вакансия"},{"type":"hashtag","offset":10,"length":10,"data":"seniordev"},{"type":"hashtag","offset":21,"length":9,"data":"frontend"},{"type":"hashtag","offset":31,"length":11,"data":"javascript"},{"type":"hashtag","offset":43,"length":6,"data":"react"},{"type":"hashtag","offset":50,"length":4,"data":"vue"},{"type":"hashtag","offset":55,"length":8,"data":"angular"},{"type":"hashtag","offset":64,"length":9,"data":"fulltime"},{"type":"hashtag","offset":74,"length":7,"data":"office"},{"type":"link","offset":244,"length":20,"data":"http://www.whoisblogger.com"},{"type":"link","offset":1871,"length":24,"data":"mailto:akurdin@whoisblogger.com"},{"type":"handle","offset":1897,"length":9,"data":"ifeelKud"},{"type":"link","offset":1908,"length":16,"data":"tel:+7(903)505-38-32"}],"date":"2020-06-29T15:34:36+00:00","link":"tg://resolve?domain=javascript_jobs_feed&post=16429","tags":[{"name":"javascript"},{"name":"reactjs"},{"name":"vuejs"},{"name":"angularjs"},{"name":"html"},{"name":"css"},{"name":"typescript"},{"name":"redux"},{"name":"webpack"},{"name":"postgresql"},{"name":"mongodb"},{"name":"amazon-web-services"},{"name":"google-analytics"}],"cities":[{"code":"moscow"}],"allowsRemote":false}},{"node":{"__typename":"Job","id":"17224957952-1001110946746","title":"Js разработчик","text":"#вакансия #москва #middle #remote #angular #fulltime #офис\n\nИщем frontend разработчика для работы над основным сайтом и новыми разделами.\nГород и адрес офиса: Москва, м. Авиамоторная\nФормат работы: Офис\nЗанятость: полная\nЗарплатная вилка: 130 000 — 150 000 на руки по результатам технического собеседования\n\nAutospot.ru — онлайн гипермаркет автомобилей. \n\nВ 2018 году Mitsubishi Corporation и Mail.ru. оценили нас в $19,1 млн.\n\nВ технической команде 17 человек: СТО, 9 PHP разработчиков, 2 frontend разработчика, 3 тестировщика, DevOps.\n\nЧеловек нужен в Москве или готовый в эту самую Москву переехать.\n\nОбязанности:\n▫️Разработка компонентов и адаптация/интеграция сторонних библиотек и плагинов;\n▫️ Верстка новых разделов, кроссбраузерная, адаптивная, валидная;\n▫️ Развитие библиотеки UI компонентов;\n▫️ Оперативное исправление багов на проде (IE 11+);\n▫️ Помощь в оптимизации работы сайта (скорость загрузки, оптимизация DOM).\n\nТребования:\n▪️ Опыт разработки от 2 лет;\n▪️ Знание JavaScript (jQuery в разумных пределах);\n▪️ Уверенное знание html семантическая верстка, БЭМ, SCSS;\n▪️ Знание работы GIT & NPM;\n▪️ Опыт работы с gulp/webpack;\n▪️ Опыт работы с Figma/Zeplin;\n▪️ Опыт работы с векторной графикой (svg и svg-спрайты).\n\nЖелательно:\n◾️ Хорошее знание Vue.js и/или Angular 5+. Работать надо будет и с тем и с другим. Angular 5+ в приоритете, планируется переход полностью на него;\n◾️ Знание инструментов организации разработки Jira;\n◾️ Знание нюансов работы браузеров на разных устройствах и ОС;\n◾️ Опыт сео оптимизации;\n◾️ Понимание, что такое доступные интерфейсы;\n\nУсловия:\n▫️ Комфортабельный офис, БЦ Light Tower, бесплатный шаттл от м. Площадь Ильича;\n▫️ Оформление по ТК РФ с первого рабочего дня;\n▫️ Гибкое начало рабочего дня, с 9 до 11;\n▫️ Возможность работать 1-2 дня удалённо;\n▫️ Полностью белая заработная плата;\n▫️ Неформальная атмосфера и дружный, амбициозный коллектив;\n▫️ Корпоративная скидка на изучение английского языка.\n\nКонтакт: @dianadoma","markup":[{"type":"hashtag","offset":0,"length":9,"data":"вакансия"},{"type":"hashtag","offset":10,"length":7,"data":"москва"},{"type":"hashtag","offset":18,"length":7,"data":"middle"},{"type":"hashtag","offset":26,"length":7,"data":"remote"},{"type":"hashtag","offset":34,"length":8,"data":"angular"},{"type":"hashtag","offset":43,"length":9,"data":"fulltime"},{"type":"hashtag","offset":53,"length":5,"data":"офис"},{"type":"link","offset":308,"length":11,"data":"http://Autospot.ru"},{"type":"link","offset":393,"length":7,"data":"http://Mail.ru"},{"type":"handle","offset":1957,"length":10,"data":"dianadoma"}],"date":"2020-06-29T15:32:23+00:00","link":"tg://resolve?domain=javascript_jobs_feed&post=16427","tags":[{"name":"javascript"},{"name":"angularjs"},{"name":"php"},{"name":"jquery"},{"name":"html"},{"name":"git"},{"name":"npm"},{"name":"gulp"},{"name":"webpack"},{"name":"svg"},{"name":"vuejs"}],"cities":[{"code":"moscow"}],"allowsRemote":true}},{"node":{"__typename":"Job","id":"17221812224-1001110946746","title":"Js developer","text":"#вакансия #Frontend #React\n #JS #Lead \n🔸 Формат работы: full time офис\n🔸 Город: г. Москва 1905 года с сентября Кутузовский проспект\n🔸 З/п: от 260 000 руб. net до 300 000 net, готовы обсудить.\n🔸Мы -  международный сервис пассажирских перевозок. Создаем глобальный высокотехнологичный продукт, который меняет жизнь миллионов людей к лучшему.\nВходим в топ-5 мобильных сервисов для заказа поездок.\n\nСейчас ищем Lead frontend developer в Московский офис разработки.\n\nИспользуемые технологии:\n- React;\n- PHP и Go в качестве языков для бекенда;\n- Kubernetes + Teamcity для CI/CD.\n\n📌 Чем придется заниматься:\n- разработкой фронтовых проектов на React;\n- нанимать, проводить Code review и обучать младших коллег;\n- интегрироваться с Backend, отстаивать свою точку зрения почему так и как сделать лучше;\n- проектирование архитектуры приложения.\n📌Мы ожидаем, что вы:\n- отлично владеете базовыми технологиями — HTML, CSS, JavaScript (ES6), DOM, браузерные API;\n- имеете опыт разработки сложных продуктов с использованием React;\n- ответственны, умеете работать в команде и самостоятельно восполнять недостающие навыки и знания;\n\n🔹Будет здорово, если вы:\n- интересуетесь новыми технологиями во фронтенде;\n- обладаете навыками в автоматизации сборки и тестирования фронтенда.\n\n🔸 Компания: inDriver\n🔸 Контакты: @molly_doll","markup":[{"type":"hashtag","offset":0,"length":9,"data":"вакансия"},{"type":"hashtag","offset":10,"length":9,"data":"Frontend"},{"type":"hashtag","offset":20,"length":6,"data":"React"},{"type":"hashtag","offset":28,"length":3,"data":"JS"},{"type":"hashtag","offset":32,"length":5,"data":"Lead"},{"type":"handle","offset":1304,"length":11,"data":"molly_doll"}],"date":"2020-06-29T15:29:20+00:00","link":"tg://resolve?domain=javascript_jobs_feed&post=16424","tags":[{"name":"javascript"},{"name":"reactjs"},{"name":"dotnet"},{"name":"php"},{"name":"kubernetes"},{"name":"html"},{"name":"css"}],"cities":[{"code":"moscow"}],"allowsRemote":false}},{"node":{"__typename":"Job","id":"72279392256-1001054966032","title":"Android разработчик","text":"#вакансия #работа #Android #Kotlin #удаленнаяработа\n\nГород: Москва\nФормат работы: фулл тайм удаленно \n\nЗарплатная вилка: от 150 000 до 230 000;\nКомпания: АО «Почта банк»\n\nМы занимаем лидирующие позиции в рейтингах Интернет-банков, и не останавливаемся на достигнутом. Приглашаем к себе в команду разработчика Android.\n\nВАША ГЛАВНАЯ ЗАДАЧА:\n⚡️Разработка систем дистанционного банковского обслуживания (мобильный банк) на Android.\n\nНАШИ ТРЕБОВАНИЯ:\n✅ Опыт разработки для платформы Android от 3-х лет;\n✅ Знание Android SDK, Java, Kotlin, Rest/SOAP, Google Maps API, SQLite;\n\nВАШИМ ДОПОЛНИТЕЛЬНЫМ ПРЕИМУЩЕСТВОМ БУДЕТ:\n✅ Наличие высшего технического образования;\n✅ Знание стандартов проектирования и разработки мобильных приложений;\n✅ Знание архитектуры мобильных приложений и реализации серверного взаимодействия для мобильных приложений;\n✅ Навыки работы с многопоточностью;\n✅Опыт работы в банковской сфере.\n\nГОТОВЫ ВАМ ПРЕДЛОЖИТЬ:\n🔹 Удобный график («плавающее» начало рабочего дня);\n🔹 Удаленный формат работы;\n🔹 Оклад + квартальное премирование + годовой бонус;\n🔹 Agile. Scrum (двухнедельные спринты, работа в командах по 6-8 человек: 2 backend, 3 frontend, системный аналитик, 2 тестировщика) Демократия и самоорганизация + наличие удаленного доступа;\n🔹 Обучение - доступное внутреннее и внешнее обучение. В Банке есть корпоративная академия. Регулярно проходят внутренние митаппы, tech. chapters и ретроспективы. Мы посещаем ключевые отраслевые конференции;\n🔹 Профессиональное развитие - мы используем современный стэк, поддерживаем разумные инициативы по внедрению новшеств, совершенствуем архитектуру и кодовую базу;\n🔹 Карьерный рост- команда постоянно растет. В зависимости от вклада, каждый сотрудник может претендовать на повышение дохода, новый функционал и дополнительные задачи. Мы держимся за наших сотрудников;\n🔹 ДМС. Многочисленные скидки и бонусы от партнеров (от каршеринга до ипотеки).\n\n📩 Контакты: @dorogavtseva","markup":[{"type":"hashtag","offset":0,"length":9,"data":"вакансия"},{"type":"hashtag","offset":10,"length":7,"data":"работа"},{"type":"hashtag","offset":18,"length":8,"data":"Android"},{"type":"hashtag","offset":27,"length":7,"data":"Kotlin"},{"type":"hashtag","offset":35,"length":16,"data":"удаленнаяработа"},{"type":"handle","offset":1921,"length":13,"data":"dorogavtseva"}],"date":"2020-06-29T14:42:50+00:00","link":"tg://resolve?domain=mobile_jobs&post=68931","tags":[{"name":"mobile"},{"name":"android"},{"name":"kotlin"},{"name":"java"},{"name":"rest"},{"name":"soap"},{"name":"sqlite"},{"name":"google-maps"}],"cities":[{"code":"moscow"}],"allowsRemote":true}},{"node":{"__typename":"Job","id":"17217617920-1001110946746","title":"Js разработчик","text":"#вакансия \nГород и адрес офиса: москва, москва сити.\nФормат работы: офис или удаленка\nЗанятость: полная,\nЗарплатная вилка: от 80000 до 150.000\nОписание вакансии: Мы в лаборатории сейчас активно накапливаем себе разработчиков-инноваторов, которые хотят создавать продукты в нашей лаборатории в стеке принятом у нас: JS/Node.js) - middle, senior \nНазвание компании: Лаборатория инновационных решений http://SVOI.dev специализируемся на bigdata, ai, нейросети, блокчейн, финтех, чат боты. \nКонтакты: @senenchuk (телеграм), +79266676666","markup":[{"type":"hashtag","offset":0,"length":9,"data":"вакансия"},{"type":"link","offset":398,"length":15,"data":"http://SVOI.dev"},{"type":"handle","offset":497,"length":10,"data":"senenchuk"},{"type":"link","offset":520,"length":12,"data":"tel:+79266676666"}],"date":"2020-06-29T13:32:23+00:00","link":"tg://resolve?domain=javascript_jobs_feed&post=16420","tags":[{"name":"javascript"},{"name":"nodejs"}],"cities":[{"code":"moscow"}],"allowsRemote":true}}]}}},"context":{}}