{"hash":"f5f6bf98bd95e769321482904cbbd488f77922fd","data":{"records":{"totalCount":669,"pageInfo":{"totalPages":67,"currentPage":62},"edges":[{"node":{"id":"71305265152-1001054966032","title":"Android разработчик","text":"#вакансия #android #java #kotlin #офис #москва\nм.Бауманская, полная занятость\nБелая з/п 130.000 - 200.000 руб. на руки (рассматриваем уровень Middle/Senior)\nAndroid developer\nНа время изоляции работаем удаленно, после вновь вернемся в офис!\nПолностью удаленной работы у нас нет!\n\nМы — команда разработки Level.Travel, сложного продукта в сфере путешествий. За последние 8 лет мы с нуля создали и продолжаем развивать решение для онлайн-продажи путешествий. Нашу платформу используют лидеры рынка – Тинькофф Банк, OneTwoTrip, Сбербанк, TripAdvisor, Kayak, АК Барс Банк, Евросеть и многие другие. Компания Level.Travel является резидентом Инновационного центра «Сколково».\n\n\nОбязанности:\n🔸Разработка приложения со сложным UI в команде разработчиков\n🔸Построение архитектуры\n🔸Реализация клиент-серверного взаимодействия\n🔸Написание тестов\n\nОт Вас:\n🔸От 2-х лет в разработке на Android\n🔸Знание Java/Kotlin на уровне ведущего разработчика\n🔸Знание архитектурных паттернов (MVVM / Clean Architecture), ООП\n🔸Знания цикла работы приложения, управления памятью\n🔸Опыт работы или понимание RxJava, RxAndroid, Retrofit, Dagger2, Android Data Binding\n🔸Понимание Android Architecture Components будет плюсом\n🔸CI / CD\n🔸Все тонкости работы с клиент-серверной архитектурой\n🔸Умение отлаживать приложение, профилирование кода\n\nОт нас: белая зп, официальное трудоустройство, больничные, отпуска. Скидки на изучение английского языка, техника MacBook Pro. Регулярная обратная связь и аттестации. Геймификация процессов и несколько раз в год релокейты поработать в другую страну. Клевый молодой коллектив, интересные ивенты, насыщенная корпоративная жизнь. Пинг-понг, бильярд, кальян и другие развлечения в офисе. Скидки на путешествия)\n\nСвязь по почте : vos@level.travel\nИли тут @Alyask_a","markup":[{"type":"hashtag","offset":0,"length":9,"data":"вакансия"},{"type":"hashtag","offset":10,"length":8,"data":"android"},{"type":"hashtag","offset":19,"length":5,"data":"java"},{"type":"hashtag","offset":25,"length":7,"data":"kotlin"},{"type":"hashtag","offset":33,"length":5,"data":"офис"},{"type":"hashtag","offset":39,"length":7,"data":"москва"},{"type":"bold","offset":78,"length":40,"data":""},{"type":"bold","offset":157,"length":17,"data":""},{"type":"bold","offset":175,"length":65,"data":""},{"type":"bold","offset":280,"length":76,"data":""},{"type":"bold","offset":674,"length":12,"data":""},{"type":"bold","offset":840,"length":7,"data":""},{"type":"bold","offset":1318,"length":7,"data":""},{"type":"bold","offset":1726,"length":33,"data":""},{"type":"link","offset":1743,"length":16,"data":"mailto:vos@level.travel"},{"type":"bold","offset":1760,"length":17,"data":""},{"type":"handle","offset":1768,"length":9,"data":"Alyask_a"}],"date":"2020-06-15T14:11:51+00:00","link":"tg://resolve?domain=mobile_jobs&post=0","tags":[{"name":"mobile"},{"name":"android"},{"name":"java"},{"name":"kotlin"},{"name":"mvvm"}],"cities":[{"code":"moscow"}],"allowsRemote":true}},{"node":{"id":"339738624-1001352129329","title":"Golang разработчик","text":"#вакансия #Казань #Lead #Go #fulltime #офис #удаленка  \nВакансия: Lead or Senior Golang Developer \nКомпания: SoftConsulting\nГород: Казань\nФормат работы: офис или удаленка \nЗанятость: полная\nВилка заработной платы: 2000-3000$\n\nИдея проекта – создать революционную крауд-сорсинговую платформу для размещения/выполнение заказов на фотографию. Это возможность работать напрямую с CTO и в дальнейшем собрать команду под себя.\nТребования:\n- Коммерческий опыт разработки на Go\n- Опыт руководства командой будет плюсом\n- Знание AWS, MySQL, Redis \n- Разговорный английский\n- Высокие коммуникативные навыки\n- Желание работать в динамичной стартап-среде, быть готовым самостоятельно решать задачи и архитектора, и разработчика, предлагать решения\n\nУсловия:\n- Комфортабельный офис в Казани или удаленная работа из любой точки мира\n- ДМС\n- Компенсация расходов на занятия спортом, английским языком\n- Гибкий рабочий график\n\nКонтакты: telegram @It_recruiter_Nadezhda","markup":[{"type":"hashtag","offset":0,"length":9,"data":"вакансия"},{"type":"hashtag","offset":10,"length":7,"data":"Казань"},{"type":"hashtag","offset":18,"length":5,"data":"Lead"},{"type":"hashtag","offset":24,"length":3,"data":"Go"},{"type":"hashtag","offset":28,"length":9,"data":"fulltime"},{"type":"hashtag","offset":38,"length":5,"data":"офис"},{"type":"hashtag","offset":44,"length":9,"data":"удаленка"},{"type":"handle","offset":930,"length":22,"data":"It_recruiter_Nadezhda"}],"date":"2020-06-15T13:49:00+00:00","link":"tg://resolve?domain=gogetajobfeed&post=324","tags":[{"name":"go"},{"name":"amazon-web-services"},{"name":"mysql"},{"name":"redis"}],"cities":[{"code":"kazan"}],"allowsRemote":true}},{"node":{"id":"71304216576-1001054966032","title":"Ios разработчик","text":"💪#вакансия #удалёнка #iOS #fulltime  #Middle+/#Senior    \n💵З/П 2200-2400 $/месяц по итогам собеседования\nРабота: удалёнка\n\nЧеловек в среднем больше сотни раз взаимодействует с клавиатурой своего мобильного устройства. Для большинства пользователей нашего приложения мы делаем этот процесс  интереснее и выгодней. Мы также оцениваем эмоциональное состояние пользователя, в процессе его взаимодействия с клавиатурой. Руководство компании из топ-менеджмента крупнейших глобальных игроков мобильного рынка. В данный момент открыта вакансия Middle+/Senior IOS разработчика, в подчинении 2 сотрудника                                                                                                               \n\n📌Обязанности:\n- Разработка кастомной клавиатуры iOS\n- Подключение ML-алгоритмов (TensorFlow) распознавания эмоций к iOS-клавиатуре\n- Разработка кода обработки данных камеры, микрофона\n\n📌Требования:\n- Уверенное знание Swift;\n- Хорошее знание платформы iOS, инструментов разработки, работы UI;\n- Опыт работы с REST API, HTTP, JSON, APNs;\n- Знакомство с библиотеками CoreData, AVFoundation, CoreML и CreateML\n- Желание развиваться и развивать свои знания            \n-Знание английского на уровне от Intermediate желательно                                                                                                               \n\n📌Будет плюсом:\n- Опыт работы c TensorFlow на iOS\n- Опыт работы с OpenCV на iOS\n- Опыт работы с фреймворком SwiftUI\n\n📌Условия:\n- Отсутствие бюрократии\n- Время начала рабочего дня обговариваем индивидуально\n- Come to the Dark Side, we have тёплая ламповая атмосфера стартапа, чай, кофе и печеньки!\n- Крутой инновационный проект - возможность самореализации и профессионального роста\n- Стабильное зарубежное финансирование\n- Десятки миллионов установок и множество глобальных партнёров\n📞 Контакты @SvetikS_hr +7(963)-632-12-36 Cветлана","markup":[{"type":"hashtag","offset":2,"length":9,"data":"вакансия"},{"type":"hashtag","offset":12,"length":9,"data":"удалёнка"},{"type":"hashtag","offset":22,"length":4,"data":"iOS"},{"type":"hashtag","offset":27,"length":9,"data":"fulltime"},{"type":"hashtag","offset":38,"length":7,"data":"Middle"},{"type":"hashtag","offset":47,"length":7,"data":"Senior"},{"type":"handle","offset":1841,"length":11,"data":"SvetikS_hr"},{"type":"link","offset":1853,"length":17,"data":"tel:+7(963)-632-12-36"}],"date":"2020-06-15T13:31:43+00:00","link":"tg://resolve?domain=mobile_jobs&post=0","tags":[{"name":"mobile"},{"name":"ios"},{"name":"tensorflow"},{"name":"swift"},{"name":"rest"},{"name":"json"},{"name":"opencv"}],"cities":[],"allowsRemote":true}},{"node":{"id":"16931356672-1001110946746","title":"Js разработчик","text":"Друзья, ура! В связи с продолжающимся ростом и развитием, следующие 10 дней ищем себе боевого товарища и коллегу! 🎉\n\n🎸 Трудолюбивый JavaScript (React.js) Engineer, приди!\n\n🔖 #вакансия / #remote #удаленка / #полная #fulltime / #reactjs #javascript\n\nЭта не просто вакансия. Это возможность для стабильного профессионального, финансового и карьерного роста. Мы уделяем большое внимание системности, общей продуктивности и согласованности совместной работы, поэтому ищем коллегу на удалённый (remote) формат работы.\n\n\n📲 Кто мы?\n\n→ Компания Axept занимается консалтингом и заказной разработкой программных продуктов.\n→ Наши клиенты – крупные корпорации в России, профессионалы из Европы, Сингапура и Японии.\n→ Текущий портфель проектов – Личные кабинеты, ERP, Поисковые системы, CRM, dashboards, Социальные сети, мобильные приложения.\n→ Центры разработки находится в Москве. Но 70% сотрудников работают удалённо.\n→ Ключевой момент — мы относимся к проектам наших клиентов ❤️, как к своим собственным, с любовью и максимальной ответственностью.\n→ Мы любим то, что делаем. Более подробно здесь – www.axept.com/ru-ru/jobs\n\n🎸 Чем предстоит заниматься?\n\n→ Разрабатывать и развивать веб-приложения с нами, используя React.js, Redux, TypeScript, Styled Components, иногда – Node.js, React Native и GraphQL.\n→ Принимать архитектурные решения и думать наперёд.\n→ Влиять на развитие команды разработки и выбор технологий в проекте.\n→ Активно учиться, развиваться и делиться знаниями с коллегами.\n→ Заботиться о производительности, качестве и устойчивости поставляемых нами приложений.\n\n💪 Для этого вам потребуется:\n\n→ Любить свою профессию и то, что вы делаете. Горят глаза? Срочно к нам. \n→ Опыт разработки сервисов с REST API. Знакомство с JSON API, Swagger и GraphQL будет жирным плюсом.\n→ Хорошее знание экосистемы React и Redux. Уметь и любить гуглить.\n→ Понимание изоморфных React-приложений и SSR. Про это и наш доклад 5-летней давности https://youtu.be/xarGaBBDROw\n→ Будет плюсом опыт разработки на Node.js (SSR, PostgreSQL, Express, Passport, JWT)\n→ Хорошее понимание HTTP. А если есть опыт с WebSockets, то это wow! 🎉\n→ Свободное владение ES6. Опыт с TypeScript ускорит погружение.\n→ Понимание принципов ФП и ООП.\n→ Уметь свободно пользоваться Git. Знание Git Flow.\n→ Желательно понимание Styled Components.\n→ Свободное владение CSS 3.\n→ Умение решать проблемы (кросс-браузерная верстка, отладка).\n→ Отсутствие проблем с Pixel Perfect и сеткой. Вёрстка для вас – это просто, а для нас – важно.\n→ Умение работать в команде, прогнозировать риски и следовать соглашениям.\n\n🎁 Что мы предлагаем?\n\n1. ПОЛНОСТЬЮ удалённая работа.\n2. Серьезные проекты для крупнейших банков, страховых компаний и Интернет-компаний. Команды и задачи, которые обеспечат вам профессиональный рост и активное развитие.\n3. Возможность выбирать проекты.\n4. Когда пожелаете, можете присоединиться к нам в новом офисе на ст.м. Калужская в БЦ \"Нео Гео\" – самом стильном и награждаемом БЦ в России с качественной новой техникой (Apple, HP, Dell) и гаджетами. Чай/кофе, фрукты, M&M's и прочие сладости в свободном доступе.\n5. Стабильность. Большие возможности для карьерного роста. Профессиональный рост за счёт наших практик – гарантирован.\n6. Гибрид европейской, японской и российской культуры работы. \n7. Оформление по ТК РФ. \n8. Занятость будет полная. Зарплата на руки от 130 000 до 160 000 рублей (Senior), Middle – от 90 000 до 120 000 рублей.\n9. Корпоративный ДМС (по запросу, разные опции).\n10. Гордость за годы, проведённые здесь, за результаты, достигнутые вместе.\n11. Админка в React-чате – в подарок! 😉 Шутка.\n\n🚀 Отнеситесь с вниманием! Жизнь одна. Уделите немного времени. Напишите о себе, приложите резюме и отправьте на jobs@axept.com, или в ЛС @AxeptJobs, или в ЛС @DenisIzmaylov","markup":[{"type":"hashtag","offset":177,"length":9,"data":"вакансия"},{"type":"hashtag","offset":189,"length":7,"data":"remote"},{"type":"hashtag","offset":197,"length":9,"data":"удаленка"},{"type":"hashtag","offset":209,"length":7,"data":"полная"},{"type":"hashtag","offset":217,"length":9,"data":"fulltime"},{"type":"hashtag","offset":229,"length":8,"data":"reactjs"},{"type":"hashtag","offset":238,"length":11,"data":"javascript"},{"type":"link","offset":1093,"length":24,"data":"http://www.axept.com/ru-ru/jobs"},{"type":"link","offset":1935,"length":28,"data":"https://youtu.be/xarGaBBDROw"},{"type":"link","offset":3705,"length":14,"data":"mailto:jobs@axept.com"},{"type":"handle","offset":3730,"length":10,"data":"AxeptJobs"},{"type":"handle","offset":3751,"length":14,"data":"DenisIzmaylov"}],"date":"2020-06-15T12:54:27+00:00","link":"tg://resolve?domain=javascript_jobs_feed&post=0","tags":[{"name":"javascript"},{"name":"reactjs"},{"name":"redux"},{"name":"typescript"},{"name":"nodejs"},{"name":"graphql"},{"name":"rest"},{"name":"json"},{"name":"swagger"},{"name":"postgresql"},{"name":"express"},{"name":"jwt"},{"name":"git"},{"name":"css"},{"name":"react-redux"},{"name":"react-native"}],"cities":[],"allowsRemote":true}},{"node":{"id":"90985988096-1001067529236","title":"Python разработчик","text":"#вакансия #москва #удаленка #backend #python #SQL #REST #Agile #Developer #PythonDeveloper #ORM\n\nВакансия:  Python Developer\nГород: Москва|СПб|Нижний Новгород\nЗП: 120 - 200к net\nЗанятость: полная, УДАЛЕНКА\n\nВсем привет! Ищу Python-разработчика!\n\nУсловия:\n✅ Безобразно интересные проекты\n✅ Удаленка (мы идейные удалёнщики)\n✅ Работу с межд. проектом с клиентами в >40 странах мира\n✅ Перспективу роста в профессионала глобального уровня\n✅ Оформление по ИП\n✅ 120 - 200к net\n✅ График свободный\n✅ Возмещение оплаты подключения ПО и оформления ИП\n\nТребования:\n❇️ Владение Python и любимыми его фреймворками\n❇️ Опыт руководства командой 1-5чел\n❇️ Релевантный опыт от 3х лет\n❇️ Опыт проектирования и разработки масштабируемых бекендов и REST APIs\n❇️ Опыт работы с реляционными БД, знание SQL\n❇️ Опыт работы с распределенными очередями\n❇️ Английский язык - уровень от B1\n❇️ Профильное высшее образование\n\nЗадачи:\n\nМного. Очень много)\nв лс, а то длинный текст 😄\n\nРабота со стеком технологий: Python 3.6, Pyramid, PostgreSQL, SQLAlchemy, Celery, Rabbitmq, Redis, Buildout, Rest API, немного JS (тех админка), Socket.io, Docker\n\nПодробности в лс😏\nКонтакты: @nutella_n","markup":[{"type":"hashtag","offset":0,"length":9,"data":"вакансия"},{"type":"hashtag","offset":10,"length":7,"data":"москва"},{"type":"hashtag","offset":18,"length":9,"data":"удаленка"},{"type":"hashtag","offset":28,"length":8,"data":"backend"},{"type":"hashtag","offset":37,"length":7,"data":"python"},{"type":"hashtag","offset":45,"length":4,"data":"SQL"},{"type":"hashtag","offset":50,"length":5,"data":"REST"},{"type":"hashtag","offset":56,"length":6,"data":"Agile"},{"type":"hashtag","offset":63,"length":10,"data":"Developer"},{"type":"hashtag","offset":74,"length":16,"data":"PythonDeveloper"},{"type":"hashtag","offset":91,"length":4,"data":"ORM"},{"type":"bold","offset":108,"length":17,"data":""},{"type":"bold","offset":163,"length":10,"data":""},{"type":"bold","offset":174,"length":4,"data":""},{"type":"bold","offset":189,"length":34,"data":""},{"type":"bold","offset":224,"length":31,"data":""},{"type":"bold","offset":541,"length":12,"data":""},{"type":"bold","offset":895,"length":14,"data":""},{"type":"bold","offset":953,"length":28,"data":""},{"type":"link","offset":1098,"length":9,"data":"http://Socket.io"},{"type":"bold","offset":1136,"length":20,"data":""},{"type":"handle","offset":1146,"length":10,"data":"nutella_n"}],"date":"2020-06-15T11:51:07+00:00","link":"tg://resolve?domain=python_jobs&post=0","tags":[{"name":"python"},{"name":"sql"},{"name":"rest"},{"name":"orm"},{"name":"dotnet"},{"name":"postgresql"},{"name":"sqlalchemy"},{"name":"rabbitmq"},{"name":"redis"},{"name":"docker"}],"cities":[{"code":"moscow"},{"code":"nizhny-novgorod"}],"allowsRemote":true}},{"node":{"id":"71294779392-1001054966032","title":"Android developer","text":"#вакансия #Middle #Android developer #kotlin #удаленно                                                                                                         Уровень дохода:💵 130 000-150 000  рублей net                                                                                                                                                                                 Требуемый опыт работы: 2-4 года\nПолная занятость, дистанционно, гибкое начало рабочего дня\n \n📌Требования:\n- Нативная Android разработка (Kotlin)\n- Умение писать поддерживаемый и тестируемый код\n- Умение работать с Dagger 2\n- Умение работать с git\n- Желание развиваться и изучать новое в разработке\n- Опыт разработки приложений от 2 лет\n -Знание английского языка от уровня Intermediate\n \n📌Будет плюсом:\n- Опыт работы с JNI\n- Опыт использования tensorflow\n- Опыт работы с аудио и видео\n\n📌Условия:\n- Отсутствие бюрократии\n- Время начала рабочего дня обговариваем индивидуально\n- Крутой инновационный проект - возможность самореализации и профессионального роста\n- Стабильное зарубежное финансирование\n- Десятки миллионов установок и множество глобальных партнёров\n📞Контакты @SvetikS_hr +7(963)-632-12-36 Cветлана","markup":[{"type":"hashtag","offset":0,"length":9,"data":"вакансия"},{"type":"hashtag","offset":10,"length":7,"data":"Middle"},{"type":"hashtag","offset":18,"length":8,"data":"Android"},{"type":"hashtag","offset":37,"length":7,"data":"kotlin"},{"type":"hashtag","offset":45,"length":9,"data":"удаленно"},{"type":"handle","offset":1157,"length":11,"data":"SvetikS_hr"},{"type":"link","offset":1169,"length":17,"data":"tel:+7(963)-632-12-36"}],"date":"2020-06-15T11:42:47+00:00","link":"tg://resolve?domain=mobile_jobs&post=0","tags":[{"name":"mobile"},{"name":"android"},{"name":"kotlin"},{"name":"dotnet"},{"name":"git"},{"name":"tensorflow"}],"cities":[],"allowsRemote":true}},{"node":{"id":"26312966144-1001075660570","title":"Php developer","text":"#вакансия #backend #remote #fulltime\nPHP back-end developer в  Platinum Software Development (удаленка)\n\nО НАС:\nhttps://platinum.fund\n\nЗАДАЧИ:\n• Разработка высоконагруженных коммерческих приложений\n\nТРЕБОВАНИЯ:\n• Опыт разработки комерческих приложений на PHP (Laravel) от двух лет\n• Опыт разработки RESTfull сервисов;\n• Знание СУБД (MySQL, Postgresql, NoSQL) \n• Знание принципов ООП, SOLID, шаблонов проектирования\n• Умение работать c Git, Bash\n\nБУДЕТ ПЛЮСОМ:\n• Знакомство с микросервисной архитектурой приложения \n• Понимание Continuous Integration и Delivery, опыт использование CI tools\n• Знакомство с инструментом контейнеризации Docker \n•  Знание алгоритмов, структур данных\n• Опыт разработки с применением Unit-тестирования (TDD) \n• Базовые знания JavaScript\n\nУСЛОВИЯ:\n• Удаленка\n• Полный день, 6 дней в неделю \n• ЗП от 1500-2500$\n\nКОНТАКТЫ:\n@Helen_Blb","markup":[{"type":"hashtag","offset":0,"length":9,"data":"вакансия"},{"type":"hashtag","offset":10,"length":8,"data":"backend"},{"type":"hashtag","offset":19,"length":7,"data":"remote"},{"type":"hashtag","offset":27,"length":9,"data":"fulltime"},{"type":"bold","offset":37,"length":22,"data":""},{"type":"bold","offset":63,"length":29,"data":""},{"type":"bold","offset":105,"length":7,"data":""},{"type":"link","offset":112,"length":21,"data":"https://platinum.fund"},{"type":"bold","offset":135,"length":8,"data":""},{"type":"bold","offset":199,"length":12,"data":""},{"type":"bold","offset":446,"length":14,"data":""},{"type":"bold","offset":766,"length":9,"data":""},{"type":"bold","offset":838,"length":10,"data":""},{"type":"handle","offset":848,"length":10,"data":"Helen_Blb"}],"date":"2020-06-15T11:01:12+00:00","link":"tg://resolve?domain=php_jobs&post=25094","tags":[{"name":"php"},{"name":"laravel"},{"name":"mysql"},{"name":"postgresql"},{"name":"nosql"},{"name":"git"},{"name":"bash"},{"name":"docker"},{"name":"javascript"},{"name":"continuous-integration"}],"cities":[],"allowsRemote":true}},{"node":{"id":"102842236928-1001089317451","title":"Qa engineer","text":"#вакансия #Казань #Нижний_Новгород #Краснодар #офис #удаленно \n\n💻Компания «БАРС Груп» - ведущий российский разработчик решений для государственного и корпоративного секторов с 1992 года, входит в ТОП-15 крупнейших разработчиков России.\n\n👀Мы в поисках QA Auto Engineer на крупные государственные проекты.\n\nОт новых сотрудников мы ожидаем:\n•Знание базовых понятий и определений в тестировании;\n•Знание и уверенное владение методиками тестирования;\n•  Экспертное владение навыками составления тест-кейсов, чек-листов, баг-репортов;\n•Владение языком программирования С# / Python.\nБудет плюсом:\n•Владение инструментами тестирования Fiddler/Postman, Visual Studio, фрэймворками Nunit, restsharp, Selenium.webdriver;\n•Опыт работы с системами JIRA, git/stash.\n\n💰Уровень заработной платы: от 50000р до 150000р. \n\n⏰Рабочий день в офисе или полностью удаленно\n\n🔺Вместе мы будем работать над масштабными проектами, которые меняют к лучшему жизни людей!","markup":[{"type":"hashtag","offset":0,"length":9,"data":"вакансия"},{"type":"hashtag","offset":10,"length":7,"data":"Казань"},{"type":"hashtag","offset":18,"length":16,"data":"Нижний_Новгород"},{"type":"hashtag","offset":35,"length":10,"data":"Краснодар"},{"type":"hashtag","offset":46,"length":5,"data":"офис"},{"type":"hashtag","offset":52,"length":9,"data":"удаленно"}],"date":"2020-06-15T10:44:00+00:00","link":"tg://resolve?domain=qa_jobs&post=0","tags":[{"name":"qa"},{"name":"python"},{"name":"selenium"},{"name":"git"},{"name":"visual-studio"}],"cities":[{"code":"kazan"},{"code":"krasnodar"},{"code":"nizhny-novgorod"}],"allowsRemote":true}},{"node":{"id":"90978648064-1001067529236","title":"Python разработчик","text":"#fullstack_dev #вакансия #удаленка #Python \n\nПривет! Меня зовут Виолетта, ищу Python разработчика в компанию SIMKOMAT.\n\nМесто работы: удаленка \nРабочий день: полный рабочий день\nТвои умения: \nPython, asyncio, flask\nОпыт программирования многопоточных приложений;\nЗнание операционной системы Linux;\nЗнание Docker/Docker-compose\nУмение работы с системой контроля версий Git, gitlab, CI/CD\nОпыт работы с базами данных Mongodb, PostgreSQL или MySQL\nПонимание принципов виртуализации;\nОпыт администрирования ОС семейства Linux, localhost, умение работать с ssh\nМы общаемся в: Trello, Atlassian, Telegram, Viber, GitLab Issues\nО компании: создаем программные аппараты для выдачи сим-карт без участия человека. В основном сотрудничаем с иностраннными компаниями. Нашему коллективу кажется, что мы веселые и приятные люди. \nОткликаться на вакансию: пиши мне в телеграм @violker или на почту yo@simkomat.com\n\nЗа внимание спасибо. Сайт SIMKOMAT - тебе. https://simkomat.com/ru/","markup":[{"type":"hashtag","offset":0,"length":14,"data":"fullstack_dev"},{"type":"hashtag","offset":15,"length":9,"data":"вакансия"},{"type":"hashtag","offset":25,"length":9,"data":"удаленка"},{"type":"hashtag","offset":35,"length":7,"data":"Python"},{"type":"bold","offset":120,"length":13,"data":""},{"type":"bold","offset":144,"length":13,"data":""},{"type":"bold","offset":178,"length":14,"data":""},{"type":"bold","offset":556,"length":15,"data":""},{"type":"bold","offset":621,"length":11,"data":""},{"type":"bold","offset":816,"length":24,"data":""},{"type":"handle","offset":861,"length":8,"data":"violker"},{"type":"link","offset":883,"length":15,"data":"mailto:yo@simkomat.com"},{"type":"link","offset":943,"length":24,"data":"https://simkomat.com/ru/"},{"type":"bold","offset":943,"length":24,"data":""}],"date":"2020-06-15T10:41:34+00:00","link":"tg://resolve?domain=python_jobs&post=0","tags":[{"name":"python"},{"name":"flask"},{"name":"linux"},{"name":"docker"},{"name":"git"},{"name":"gitlab"},{"name":"mongodb"},{"name":"postgresql"},{"name":"mysql"},{"name":"ssh"},{"name":"docker-compose"}],"cities":[],"allowsRemote":true}},{"node":{"id":"338690048-1001352129329","title":"Golang разработчик","text":"#вакансия #golang #go\n\nВакансия: Golang разработчик\nГород: Казань\nФормат работы: удаленная работа/офис\nКомпания: Спутник\nВилка заработной платы: 70 000 - 150 000\n\nКто мы?\nКомпания Спутник занимается обеспечением безопасности людей более чем в 100 городах России и 7 странах мира. Наши продукты позволяют сделать из обычного многоквартирного дома - умный дом. Мы являемся резидентами Сколково и Иннополиса, а также входим в тройку лидеров отрасли. \nВместо классической управленческой иерархии мы предпочитаем придерживаться принципов холакратии.\n\nКого мы ожидаем?\nТалантливых разработчиков, которые:\n• имеют коммерческий опыт работы с GoLang (от 1 года);\n• владеют знанием любого другого языка программирования;\n• имеют опыт работы с Linux, терминалом;\n• как примущество - имеют опыт серверного программирования (Web, облака)\n\nЧто мы предлагаем?\n• увлекательный опыт в режиме равенства и без бюрократии;\n• возможность гибкого графика работы/удаленной работы;\n• перспективу динамичного пересмотра заработной платы в зависимости от способностей и достижений\n\nКонтактное лицо\nЛиля Афанасьева\ne-mail: lily@sputnik.direct\ntelegram: lilia_afanaseva","markup":[{"type":"hashtag","offset":0,"length":9,"data":"вакансия"},{"type":"hashtag","offset":10,"length":7,"data":"golang"},{"type":"hashtag","offset":18,"length":3,"data":"go"},{"type":"link","offset":1096,"length":19,"data":"mailto:lily@sputnik.direct"}],"date":"2020-06-15T10:06:29+00:00","link":"tg://resolve?domain=gogetajobfeed&post=323","tags":[{"name":"go"},{"name":"linux"},{"name":"web"}],"cities":[{"code":"kazan"}],"allowsRemote":true}}]}},"context":{}}