{"hash":"f5f6bf98bd95e769321482904cbbd488f77922fd","data":{"records":{"id":"reactjs","name":"reactjs","belongsTo":{"totalCount":182,"pageInfo":{"totalPages":19,"currentPage":4},"edges":[{"node":{"__typename":"Job","id":"17280532480-1001110946746","title":"Javascript разработчик","text":"#вакансия #удаленка #remote #react\n\nГород: любой\nФормат работы: удаленка\nЗанятость: полная, fulltime\nЗарплатная вилка: от 80.000 до 160.000 рублей \nНазвание компании: E-cetera\n\nОписание вакансии: Требуется react-разработчик\n\nЗадачи:\nРазработка компонентов и сервисов на реакте \nИнтеграция с API\nПожелания к опыту соискателя:\nОтличные знания JavaScript (у нас ES6+)\nОпыт работы с React/Redux от года\nОпыт в покрытии кода тестами (у нас Jest и Enzyme) \nОпыт разработки SPA приложений\nПомнить как верстать\n\nПлюсом будет\nОпыт использования redux-saga, reselect \nИспользование кодестайла eslint и airbnb\n\nКонтакты: azakharov@marfa.team \nTelegram: @toxuh","markup":[{"type":"hashtag","offset":0,"length":9,"data":"вакансия"},{"type":"hashtag","offset":10,"length":9,"data":"удаленка"},{"type":"hashtag","offset":20,"length":7,"data":"remote"},{"type":"hashtag","offset":28,"length":6,"data":"react"},{"type":"link","offset":610,"length":20,"data":"mailto:azakharov@marfa.team"},{"type":"handle","offset":642,"length":6,"data":"toxuh"}],"date":"2020-07-01T07:49:02+00:00","link":"tg://resolve?domain=javascript_jobs_feed&post=16480","tags":[{"name":"javascript"},{"name":"reactjs"},{"name":"redux"},{"name":"react-redux"}],"cities":[],"allowsRemote":true}},{"node":{"__typename":"Job","id":"17277386752-1001110946746","title":"Js разработчик","text":"#вакансия #вакансии #удаленная #работа #разработчик #remote #job #remotejob #full #stack #fullstack #software #engineer #develop #developer #node #react #amazon #aws #api #crm #erp #zoho #us #usa\n\n😎 Full Stack Software Engineer\n\nКомпания: Deep Consulting Solutions (Austin, Texas)\n\nМестоположение: Anywhere\n\nФормат работы: Remote \n\nЗанятость: Full Time, Flexible Schedule \n\nЗарплата: $20-80K в год. Compensation plan depends on level of ability, responsibility taken, and results delivered. Compensation consists of base and bonus pay.\n \nОписание вакансии:\n\nhttps://zfrmz.com/yIDN35yaj3apxsNfR9qS?src=irina-itrecruiter\n\nRequirements:\n\nYou must be:\n\n- A mature and responsible individual driven by results and not activities.\n- An individual with genuine interest in technology.\n- Willing to learn, grow, and admit mistakes.\n- Able to communicate with other people on the project's team effectively.\n \nSkills/Experience:\n\n- Node.js, React, SQL and NoSQL databases.\n- APIs.\n- Effective Written and Verbal English.\n- Basic Understanding of DevOps and SDLC.\n \nThe following will be a good plus:\n\n- Experience with Amazon AWS, serverless technologies, and microservices on its platform.\n- Experience with CRM and ERP systems such as Zoho and others.\n\nКак подать заявку:\n\nhttps://zfrmz.com/yIDN35yaj3apxsNfR9qS?src=irina-itrecruiter\n\nКонтакт:\n@Aagdan","markup":[{"type":"hashtag","offset":0,"length":9,"data":"вакансия"},{"type":"hashtag","offset":10,"length":9,"data":"вакансии"},{"type":"hashtag","offset":20,"length":10,"data":"удаленная"},{"type":"hashtag","offset":31,"length":7,"data":"работа"},{"type":"hashtag","offset":39,"length":12,"data":"разработчик"},{"type":"hashtag","offset":52,"length":7,"data":"remote"},{"type":"hashtag","offset":60,"length":4,"data":"job"},{"type":"hashtag","offset":65,"length":10,"data":"remotejob"},{"type":"hashtag","offset":76,"length":5,"data":"full"},{"type":"hashtag","offset":82,"length":6,"data":"stack"},{"type":"hashtag","offset":89,"length":10,"data":"fullstack"},{"type":"hashtag","offset":100,"length":9,"data":"software"},{"type":"hashtag","offset":110,"length":9,"data":"engineer"},{"type":"hashtag","offset":120,"length":8,"data":"develop"},{"type":"hashtag","offset":129,"length":10,"data":"developer"},{"type":"hashtag","offset":140,"length":5,"data":"node"},{"type":"hashtag","offset":146,"length":6,"data":"react"},{"type":"hashtag","offset":153,"length":7,"data":"amazon"},{"type":"hashtag","offset":161,"length":4,"data":"aws"},{"type":"hashtag","offset":166,"length":4,"data":"api"},{"type":"hashtag","offset":171,"length":4,"data":"crm"},{"type":"hashtag","offset":176,"length":4,"data":"erp"},{"type":"hashtag","offset":181,"length":5,"data":"zoho"},{"type":"hashtag","offset":187,"length":3,"data":"us"},{"type":"hashtag","offset":191,"length":4,"data":"usa"},{"type":"link","offset":559,"length":60,"data":"https://zfrmz.com/yIDN35yaj3apxsNfR9qS?src=irina-itrecruiter"},{"type":"link","offset":1267,"length":60,"data":"https://zfrmz.com/yIDN35yaj3apxsNfR9qS?src=irina-itrecruiter"},{"type":"handle","offset":1338,"length":7,"data":"Aagdan"}],"date":"2020-07-01T05:19:22+00:00","link":"tg://resolve?domain=javascript_jobs_feed&post=16477","tags":[{"name":"javascript"},{"name":"nodejs"},{"name":"reactjs"},{"name":"amazon-web-services"},{"name":"sql"},{"name":"nosql"}],"cities":[{"code":"austin"}],"allowsRemote":true}},{"node":{"__typename":"Job","id":"104108916736-1001089317451","title":"Qa engineer","text":"#вакансия #QA #тестировщик #middle #senior #москва #офис #fulltime\n\nКомпания: СберТех\nЛокация: г. Москва\nЗ/п: 130-250k\n \nСберТех приглашает в команду QA Engineer. Так же того, кто желает обучаться автоматизации на JS/CodeceptJS или уже состоявшегося автоматизатора\n\n💻 Делаем образовательную цифровую платформу - SaaS решение для персонализированного обучения в школах, IT Bootcamp Сбербанка. Сейчас масштабируемся и выходим на университеты\n\nСтек проекта:\nBack: Java 8+, Spring 5, SpringBoot 2, PostgreSQL, MongoDB, Flyway\n﻿Front: ReactJS, Typescript, Apollo-client, Styled-Components\nAutomationQA: API - Java/TestNG; UI - JavaScript/CodeceptJS\nInfracture: Jenkins, Allure, Bitbucket, Jira, EFK, Grafana\nEnvironment: Docker, Kubernetes, Ceph\n\nЧем предстоит заниматься:\n🔹проходить регресс текущего функционала\n🔹разрабатывать кейсы параллельно разработке нового функционала\n🔹проводить анализ требований для новых фич и давать свое заключение\n🔹участвовать в расширении тестовой модели\n🔹автоматизировать регресс, поддерживать старый функционал, писать тесты для новых фич\n\nОжидания от квалификации:\n🔹умение работать с DevTools, различать Get & Post-запросы\n🔹знание видов тестирования, умение отличить функциональное тестирование от нефункционального, понимание зачем и когда нужен regress, end-2-end и smoke testing\n🔹умение/желание тестировать UI\n🔹опыт работы с технической документацией, анализом макетов и составлением тестовой документации \n🔹умение чётко и внятно составлять баг-репорты в таск-трекере (у нас Jira)\n🔹умение писать понятные для других тест-кейсы без лишней информации\n🔹опыт взаимодействия с Rest-API\n\nПлюсом будет:\n🔹если слова cross platform testing & cross device testing не вызывают ступора, на примете есть полезные applications для тестирования UI\n🔹если уже ступил на путь познания JavaScript или Java\n🔹шапочное или личное знакомство с GraphQL\n🔹опыт работы в Agile-команде\n\nПредлагаем:\n✔достойную зарплату (оклад + высокая годовая премия) \n✔профессиональное развитие: конференции, митапы, обучение в Корпоративном университете Сбербанка\n✔ДМС, страховку от несчастных случаев, льготные условия ипотеки, скидки от компаний-партнеров, бесплатный тренажёрный зал\n✔офис А класса в БЦ «Северное Сияние» (5 мин от м. Савеловская), удалёнка до конца июля\n\nЕсли интересно - буду рада обсудить, вот мои контакты:\n📲 @karprokar\n📩 KVProlomova@sberbank.ru","markup":[{"type":"hashtag","offset":0,"length":9,"data":"вакансия"},{"type":"hashtag","offset":10,"length":3,"data":"QA"},{"type":"hashtag","offset":14,"length":12,"data":"тестировщик"},{"type":"hashtag","offset":27,"length":7,"data":"middle"},{"type":"hashtag","offset":35,"length":7,"data":"senior"},{"type":"hashtag","offset":43,"length":7,"data":"москва"},{"type":"hashtag","offset":51,"length":5,"data":"офис"},{"type":"hashtag","offset":57,"length":9,"data":"fulltime"},{"type":"bold","offset":68,"length":8,"data":""},{"type":"bold","offset":86,"length":7,"data":""},{"type":"bold","offset":105,"length":3,"data":""},{"type":"bold","offset":121,"length":40,"data":""},{"type":"bold","offset":442,"length":12,"data":""},{"type":"bold","offset":743,"length":24,"data":""},{"type":"bold","offset":1074,"length":24,"data":""},{"type":"bold","offset":1627,"length":12,"data":""},{"type":"bold","offset":1908,"length":10,"data":""},{"type":"handle","offset":2340,"length":10,"data":"karprokar"},{"type":"link","offset":2354,"length":23,"data":"mailto:KVProlomova@sberbank.ru"}],"date":"2020-06-30T20:08:43+00:00","link":"tg://resolve?domain=qa_jobs&post=99286","tags":[{"name":"qa"},{"name":"java"},{"name":"spring"},{"name":"postgresql"},{"name":"mongodb"},{"name":"reactjs"},{"name":"typescript"},{"name":"javascript"},{"name":"jenkins"},{"name":"docker"},{"name":"kubernetes"},{"name":"rest"},{"name":"graphql"}],"cities":[{"code":"moscow"}],"allowsRemote":true}},{"node":{"__typename":"Job","id":"17276338176-1001110946746","title":"Javascript разработчик","text":"#вакансия #react #junior #middle #работа #parttime #JavaScript #Frontend #Web\n\nГород и адрес офиса: Москва. \nФормат работы: Удаленная работа. \nЗанятость: Частичная. В ближайший месяц требуется фуллтайм и работы много, дальше почасово или по задачам.\n\nЗарплатная вилка: от 50.000 до 100.000 рублей на руки\n\nОписание вакансии: Требуется второй разработчик для разработки админки, который сверстает и запрограммирует второстепенные экраны. React. Делать необходимо только фронтенд-часть. Ответственные джуниоры приветствуются\n\nНазвание компании: Новая Газета\nКонтакты: @hector5555","markup":[{"type":"hashtag","offset":0,"length":9,"data":"вакансия"},{"type":"hashtag","offset":10,"length":6,"data":"react"},{"type":"hashtag","offset":17,"length":7,"data":"junior"},{"type":"hashtag","offset":25,"length":7,"data":"middle"},{"type":"hashtag","offset":33,"length":7,"data":"работа"},{"type":"hashtag","offset":41,"length":9,"data":"parttime"},{"type":"hashtag","offset":51,"length":11,"data":"JavaScript"},{"type":"hashtag","offset":63,"length":9,"data":"Frontend"},{"type":"hashtag","offset":73,"length":4,"data":"Web"},{"type":"handle","offset":566,"length":11,"data":"hector5555"}],"date":"2020-06-30T17:34:12+00:00","link":"tg://resolve?domain=javascript_jobs_feed&post=16476","tags":[{"name":"javascript"},{"name":"reactjs"},{"name":"web"}],"cities":[{"code":"moscow"}],"allowsRemote":false}},{"node":{"__typename":"Job","id":"17274241024-1001110946746","title":"Js разработчик","text":"Всем привет! \n\nИщу Frontend-разработчика в крупную инвестиционно-строительную компанию, реализующую свои проекты на рынке Москвы и Московской области. Топ-5 среди застройщиков Москвы и МО.\n\nНеобходимо будет разрабатывать проекты по управлению стройкой и её оптимизацией (планирование, распределение бюджетов, управление процессами на стройке и т.д.), а также для внешних пользователей сервис по покупке недвижимости (web и mobile-версии). Команда пока собрана небольшая - 12 человек. \nСтек: JavaScript (ES6) React +Redux + CSS + SCSS на фронтенде, Python (Django) на бекенде, React-Native - на мобильной разработке. \n\nПо требованиям: \n- опыт с React (от 1,5 лет)\n- опыт с JS (от 2-х лет)\n\nВилка ЗП 150-220k руб. на руки, офис в пяти минутах от ст. м. Кунцевская (г. Москва), есть возможность работать удаленно, отсутствие бюрократии, лояльное руководство, ДМС, возможность посещения конференций, курсов по повышению квалификации за счет работодателя.\n\nТип занятости: полная, офис, удаленка\nНазвание компании: Самолет Девелопмент\n\nКто заинтересовался - пишите в ЛС (@eivanova17),  буду оперативно отвечать 🙂 \n\n#работа #Москва #вакансия #job #react #reactjs #js #офис #удаленка","markup":[{"type":"handle","offset":1065,"length":11,"data":"eivanova17"},{"type":"hashtag","offset":1110,"length":7,"data":"работа"},{"type":"hashtag","offset":1118,"length":7,"data":"Москва"},{"type":"hashtag","offset":1126,"length":9,"data":"вакансия"},{"type":"hashtag","offset":1136,"length":4,"data":"job"},{"type":"hashtag","offset":1141,"length":6,"data":"react"},{"type":"hashtag","offset":1148,"length":8,"data":"reactjs"},{"type":"hashtag","offset":1157,"length":3,"data":"js"},{"type":"hashtag","offset":1161,"length":5,"data":"офис"},{"type":"hashtag","offset":1167,"length":9,"data":"удаленка"}],"date":"2020-06-30T16:39:47+00:00","link":"tg://resolve?domain=javascript_jobs_feed&post=16474","tags":[{"name":"javascript"},{"name":"web"},{"name":"mobile"},{"name":"reactjs"},{"name":"redux"},{"name":"css"},{"name":"python"},{"name":"django"},{"name":"react-redux"},{"name":"react-native"}],"cities":[{"code":"moscow"}],"allowsRemote":true}},{"node":{"__typename":"Job","id":"17273192448-1001110946746","title":"Js разработчик","text":"Всем привет!\n#вакансия #Frontend #React #PWA\nФормат работы: удаленка/возможен офис\nГород: г. Москва (м. Дмитровская), г. Минск (м. Грушевка)\nЗанятость: проектная/полная\nЗ/п: от 1200$ до 2500$\nКомпания: BSL (bsl.dev)\n\nСейчас ищем на иностранный проект Frontend разработчика для работы над PWA.\n\n🔸 Задачи:\nРазработка новых сервисов и приложений PWA;\nРабота с инфраструктурой React.JS;\nРабота совместно с тех. руководством, участие в принятии решения об архитектуре проекта;\nПроведение Code Review.\n🔸 Что нужно уметь:\nОпыт работы на JavaScript, знание стандартов ECMAScript;\nУмение создавать интерфейсы с использованием React;\nХорошее понимание принципов ФП, ООП и паттернов проектирования;\nЗнание и понимание Git.\n🔸 Что мы даем взамен:\nВозможность прокачки hard skills на проектах разного уровня сложности;\nКоманду с сильными разработчиками, QA, UX/UI дизайнерами, менеджерами и налаженными внутренними процессами;\nСамореализацию и профессиональный рост, посещение конференций и курсов за счет компании. Расскажите нам о своей профессиональной мечте, возможно мы поможем вам воплотить ее в жизнь;\nГрафик работы: удаленный или можно работать в офисе: г. Москва - м. Дмитровская, г. Минск - м. Грушевка;\n\nКонтакты: hr@bsl.dev или мой телеграм: @viktoriya_gw","markup":[{"type":"hashtag","offset":13,"length":9,"data":"вакансия"},{"type":"hashtag","offset":23,"length":9,"data":"Frontend"},{"type":"hashtag","offset":33,"length":6,"data":"React"},{"type":"hashtag","offset":40,"length":4,"data":"PWA"},{"type":"link","offset":207,"length":7,"data":"http://bsl.dev"},{"type":"link","offset":1214,"length":10,"data":"mailto:hr@bsl.dev"},{"type":"handle","offset":1243,"length":13,"data":"viktoriya_gw"}],"date":"2020-06-30T16:38:59+00:00","link":"tg://resolve?domain=javascript_jobs_feed&post=16473","tags":[{"name":"javascript"},{"name":"reactjs"},{"name":"git"}],"cities":[{"code":"moscow"},{"code":"minsk"}],"allowsRemote":true}},{"node":{"__typename":"Job","id":"17268998144-1001110946746","title":"Js разработчик","text":"#вакансия #frontend  #React #офис #remote #Мск #Пермь #senior #middle \n\nкомпания: КА: http://luckyhunter.io\nЗ/п: 120 000 - 200 000 рублей на руки (+премии) \nГород и адрес офиса: г. Москва (Павелецкая), г. Пермь\nФормат работы: офис или удаленка \nЗанятость: полная, fulltime\n\n🚀Ищем frontend разработчиков уровня Middle или Senior в крупную продуктовую компанию с возможностью удаленной работы!\n\nРебята разрабатывают интеллектуальную low-code платформу для создания бизнес-приложений и информационных систем в области управления рисками и оптимизации бизнес-процессов любой сложности. Компания не разрабатывает решения для одного заказчика или «под проект», они продвигают собственную продуктовую разработку и реализуют весь новый функционал в удобных инструментах, которые сразу же становятся доступными для всех заказчиков.\n\n❇️Всего в компании трудится около 200 человек, разработчики поделены на 3 группы разработки и работают в scrum командах по 5-6 человек. Коллеги ценят инициативность и активный вклад в общее дело, также поддерживают разумные инициативы по внедрению новых технологий и подходов в разработку.\n\nСтэк технологий: \nJavaScript, React, TypeScript, Webpack, Maven, MobX, HighchartsJS, Gitlab. \n\n✅Какой опыт необходим: \n- опыт коммерческой разработки на JS от 2 лет и больше;\n- опыт работы с React от 1 года;\n- опыт работы с TypeScript будет вашим преимуществом. \n\n✅Какие бонусы и перспективы получите вы: \n- возможность работать удаленно или в офисе (Москва, Пермь);\n- официальное оформление и полностью белую зп, которая зависит от ваших компетенций и ожиданий;\n- гибкое начало рабочего дня, отсутствие бюрократии;\n- работу в молодой и развивающейся команде, которая разрабатывает быстроразвивающийся, востребованный продукт;\n- релокационный пакет для переезжающих из других городов.\n\nКонтакты:\ne-mail: valeriya@luckyhunter.io\ntelegram: @sobolevavalery\nБуду рада ответить на все вопросы и комментарии по вакансии 😊","markup":[{"type":"hashtag","offset":0,"length":9,"data":"вакансия"},{"type":"hashtag","offset":10,"length":9,"data":"frontend"},{"type":"hashtag","offset":21,"length":6,"data":"React"},{"type":"hashtag","offset":28,"length":5,"data":"офис"},{"type":"hashtag","offset":34,"length":7,"data":"remote"},{"type":"hashtag","offset":42,"length":4,"data":"Мск"},{"type":"hashtag","offset":47,"length":6,"data":"Пермь"},{"type":"hashtag","offset":54,"length":7,"data":"senior"},{"type":"hashtag","offset":62,"length":7,"data":"middle"},{"type":"link","offset":86,"length":21,"data":"http://luckyhunter.io"},{"type":"link","offset":1820,"length":23,"data":"mailto:valeriya@luckyhunter.io"},{"type":"handle","offset":1854,"length":15,"data":"sobolevavalery"}],"date":"2020-06-30T16:06:49+00:00","link":"tg://resolve?domain=javascript_jobs_feed&post=16469","tags":[{"name":"javascript"},{"name":"reactjs"},{"name":"typescript"},{"name":"webpack"},{"name":"maven"},{"name":"gitlab"}],"cities":[{"code":"perm"},{"code":"moscow"}],"allowsRemote":true}},{"node":{"__typename":"Job","id":"72385298432-1001054966032","title":"Mobile разработчик","text":"#вакансия #react #native  #middle #senior \n\nГород и адрес офиса: Локация не важна. \n\nФормат работы: Удаленная работа. \n\nЗанятость: Полная. Проектов несколько. Основная работа - разработка и контроль кроссплатформенного приложения по доставке. \n\nЗарплатная вилка: от 100 до 250 \n\nОписание вакансии: Требуется специалист по React Native в дружную команду для работы над очень интересными проектами. Обязательна адекватность, ответственность и любовь к своему делу. Уровень не ниже middle. \n\nНазвание компании: Scripta IT \nКонтакты: @buddhh","markup":[{"type":"hashtag","offset":0,"length":9,"data":"вакансия"},{"type":"hashtag","offset":10,"length":6,"data":"react"},{"type":"hashtag","offset":17,"length":7,"data":"native"},{"type":"hashtag","offset":26,"length":7,"data":"middle"},{"type":"hashtag","offset":34,"length":7,"data":"senior"},{"type":"bold","offset":44,"length":19,"data":""},{"type":"bold","offset":85,"length":13,"data":""},{"type":"bold","offset":120,"length":9,"data":""},{"type":"bold","offset":245,"length":16,"data":""},{"type":"bold","offset":279,"length":17,"data":""},{"type":"bold","offset":489,"length":18,"data":""},{"type":"bold","offset":520,"length":9,"data":""},{"type":"handle","offset":530,"length":7,"data":"buddhh"}],"date":"2020-06-30T15:58:50+00:00","link":"tg://resolve?domain=mobile_jobs&post=69032","tags":[{"name":"mobile"},{"name":"reactjs"},{"name":"react-native"}],"cities":[],"allowsRemote":false}},{"node":{"__typename":"Job","id":"17264803840-1001110946746","title":"Js developer","text":"#вакансия #frontend #javascript #senior #vacancy #remote #удаленка #fulltime \n\n📍Компания: Datagrok (https://datagrok.ai)\n📍Локация: USA, PA\n📍Формат: удаленная работа, фуллтайм\n📍Вилка: 1000$ - 2500$\n\nКонтакт: @alexaprm \n\nDatagrok.ai is looking for a qualified frontend developer to join our strong team of engineers and data scientists. We are a startup developing a next-generation, no-compromises data analytics platform that will revolutionize the industry. Our proprietary technology lets us efficiently process datasets with tens of millions of rows in the browser, and interactively visualize them. We take pride in platform’s UX and performance, and take advantage of the technologies such as WebAssembly, WebGL, and browser-based multithreaded computations. We have a very well established development process that includes unit tests, continuous integration system, stress tests, integration tests, automated UI testing system, and various deployment options. Our technology stack is primarily based on Dart and Postgres, but also has multiple extension points with components developed in JavaScript, TypeScript, Python, R, Java, and C++. Initially you will be involved in developing new plugins in JavaScript, and extending platform’s core capabilities to enable that.\n\nThere is a lot of room to grow, and there will be many opportunities to assume more responsibilities and learn new domains, such as machine learning, artificial intelligence, or high-performance computing.\n\nThis is a remote position.\nIt would be great if you could send us a project you have developed on your own (github repository is ok), or point to another project you have participated in. \n\nResponsibilities\n* Front-end and back-end web development\n* Maintain and improve developer-facing platform’s JS API\n* Help our clients write JS applications on top of the Datagrok platform\n* Develop proof-of-concept applications\n* Integrate third-party JS libraries into the platform\n\nRequirements\n* At least two years of professional experience\n* JavaScript or TypeScript\n* At least one of (Angular, React, Vue)\n* Good written English, ability to communicate directly with our clients\n* Strong verbal and written communication skills\n* Ability to learn and apply new technologies\n\nNice to have\n* One of (Python, R, Java, C#, C++)\n* WebGL\n* WebAssembly\n* Dart\n* Machine learning and statistics\n* Prior exposure to life sciences is a plus\n\n—\n\n👉 Обсуждение вакансии в чате @javascript_jobs","markup":[{"type":"hashtag","offset":0,"length":9,"data":"вакансия"},{"type":"hashtag","offset":10,"length":9,"data":"frontend"},{"type":"hashtag","offset":20,"length":11,"data":"javascript"},{"type":"hashtag","offset":32,"length":7,"data":"senior"},{"type":"hashtag","offset":40,"length":8,"data":"vacancy"},{"type":"hashtag","offset":49,"length":7,"data":"remote"},{"type":"hashtag","offset":57,"length":9,"data":"удаленка"},{"type":"hashtag","offset":67,"length":9,"data":"fulltime"},{"type":"link","offset":101,"length":19,"data":"https://datagrok.ai"},{"type":"handle","offset":211,"length":9,"data":"alexaprm"},{"type":"link","offset":223,"length":11,"data":"http://Datagrok.ai"},{"type":"handle","offset":2452,"length":16,"data":"javascript_jobs"}],"date":"2020-06-30T12:32:35+00:00","link":"tg://resolve?domain=javascript_jobs_feed&post=16465","tags":[{"name":"javascript"},{"name":"deployment"},{"name":"dart"},{"name":"postgresql"},{"name":"typescript"},{"name":"python"},{"name":"java"},{"name":"github"},{"name":"web"},{"name":"angularjs"},{"name":"reactjs"},{"name":"vuejs"},{"name":"continuous-integration"},{"name":"machine-learning"}],"cities":[{"code":"nice"}],"allowsRemote":true}},{"node":{"__typename":"Job","id":"17263755264-1001110946746","title":"Javascript разработчик","text":"#react #typescript #middle #вакансия #Москва\n\nГород и адрес офиса: Москва, Проспект Мира 69/1\n\nФормат работы: офис\n\nЗанятость: полная\n\nЗарплатная вилка: от 180 000 до 230 000 рублей\n\nНазвание компании: ООО «Компания БКС»\n\nЧем предстоит заниматься: \n\n- Разрабатывать один из самых важных микросервисов компании - Дистанционное открытие брокерского счета (ДОБС). Каждый наш новый клиент создается с помощью этого сервиса;\n\n- Работать в кросс-функциональной команде - Backend(4 чел), Web, IOS, Android, QA по Scrum;\n\n- Принимать участие в развитии микро-фронтенд архитектуре.\n\nЧто для этого потребуется:\n\n- Опыт разработки на Javascript от 3-х лет;\n- Опыт работы с React и любым state management'ом (redux, mobx, effector и др.) от 2-х лет;\n- Опыт работы с Typescript;\n- Опыт в кроссбраузерной и адаптивной верстке;\n- Опыт в написании тестов: Unit, интеграционные;\n- Опыт работы с Docker;\n- Опыт работы по Scrum;\n\nЗа что предложим справедливую компенсацию:\n\n- Оформление в соответствии с ТК РФ, все по правилам порядочных работодателей;\n- Комфортный, современный офис в центре города (7 мин. от м. Проспект Мира);\n- Гибкой график;\n- 3 day-off в течение года;\n- Более чем конкурентную заработную плату;\n- Минимум бюрократии (особенно по меркам банковского сектора) и отсутствие дресс-кода;\n- ДМС по льготным условиям;\n- Спортивные команды по футболу, волейболу, баскетболу, настольному теннису;\n- Обучение английскому языку со скидкой прямо в офисе и дистанционно;\n- Льготное приобретение фитнеса в компании World Class;\n- Уютная недорогая столовая на территории Компании (завтраки, обеды).\n\nКонтакты:\nEmail: tupalovdd@bcs.msk.ru\nТелеграм: @dtupalov","markup":[{"type":"hashtag","offset":0,"length":6,"data":"react"},{"type":"hashtag","offset":7,"length":11,"data":"typescript"},{"type":"hashtag","offset":19,"length":7,"data":"middle"},{"type":"hashtag","offset":27,"length":9,"data":"вакансия"},{"type":"hashtag","offset":37,"length":7,"data":"Москва"},{"type":"link","offset":1605,"length":20,"data":"mailto:tupalovdd@bcs.msk.ru"},{"type":"handle","offset":1636,"length":9,"data":"dtupalov"}],"date":"2020-06-30T12:10:15+00:00","link":"tg://resolve?domain=javascript_jobs_feed&post=16464","tags":[{"name":"javascript"},{"name":"reactjs"},{"name":"typescript"},{"name":"web"},{"name":"ios"},{"name":"android"},{"name":"redux"},{"name":"docker"}],"cities":[{"code":"moscow"}],"allowsRemote":false}}]}}},"context":{}}