{"hash":"f34fd2c444a074f4e0e67d525015a008ef8e766f","data":{"records":{"id":"javascript","name":"javascript","belongsTo":{"totalCount":84,"pageInfo":{"totalPages":9,"currentPage":8},"edges":[{"node":{"__typename":"Job","id":"23898095616-1001075660570","title":"Php developer","text":"#вакансия #fullstack #PHP #senior #middle #fulltime #офис\n\nФормат работы: офис\nРасположение: Москва, м. Воробьевы горы\nЗанятость: полная, гибкое начало дня\nЗП: 2500 - 3500 евро на руки \n\n🔹 Кипрская компания Tradernet в поиске Fullstack developer (уровня от middle и выше). \n\nTradernet - это высоконагруженная трейдинговая онлайн платформа. Ежедневно на сервис поступает более 1,5 миллионов запросов. Ребята постоянно улучшают ядро платформы, делают все, чтобы все процессы были максимально производительными и быстрыми. Сейчас в команде 26 технических специалистов, каждый день они сталкиваются с действительно сложными алгоритмами и задачами. \n\nСтек проекта: PHP 7.3, Javascript, SQL (PostgreSQL, MySQL), apache, nginx, php-fpm. Задач на бек и фронт будет примерно 50 на 50.\n\n🔹 Требования:\n- Опыт разработки на PHP, Javascript от 2-ех лет;\n- Желателен опыт с высоконагруженными системами.\n\n🔹 Условия:\n- заработная плата в Евро;\n- компенсация занятий английским языком и частичная компенсация ДМС;\n- возможность принять участие в создании мирового продукта;\n- дружественная рабочая среда с возможностью карьерного и профессионального роста;\n- работать предстоит в уютном офисе в самом центре города (Нескучный сад). \n\n🔹 Контакты:\ne-mail: valeriya@luckyhunter.io\ntelegram: @sobolevavalery\nБуду рада ответить на все вопросы и комментарии 😊","markup":[{"type":"hashtag","offset":0,"length":9,"data":"вакансия"},{"type":"hashtag","offset":10,"length":10,"data":"fullstack"},{"type":"hashtag","offset":21,"length":4,"data":"PHP"},{"type":"hashtag","offset":26,"length":7,"data":"senior"},{"type":"hashtag","offset":34,"length":7,"data":"middle"},{"type":"hashtag","offset":42,"length":9,"data":"fulltime"},{"type":"hashtag","offset":52,"length":5,"data":"офис"},{"type":"link","offset":1242,"length":23,"data":"mailto:valeriya@luckyhunter.io"},{"type":"handle","offset":1276,"length":15,"data":"sobolevavalery"}],"date":"2020-03-23T12:26:03+00:00","link":"tg://resolve?domain=php_jobs&post=22791","tags":[{"name":"php"},{"name":"javascript"},{"name":"sql"},{"name":"postgresql"},{"name":"mysql"},{"name":"apache"},{"name":"nginx"}],"cities":[{"code":"moscow"}],"allowsRemote":false}},{"node":{"__typename":"Job","id":"1928331264-1001134745498","title":"Devops инженер","text":"#вакансия #remote #DevOps #MSBuild #Microsoft\nКомпания: #Softwareconsultingsolutions\nФормат работы: удаленка\nЗанятость: полная\nЗарплатная вилка: от $2500 до $4000\n\nВсем, привет.\nЯ рекрутер проектов разработки ПО для американских и мировых IT компаний, таких как Facebook, Amazon, Google и др.\nИщу DevOps/Build Engineer на MS проект.\n\n👉🏼Что нужно делать?\nЭто Azure build команда - фактически на первом рубеже провижининга новых облачных сервисов.\nDevOps инженеры проекта занимаются исследованием проблем производительности системы сборки для управления жизненным циклом приложений. Основной упор на MS Build и именно оптимизация билда. Т.е. не CI/CD, а именно сбилдить овердофига С# проектов.\n\n👉🏼Что нужно уметь?\nИметь опыт билд инженера, оптимизации времени билда больших солюшенов (в основном .Net но могут попадаться и другие, от С++ до Javascript), опыт кастомизации вручную csproj файлов, оптимизаций зависимостей проектов, организации параллельного билда проекта на кластере.\nНужно знать Powershell, Bash, MSBuild, cmd, Azure.\nРазговорный английский, очень важен.\n\n👉🏼Что предлагаем?\nНаслаждайтесь удаленной работой и гибким рабочим временем.\nУчастие в создании высокотехнологичных продуктов, которыми пользуются миллионы пользователей по всему миру.\n\nПодробности по вакансии тут: http://bit.ly/DevOpsBuild-MS\n\nВот мой telegram, пишите, все обсудим: @yerbamateya\n\n—\n\n👉 Обсуждение вакансии в чате @devops_jobs","markup":[{"type":"hashtag","offset":0,"length":9,"data":"вакансия"},{"type":"hashtag","offset":10,"length":7,"data":"remote"},{"type":"hashtag","offset":18,"length":7,"data":"DevOps"},{"type":"hashtag","offset":26,"length":8,"data":"MSBuild"},{"type":"hashtag","offset":35,"length":10,"data":"Microsoft"},{"type":"hashtag","offset":56,"length":28,"data":"Softwareconsultingsolutions"},{"type":"link","offset":1291,"length":28,"data":"http://bit.ly/DevOpsBuild-MS"},{"type":"handle","offset":1360,"length":12,"data":"yerbamateya"},{"type":"handle","offset":1407,"length":12,"data":"devops_jobs"}],"date":"2020-03-23T09:09:34+00:00","link":"tg://resolve?domain=devops_jobs_feed&post=1839","tags":[{"name":"msbuild"},{"name":"azure"},{"name":"dotnet"},{"name":"javascript"},{"name":"powershell"},{"name":"bash"}],"cities":[],"allowsRemote":true}},{"node":{"__typename":"Job","id":"23859298304-1001075660570","title":"Php разработчик","text":"#вакансия #fullstack #СПб #Санкт-Петербург #office #PHP #JavaScript\nГород: Санкт-Петербург (ст.метро Чернышевская)\nКомпания: Innoscripta GmbH\nПозиция: Full-stack разработчик\nФормат работы: Офис\nЗанятость: полная\nЗарплатная вилка: 120 000 – 250 000 руб на руки \n\nInnoscripta GmbH занимается поиском и продвижением передовых научных технологий на рынке Германии. Сейчас компания ищет middle/senior full-stack разработчиков в новый офис в Санкт-Петербурге для разработки собственных IT-продуктов. Флагманский проект – разработка внутренней CRM-системы. \n\nСтек: PHP/Laravel, JavaScript/React.js, MySQL, Elasticsearch, MongoDB \n\nТребования:\n- Опыт коммерческой разработки от 3-х лет\n- Владение разговорным английским\n- Высокий уровень самостоятельности\n- Уверенное знание указанных технологий \n\nУсловия:\n- Официальное оформление по ТК РФ\n- График 5/2, плавающее начало дня (с 8:00 до 10:00)\n- Работа в одной из крупнейших инновационных компаний Германии\n- Командировки в Мюнхен или релокация через полгода работы\n- Возможность осваивать новые направления разработки\n\nКонтакты: career@innoscripta.com","markup":[{"type":"hashtag","offset":0,"length":9,"data":"вакансия"},{"type":"hashtag","offset":10,"length":10,"data":"fullstack"},{"type":"hashtag","offset":21,"length":4,"data":"СПб"},{"type":"hashtag","offset":26,"length":6,"data":"Санкт"},{"type":"hashtag","offset":43,"length":7,"data":"office"},{"type":"hashtag","offset":51,"length":4,"data":"PHP"},{"type":"hashtag","offset":56,"length":11,"data":"JavaScript"},{"type":"link","offset":1072,"length":22,"data":"mailto:career@innoscripta.com"}],"date":"2020-03-23T06:32:47+00:00","link":"tg://resolve?domain=php_jobs&post=0","tags":[{"name":"php"},{"name":"javascript"},{"name":"laravel"},{"name":"reactjs"},{"name":"mysql"},{"name":"elasticsearch"},{"name":"mongodb"}],"cities":[{"code":"munich"}],"allowsRemote":false}},{"node":{"__typename":"Job","id":"675282944-1001089319619","title":"Ruby разработчик","text":"#работа #Full-stack #RoR #React  #офис #полный_день_после_каратнтина #Минск #OTS\n\n📌Full-stack Engineer at LunaLabs \nLuna Labs разрабатывает инструменты для создания HTML5 игр и интерактивных реклам на основе Unity. Помимо собственного JS движка мы занимаемся разработкой и поддержкой платформы Luna Playground, в которой разработчики могут управлять своими приложениями, собирать билды для разных вендоров, анализировать статистику, проводить A/B тестирование и многое другое.\nМы ищем Full-stack разработчика, который поможет нам быстрее развивать Luna Playground, а именно: добавлять новые фичи, организовывать деплоймент и поддерживать качество продукта на должном уровне.\n\n📌Задачи:\n- Разработка и поддержка фронтэнда и бэкэнда Luna Playground;\n- Проектирование и разработка новых сервисов и интеграция в Luna Playground;\n- Поддержка, постоянный рефакторинг и улучшение кода;\n\n📌Мы ожидаем, что у Вас будет:\n- От 3 лет опыта коммерческой разработки JavaScript;\n- От 3 лет опыта коммерческой разработки на Ruby on Rails и React;\n- Уверенное знание React;\n- Опыт работы с реляционными СУБДж\n- Базовые знания HTML/CSS;\n- Отличное знание ООП, принципов SOLID, методологий ТDD, BDD;\n- Опыт написания юнит-тестов и интеграционных тестов;\n- Опыт использования продуктов от Atlassian: Jira, Bitbucket, Confluence и др.;\n- Высокий уровень самостоятельности, ответственности и инициативы;\n- Английский язык от уровня B2+.\n\n📌Будет плюсом:\n- Знание AWS (преимущественно EC2, Lambda);\n- Опыт работы с Docker (docker-compose, docker swarm);\n- Опыт работы с высоконагруженными приложениям;\n- Опыт работы с Clickhouse.\n\n📌Мы предлагаем взамен:\n- Работу в высокопрофессиональной команде. Неформальную и дружную атмосферу в коллективе;\n- Официальное оформление по контракту, оплачиваемый отпуск - 25 календарных дней, \n- 100% оплата больничных листов;\n- 5 sick days в год без подтверждающих документов;\n- Заработную плату, защищенную от инфляции с регулярным пересмотром условий компенсации;\n- Гибкий рабочий график и свобода действий;\n- Возможность частичной удаленной работы по согласованному с заказчиком графику;\n- Курсы английского языка 2 раза в неделю в офисе за счет компании;\n- Релокационный бонус на случай переезда из другой страны;\n- Удобное месторасположение в центре Минска в 2-х минутах от ст.м. Молодежная по адресу: ул. Пинская 28а;\n- Комфортабельный и благоустроенный оупен-спейс с организованной кухней по домашнему типу со свежими фруктами, йогуртами, кофемашиной, сладостями и печеньем;\n- Комфортное рабочее место, топовое железо и оборудование для работы по запросу сотрудника (по умолчанию Mac);\n- Яркую и запоминающуюся корпоративную жизнь: корпоративы 2 раза в год, подарки сотрудникам в честь жизненных событий, еженедельные pizza-fridays с настольными играми.\n\nЗ/П: $3500-4000\n\nПрисоединяйтесь - будет круто!\nПо всем вопросам и за дополнительной информацией обращайтесь к Ксюше Павловой @ksusha_psy","markup":[{"type":"hashtag","offset":0,"length":7,"data":"работа"},{"type":"hashtag","offset":8,"length":5,"data":"Full"},{"type":"hashtag","offset":20,"length":4,"data":"RoR"},{"type":"hashtag","offset":25,"length":6,"data":"React"},{"type":"hashtag","offset":33,"length":5,"data":"офис"},{"type":"hashtag","offset":39,"length":29,"data":"полный_день_после_каратнтина"},{"type":"hashtag","offset":69,"length":6,"data":"Минск"},{"type":"hashtag","offset":76,"length":4,"data":"OTS"},{"type":"handle","offset":2901,"length":11,"data":"ksusha_psy"}],"date":"2020-03-21T16:17:24+00:00","link":"tg://resolve?domain=rubyjob&post=644","tags":[{"name":"ruby"},{"name":"ruby-on-rails"},{"name":"reactjs"},{"name":"html"},{"name":"unity3d"},{"name":"javascript"},{"name":"css"},{"name":"amazon-web-services"},{"name":"aws-lambda"},{"name":"docker"},{"name":"docker-compose"}],"cities":[{"code":"minsk"}],"allowsRemote":true}},{"node":{"__typename":"Job","id":"1880096768-1001134745498","title":"Devops инженер","text":"#вакансия #НижнийНовгород\n\nАдрес: Нижний Новгород (рассматриваем так же тех, кто готов переехать, предлагаем полный релокационный пакет);\nФормат работы: Офис;\nЗарплатная вилка: 150-250 net\n\nВсем привет! В международной IT компании all.me открыта горящая вакансия \"DevOps\"!\n\nМы активно используем облачные технологии, расширяемся и ищем в команду увлеченных DevOps инженеров, готовых творить что-то новое, активно учиться и решать технические проблемы любой сложности.\n\nЗадачи:\n\nПроектирование, внедрение и сопровождение инфраструктуры программных продуктов компании\nРазработка и поддержка CI/CD\nСопровождение процесса разработки и консультация разработчиков\nКакие технологии используем:\n\nKubernetes и Helm\nTerraform и Ansible\nMongoDB, Elasticsearch, Clickhouse, PostgreSQL, Redis\nRabbitMQ, NATS, ActiveMQ\nТребования:\n\nРабота в highload-проектах от 2 лет\nОтличное знание LInux\nУверенная работа с Kubernetes\nОпыт работы с облачными провайдерами, преимущественно AWS\nВладение каким либо языком программирования: Python, Javascript, Go. Знание всех языков из этого списка будет особым плюсом.\nУсловия:\n\nМеждународная команда профессионалов\nКонкурентная заработная плата, по результатам собеседования;\nКарьерный рост, профессиональное развитие\nОтличный старт для начинающих специалистов\nУникальные мотивационные программы\nПрограмма ДМС “Премиум”\nКорпоративная онлайн-библиотека\nАктивная корпоративная жизнь\nНовейшее оборудование на выбор\nКомфортабельный офис с современным дизайном\n\nПо всем вопросам можно обращаться в личку, либо на почту Oleg.Oltybaev@all.me\n\n—\n\n👉 Обсуждение вакансии в чате @devops_jobs","markup":[{"type":"hashtag","offset":0,"length":9,"data":"вакансия"},{"type":"hashtag","offset":10,"length":15,"data":"НижнийНовгород"},{"type":"link","offset":231,"length":6,"data":"http://all.me"},{"type":"link","offset":1535,"length":20,"data":"mailto:Oleg.Oltybaev@all.me"},{"type":"handle","offset":1590,"length":12,"data":"devops_jobs"}],"date":"2020-03-11T06:58:26+00:00","link":"tg://resolve?domain=devops_jobs_feed&post=1793","tags":[{"name":"dotnet"},{"name":"kubernetes"},{"name":"ansible"},{"name":"mongodb"},{"name":"elasticsearch"},{"name":"postgresql"},{"name":"redis"},{"name":"rabbitmq"},{"name":"linux"},{"name":"amazon-web-services"},{"name":"python"},{"name":"javascript"}],"cities":[{"code":"nizhny-novgorod"}],"allowsRemote":false}},{"node":{"__typename":"Job","id":"628097024-1001089319619","title":"Ruby разработчик","text":"#вакансия #Senior #Ruby #Rails #Севастополь #офис \n\nгород: Севастополь\nкомпания: SoftLight\nформат работы: офис, fulltime \n\nКратко о нас: \n\nНа протяжении 13 лет наша команда создает кастомные web/mobile applications и design. \nПриглашаем присоединиться к нашей команде Senior RoR разработчика с опытом проектирования и разработки высоконагруженных B2С web applications. \n\nОбязанности:\nПроектирование и разработка серверной части на RoR framework.\n\nПроект - очень сложная и большая финансовая платформа для получения инвестиций, займов etc. на уровне больших компаний (UK). \nОбласть проекта - fintech\n\nТребования: \n\nПрактический опыт работы с RoR/Sinatra/Padrino frameworks от 5 лет \nПрактический опыт работы с PostgreSQL и SQL в целом\nОпыт работы с Redis/Memcached, RSpec\nCистема контроля версий - Git\nБазовые знания Frontend - HTML, CSS, JavaScript/jQuery\nПонимание принципов и шаблонов проектирования сложных систем\nПонимание специфики и опыт работы с highload системами\nАнглийский язык - желательно (Intermediate+), но не обязательно \n\nПлюсом будет:\nОпыт работы с большими объемами данных (сотни GB)\nElasticSearch, MongoDB\nRabbitMQ/Kafka\nДругие технологии JVM/Elixir\nОпыт работы с распределенными системами\n \nМы предлагаем:\n\n- Офис с видом на море и бухту\n- Большая команда опытных разработчиков\n- Бессрочный проект (UK) \n- Сильная проектная команда включая менеджера \n- Бесплатные курсы английского для всех сотрудников\n- Необходимый environment (Mac, PC etc.)\n- Пятидневная рабочая неделя, гибкое начало дня ( с 9-10 до 18-19), госпраздники - выходные\n- Оформление ИП (с нашей стороны бухгалтерское сопровождение + gross) \n- Корпоративный отдых за счет компании\n- Пакет релокации (оплачиваем трансфер в Севастополь и аренду жилья 2 месяца) \n\nВилка: 2800-4000$ net \n\nemail: @MikeHR","markup":[{"type":"hashtag","offset":0,"length":9,"data":"вакансия"},{"type":"hashtag","offset":10,"length":7,"data":"Senior"},{"type":"hashtag","offset":18,"length":5,"data":"Ruby"},{"type":"hashtag","offset":24,"length":6,"data":"Rails"},{"type":"hashtag","offset":31,"length":12,"data":"Севастополь"},{"type":"hashtag","offset":44,"length":5,"data":"офис"},{"type":"handle","offset":1777,"length":7,"data":"MikeHR"}],"date":"2020-01-27T12:08:06+00:00","link":"tg://resolve?domain=rubyjob&post=0","tags":[{"name":"ruby"},{"name":"ruby-on-rails"},{"name":"web"},{"name":"mobile"},{"name":"postgresql"},{"name":"sql"},{"name":"redis"},{"name":"git"},{"name":"html"},{"name":"css"},{"name":"javascript"},{"name":"jquery"},{"name":"elasticsearch"},{"name":"mongodb"},{"name":"rabbitmq"},{"name":"kafka"},{"name":"jvm"},{"name":"elixir"},{"name":"dotnet"}],"cities":[{"code":"sevastopol"}],"allowsRemote":false}},{"node":{"__typename":"Job","id":"75497472-1001375797688","title":".net developer","text":"#вакансия #dotnet #aspnet #entityframework #remote\n\nFull-stack Developer\nFull-time, $60k-$80k annually, Remote\n\nAbout us\n* Our main product is practice management software system “Stage 4 MD”. It is designed specifically for and used by plastic surgeons\n* It is single-page multi-tenant application hosted in Azure cloud\n\nMain technologies we use:\n* ASP.Net MVC with DevExpress controls\n* Entity Framework 6 with SQL Server Azure in Azure cloud\n* DBUp is used for automatic database schema and data updates\n* A part of the system system uses ASP.Net Web API for back-end with Vue.js front-end\n* We boldly mix Vue.js with ASP.Net MVC by rendering MVC controls inside Vue.js components and visa versa\n* Vue Router is used for single-page application navigation\n* We recently moved code repository from Bitbucket to Github\n* Tasks are still in Jira\n* Teamcity builds generate binaries for development, and release branches. Binaries are deployed with one-click process\n* We use Trunk Based Development for releases. Release deployment to production is done once every three weeks. QA deployment happens several times a week\n* QA team runs automated browser tests as well as does some manual testing\n* Every developer works with their local development environment\n* Slack is used for communication\n\nYour personal skills\n* You have to be proficient with reading, writing and speaking English (expert level not required)\n* From picking the next task to writing a specific line of code you are expected to be keeping in mind the customer’s needs and the value that your contribution creates for them\n* You should be able to develop code that does its job, performs well, easy to read and maintain and doesn’t require additional explanations\n* You need to self-manage next tasks from backlog, consistently report your progress and escalate roadblocks timely\n* You are expected to be comfortable with asking questions, proposing better solutions and accepting suggestions from teammates, giving and taking feedback\n\nYour technical skills\nThings you’re expected to be well experienced with:\n* C# and .Net Framework\n* ASP.Net MVC and ASP.Net Web API\n* JavaScript, HTML, CSS\n* Entity Framework and SQL Server\n* Git\n\nOther things that are nice to know, but not required:\n* ASP.Net Core\n* Entity Framework Core\n* DevExpress Controls\n* Vue.js and Vuetify\n\nYour compensation package\n* You will operate as independent contractor (прим: ИП по официальному договору с американской компанией)\n* You will receive $60k-$80k annually in bi-weekly payments (до налогов, их вы платите сами как ИП)\n* You will have unlimited time off in accordance with our time-off policy\n* You can work from anywhere in the world, at hours of your convenience\n\nOur recruitment process\n* Skills test. Short online quiz to get a quick evaluation of your technical skills\n* Interview. Brief conversation for you to tell about your interests, learn about our company and the product\n* Test project. Review existing codebase, report fixes and improvements, and implement one or few of them\n* Test week. Five days of paid work with us on our real project\n\nReady to start?\nTake the test: https://apply.hire.toggl.com/966DPZE7RPE5Y9P8H27P?utm_source=dotnetrujobs","markup":[{"type":"hashtag","offset":0,"length":9,"data":"вакансия"},{"type":"hashtag","offset":10,"length":7,"data":"dotnet"},{"type":"hashtag","offset":18,"length":7,"data":"aspnet"},{"type":"hashtag","offset":26,"length":16,"data":"entityframework"},{"type":"hashtag","offset":43,"length":7,"data":"remote"},{"type":"bold","offset":52,"length":20,"data":""},{"type":"bold","offset":112,"length":8,"data":""},{"type":"bold","offset":1296,"length":20,"data":""},{"type":"bold","offset":2008,"length":21,"data":""},{"type":"italic","offset":2059,"length":16,"data":""},{"type":"italic","offset":2227,"length":12,"data":""},{"type":"bold","offset":2342,"length":25,"data":""},{"type":"bold","offset":2721,"length":23,"data":""},{"type":"bold","offset":3110,"length":15,"data":""},{"type":"link","offset":3141,"length":73,"data":"https://apply.hire.toggl.com/966DPZE7RPE5Y9P8H27P?utm_source=dotnetrujobs"}],"date":"2020-01-10T06:42:51+00:00","link":"tg://resolve?domain=DotNetRuJobsFeed&post=72","tags":[{"name":"dotnet"},{"name":"csharp"},{"name":"azure"},{"name":"cloud"},{"name":"sql"},{"name":"web"},{"name":"vuejs"},{"name":"github"},{"name":"deployment"},{"name":"javascript"},{"name":"html"},{"name":"css"},{"name":"git"},{"name":"asp-net"},{"name":"entity-framework"},{"name":"sql-server"},{"name":"net-core"},{"name":"asp-net-mvc"},{"name":"asp-net-core"},{"name":"entity-framework-core"}],"cities":[{"code":"nice"}],"allowsRemote":true}},{"node":{"__typename":"Job","id":"69206016-1001375797688","title":".net разработчик","text":"#вакансия #Москва #офис\nРазработчик С#\nЗ.п.: 80-140к\n\nОбязанности:\n\n1. Разработка прикладного ПО для внутренних нужд клиентских сервисов, в том числе:\n\n- реализация высоконагруженных серверных приложений\n- разработка архитектуры реализуемой программной системы\n- решение возникающих при реализации технических проблем\n\n2. Оптимизация текущего ПО (ускорение, снижение потребления ресурсов и т.п.)\n\nТребования:\n\n- высшее образование\n- опыт разработки на C# не менее 3-х лет\n- опыт разработки сложных корпоративных систем автоматизации\n\nБудет плюсом:\n- знание Python, JavaScript\n- знание языков разметки: CSS, HTML\n- опыт работы с ASP.NET Core, Keras, MongoDB\n- опыт написания модульных тестов\n- опыт работы с SVN, Git или Hg\n\nПисать в ЛС","markup":[{"type":"hashtag","offset":0,"length":9,"data":"вакансия"},{"type":"hashtag","offset":10,"length":7,"data":"Москва"},{"type":"hashtag","offset":18,"length":5,"data":"офис"},{"type":"link","offset":628,"length":7,"data":"http://ASP.NET"}],"date":"2019-12-17T16:05:01+00:00","link":"tg://resolve?domain=DotNetRuJobsFeed&post=66","tags":[{"name":"dotnet"},{"name":"csharp"},{"name":"python"},{"name":"javascript"},{"name":"css"},{"name":"html"},{"name":"mongodb"},{"name":"svn"},{"name":"git"},{"name":"asp-net"},{"name":"net-core"},{"name":"asp-net-core"}],"cities":[{"code":"moscow"}],"allowsRemote":false}},{"node":{"__typename":"Job","id":"60817408-1001375797688","title":".net разработчик","text":"#вакансия #спб #удалённо #upper-intermediate\nз\\р 3500-4000$\nResponsibilities:\n- Working within an Agile team to develop, test, and maintain SharePoint business applications built on Microsoft technologies.  \n- Participating with the team in the collection and documentation of user's requirements, development of user stories, and estimates.  \n- Design, develop, and unit test applications in accordance with established standards - Involved in High Level and Low Lever estimation process \n- Participating in reviews of other Agile team’s applications and code - Participating in application system and integration testing. \n- Package and support deployment of releases.  \n- Adhering to high-quality development principles while delivering solutions on-time and on budget.  \n- Providing third-level support to Business users. \n- Analyzing and resolving technical and application problems.  \n- Preparing reports, manuals and other documentation  \n- Work with Architect to develop best practices for solution development.\nMinimum Requirements \n - College or University degree in Computer Science or a related discipline  \n- Motivated with a strong desire to learn  \n- Clearly articulate ideas and thoughts verbally\nCore Competency Requirements  \n- Experience of Angular Framework, Typescript, SharePoint Framework, JavaScript, HTML, CSS, Bootstrap, SharePoint Online out of the box components (Workflow, Web Parts, Lists, Libraries), relational database, Microsoft Azure, C#, .NET (OOPs Concepts)\nPreferred Competency Requirements  \n- 6 or more years of experience with Microsoft .NET development using C#  \n- 6 or more years of experience with SQL Server database design and development. \n- 2 or more years of experience with Office 365. SPFX development \n- 6 or more years of experience with web development using HTML5, CSS and JavaScript, Angular Framework, Typescript \n- 3 or more years of experience with agile development methodologies  \n- 6 or more years of experience with unit testing, system testing, integration testing.\nконтакт @erzentd","markup":[{"type":"hashtag","offset":0,"length":9,"data":"вакансия"},{"type":"hashtag","offset":10,"length":4,"data":"спб"},{"type":"hashtag","offset":15,"length":9,"data":"удалённо"},{"type":"hashtag","offset":25,"length":6,"data":"upper"},{"type":"pre","offset":60,"length":1970,"data":""},{"type":"handle","offset":2039,"length":8,"data":"erzentd"}],"date":"2019-12-04T15:35:31+00:00","link":"tg://resolve?domain=DotNetRuJobsFeed&post=58","tags":[{"name":"dotnet"},{"name":"csharp"},{"name":"sharepoint"},{"name":"deployment"},{"name":"angularjs"},{"name":"typescript"},{"name":"javascript"},{"name":"html"},{"name":"css"},{"name":"bootstrap"},{"name":"web"},{"name":"azure"},{"name":"sql"},{"name":"sql-server"},{"name":"unit-testing"}],"cities":[],"allowsRemote":true}},{"node":{"__typename":"Job","id":"58720256-1001375797688","title":".net developer","text":"#Москва #вакансия #офис #net #developer #fullstack #backend\n\nВ настоящее время мы ищем коллегу в нашу команду разработки. C 2014 года мы разрабатываем облачное решение для автоматизации процессов перевода, наш продукт работает в 200 странах.\n\nЧто предлагаем:\nОфициальное оформление по ТК РФ с первого дня.\nПолностью \"белая\" заработная плата 150-200К на руки.\nРабота в офисе или удаленно.\nГибкий график работы.\n\nПожелания:\nОпыт создания и продакшн-эксплуатации веб-приложений в .Net стеке.\nПонимание и осознанное применение принципов ООП и паттернов проектирования.\nХорошее знание C# и понимание его особенностей.\nОпыт разработки приложений с конкурентным доступом к ресурсам в БД.\nОпыт разработки фронтэнда для нетривиальных web-приложений на любом из современных фреймворков: Vue.js, AngularJS, Angular 2+, ReactJS.\nЗнание JavaScript, TypeScript, HTML 5, CSS 3.\nОпыт работы с NoSQL.\n\nКакие задачи будут стоять:\nПроектирование, разработка и рефакторинг высоконагруженных веб-приложений с высокими требованиями к производительности и доступности.\nРабота на общий результат в кросс-функциональной скрам-команде, активное взаимодействие с коллегами, участие в решении широкого спектра задач.\nТесное взаимодействие с менеджерами по продукту.\nПроведение код-ревью, участие в выработке архитектурных и проектных решений.\n\nЕсли позиция full stack'а - это не совсем подходящая роль, то мы можем обсудить и другие возможности и варианты.\n\nЕсли вы тот человек, которого мы ищем, напишите в ЛС - @dnotna","markup":[{"type":"hashtag","offset":0,"length":7,"data":"Москва"},{"type":"hashtag","offset":8,"length":9,"data":"вакансия"},{"type":"hashtag","offset":18,"length":5,"data":"офис"},{"type":"hashtag","offset":24,"length":4,"data":"net"},{"type":"hashtag","offset":29,"length":10,"data":"developer"},{"type":"hashtag","offset":40,"length":10,"data":"fullstack"},{"type":"hashtag","offset":51,"length":8,"data":"backend"},{"type":"handle","offset":1485,"length":7,"data":"dnotna"}],"date":"2019-11-27T14:39:20+00:00","link":"tg://resolve?domain=DotNetRuJobsFeed&post=56","tags":[{"name":"dotnet"},{"name":"csharp"},{"name":"web"},{"name":"vuejs"},{"name":"angularjs"},{"name":"reactjs"},{"name":"javascript"},{"name":"typescript"},{"name":"html"},{"name":"css"},{"name":"nosql"}],"cities":[{"code":"moscow"}],"allowsRemote":true}}]}}},"context":{}}