{"hash":"f5f6bf98bd95e769321482904cbbd488f77922fd","data":{"records":{"id":"html","name":"html","belongsTo":{"totalCount":110,"pageInfo":{"totalPages":11,"currentPage":1},"edges":[{"node":{"__typename":"Job","id":"17358127104-1001110946746","title":"Js разработчик","text":"#вакансия #работа #fulltime #parttime #JavaScript #vuejs #Frontend #Web\n\nГород и адрес офиса: Москва\nФормат работы: удаленка\nЗанятость: частичная, не менее 20-30 часов в неделю или полная 40 часов в неделю\nЗарплатная вилка: от 7$ до 20$ в час, либо сдельная\n\n\nО проекте:\nМы разрабатываем MVP нового сервиса для доставки и предзаказа еды. Также разрабатываем MVP для управления персоналом в сфере ЖКХ\n\nМакеты в Sketch, задачи в Трекере\n\nСтек:\nVue2 + Vuex\n\nОписание вакансии\nТребования:\nУмение верстать по макетам из Sketch/Figma\nПонимание принципа работы Vuex, уметь рассказать зачем он вообще нужен.\nvue+vuex, es6, vue-cli\nЗнание html, css3, BEM-методологии\nУмение работать с git, знание процесса git flow будет плюсом.\nОпыт интеграции Google/OSM maps будет плюсом.\nОпыт настройки CI/CD или хотя бы понимание как устроен процесс сборки Vue проекта.\n\nВам предстоит:\nРазрабатывать фронтенд-часть проекта по предоставленным макетам, никакого legacy, проект начинается с нуля.\nКомандная работа, утренние стендапы и еженедельные релизы.\n\nКомпания: Enlighted\n\nКонтакты:\nПисать мне в личку @westarakagrek или на почту ra@enlighted.ru\n\n—\n\n👉 Обсуждение вакансии в чате @javascript_jobs","markup":[{"type":"hashtag","offset":0,"length":9,"data":"вакансия"},{"type":"hashtag","offset":10,"length":7,"data":"работа"},{"type":"hashtag","offset":18,"length":9,"data":"fulltime"},{"type":"hashtag","offset":28,"length":9,"data":"parttime"},{"type":"hashtag","offset":38,"length":11,"data":"JavaScript"},{"type":"hashtag","offset":50,"length":6,"data":"vuejs"},{"type":"hashtag","offset":57,"length":9,"data":"Frontend"},{"type":"hashtag","offset":67,"length":4,"data":"Web"},{"type":"handle","offset":1083,"length":14,"data":"westarakagrek"},{"type":"link","offset":1111,"length":15,"data":"mailto:ra@enlighted.ru"},{"type":"handle","offset":1161,"length":16,"data":"javascript_jobs"}],"date":"2020-07-03T10:19:14+00:00","link":"tg://resolve?domain=javascript_jobs_feed&post=16554","tags":[{"name":"javascript"},{"name":"vuejs"},{"name":"web"},{"name":"html"},{"name":"css"},{"name":"git"}],"cities":[{"code":"moscow"}],"allowsRemote":true}},{"node":{"__typename":"Job","id":"17354981376-1001110946746","title":"Js developer","text":"#вакансия #ReactNative #NodeJS #Remote \n\n✅Вакансия: React Native  Developer\n✅Занятость: full-time, remote\n✅ЗП вилка:180000- 250 000 rub\nКА: IT.HuntMe\n\nCurrently we are looking for a Senior React Native Software Engineer to work on solutions for enterprise-level clients with our best-in-class engineering and design teams. \n❇️Responsibilities:\n* Build New ReactNative app\n* Integrate with our Cloud-based video editing API\n* Implement new UI to expose new editing features\n* Convert product requirements into actionable and tangible items for all stakeholders\n* Overall Design - code, performance, security\n* Release estimation, planning and timely integration with other stakeholders (product, app, backend, ui/ux etc)\n* Performance fixes and optimization\n* JSON API design and finalization\n* Continuously discover, evaluate, and implement new best practices to maximize development quality efficiency\n* Code review\n* Build modular, efficient, testable, and reusable React components\n\n❇️Basic qualifications:\n* Experienced, ReactNative Lead\n* Comfortable with modern JS frameworks (NodeJS, ReactJS/AngularJS), MongoDB, HTML5 and SASS\n* Have experience building and running production-ready API’s\n* 2+ years of React Native/full-stack work experience\n* Influence which tools, programming languages, and technologies you work with\n* Help ensure we have a smooth software pipeline for continuous and fast delivery\n* Balance discovery phases with implementation work\n* Be excellent at working both independently and in a team\n* Passion for software development, scalable architecture and product build\n\n♻️Preferred qualifications:\n* Native Android or iPhone development experience, or experience developing in Ionic\n* Experience building a SaaS service\n* User interface and visual design skills\n* Experience with Azure/AWS\n\n👍 WE OFFER:  \n* Competitive compensation depending on experience and skills  \n* Work in enterprise-level projects on a long-term basis  \n* Full-time remote work (you can work from anywhere you are)  \n* Unlimited access to learning courses \n* Community of 36,700+ industry’s top professionals  \n\n✍️Контакты: @mary_itfox или it.huntme@gmail.com","markup":[{"type":"hashtag","offset":0,"length":9,"data":"вакансия"},{"type":"hashtag","offset":10,"length":12,"data":"ReactNative"},{"type":"hashtag","offset":23,"length":7,"data":"NodeJS"},{"type":"hashtag","offset":31,"length":7,"data":"Remote"},{"type":"handle","offset":2129,"length":11,"data":"mary_itfox"},{"type":"link","offset":2145,"length":19,"data":"mailto:it.huntme@gmail.com"}],"date":"2020-07-03T09:55:06+00:00","link":"tg://resolve?domain=javascript_jobs_feed&post=16551","tags":[{"name":"javascript"},{"name":"nodejs"},{"name":"reactjs"},{"name":"cloud"},{"name":"json"},{"name":"angularjs"},{"name":"mongodb"},{"name":"html"},{"name":"sass"},{"name":"android"},{"name":"azure"},{"name":"amazon-web-services"},{"name":"ms-access"},{"name":"react-native"},{"name":"user-interface"}],"cities":[],"allowsRemote":true}},{"node":{"__typename":"Job","id":"104333312000-1001089317451","title":"Qa инженер","text":"#Екатеринбург #полная_занятость #офис #вакансия  \n\nQA-инженер\nГород: Екатеринбург\nЗарплата: 40 000-60 000 на руки \nФормат: полный день, полная занятость\nКомпания Mystand — mystand.io\n\n➡️ Требования:\n • Опыт проведения функционального, интеграционного, регрессионного, юзабилити тестирования от 1 года;\n • Опыт использования техник тест-дизайна;\n • Умение пользоваться сервисами Postman, Sentry, Swagger и другими;\n • Навык тестирования API;\n • Понимание работы HTML, CSS и что такое DOM-дерево;\n • Умение работать с базами данных, мы используем PostgreSQL;\n • Опыт разработки тестовой документации (use-case, тест-кейсы, баг-репорты, тест-планы, чек-листы, спецификация требований);\n • Понимание основ современной разработки;\n • Желание работать в Agile-команде.\n\n➡️ Обязанности:\n • Тестирование новых и существующих проектов компании;\n • Составление и актуализация тестовой документации;\n • Описание функциональности системы и принципы ее работы;\n • Ведение баг-репорта;\n • Постановка задач по исправлению ошибок и контроль их выполнения;\n • Проработка и автоматизация сценариев тестирования продукта.\n\n➡️ Мы предлагаем:\n • Карьерный и профессиональный рост;\n • Команду, которая поможет и поделится опытом;\n • Участие в митапах и конференциях;\n • Performance review раз в полгода;\n • Конкурентную зарплату и официальное трудоустройство;\n • Просторный и уютный офис с зонами релакса, кухней, настольным теннисом и кикером. Всегда есть снеки, чай, кофе и фрукты.\n\nДвойникова Мария\nTG @MariyaMaryHr\nT +7 (982) 6238954\nE mdvoynikova@mystand.io","markup":[{"type":"hashtag","offset":0,"length":13,"data":"Екатеринбург"},{"type":"hashtag","offset":14,"length":17,"data":"полная_занятость"},{"type":"hashtag","offset":32,"length":5,"data":"офис"},{"type":"hashtag","offset":38,"length":9,"data":"вакансия"},{"type":"link","offset":92,"length":13,"data":"tel:40 000-60 000"},{"type":"link","offset":172,"length":10,"data":"http://mystand.io"},{"type":"code","offset":199,"length":3,"data":""},{"type":"code","offset":302,"length":3,"data":""},{"type":"code","offset":345,"length":3,"data":""},{"type":"code","offset":414,"length":3,"data":""},{"type":"code","offset":441,"length":3,"data":""},{"type":"code","offset":495,"length":3,"data":""},{"type":"code","offset":557,"length":3,"data":""},{"type":"code","offset":683,"length":3,"data":""},{"type":"code","offset":726,"length":3,"data":""},{"type":"code","offset":780,"length":3,"data":""},{"type":"code","offset":836,"length":3,"data":""},{"type":"code","offset":889,"length":3,"data":""},{"type":"code","offset":948,"length":3,"data":""},{"type":"code","offset":972,"length":3,"data":""},{"type":"code","offset":1040,"length":3,"data":""},{"type":"code","offset":1122,"length":3,"data":""},{"type":"code","offset":1160,"length":3,"data":""},{"type":"code","offset":1208,"length":3,"data":""},{"type":"code","offset":1245,"length":3,"data":""},{"type":"code","offset":1282,"length":3,"data":""},{"type":"code","offset":1338,"length":3,"data":""},{"type":"handle","offset":1483,"length":13,"data":"MariyaMaryHr"},{"type":"link","offset":1499,"length":16,"data":"tel:+7 (982) 6238954"},{"type":"link","offset":1518,"length":22,"data":"mailto:mdvoynikova@mystand.io"}],"date":"2020-07-03T08:54:27+00:00","link":"tg://resolve?domain=qa_jobs&post=99500","tags":[{"name":"qa"},{"name":"swagger"},{"name":"html"},{"name":"css"},{"name":"postgresql"}],"cities":[],"allowsRemote":false}},{"node":{"__typename":"Job","id":"17350787072-1001110946746","title":"Javascript разработчик","text":"#вакансия #javascript #typescript \n\n🔹Frontend-разработчик (удаленно или в офисе)\n\nBlogman\n\nГород и адрес офиса: \n— Санкт-Петербург\nФормат работы:           \n— офис в Санкт-Петербурге или удаленка по России \nЗанятость:                     \n— полная / full time\nЗарплатная вилка:       \n— от 80 000 до 300 000 рублей\n\n🔹Основной стек технологий — JavaScript, TypeScript, HTML/CSS. Сейчас мы разрабатываем бизнес-функционал приложения и будем рады новому специалисту в нашей команде, который вольется в проект и мы вместе будем делать frontend с нативным кодом и отзывчивым интерфейсом.\n\n🔹Мы ожидаем, что у вас есть:\n— Опыт коммерческой разработки от 3 лет\n— Хорошее знание JavaScript, TypeScript, HTML/CSS;\n\n🔹Рады предложить:\n— Возможность работать удаленно;\n— Желаемый оклад по результатам собеседования;\n— Cистему роста зарплаты каждые 6 месяцев\n\nКонтакт: @alinablogman\nhttps://spb.hh.ru/employer/3069197?customDomain=","markup":[{"type":"hashtag","offset":0,"length":9,"data":"вакансия"},{"type":"hashtag","offset":10,"length":11,"data":"javascript"},{"type":"hashtag","offset":22,"length":11,"data":"typescript"},{"type":"handle","offset":859,"length":13,"data":"alinablogman"},{"type":"link","offset":873,"length":48,"data":"https://spb.hh.ru/employer/3069197?customDomain="}],"date":"2020-07-03T08:49:37+00:00","link":"tg://resolve?domain=javascript_jobs_feed&post=16547","tags":[{"name":"javascript"},{"name":"typescript"},{"name":"html"},{"name":"css"}],"cities":[],"allowsRemote":true}},{"node":{"__typename":"Job","id":"17346592768-1001110946746","title":"Js разработчик","text":"#вакансия #москва #middle #remote #angular #fulltime #офис\n\nИщем frontend разработчика для работы над основным сайтом и новыми разделами.\nГород и адрес офиса: Москва, м. Авиамоторная\nФормат работы: Офис\nЗанятость: полная\nЗарплатная вилка: 130 000 — 150 000 на руки по результатам технического собеседования\n\nAutospot.ru — онлайн гипермаркет автомобилей. 🚘\n\nВ 2018 году Mitsubishi Corporation и Mail.ru. оценили нас в $19,1 млн.\n\nВ технической команде 17 человек: СТО, 9 PHP разработчиков, 2 frontend разработчика, 3 тестировщика, DevOps.\n\nЧеловек нужен в Москве или готовый в эту самую Москву переехать.\n\n📍Обязанности:\n▫️Разработка компонентов и адаптация/интеграция сторонних библиотек и плагинов;\n▫️ Верстка новых разделов, кроссбраузерная, адаптивная, валидная;\n▫️ Развитие библиотеки UI компонентов;\n▫️ Оперативное исправление багов на проде (IE 11+);\n▫️ Помощь в оптимизации работы сайта (скорость загрузки, оптимизация DOM).\n\n📍Требования:\n▪️ Опыт разработки от 2 лет;\n▪️ Знание JavaScript (jQuery в разумных пределах);\n▪️ Уверенное знание html семантическая верстка, БЭМ, SCSS;\n▪️ Знание работы GIT & NPM;\n▪️ Опыт работы с gulp/webpack;\n▪️ Опыт работы с Figma/Zeplin;\n▪️ Опыт работы с векторной графикой (svg и svg-спрайты).\n\n📍Желательно:\n◾️ Хорошее знание Vue.js и/или Angular 5+. Работать надо будет и с тем и с другим. Angular 5+ в приоритете, планируется переход полностью на него;\n◾️ Знание инструментов организации разработки Jira;\n◾️ Знание нюансов работы браузеров на разных устройствах и ОС;\n◾️ Опыт сео оптимизации;\n◾️ Понимание, что такое доступные интерфейсы;\n\n📍Условия:\n▫️ Комфортабельный офис, БЦ Light Tower, бесплатный шаттл от м. Площадь Ильича;\n▫️ Оформление по ТК РФ с первого рабочего дня;\n▫️ Гибкое начало рабочего дня, с 9 до 11;\n▫️ Возможность работать 1-2 дня удалённо;\n▫️ Полностью белая заработная плата;\n▫️ Неформальная атмосфера и дружный, амбициозный коллектив;\n▫️ Корпоративная скидка на изучение английского языка.\n\n📌 Контакт: @dianadoma","markup":[{"type":"hashtag","offset":0,"length":9,"data":"вакансия"},{"type":"hashtag","offset":10,"length":7,"data":"москва"},{"type":"hashtag","offset":18,"length":7,"data":"middle"},{"type":"hashtag","offset":26,"length":7,"data":"remote"},{"type":"hashtag","offset":34,"length":8,"data":"angular"},{"type":"hashtag","offset":43,"length":9,"data":"fulltime"},{"type":"hashtag","offset":53,"length":5,"data":"офис"},{"type":"link","offset":308,"length":11,"data":"http://Autospot.ru"},{"type":"link","offset":395,"length":7,"data":"http://Mail.ru"},{"type":"handle","offset":1970,"length":10,"data":"dianadoma"}],"date":"2020-07-03T07:39:26+00:00","link":"tg://resolve?domain=javascript_jobs_feed&post=16543","tags":[{"name":"javascript"},{"name":"angularjs"},{"name":"php"},{"name":"jquery"},{"name":"html"},{"name":"git"},{"name":"npm"},{"name":"gulp"},{"name":"webpack"},{"name":"svg"},{"name":"vuejs"}],"cities":[{"code":"moscow"}],"allowsRemote":true}},{"node":{"__typename":"Job","id":"17329815552-1001110946746","title":"Js разработчик","text":"#вакансия #vue #vuex #frontend\nМосква, м. Цветной бульвар (2 мин до офиса), фулл тайм в офис на полную занятость\nЗарплатная вилка: от 90 до 180 т.р.\nJETSTAT \n\nОписание вакансии: \nМы делаем инструмент (ETL), который помогает упростить работу пользователей с отчетами.\nМы подключаемся к различным сервисам: рекламным, аналитическим, базам данных и тд, чтобы с помощью автоматизации решать задачи для аналитики и маркетинга.\n\nИщем frontend разработчика для нашей аналитической платформы. У тебя будет самостоятельность в принятии решений, например построение архитектуры.\nПроцессы не строго регламентированы и мы прислушиваемся ко мнению каждого при планировании спринтов.\n\nТебе предстоит:\n\n- разрабатывать сложные интерактивных интерфейсы на JS с использованием Vue;\n- разрабатывать архитектуру проекта со стороны frontend.\n\nМы ожидаем:\n\n- знание JS (ES5 / ES6);\n- знание Vue.js, Vuex Webpack;\n- знание и понимание клиент-серверного взаимодействия;\n- умение работать с REST-API; \n- HTML5, CSS3.\n\nБудет плюсом:\n\n- опыт тестирования кода (мы используем mocha, chai и sinon);\n- WebSockets (используем socket-io).\n\nhttps://jetstat.io/workflow \n\nКонтакты: @diana131313","markup":[{"type":"hashtag","offset":0,"length":9,"data":"вакансия"},{"type":"hashtag","offset":10,"length":4,"data":"vue"},{"type":"hashtag","offset":15,"length":5,"data":"vuex"},{"type":"hashtag","offset":21,"length":9,"data":"frontend"},{"type":"link","offset":1110,"length":27,"data":"https://jetstat.io/workflow"},{"type":"handle","offset":1150,"length":12,"data":"diana131313"}],"date":"2020-07-02T16:33:11+00:00","link":"tg://resolve?domain=javascript_jobs_feed&post=16527","tags":[{"name":"javascript"},{"name":"vuejs"},{"name":"webpack"},{"name":"rest"},{"name":"html"},{"name":"css"},{"name":"mocha"}],"cities":[{"code":"moscow"}],"allowsRemote":false}},{"node":{"__typename":"Job","id":"17328766976-1001110946746","title":"Js разработчик","text":"#вакансия #angularjs #react #москва #javascript #typescript\n\nГород: Москва (ст.м. Аэропорт).\n\nФормат работы: remote.\n\nЗанятость: полная. \n\nВилка: 100-200 т.р. на руки.\n\nПрофессиональные знания:\nУверенное знание HTML, CSS, JavaScript\nОпыт работы с Angular 2+, будет плюсом опыт работы с react, redux\nОтличное знание JavaScript (ES5, ES6+) и TypeScript\nОпыт верстки (css, stylus, sass) \n\nФункционал:\n\n• Проектирование, разработка клиентской части систем дистанционного банковского обслуживания, тестирование и выпуск обновлений.\n\n• Рефакторинг Legacy кода;\n\n• Участие в оценке сроков, трудоёмкости и проектирование приложений.\n\n\nНазвание компании: Локо-Банк\nhttps://www.lockobank.ru//\nhttps://hh.ru/vacancy/37795548\n\nКонтакты: @hrlocko","markup":[{"type":"hashtag","offset":0,"length":9,"data":"вакансия"},{"type":"hashtag","offset":10,"length":10,"data":"angularjs"},{"type":"hashtag","offset":21,"length":6,"data":"react"},{"type":"hashtag","offset":28,"length":7,"data":"москва"},{"type":"hashtag","offset":36,"length":11,"data":"javascript"},{"type":"hashtag","offset":48,"length":11,"data":"typescript"},{"type":"link","offset":656,"length":26,"data":"https://www.lockobank.ru//"},{"type":"link","offset":683,"length":30,"data":"https://hh.ru/vacancy/37795548"},{"type":"handle","offset":725,"length":8,"data":"hrlocko"}],"date":"2020-07-02T16:32:21+00:00","link":"tg://resolve?domain=javascript_jobs_feed&post=16526","tags":[{"name":"javascript"},{"name":"angularjs"},{"name":"reactjs"},{"name":"typescript"},{"name":"html"},{"name":"css"},{"name":"redux"},{"name":"sass"},{"name":"react-redux"}],"cities":[{"code":"moscow"}],"allowsRemote":true}},{"node":{"__typename":"Job","id":"17327718400-1001110946746","title":"Js разработчик","text":"#вакансия #удаленка #работа #js #javascript #разработчик\n\nГород и адрес офиса: Тель-Авив \nФормат работы: удаленка\nЗанятость: полная, гибкий график.\n\nЗарплатная вилка: 5500-6000$/мес. (Почасовая оплата 35$/час + ежемесячный бонус 250$)\n\nНалоги платите по месту жительства. ИП 6%. Если патент, то он зависит от места жительства. В Подмосковье 12 000 руб в год. В Москве 300 тыс. в год. Как сами оформите налоги, так и платите. \n\nИщу разработчика к нам в команду: израильский проект Luminati (https://luminati.io).  Full-Stack. Компания разрабатывает несколько продуктов, в том числе p2p vpn, видео cdn нового поколения http://holaspark.com/\nОфис в Тель-Авиве, работа удаленная! График свободный. Что нам нужно:\n\n • Knowledge in Node JS framework: ExpressJS, Promise - Experience with MongoDB \n- Creating RESTful web services/API’s using Node.js with or without framework assistance \n\n- JavaScript-based unit testing tools \n\n- Client-side browser technologies including JavaScript, CSS, and HTML \n\n- 1 year development experience in Node JS with a solid working knowledge of frameworks and architecture \n\n- 2+ year’s overall development experience using JavaScript and open web technologies \n\n- хороший английский язык, идеальная грамматика не обязательна \n\n • работа удаленная, 7-9 часов в день (по желанию)\n • зарплата от 35$/час (+фиксированный бонус 250$ ежемесячно), через полгода повышается\n • после того, как откроют границы и будут возможны перелёты - выезд в офис на заключение контракта (перед этим возможно заключение с электронной подписью), отель и перелет за счет компании, море под окном\n\nОтвечу на все вопросы:)\n\nИнстаграмм https://instagram.com/hola_better_internet\n\nРезюме сюда:  luda.hola@gmail.com","markup":[{"type":"hashtag","offset":0,"length":9,"data":"вакансия"},{"type":"hashtag","offset":10,"length":9,"data":"удаленка"},{"type":"hashtag","offset":20,"length":7,"data":"работа"},{"type":"hashtag","offset":28,"length":3,"data":"js"},{"type":"hashtag","offset":32,"length":11,"data":"javascript"},{"type":"hashtag","offset":44,"length":12,"data":"разработчик"},{"type":"link","offset":490,"length":19,"data":"https://luminati.io"},{"type":"link","offset":617,"length":21,"data":"http://holaspark.com/"},{"type":"link","offset":1637,"length":42,"data":"https://instagram.com/hola_better_internet"},{"type":"link","offset":1695,"length":19,"data":"mailto:luda.hola@gmail.com"}],"date":"2020-07-02T16:31:59+00:00","link":"tg://resolve?domain=javascript_jobs_feed&post=16525","tags":[{"name":"javascript"},{"name":"nodejs"},{"name":"mongodb"},{"name":"web"},{"name":"css"},{"name":"html"},{"name":"unit-testing"}],"cities":[],"allowsRemote":true}},{"node":{"__typename":"Job","id":"17326669824-1001110946746","title":"Js разработчик","text":"#вакансия #удаленка #fulltime #react #node #typescript \n\nГород: Москва\nФормат: удалённая работа\nЗанятость: полная\nЗарплатная вилка: от 150к до 250к на руки.\n\nВ российскую геймдев компанию требуется опытный TypeScript разработчик для разработки нового и доработок текущего функционала проекта на Node.js/React.\n\nНа протяжении 10 лет компания занимается разработкой, лицензированием и локализацией многопользовательских онлайн-игр. На сегодняшний день наш портфель состоит из игровых проектов разных жанров, включая легендарные MMO TERA, «Ботва», Music Wars и др. Некоторые разработки получили признание в Европе и Северной Америке.\n\nТребования:\n• React.js (React Hooks, JSX)\n• State Management (Redux)\n• Node.js\n• TypeScript\n• HTML5\n, CSS3 / SCSS \n• REST API\n• WebSocket\n• Опыт работы c PostgreSQL\n• Опыт работы с Redis\n• Bash\n• Docker\n• Git\n\nПриветствуется:\n• Docker + docker-compose\n• Angular (8+)\n• Опыт работы с криптовалютами и мастернодами\n• Умение быстро разбираться с новыми технологиями\n\nУсловия:\n• дружная и профессиональная команда (средний возраст которой 27 лет)\n• отличная возможность с головой погрузиться в мир гейм-индустрии\n• удаленная работа из любой точки мира, гибкий график\n\nПо всем вопросам: @rjaidy","markup":[{"type":"hashtag","offset":0,"length":9,"data":"вакансия"},{"type":"hashtag","offset":10,"length":9,"data":"удаленка"},{"type":"hashtag","offset":20,"length":9,"data":"fulltime"},{"type":"hashtag","offset":30,"length":6,"data":"react"},{"type":"hashtag","offset":37,"length":5,"data":"node"},{"type":"hashtag","offset":43,"length":11,"data":"typescript"},{"type":"handle","offset":1214,"length":7,"data":"rjaidy"}],"date":"2020-07-02T16:31:36+00:00","link":"tg://resolve?domain=javascript_jobs_feed&post=16524","tags":[{"name":"javascript"},{"name":"reactjs"},{"name":"nodejs"},{"name":"typescript"},{"name":"redux"},{"name":"html"},{"name":"css"},{"name":"rest"},{"name":"websocket"},{"name":"postgresql"},{"name":"redis"},{"name":"bash"},{"name":"docker"},{"name":"git"},{"name":"angularjs"},{"name":"docker-compose"}],"cities":[{"code":"moscow"}],"allowsRemote":true}},{"node":{"__typename":"Job","id":"17325621248-1001110946746","title":"Js developer","text":"#вакансия #frontend #react  #senior #мbycr #офис #fulltime #релокация в литву #минск\n\nПозиция – Frontend developer (senior)\n\nКомпания – ThiNKT Digital\n\nЛокация – Работать в Литве. Возможна релокация из РБ\n\nЗанятость – полная, офис, гибкое время начала дня\n\nОплата: от 2 000 до 3 400 евро на руки\n\nРелокационный пакет - оплата 1 мес аренды кв и переезд\n\n The Role \n• Discuss the client‘s needs to propose the best solution • Develop responsive web applications • Keep up to date with terminology, concepts and best practices for coding web applications • Work closely with colleagues to constantly innovate product functionality and design • Architect customer-centric front-end part of the solution • Collaborate with Venture Managers and engage with development teams \n   We offer\n • Participation in a dynamic startup solving challenges in the energy sector & beyond • Responsibility over a wide portfolio of products  • Access to large network of startups & corporates through our various partnerships • A great international exposure, and a diverse team with extensive & rich experiences  • Competitive compensation package & flexible work schedule  \n \n       Your Background \n● Solid foundation in web application front-end development ● You know what are the best UI & UX practices ● Experience with front-end programming languages such as HTML, CSS,  Javascript, ReactJS, etc ● Experience in software process models such as Agile / Scrum / etc ● Well-rounded interpersonal and communication skills to work in flexible teams ● You are Problem solver, and very interested in technology-related entrepreneurial start-up projects. ● Relevant experience with Node or other backend programming languages would be a plus ● Experience with Azure or Amazon Web Service (AWS) would be a huge plus ● Relevant experience 3-5 years ● Required language: English \n \n \n\n\n\n☎️ Контакты для обсуждения вакансии:\n\ntelegram @veroneko","markup":[{"type":"hashtag","offset":0,"length":9,"data":"вакансия"},{"type":"hashtag","offset":10,"length":9,"data":"frontend"},{"type":"hashtag","offset":20,"length":6,"data":"react"},{"type":"hashtag","offset":28,"length":7,"data":"senior"},{"type":"hashtag","offset":36,"length":6,"data":"мbycr"},{"type":"hashtag","offset":43,"length":5,"data":"офис"},{"type":"hashtag","offset":49,"length":9,"data":"fulltime"},{"type":"hashtag","offset":59,"length":10,"data":"релокация"},{"type":"hashtag","offset":78,"length":6,"data":"минск"},{"type":"handle","offset":1910,"length":9,"data":"veroneko"}],"date":"2020-07-02T16:31:22+00:00","link":"tg://resolve?domain=javascript_jobs_feed&post=16523","tags":[{"name":"javascript"},{"name":"reactjs"},{"name":"web"},{"name":"ms-access"},{"name":"html"},{"name":"css"},{"name":"nodejs"},{"name":"azure"},{"name":"amazon-web-services"}],"cities":[{"code":"minsk"}],"allowsRemote":false}}]}}},"context":{}}