{"hash":"f34fd2c444a074f4e0e67d525015a008ef8e766f","data":{"records":{"id":"postgresql","name":"postgresql","belongsTo":{"totalCount":132,"pageInfo":{"totalPages":14,"currentPage":14},"edges":[{"node":{"__typename":"Job","id":"44040192-1001375797688","title":".net разработчик","text":"#вакансия #москва #офис Мидл разработчик ЗП:100-140 руб белая на карточку сбера пилим свою платформу с сервисной архитектурой, а на ней два продукта. Стек ASP .NET Core + голый TypeScript + MSSQL/PostgreSQL (windows/Linux) детальное описание вакансии тут https://hh.ru/vacancy/33744101 примеры реализации можно посмотреть тут https://youtu.be/TpHSMOcZ4qM","markup":[{"type":"hashtag","offset":0,"length":9,"data":"вакансия"},{"type":"hashtag","offset":10,"length":7,"data":"москва"},{"type":"hashtag","offset":18,"length":5,"data":"офис"},{"type":"link","offset":255,"length":30,"data":"https://hh.ru/vacancy/33744101"},{"type":"link","offset":326,"length":28,"data":"https://youtu.be/TpHSMOcZ4qM"}],"date":"2019-11-06T23:56:08+00:00","link":"tg://resolve?domain=DotNetRuJobsFeed&post=42","tags":[{"name":"dotnet"},{"name":"csharp"},{"name":"typescript"},{"name":"sql-server"},{"name":"postgresql"},{"name":"windows"},{"name":"linux"},{"name":"asp-net"},{"name":"net-core"},{"name":"asp-net-core"}],"cities":[{"code":"moscow"}],"allowsRemote":false}},{"node":{"__typename":"Job","id":"33554432-1001375797688","title":".net разработчик","text":"Ребята, #вакансия прилетела: \n\nРазыскиваю .NET разработчика уровня #middle/#senior с опытом работы на .NET Core. Запускаем проект для ведущего сервиса доставки еды в Москве и Петербурге, нагрузка примерно 1 000 000 пользователей. Нужно будет закладывать архитектуру и реализовывать проект с нуля.\n\nТребования:\nГлубокое знание технологического стека Microsoft, включая C#, MS SQL, ASP.NET, MVC/ASP.NET Core и тд.;\nОпыт работы с реляционными базами данных MS-SQL/PostgreSQL;\nЗнание и практический опыт использования правильных инженерных практик (юнит тестирование, автотесты, рефакторинг, CI, DevOps и др)\n\nУдалённая работа, офис, если живете в Ульяновске, полный день. \n\nРезюме присылать сюда: @VladislavAg\n\nВилка: 60 000 - 180 000 рублей","markup":[{"type":"hashtag","offset":8,"length":9,"data":"вакансия"},{"type":"hashtag","offset":67,"length":7,"data":"middle"},{"type":"hashtag","offset":75,"length":7,"data":"senior"},{"type":"link","offset":380,"length":7,"data":"http://ASP.NET"},{"type":"link","offset":393,"length":7,"data":"http://ASP.NET"},{"type":"handle","offset":694,"length":12,"data":"VladislavAg"}],"date":"2019-10-31T09:39:14+00:00","link":"tg://resolve?domain=DotNetRuJobsFeed&post=32","tags":[{"name":"dotnet"},{"name":"csharp"},{"name":"sql"},{"name":"postgresql"},{"name":"net-core"},{"name":"asp-net"},{"name":"asp-net-mvc"},{"name":"asp-net-core"}],"cities":[],"allowsRemote":false}}]}}},"context":{}}