{"hash":"f34fd2c444a074f4e0e67d525015a008ef8e766f","data":{"records":{"id":"webpack","name":"webpack","belongsTo":{"totalCount":17,"pageInfo":{"totalPages":2,"currentPage":1},"edges":[{"node":{"__typename":"Job","id":"16260268032-1001110946746","title":"Javascript разработчик","text":"#вакансия #react #javascript #teamlead #москва #офис \n\n🔭 Ищем Team Lead (React) в финансовую компанию под задачи разработки с «нуля» платформы Web-решений. \n🎧 Все собеседования проводятся по скайпу из-за карантина. \nОфис: Москва, Лубянка\n🏠 Формат работы: в офисе после карантина (сейчас как у всех  удалёнка). В первый рабочий день оформляетесь и идете на удалёнку.\nЗанятость полная.\nГражданство: РФ\nПолный соцпакет.\n💰 Зарплата: оклад от 200К до 210К net (на руки) + квартальная премия 0,5 оклада. \nС премией средняя ЗП составит 245K рублей net \n\nTeam Lead (React)\n🚀Область ответственности:\n• Разработка фронт-офисных систем компании.\n• Руководство 1-2 разработчиками.\n💎 Требования:\n• Высшее образование;\n• Опыт коммерческой разработки UI 3-5 лет;\n• Необходимый стек: JavaScript, TypeScript, React (с использованием Redux/Mobx, Webpack, Babel), СУБД (PostgreSQL, MongoDB, Redis).\n• Кроссбраузерная и кроссплатформенная вёрстка.\n• Участие в высоконагруженных проектах.\n• Опыт управления распределённой командой.\n\nНазвание компании: КА Бизнес Крафт Консалт https://bcraft.ru/\n📪Контакты:\ntelegram: @oksanaalieva \nEmail: oksana@bcraft.ru \nБуду рада ответить на уточняющие вопросы. \nПодробности могу выслать в ЛС в ответ на присланное резюме.\n\n—\n\n👉 Обсуждение вакансии в чате @javascript_jobs","markup":[{"type":"hashtag","offset":0,"length":9,"data":"вакансия"},{"type":"hashtag","offset":10,"length":6,"data":"react"},{"type":"hashtag","offset":17,"length":11,"data":"javascript"},{"type":"hashtag","offset":29,"length":9,"data":"teamlead"},{"type":"hashtag","offset":39,"length":7,"data":"москва"},{"type":"hashtag","offset":47,"length":5,"data":"офис"},{"type":"link","offset":1061,"length":18,"data":"https://bcraft.ru/"},{"type":"handle","offset":1102,"length":13,"data":"oksanaalieva"},{"type":"link","offset":1124,"length":16,"data":"mailto:oksana@bcraft.ru"},{"type":"handle","offset":1279,"length":16,"data":"javascript_jobs"}],"date":"2020-04-10T12:00:27+00:00","link":"tg://resolve?domain=javascript_jobs_feed&post=15507","tags":[{"name":"javascript"},{"name":"reactjs"},{"name":"web"},{"name":"dotnet"},{"name":"typescript"},{"name":"redux"},{"name":"webpack"},{"name":"postgresql"},{"name":"mongodb"},{"name":"redis"}],"cities":[{"code":"moscow"}],"allowsRemote":true}},{"node":{"__typename":"Job","id":"16258170880-1001110946746","title":"Js разработчик","text":"#Вакансия #Удаленка #Fulltime #JS #React #Redux #job \n\nВсем привет 👋\n\nНахожусь в поиске Frontend разработчика на React.JS для компании «Binance».\n\nО компании: binance.com\nНазвание компании: Binance Exchange - ведущая крипто-биржа по объему торгов и количеству пользователей, с клиентами в более чем 180 странах и регионах.\n\nФормат работы: fulltime, remote\nЗарплатная вилка: от 3000 до 3500$ (выдаётся в криптовалюте).\n\nЗадачи:\n• Внедрение новых функций, ориентированных на пользователя, в продуктах Binance, которые ежедневно используют огромное количество PV;\n• Написание клиентского кода для создания сверхбыстрых, простых в использовании веб-приложений, которые включают веб-сайт для настольных и мобильных браузеров и гибридные страницы в приложениях;\n• Оптимизация веб-приложений для максимизации скорости и масштабирования;\n• Создание библиотек и сред, поддерживающих сложные веб-приложения, ускоряющих эффективность разработки и улучшающих качество кода.\n\nОт вас:\n• 3-5+ лет на разработку производственного кода JavaScript и глубокое знание React.JS;\n• Понимание шаблонов управления состоянием, таких как Redux, Flux или аналогичных;\n• Опыт разработки адаптивных веб-сайтов для различных клиентов, от мощных desktop компьютеров до небольших мобильных устройств;\n• Опыт работы с интерфейсными технологиями (styled system, webpack, etc);\n• Cвободное владение английским языком.\n\nОт нас: \n• График работы желательно с 9:00 (нужно будет общаться с командой из Сингапура);\n• Большие возможности карьерного роста в растущей компании;\n• Возможность переезда и международных переводов;\n• Делать что-то значимое. Станьте частью будущего финансовых технологий и первой в отрасли компании.\n\nБолее подробно готов ответить в ЛС: @dobrkakbobr8\n\n—\n\n👉 Обсуждение вакансии в чате @javascript_jobs","markup":[{"type":"hashtag","offset":0,"length":9,"data":"Вакансия"},{"type":"hashtag","offset":10,"length":9,"data":"Удаленка"},{"type":"hashtag","offset":20,"length":9,"data":"Fulltime"},{"type":"hashtag","offset":30,"length":3,"data":"JS"},{"type":"hashtag","offset":34,"length":6,"data":"React"},{"type":"hashtag","offset":41,"length":6,"data":"Redux"},{"type":"hashtag","offset":48,"length":4,"data":"job"},{"type":"link","offset":160,"length":11,"data":"http://binance.com"},{"type":"handle","offset":1724,"length":13,"data":"dobrkakbobr8"},{"type":"handle","offset":1772,"length":16,"data":"javascript_jobs"}],"date":"2020-04-10T09:31:53+00:00","link":"tg://resolve?domain=javascript_jobs_feed&post=15505","tags":[{"name":"javascript"},{"name":"reactjs"},{"name":"redux"},{"name":"webpack"},{"name":"react-redux"}],"cities":[],"allowsRemote":true}},{"node":{"__typename":"Job","id":"16251879424-1001110946746","title":"Javascript разработчик","text":"#вакансия #javascript #typescript #react #удаленка\n\nГород и адрес офиса: любой\nФормат работы: удаленка\nЗанятость: полная\nЗарплатная вилка: от 130 000 до 160 000 рублей (на руки)\n\nОписание вакансии: Senior Frontend-разработчик на проект из банковской сферы. Нам нужен человек, который не боится решать задачи любой сложности и может научить этому (и не только этому) свою команду.\n\nСтек технологий:\n– JavaScript, TypeScript;\n– React, Redux, Redux-Saga;\n– Babel (ES 2016+), Webpack или Gulp, Git, БЭМ.\n\nНазвание компании: CSSSR\nКонтакты: @lena_bezbatchenko\n\n—\n\n👉 Обсуждение вакансии в чате @javascript_jobs","markup":[{"type":"hashtag","offset":0,"length":9,"data":"вакансия"},{"type":"hashtag","offset":10,"length":11,"data":"javascript"},{"type":"hashtag","offset":22,"length":11,"data":"typescript"},{"type":"hashtag","offset":34,"length":6,"data":"react"},{"type":"hashtag","offset":41,"length":9,"data":"удаленка"},{"type":"handle","offset":536,"length":18,"data":"lena_bezbatchenko"},{"type":"handle","offset":589,"length":16,"data":"javascript_jobs"}],"date":"2020-04-10T09:27:39+00:00","link":"tg://resolve?domain=javascript_jobs_feed&post=15499","tags":[{"name":"javascript"},{"name":"typescript"},{"name":"reactjs"},{"name":"redux"},{"name":"webpack"},{"name":"gulp"},{"name":"git"},{"name":"react-redux"}],"cities":[],"allowsRemote":true}},{"node":{"__typename":"Job","id":"16249782272-1001110946746","title":"Js разработчик","text":"#вакансия #javascript #react\n\nГород: Москва\nФормат работы: офис (но на время карантина удаленка)\nЗанятость: полная\nЗарплатная вилка: от 180 000 до 220 000 рублей (на руки)\n\nОписание вакансии: ищем senior frontend разработчика, который:\n\n✅ Очень хорошо знает JavaScript и React. Понимает на что нужно обращать внимание при разработке страниц;\n✅ Командный игрок и хочет обсуждать как технические, так и продуктовые идеи;\n✅ Умеет в проектирование архитектуры frontend для сложных интернет-проектов;\n✅ Имеет опыт в формировании требований к api;\n✅ Любит и понимает необходимость функциональных и unit-тестов.\n\nНаш идеальный кандидат:\n\nЗнает на отлично:\n\n✅ HTML5;\n✅ Browser API;\nособенности кроссбраузерной и адаптивной верстки;\n✅ CSS3/CSS;\n✅ JavaScript (ES6);\n✅ React, Redux, Redux-Saga, Reselect, Styled Components, SSR.\n✅ Умеет в работать с Git;\n✅ Умеет работать в Unix-окружении;\n✅ Имеет опыт работы с системами сборки Webpack, Gulp, настройка Babel.\n\nХорошим плюсом будет:\n\n✅ Знание NodeJS;\n✅ Опыт разработки SPA на React;\n✅ Опыт работы с Vue, Vuex;\n✅ Опыт использования препроцессоров (SASS, Less).\n\nМы предлагаем участие в разработке новых проектов:\n\n✅ Продуктовая разработка проработка задачи с первых этапов, декомпозиция, кодинг, отслеживание результатов;\n✅Построение команды: найм, обучение и мотивация разработчиков;\n✅ Интересные и сложные задачи;\n✅ Обязательное ревью кода;\n✅ Итеративная разработка большие проекты дробим на небольшие задачи и выпускаем постепенно;\n✅ Регулярные демо владельцам продуктов и взаимодействие с ними напрямую.\n\nНаши условия:\n\n✅ Современный процесс разработки, командная работа, молодой дружный коллектив, помощь и поддержка. Мы используем git, GitLab CI\\CD и др. современные средства разработки;\n✅ Белая зарплата и полное соблюдение ТК РФ;\n✅ Гибкий график работы;\n✅ Крутой офис в стиле фьюжн, в котором можно поиграть в VR, настольный теннис, видеоигры и даже поспать! Находится рядом со ст. м. Дмитровская, около «Флакона» и «Хлебозавода»;\n✅ Бесплатный фитнес с бассейном;\n✅ Корпоративные завтраки в офисе, любые напитки и фрукты круглый год;\n✅ДМС после прохождения испытательного срока;\n✅ Возможность быстрого профессионального роста, адекватное руководство и прекрасных коллег.\n\nНазвание компании: Admitad/Projects (https://admitad.pro/)\n\nКонтакты: @nadezhda_elizbarovna или n.isaeva@admitad.com\n\n—\n\n👉 Обсуждение вакансии в чате @javascript_jobs","markup":[{"type":"hashtag","offset":0,"length":9,"data":"вакансия"},{"type":"hashtag","offset":10,"length":11,"data":"javascript"},{"type":"hashtag","offset":22,"length":6,"data":"react"},{"type":"link","offset":2256,"length":20,"data":"https://admitad.pro/"},{"type":"handle","offset":2289,"length":21,"data":"nadezhda_elizbarovna"},{"type":"link","offset":2315,"length":20,"data":"mailto:n.isaeva@admitad.com"},{"type":"handle","offset":2370,"length":16,"data":"javascript_jobs"}],"date":"2020-04-10T09:26:19+00:00","link":"tg://resolve?domain=javascript_jobs_feed&post=15497","tags":[{"name":"javascript"},{"name":"reactjs"},{"name":"html"},{"name":"css"},{"name":"redux"},{"name":"git"},{"name":"unix"},{"name":"webpack"},{"name":"gulp"},{"name":"nodejs"},{"name":"vuejs"},{"name":"sass"},{"name":"gitlab"},{"name":"react-redux"}],"cities":[{"code":"moscow"}],"allowsRemote":true}},{"node":{"__typename":"Job","id":"16228810752-1001110946746","title":"Js разработчик","text":"#вакансия #javascript #nodejs #typescript #frontend #middle\n\nКомпания: #Mетрквадратный https://m2.ru\nЛокация: #москва м.Белорусская\nФормат работы: офис\nЗанятость: полная\nЗ/п: 200к - 260к руб. на руки\nКонтакты: @maxdmitrov\n\nЭто платформа, на которой физические лица смогут в режиме одного окна подобрать объект недвижимости, оформить на него ипотеку, произвести электронную регистрацию, сделать безопасный расчет не посещая банки и воспользоваться дополнительными услугами (страхование, дизайн, ремонт). \n\nЧем предстоит заниматься:\n\n•  разрабатывать один из продуктов жилищной экосистемы;\n•  прорабатывать задачи с начального этапа (декомпозиция, проработка архитектуры, демо с владельцем продукта);\n•  проводить код ревью;\n•  покрывать код unit тестами, помогать тестировщикам в написании e2e тестов;\n•  оптимизировать рендеринг и скорость загрузки страниц;\n•  разрабатывать продуктовые компоненты, используя общие UI библиотеки, и помогать в развитии этих библиотек.\n\nЧего мы ждем:\n\n• Javascript(ES6);\n• React + MobX/Redux;\n• HTML;\n• CSS;\n• Опыт кроссбраузерной верстки.\n\nБудет плюсом:\n\n• TypeScript;\n• Знание протокола HTTP/HTTPS, websockets, опыт работы с REST API;\n• Опыт работы с react native;\n• Опыт в бекэнде на различных языках программирования;\n• Опыт профилирования, оптимизации и рефакторинга кода;\n• Опыт написания тестов.\n\nМы используем: \n\n•  TypeScript + React + MobX + Gatsby;\n•  NestJS + gRPC + ProtoBuf (мидл-слой, управляющий UI и обращающийся к API бэк-энда);\n•  Micro Frontend Service;\n•  GitLab (CI/CD);\n•  Yarn + Lerna;\n•  Webpack/Rollup.\n\nМы предлагаем: \n\n•  Современный стек технологий;\n•  Возможность влиять на архитектуру и сразу видеть результат своей работы;\n•  Белая конкурентная ЗП, официальное оформление;\n•  Гибкий график работы, возможность выбора рабочего оборудования;\n•  ДМС, компенсация фитнеса, льготная ставка по ипотеке;\n•  Комфортный офис в БЦ «Белая площадь» (минута от метро): лаундж-зоны, бариста, фрукты.","markup":[{"type":"hashtag","offset":0,"length":9,"data":"вакансия"},{"type":"hashtag","offset":10,"length":11,"data":"javascript"},{"type":"hashtag","offset":22,"length":7,"data":"nodejs"},{"type":"hashtag","offset":30,"length":11,"data":"typescript"},{"type":"hashtag","offset":42,"length":9,"data":"frontend"},{"type":"hashtag","offset":52,"length":7,"data":"middle"},{"type":"hashtag","offset":71,"length":15,"data":"Mетрквадратный"},{"type":"link","offset":87,"length":13,"data":"https://m2.ru"},{"type":"hashtag","offset":110,"length":7,"data":"москва"},{"type":"handle","offset":210,"length":11,"data":"maxdmitrov"}],"date":"2020-04-09T06:40:27+00:00","link":"tg://resolve?domain=javascript_jobs_feed&post=15477","tags":[{"name":"javascript"},{"name":"nodejs"},{"name":"typescript"},{"name":"reactjs"},{"name":"redux"},{"name":"html"},{"name":"css"},{"name":"rest"},{"name":"gitlab"},{"name":"webpack"},{"name":"react-native"}],"cities":[{"code":"moscow"}],"allowsRemote":false}},{"node":{"__typename":"Job","id":"16227762176-1001110946746","title":"Javascript developer","text":"#вакансия #react #javascript #москва #офис\n\n🔭 Под задачи разработки платформы Web-решений ищем Frontend Developer (React) в крупную финансовую компанию. \n🎧 Все собеседования проводятся по скайпу из-за карантина. \nОфис: Москва, Лубянка\n🏠 Формат работы: в офисе после карантина (сейчас как у всех  удалёнка). В первый рабочий день оформляетесь и идете на удалёнку.\nЗанятость полная.\nГражданство: РФ\nПолный соцпакет.\n💰 Зарплата: от 165К до 175К net + квартальная премия 0,5 оклада. \nС премией средняя ЗП составит 205K рублей net \n\nFrontend Developer (React)\n🚀Область ответственности:\n• Участие в разработке фронт-офисных систем компании.\n💎 Требования:\n• Высшее / неоконченное высшее образование;\n• Опыт коммерческой разработки UI от 2,5 лет;\n• Необходимый стек: JavaScript, TypeScript, React (с использованием Redux/Mobx, Webpack, Babel), СУБД (PostgreSQL, MongoDB, Redis).\n• Кроссбраузерная и кроссплатформенная вёрстка.\n• Участие в высоконагруженных проектах.\n\nНазвание компании: КА \"Бизнес Крафт Консалт\" https://bcraft.ru/\n📪Контакты:\ntelegram: @oksanaalieva \nEmail: oksana@bcraft.ru \nБуду рада ответить на уточняющие вопросы. \nПодробности могу выслать в ЛС в ответ на присланное резюме.","markup":[{"type":"hashtag","offset":0,"length":9,"data":"вакансия"},{"type":"hashtag","offset":10,"length":6,"data":"react"},{"type":"hashtag","offset":17,"length":11,"data":"javascript"},{"type":"hashtag","offset":29,"length":7,"data":"москва"},{"type":"hashtag","offset":37,"length":5,"data":"офис"},{"type":"link","offset":1011,"length":18,"data":"https://bcraft.ru/"},{"type":"handle","offset":1052,"length":13,"data":"oksanaalieva"},{"type":"link","offset":1074,"length":16,"data":"mailto:oksana@bcraft.ru"}],"date":"2020-04-09T06:40:13+00:00","link":"tg://resolve?domain=javascript_jobs_feed&post=15476","tags":[{"name":"javascript"},{"name":"reactjs"},{"name":"web"},{"name":"dotnet"},{"name":"typescript"},{"name":"redux"},{"name":"webpack"},{"name":"postgresql"},{"name":"mongodb"},{"name":"redis"}],"cities":[{"code":"moscow"}],"allowsRemote":true}},{"node":{"__typename":"Job","id":"16226713600-1001110946746","title":"Js программист","text":"#вакансия #js #angular\n\nНазвание компании: Froot Middle Asia (ФрутМидл Эйжа)\nhttps://thefroot.com\nВилка: от 350 до 750 тысяч тенге (1 - 2К $)\nТребуемый опыт работы: 1–3 года\nГород: Алматы, Казахстан\n\nФормат: Полная занятость, полный день, можно удаленно\n\nО компании\nСегодня Froot - это 650 000 товаров в собственном маркетплейсе, 15 магазинов в Алматы, договора франшизы на 100 магазинов по всему Казахстану и успешные переговоры по экспансии на рынки Турции, Филиппин, Узбекистана, Таджикистана и Кыргызстана.\nВ 2020 году мы откроем 200 магазинов по всему Казахстану и доведём ассортимент нашего онлайн маркетплейса до 3 000 000!\n\nМы ожидаем, что программист умеет работать в команде и готов оперативно погрузится в существующий продукт. Он пишет код не «для себя» или «чтобы работало», а хорошо, аккуратно и понятно, чтобы любой член команды смог продолжить работу. Мы используем несколько серверов (тестовый, продакшен, rnd), gitflow, разветвление микросервисов.\n\nКого мы ищем?\nСамостоятельного Frontend Developer'а, сильного командного игрока, свято уважающего дедлайны и эффективную коммуникацию. Важно уметь предлагать свои идеи, делиться своим видением какие технологии могут давать результат.\n\nЧто делать:\n\nПоддерживать проекты;\nРазрабатывать новые модули и спецпроекты в существующих проектах;\nПредлагать технические решения для упрощения бизнес-процессов\nЗапускаем мобильную разработку на js\n\nТребования:\n\nЗнание современных стандартов и методов разработки веб-приложений\nОтличное знание HTML5/CSS3, JavaScript ES5/ES6\nAngular 2+\nУмение обращаться с системами сборки Grunt/Gulp/Webpack\nЗнание CSS/HTML препроцессоров (Sass/Less/Stylus/Pug)\nЗнание Git\nВнимательность к мелочам;\nУмение создавать адаптивную верстку;\nПлюсом будет:\n\nОпыт работы с Node.js\nPWA\nNativeScript\nМы предлагаем:\n· Молодой коллектив с крутой командой разработки, в которой можно быстро расти и развиваться;\n· Интересные рабочие задачи;\n· Офис на Кунаева с панорамным видом на город;\n· Стабильная заработная плата, официальное трудоустройство.\n\nКонтакты: @sanzhikee, sanzhar.sarsenbi@gmail.com, +7 702 97 65 999","markup":[{"type":"hashtag","offset":0,"length":9,"data":"вакансия"},{"type":"hashtag","offset":10,"length":3,"data":"js"},{"type":"hashtag","offset":14,"length":8,"data":"angular"},{"type":"link","offset":77,"length":20,"data":"https://thefroot.com"},{"type":"handle","offset":2034,"length":10,"data":"sanzhikee"},{"type":"link","offset":2046,"length":26,"data":"mailto:sanzhar.sarsenbi@gmail.com"},{"type":"link","offset":2074,"length":16,"data":"tel:+7 702 97 65 999"}],"date":"2020-04-09T06:39:00+00:00","link":"tg://resolve?domain=javascript_jobs_feed&post=15475","tags":[{"name":"javascript"},{"name":"angularjs"},{"name":"html"},{"name":"css"},{"name":"gruntjs"},{"name":"gulp"},{"name":"webpack"},{"name":"sass"},{"name":"git"},{"name":"nodejs"}],"cities":[{"code":"almaty"}],"allowsRemote":true}},{"node":{"__typename":"Job","id":"16224616448-1001110946746","title":"Js разработчик","text":"#вакансия #frontend #developer #senior  #javascript #typescript #angular #fulltime #офис #питер\n\nSenior Frontend Developer\nКомпания: CM.Expert\nЛокация: Санкт-Петербург\nЗанятость: fulltime\nЗ/п: 150-250К net\nКонтакты: @observer69\n\nCM.Expert — единственная в России платформа, предназначенная для интеллектуального анализа рынка и автоматизированного управления продажами и складом автомобилей с пробегом.\n\nУсловия\n● Гибкий график рабочего времени (полный день, о начале и окончании рабочего дня можно договориться)\n● Профессиональная команда, Agile-процесс с плоской структурой управления проектом, работа по ТЗ, всё белое, офис в 15 минутах от метро Балтийская в БЦ “Балтийский Порт\n● Бессрочный трудовой договор\n\nТребования\n● Продолжительный специализированный опыт работы с FrontEnd-приложениями\n● Высокое качество кода\n● Навыки работы с Git\n● Хорошее знание JavaScript / TypeScript\n● Знание HTML5 / DOM / SCSS\n● Навыки верстки, внимательность, хороший “глазомер”\n● Уверенные знания и навыки работы с ReactiveX\n● Умение работать с “состоянием” приложения; эрудиция в “Best Practices”\n● Хорошее знание фреймворка Angular (2-6) — в том числе, “под капотом”\n● Опыт создания типовых решений (npm-пакетов, плагинов, библиотек и т.д.)\n● Хорошее понимание принципов ООП, функционального программирования\n● Понимание принципов поддерживаемости\n● Хорошее знание сборщиков: WebPack, Gulp; способность создавать кастомные решения любой сложности\n● Опыт работы с базами данных и хранением информации\n● Умение работать с документацией (читать и писать)\n● Навыки работы с JSON Schema, OpenAPI/Swagger\n\nЗадачи\n1. Развитие и поддержание функциональности CM.Expert\n2. Участие в проектировании архитектуры приложения и API.        \n3. Взаимодействие с BE разработчиками, дизайнером, продукт-менеджером.","markup":[{"type":"hashtag","offset":0,"length":9,"data":"вакансия"},{"type":"hashtag","offset":10,"length":9,"data":"frontend"},{"type":"hashtag","offset":20,"length":10,"data":"developer"},{"type":"hashtag","offset":31,"length":7,"data":"senior"},{"type":"hashtag","offset":40,"length":11,"data":"javascript"},{"type":"hashtag","offset":52,"length":11,"data":"typescript"},{"type":"hashtag","offset":64,"length":8,"data":"angular"},{"type":"hashtag","offset":73,"length":9,"data":"fulltime"},{"type":"hashtag","offset":83,"length":5,"data":"офис"},{"type":"hashtag","offset":89,"length":6,"data":"питер"},{"type":"handle","offset":216,"length":11,"data":"observer69"}],"date":"2020-04-09T06:38:20+00:00","link":"tg://resolve?domain=javascript_jobs_feed&post=15473","tags":[{"name":"javascript"},{"name":"typescript"},{"name":"angularjs"},{"name":"dotnet"},{"name":"git"},{"name":"html"},{"name":"npm"},{"name":"webpack"},{"name":"gulp"},{"name":"json"},{"name":"swagger"}],"cities":[],"allowsRemote":false}},{"node":{"__typename":"Job","id":"16219373568-1001110946746","title":"Js разработчик","text":"#вакансия #удаленно #react #middle+\nКомпания - VMB\nГород - Москва \nФормат - удаленная работа \nГрафик - полный рабочий день \nВилка - 150-200к рублей на руки \n\n📍Проект - “Детский проект” для поискового приложения нужно сделать веб приложение, где дети могут тыкаться с любимыми персонажами \n📍Что нужно? \nзнание React и TypeScript;\nотличное владение чистым JS;\nхорошее знание Node.js и ES6;\nхорошее знание HTML и CSS;\nумение работать с Git;\nпонимание особенностей SPA-приложений.\n📍Плюсами будут:\nпонимание принципов разработки изоморфных приложений;\nопыт разработки под мобильные браузеры;\nзнакомство с Unix-системами;\nопыт написания тестов (юнит- или интеграционных);\nопыт работы с системами сборки (Webpack, Rollup, Gulp, Grunt и т. п.);\nопыт работы с системами непрерывной интеграции (TeamСity, Travis, Jenkins, Drone и т. п.).\n📍Что предлагаем?\nУдалённую занятость \nВозможность развиваться и развивать интересный проект\n\nКонтакты \n@nariarakel","markup":[{"type":"hashtag","offset":0,"length":9,"data":"вакансия"},{"type":"hashtag","offset":10,"length":9,"data":"удаленно"},{"type":"hashtag","offset":20,"length":6,"data":"react"},{"type":"hashtag","offset":27,"length":7,"data":"middle"},{"type":"handle","offset":935,"length":11,"data":"nariarakel"}],"date":"2020-04-09T06:36:49+00:00","link":"tg://resolve?domain=javascript_jobs_feed&post=15468","tags":[{"name":"javascript"},{"name":"reactjs"},{"name":"typescript"},{"name":"nodejs"},{"name":"html"},{"name":"css"},{"name":"git"},{"name":"unix"},{"name":"webpack"},{"name":"gulp"},{"name":"gruntjs"},{"name":"jenkins"}],"cities":[{"code":"moscow"}],"allowsRemote":true}},{"node":{"__typename":"Job","id":"16213082112-1001110946746","title":"Js программист","text":"#вакансия #js #angular\n\nНазвание компании: Froot Middle Asia (ФрутМидл Эйжа)\nhttps://thefroot.com\nВилка: от 350 до 750 тысяч тенге (1 - 2К $)\nТребуемый опыт работы: 1–3 года\nГород: Алматы, Казахстан\n\nФормат: Полная занятость, полный день, можно удаленно\n\nО компании\nСегодня Froot - это 650 000 товаров в собственном маркетплейсе, 15 магазинов в Алматы, договора франшизы на 100 магазинов по всему Казахстану и успешные переговоры по экспансии на рынки Турции, Филиппин, Узбекистана, Таджикистана и Кыргызстана.\nВ 2020 году мы откроем 200 магазинов по всему Казахстану и доведём ассортимент нашего онлайн маркетплейса до 3 000 000!\n\nМы ожидаем, что программист умеет работать в команде и готов оперативно погрузится в существующий продукт. Он пишет код не «для себя» или «чтобы работало», а хорошо, аккуратно и понятно, чтобы любой член команды смог продолжить работу. Мы используем несколько серверов (тестовый, продакшен, rnd), gitflow, разветвление микросервисов.\n\nКого мы ищем?\nСамостоятельного Frontend Developer'а, сильного командного игрока, свято уважающего дедлайны и эффективную коммуникацию. Важно уметь предлагать свои идеи, делиться своим видением какие технологии могут давать результат.\n\nЧто делать:\n\nПоддерживать проекты;\nРазрабатывать новые модули и спецпроекты в существующих проектах;\nПредлагать технические решения для упрощения бизнес-процессов\nЗапускаем мобильную разработку на js\n\nТребования:\n\nЗнание современных стандартов и методов разработки веб-приложений\nОтличное знание HTML5/CSS3, JavaScript ES5/ES6\nAngular 2+\nУмение обращаться с системами сборки Grunt/Gulp/Webpack\nЗнание CSS/HTML препроцессоров (Sass/Less/Stylus/Pug)\nЗнание Git\nВнимательность к мелочам;\nУмение создавать адаптивную верстку;\nПлюсом будет:\n\nОпыт работы с Node.js\nPWA\nNativeScript\nМы предлагаем:\n· Молодой коллектив с крутой командой разработки, в которой можно быстро расти и развиваться;\n· Интересные рабочие задачи;\n· Офис на Кунаева с панорамным видом на город;\n· Стабильная заработная плата, официальное трудоустройство.\n\nКонтакты: @sanzhikee, sanzhar.sarsenbi@gmail.com, +7 702 97 65 999","markup":[{"type":"hashtag","offset":0,"length":9,"data":"вакансия"},{"type":"hashtag","offset":10,"length":3,"data":"js"},{"type":"hashtag","offset":14,"length":8,"data":"angular"},{"type":"link","offset":77,"length":20,"data":"https://thefroot.com"},{"type":"handle","offset":2034,"length":10,"data":"sanzhikee"},{"type":"link","offset":2046,"length":26,"data":"mailto:sanzhar.sarsenbi@gmail.com"},{"type":"link","offset":2074,"length":16,"data":"tel:+7 702 97 65 999"}],"date":"2020-04-07T18:37:48+00:00","link":"tg://resolve?domain=javascript_jobs_feed&post=15462","tags":[{"name":"javascript"},{"name":"angularjs"},{"name":"html"},{"name":"css"},{"name":"gruntjs"},{"name":"gulp"},{"name":"webpack"},{"name":"sass"},{"name":"git"},{"name":"nodejs"}],"cities":[{"code":"almaty"}],"allowsRemote":true}}]}}},"context":{}}