{"hash":"f5f6bf98bd95e769321482904cbbd488f77922fd","data":{"records":{"totalCount":669,"pageInfo":{"totalPages":67,"currentPage":13},"edges":[{"node":{"id":"72386347008-1001054966032","title":"Mobile developer","text":"#вакансия  #android  #developer  #java  #senior  #remote  #иннополис         \n\nAndroid Developer\nCompany: NNG\nVacancy: Senior Android Developer\nLocation: Innopolis, Kazan\nWork format: #remote\nEmployment: full time\nS/p: from 180 to 200 k net\n\nAt NNG we develop the next generation of navigation and infotainment technology to improve driving experience, working with 7 of the top 10 car manufacturers worldwide. Headquartered in Hungary, we have a global footprint with coverage in almost 200 countries and 12 company offices worldwide. We have recently established a new development center in Kazan, tasked with delivering customized cutting-edge solutions to Russian vehicle manufacturers. In addition, the Kazan office will also develop independent, reusable software components for the global market, primarily frontend software (JavaScript, iOS and Android) and Java backend microservices.\n\nWhat would be your job? \n🔹Work on mobile and automotive navigation software development\n🔸Work on various projects with international clients from all parts of the world\n🔹Work in close cooperation with project managers and development teams both locally and in the Budapest office\n🔸Design, develop, code, test and debug; own your code\n                                                                                                                                                                                                                                If you have...\n🔹Experience developing, testing, and releasing Android apps\n🔸Knowledge of Java and Android UI development\n🔹 Experience collaborating with designers on usability and aesthetics of apps\n🔸 Strong experience in writing and maintaining testable code and unit tests\n🔹 Experience with git-based version control systems\n🔸Strong written and verbal communication skills in English\n🔹Experience working with global teams\n\nmoreover, you have any of the following: \n🔸Familiarity with JavaScript\n🔹 Familiarity with Flutter\n🔸Experience in Agile development, especially SaFE and SCRUM\n🔹Willingness to get familiar with new technologies\n🔸Experience in working as a team player\n\nWhat can we give you in return? \n🔹A job at a successful global company in Innopolis, where you can learn from the best\n🔸Serious professional challenges\n🔹A secure and well-paid job\n🔸The opportunity to develop the navigation software of the future in the present\n🔹 A youthful team\n🔸The opportunity of working abroad for several weeks\n\nContacts: hr.vkulneva@gmail.com, @viktoriyakulneva","markup":[{"type":"hashtag","offset":0,"length":9,"data":"вакансия"},{"type":"hashtag","offset":11,"length":8,"data":"android"},{"type":"hashtag","offset":21,"length":10,"data":"developer"},{"type":"hashtag","offset":33,"length":5,"data":"java"},{"type":"hashtag","offset":40,"length":7,"data":"senior"},{"type":"hashtag","offset":49,"length":7,"data":"remote"},{"type":"hashtag","offset":58,"length":10,"data":"иннополис"},{"type":"hashtag","offset":184,"length":7,"data":"remote"},{"type":"link","offset":2493,"length":21,"data":"mailto:hr.vkulneva@gmail.com"},{"type":"handle","offset":2516,"length":17,"data":"viktoriyakulneva"}],"date":"2020-06-30T16:09:08+00:00","link":"tg://resolve?domain=mobile_jobs&post=69033","tags":[{"name":"mobile"},{"name":"android"},{"name":"ios"},{"name":"java"},{"name":"dotnet"},{"name":"javascript"},{"name":"git"},{"name":"flutter"}],"cities":[{"code":"kazan"},{"code":"budapest"}],"allowsRemote":true}},{"node":{"id":"17270046720-1001110946746","title":"Js разработчик","text":"#вакансия #remote #office #fulltime #techlead #javascript #node.js\n\nКомпания: Quantori (https://quantori.com)\nЛокация: remote или офис в Санкт-Петербурге/Воронеже\nЗанятость: full-time\nЗП вилка: 2500-4000 USD\nКонтакты: @Ekaterina_Proskuriakova\n \nВсем привет!\n\nМеждународная компания Quantori ищет в команду Technical Lead (Node.js), описание позиции здесь\nhttps://career.quantori.com/technical-lead-nodejs\n\nМы занимаемся системной интеграцией и разработкой программного обеспечения в сфере Life Science и Healthcare.\nQuantori создает интеллектуальные решения, основанные на передовых научных достижениях, разработке алгоритмов и обработке данных. Такие решения помогают нашим клиентам более эффективно анализировать данные, разрабатывать новые лекарства и повышать качество заботы и ухода о пациентах.\nВ процессе работы вы будете использовать английский язык, так как наши заказчики - зарубежные компании.\n\nЕсли интересно, пишите, с удовольствием расскажу о вакансии и Quantori подробнее.\n@Ekaterina_Proskuriakova","markup":[{"type":"hashtag","offset":0,"length":9,"data":"вакансия"},{"type":"hashtag","offset":10,"length":7,"data":"remote"},{"type":"hashtag","offset":18,"length":7,"data":"office"},{"type":"hashtag","offset":26,"length":9,"data":"fulltime"},{"type":"hashtag","offset":36,"length":9,"data":"techlead"},{"type":"hashtag","offset":46,"length":11,"data":"javascript"},{"type":"hashtag","offset":58,"length":5,"data":"node"},{"type":"link","offset":88,"length":20,"data":"https://quantori.com"},{"type":"handle","offset":218,"length":24,"data":"Ekaterina_Proskuriakova"},{"type":"link","offset":355,"length":49,"data":"https://career.quantori.com/technical-lead-nodejs"},{"type":"handle","offset":988,"length":24,"data":"Ekaterina_Proskuriakova"}],"date":"2020-06-30T16:08:43+00:00","link":"tg://resolve?domain=javascript_jobs_feed&post=16470","tags":[{"name":"javascript"},{"name":"nodejs"}],"cities":[],"allowsRemote":true}},{"node":{"id":"17268998144-1001110946746","title":"Js разработчик","text":"#вакансия #frontend  #React #офис #remote #Мск #Пермь #senior #middle \n\nкомпания: КА: http://luckyhunter.io\nЗ/п: 120 000 - 200 000 рублей на руки (+премии) \nГород и адрес офиса: г. Москва (Павелецкая), г. Пермь\nФормат работы: офис или удаленка \nЗанятость: полная, fulltime\n\n🚀Ищем frontend разработчиков уровня Middle или Senior в крупную продуктовую компанию с возможностью удаленной работы!\n\nРебята разрабатывают интеллектуальную low-code платформу для создания бизнес-приложений и информационных систем в области управления рисками и оптимизации бизнес-процессов любой сложности. Компания не разрабатывает решения для одного заказчика или «под проект», они продвигают собственную продуктовую разработку и реализуют весь новый функционал в удобных инструментах, которые сразу же становятся доступными для всех заказчиков.\n\n❇️Всего в компании трудится около 200 человек, разработчики поделены на 3 группы разработки и работают в scrum командах по 5-6 человек. Коллеги ценят инициативность и активный вклад в общее дело, также поддерживают разумные инициативы по внедрению новых технологий и подходов в разработку.\n\nСтэк технологий: \nJavaScript, React, TypeScript, Webpack, Maven, MobX, HighchartsJS, Gitlab. \n\n✅Какой опыт необходим: \n- опыт коммерческой разработки на JS от 2 лет и больше;\n- опыт работы с React от 1 года;\n- опыт работы с TypeScript будет вашим преимуществом. \n\n✅Какие бонусы и перспективы получите вы: \n- возможность работать удаленно или в офисе (Москва, Пермь);\n- официальное оформление и полностью белую зп, которая зависит от ваших компетенций и ожиданий;\n- гибкое начало рабочего дня, отсутствие бюрократии;\n- работу в молодой и развивающейся команде, которая разрабатывает быстроразвивающийся, востребованный продукт;\n- релокационный пакет для переезжающих из других городов.\n\nКонтакты:\ne-mail: valeriya@luckyhunter.io\ntelegram: @sobolevavalery\nБуду рада ответить на все вопросы и комментарии по вакансии 😊","markup":[{"type":"hashtag","offset":0,"length":9,"data":"вакансия"},{"type":"hashtag","offset":10,"length":9,"data":"frontend"},{"type":"hashtag","offset":21,"length":6,"data":"React"},{"type":"hashtag","offset":28,"length":5,"data":"офис"},{"type":"hashtag","offset":34,"length":7,"data":"remote"},{"type":"hashtag","offset":42,"length":4,"data":"Мск"},{"type":"hashtag","offset":47,"length":6,"data":"Пермь"},{"type":"hashtag","offset":54,"length":7,"data":"senior"},{"type":"hashtag","offset":62,"length":7,"data":"middle"},{"type":"link","offset":86,"length":21,"data":"http://luckyhunter.io"},{"type":"link","offset":1820,"length":23,"data":"mailto:valeriya@luckyhunter.io"},{"type":"handle","offset":1854,"length":15,"data":"sobolevavalery"}],"date":"2020-06-30T16:06:49+00:00","link":"tg://resolve?domain=javascript_jobs_feed&post=16469","tags":[{"name":"javascript"},{"name":"reactjs"},{"name":"typescript"},{"name":"webpack"},{"name":"maven"},{"name":"gitlab"}],"cities":[{"code":"perm"},{"code":"moscow"}],"allowsRemote":true}},{"node":{"id":"17266900992-1001110946746","title":"Js разработчик","text":"Добрый день\n\n#вакансия #работа #parttime #JavaScript #vuejs #Frontend #Web\n\nГород и адрес офиса: Москва\nКомпания: Enlighted\nФормат работы: удаленка\nЗанятость: частичная, не менее 20-30 часов в неделю\nЗарплатная вилка: от 7-10$ в час либо сдельная\n\n\nМакеты в Sketch, задачи в Трекере\n\nСтек:\nVue2 + Vuex\n\nТребования:\nУмение верстать по макетам из Sketch/Figma\nПонимание принципа работы Vuex, уметь рассказать зачем он вообще нужен.\nvue+vuex, es6, vue-cli\nЗнание html, css3, BEM-методологии\nУмение работать с git, знание процесса git flow будет плюсом.\nОпыт интеграции Google/OSM maps будет плюсом.\nОпыт настройки CI/CD или хотя бы понимание как устроен процесс сборки Vue проекта.\n\nВам предстоит:\nРазрабатывать фронтенд-часть проекта по предоставленным макетам, никакого legacy, проект начинается с нуля.\nКомандная работа, утренние стендапы и еженедельные релизы.\n\nПисать мне в личку @westarakagrek или на почту ra@enlighted.ru","markup":[{"type":"hashtag","offset":13,"length":9,"data":"вакансия"},{"type":"hashtag","offset":23,"length":7,"data":"работа"},{"type":"hashtag","offset":31,"length":9,"data":"parttime"},{"type":"hashtag","offset":41,"length":11,"data":"JavaScript"},{"type":"hashtag","offset":53,"length":6,"data":"vuejs"},{"type":"hashtag","offset":60,"length":9,"data":"Frontend"},{"type":"hashtag","offset":70,"length":4,"data":"Web"},{"type":"handle","offset":882,"length":14,"data":"westarakagrek"},{"type":"link","offset":910,"length":15,"data":"mailto:ra@enlighted.ru"}],"date":"2020-06-30T16:06:01+00:00","link":"tg://resolve?domain=javascript_jobs_feed&post=16467","tags":[{"name":"javascript"},{"name":"vuejs"},{"name":"web"},{"name":"html"},{"name":"css"},{"name":"git"}],"cities":[{"code":"moscow"}],"allowsRemote":true}},{"node":{"id":"72383201280-1001054966032","title":"Ios developer","text":"#вакансия #спб #ios #middle #senior #spb #офис #IoT #умныйдом \nMiddle/Senior iOS developer \nReady for Sky 🚀 \nhttps://readyforsky.com/ru/career/ \n📍 полный день, удаленно в СПб/офис м. Нарвская \nМы серьезно занимаемся сферой iot, создаем умные приборы.\nИщем iOS developer, который будет разрабатывать приложение, использующее данные с IoT-устройств для предоставления пользователям нужных товаров и услуг \n💡 Используем: Swift, Objective-C; Jenkins; GraphQL; RxSwift; MVC, MVVM и Viper \nВ команде: разрабатываем новый функционал приложения, внутренние фреймворки (Private pods), фреймворки для общего доступа; пишем Unit тесты; принимаем участие в создании протоколов работы с умными устройствами; Refactoring и Code-review. \nПредлагаем: \nРаботу в профессиональной команде, более 300 000 активных пользователей приложения. \nЗП от 130 до 250 тыс. руб. на руки  \nПосле исп.срока корпоративный английский \n📬 Пиши: @Rupeka_Natali","markup":[{"type":"hashtag","offset":0,"length":9,"data":"вакансия"},{"type":"hashtag","offset":10,"length":4,"data":"спб"},{"type":"hashtag","offset":15,"length":4,"data":"ios"},{"type":"hashtag","offset":20,"length":7,"data":"middle"},{"type":"hashtag","offset":28,"length":7,"data":"senior"},{"type":"hashtag","offset":36,"length":4,"data":"spb"},{"type":"hashtag","offset":41,"length":5,"data":"офис"},{"type":"hashtag","offset":47,"length":4,"data":"IoT"},{"type":"hashtag","offset":52,"length":9,"data":"умныйдом"},{"type":"bold","offset":63,"length":27,"data":""},{"type":"bold","offset":92,"length":13,"data":""},{"type":"link","offset":110,"length":34,"data":"https://readyforsky.com/ru/career/"},{"type":"bold","offset":258,"length":13,"data":""},{"type":"bold","offset":409,"length":11,"data":""},{"type":"bold","offset":487,"length":10,"data":""},{"type":"bold","offset":726,"length":11,"data":""},{"type":"bold","offset":906,"length":5,"data":""},{"type":"handle","offset":912,"length":14,"data":"Rupeka_Natali"}],"date":"2020-06-30T15:50:02+00:00","link":"tg://resolve?domain=mobile_jobs&post=69030","tags":[{"name":"mobile"},{"name":"ios"},{"name":"swift"},{"name":"objective-c"},{"name":"jenkins"},{"name":"graphql"},{"name":"mvvm"}],"cities":[],"allowsRemote":true}},{"node":{"id":"72382152704-1001054966032","title":"Android developer","text":"#вакансия #Juniorandroid #Android developer #kotlin #удаленно                                                                                                         Уровень дохода:💵 50 000-60 000  рублей net                                                                                                                                                                                 Требуемый опыт работы: от 1 года\nПолная занятость, дистанционно, гибкое начало рабочего дня\n \n📌Требования:\n- Нативная Android разработка (Kotlin)\n- Умение писать поддерживаемый и тестируемый код\n- Умение работать с Dagger 2\n- Умение работать с git\n- Желание развиваться и изучать новое в разработке\n- Опыт разработки приложений от 1 года\n -Знание английского языка от уровня Intermediate\n \n📌Будет плюсом:\n- Опыт работы с JNI\n- Опыт использования tensorflow\n- Опыт работы с аудио и видео\n\n📌Условия:\n- Отсутствие бюрократии\n- Время начала рабочего дня обговариваем индивидуально\n- Крутой инновационный проект - возможность самореализации и профессионального роста\n- Стабильное зарубежное финансирование\n- Десятки миллионов установок и множество глобальных партнёров\n📞Контакты @SvetikS_hr +7(963)-632-12-36 Cветлана","markup":[{"type":"hashtag","offset":0,"length":9,"data":"вакансия"},{"type":"hashtag","offset":10,"length":14,"data":"Juniorandroid"},{"type":"hashtag","offset":25,"length":8,"data":"Android"},{"type":"hashtag","offset":44,"length":7,"data":"kotlin"},{"type":"hashtag","offset":52,"length":9,"data":"удаленно"},{"type":"link","offset":184,"length":13,"data":"tel:50 000-60 000"},{"type":"handle","offset":1164,"length":11,"data":"SvetikS_hr"},{"type":"link","offset":1176,"length":17,"data":"tel:+7(963)-632-12-36"}],"date":"2020-06-30T15:44:34+00:00","link":"tg://resolve?domain=mobile_jobs&post=69029","tags":[{"name":"mobile"},{"name":"android"},{"name":"kotlin"},{"name":"dotnet"},{"name":"git"},{"name":"tensorflow"}],"cities":[],"allowsRemote":true}},{"node":{"id":"72381104128-1001054966032","title":"Android разработчик","text":"#вакансия #android #remote #удаленка\n\nГород и адрес офиса: Ростов-на-Дону\nФормат работы: удаленка\nЗанятость: проектная\nЗарплатная вилка - от $30 до $100 за проект, перспектива роста количества и сложности проектов и как следствие ставки\n\nОписание вакансии:\n\nВ ближайшее время необходимо разработать простое (со сложной аналитикой) приложение из 3-х экранов и заставки. На 2-х экранах просто текст, на одном квадратные блоки с картинками и кнопками.\nБудем рекламировать приложение через in-app сетки\nНаша цель понять из каких конкретно сеток к нам приходят заявки.\nЗаявки будут приходить из сайтов, которые будут открываться в приложении через google chrome tab\n\nИтого в цепочке надо связать:\n- Приложение\n- appsflyer\n- keitaro\n- Партнерку\n\nОплата за проект 55-70$\n\nСразу после этого проекта будут другие подобные проекты.\n\nТребования:\nОпыт работы с keitaro, appsflyer, различными api\n\nКонтакты: телеграм @makar_abraam","markup":[{"type":"hashtag","offset":0,"length":9,"data":"вакансия"},{"type":"hashtag","offset":10,"length":8,"data":"android"},{"type":"hashtag","offset":19,"length":7,"data":"remote"},{"type":"hashtag","offset":27,"length":9,"data":"удаленка"},{"type":"handle","offset":904,"length":13,"data":"makar_abraam"}],"date":"2020-06-30T15:26:16+00:00","link":"tg://resolve?domain=mobile_jobs&post=69028","tags":[{"name":"mobile"},{"name":"android"},{"name":"google-chrome"}],"cities":[{"code":"rostov"}],"allowsRemote":true}},{"node":{"id":"104080605184-1001089317451","title":"Qa engineer","text":"#вакансия #TestAutomation #Java #JS #НижнийНовгород #Казань #MERA\n💼  Java and JS Test Automation Engineers\n🔹 Формат работы: office (до конца лета 2020 remote)\n🔹 Локация офисов: НН, Казань (бонус при релокации)\n🔹 Занятость: full-time\n🔹 Опыт: от 2х лет (Test Automation)\n🔹 Английский язык:  Чтение и написание документации не ниже pre-intermediate\n🏢 О компании: MERA (крупная международная компания) сейчас быстро растет. В связи со стартом масштабного проекта наш крупный Заказчик, ведущий поставщик глобальных корпоративных облачных коммуникаций и решений для бизнеса, расширяет команду Test Automation Engineers. Открыто более 10 вакансий на Java and JS Test Automation.\n📁 О проекте:\nПроект по разработке высоконагруженных сервисов облачной телефонии для физических лиц и глобальных корпораций. Продукт объединяет в себе возможности телефонии, видеосвязи, организации встреч и обмен сообщениями в одном надежном, простом в использовании решении.\n👉🏻Подробнее о компании и проекте: https://www.youtube.com/watch?v=V9l0TkZWHfI\n✔ Обязанности: \n- Разработка и поддержка тест-планов и сценариев.\n- Автоматизация тестовых сценариев, сопровождение библиотеки автотестов.\n- Участие в разработке тестового фреймворка.\n- Запуск тестовых скриптов, анализ результатов прогона на разных окружениях, поддержка CI.\n🔹 Гибкая метология: Scrum/Agile\n👋  Команда: Работаем в рамках распределённой (Вильнюс, НН, Казань, Дзержинск), совмещённой с заказчиком команды.  80% - Test Automation Engineers, 20% - Software Developers.\n🙌 Мы предлагаем:\n• Официальное трудоустройство, полностью белая зарплата + премиальная система\n• Участие в перспективных масштабных международных проектах. Заказчики: Северная Америка, Западная Европа.\n• ДМС после прохождения испытательного срока (3 месяца).\n• Широкие возможности профессионального развития (участие в митапах, конференциях, корпоративные программы обучения) и карьерного роста.\n\n💵Бонус за рекомендацию: 60 000 рублей за Middle и 80 000 рублей за Senior.\nЗП стартуем от 70000\nКонтакты:  telegram: @nazahvat, natalya.zakhvatova@orioninc.com","markup":[{"type":"hashtag","offset":0,"length":9,"data":"вакансия"},{"type":"hashtag","offset":10,"length":15,"data":"TestAutomation"},{"type":"hashtag","offset":26,"length":5,"data":"Java"},{"type":"hashtag","offset":32,"length":3,"data":"JS"},{"type":"hashtag","offset":36,"length":15,"data":"НижнийНовгород"},{"type":"hashtag","offset":52,"length":7,"data":"Казань"},{"type":"hashtag","offset":60,"length":5,"data":"MERA"},{"type":"link","offset":991,"length":43,"data":"https://www.youtube.com/watch?v=V9l0TkZWHfI"},{"type":"handle","offset":2034,"length":9,"data":"nazahvat"},{"type":"link","offset":2045,"length":31,"data":"mailto:natalya.zakhvatova@orioninc.com"}],"date":"2020-06-30T13:52:02+00:00","link":"tg://resolve?domain=qa_jobs&post=99259","tags":[{"name":"qa"},{"name":"java"}],"cities":[{"code":"kazan"},{"code":"vilnius"},{"code":"dzerzhinsk"}],"allowsRemote":true}},{"node":{"id":"104078508032-1001089317451","title":"Qa engineer","text":"#вакансия #QA  #QAEngineer # relocation #Praha\nВакансия: Manual QA Engineer\nГород:  #Прага \nЗарплата: 💸45 000-65 000 czk gross\nФормат: #удаленно  #офис\nКомпания: Slotegrator\n\nЗадачи:\n•  Разработка и проведение ручного, функционального, регрессионного тестирования\n•  Анализ и уточнение требований, разработка и ведение тест кейсов в рамках назначенных проектов.\n•  Разработка и поддержка тестовой документации;\n•  Документирование процессов тестирования, контроль актуальности тест-кейсов\n•  Тестирование назначенных проектов или функционала (область ответственности - этап разработки и согласования требований, этап разработки и проведения тестов)\n•  Отладка программных продуктов с использованием систематических тестов\n•  Работать в тесном сотрудничестве с командой разработчиков\n\nТребования:\n•  2+ года опыта в ручных тестовых случаях, разработке сценариев тестирования, написание тестовых сценариев\n•  Знание основных критериев качества требований к ПО\n•  Знания в области тестирования и работа на веб / клиент-сервер / мобильные приложения\n•  Хорошее знание процессов тестирования, знания тестовой документации\n•  Хороший опыт анализа, устранения неполадок и решения проблем\n\nБудут преимуществом:\n•  Опыт тестирования API / веб-сервисов (Web API) и мобильных устройств\n•  Знания SQL\n\nЧто мы предлагаем?🍩\n•  Работу на различных интересных международных проектах \n•  Визовая поддержка и частичная компенсации расходов на переезд в Чехию\n•  Уроки английского и чешского языков каждую неделю \n•  Гибкое начало рабочего дня \n•  Бизнес коуч\n•  Карта MultiSport\n•  Бесплатные обеды по средам и вкусные снэки каждый день\n\nБудь частью крутых проектов!🤝\n\nКонтакты: recruiting@slotegrator.com / tlg @DarinaRecruitment","markup":[{"type":"hashtag","offset":0,"length":9,"data":"вакансия"},{"type":"hashtag","offset":10,"length":3,"data":"QA"},{"type":"hashtag","offset":15,"length":11,"data":"QAEngineer"},{"type":"hashtag","offset":40,"length":6,"data":"Praha"},{"type":"hashtag","offset":84,"length":6,"data":"Прага"},{"type":"hashtag","offset":136,"length":9,"data":"удаленно"},{"type":"hashtag","offset":147,"length":5,"data":"офис"},{"type":"link","offset":1664,"length":26,"data":"mailto:recruiting@slotegrator.com"},{"type":"handle","offset":1697,"length":18,"data":"DarinaRecruitment"}],"date":"2020-06-30T13:34:11+00:00","link":"tg://resolve?domain=qa_jobs&post=99257","tags":[{"name":"qa"},{"name":"web"},{"name":"sql"}],"cities":[{"code":"prague"}],"allowsRemote":true}},{"node":{"id":"3592421376-1001121589364","title":"Dotnet разработчик","text":"#вакансия #Казань #Kzn #офис #fulltime #релокация #ios #Developer #разработчик\n\nMiddle IOS-разработчик\n\nКазань \nКомпания ArtStation Labs\nРоссийское подразделение ArtStation\nГоловной офис компании находится в Канаде. \nРаботая в ArtStation Labs вы каждый день будете плотно взаимодействовать с канадскими коллегами и обмениваться опытом.\n❗️Поэтому важен разговорный английский.\n\nФормат: Офис, фулл тайм. \n\nВилка: 100к-160к рублей / месяц\n\n✅ Что нужно будет делать:\n\n- Разрабатывать приложение Artstation под iOS\n\n- Взаимодействовать с командой для описания, разработки и релиза новых функций\n\n- Исправлять ошибки и повышать скорость работы приложения\n\n- Постоянно изучать, оценивать и внедрять новые технологии и быть в курсе изменений в экосистеме Apple\n\n✅ Пожелания к кандидату:\n\n- Реальный опыт работы разработчиком приложений под iOS. У вас должно быть как минимум одно приложение в AppStore.\n\n- Глубокое понимание экосистемы Apple и принципов работы социального приложения. Вы способны справиться со всеми специфичными для эппловской продукции проблемами и знаете, как их можно проработать/обойти. \n\n- Вы знакомы с принципами работы всех крупных социальных приложений.\n\n- Знание английского. Наша команда мультинациональная и мы все общаемся (каждый день!) на английском, устно и письменно.\n\n- Понимание принципов Agile/Scrum. Мы работаем по скраму. \n\n- Готовность работать в офисе. Наше российское подразделение работает в центре офиса в Казани, удаленная работа невозможна. Мы поможем с переездом, если вы в другом городе. Канадское подразделение работает в основном из Монреаля. Вам должно быть комфортно работать как с коллегами бок о бок, так и с удаленными сотрудниками.\n\n- Изобретательность и проактивность. Не на все вопросы есть готовые ответы и зачастую придется искать собственные работающие решения.\n\n✅От нас:\n\n- Все официальное и белое;\n- Помощь с релокацией, подъемные;\n- Комфортный офис в центре города;\n- Гибкое начало дня \n- Возможность предлагать собственные идеи и реализовывать их;\n - ДМС со стоматологией;\n - Оплачиваемое обучение, командировки на конференции;\n - Ежегодная переиндексация заработной платы\n- Оплачиваемые уроки англиского\n\nВопросы и портфолио направлять по адресу: \nhr_ru@artstation.com\n\nUPD. Уважаемые кандидаты, обратите внимание — удаленных сотрудников мы не рассматриваем. Пишите, пожалуйста, только если вы готовы переехать в Казань или уже в ней живете.","markup":[{"type":"hashtag","offset":0,"length":9,"data":"вакансия"},{"type":"hashtag","offset":10,"length":7,"data":"Казань"},{"type":"hashtag","offset":18,"length":4,"data":"Kzn"},{"type":"hashtag","offset":23,"length":5,"data":"офис"},{"type":"hashtag","offset":29,"length":9,"data":"fulltime"},{"type":"hashtag","offset":39,"length":10,"data":"релокация"},{"type":"hashtag","offset":50,"length":4,"data":"ios"},{"type":"hashtag","offset":55,"length":10,"data":"Developer"},{"type":"hashtag","offset":66,"length":12,"data":"разработчик"},{"type":"link","offset":2206,"length":20,"data":"mailto:hr_ru@artstation.com"}],"date":"2020-06-30T13:31:00+00:00","link":"tg://resolve?domain=xamarin_jobs&post=3426","tags":[{"name":"dotnet"},{"name":"csharp"},{"name":"mobile"},{"name":"ios"}],"cities":[{"code":"kazan"}],"allowsRemote":true}}]}},"context":{}}