{"hash":"f34fd2c444a074f4e0e67d525015a008ef8e766f","data":{"records":{"id":"mongodb","name":"mongodb","belongsTo":{"totalCount":39,"pageInfo":{"totalPages":4,"currentPage":4},"edges":[{"node":{"__typename":"Job","id":"217055232-1001352129329","title":"Golang разработчик","text":"#вакансия #office #golang #fulltime \nВакансия: Golang разработчик\nФормат работы: fulltime, офис\nМесто работы: Москва, м. Сухаревская, Проспект мира 3с3\nПродукт: маркетплейс фармакологической тематики совместно с X5 Retail group.\nЗП: от 150 000 до 200 000 net.\n\nЧто мы ждём от вас\n- опыт работы с GoLang\n- опыт работы с MongoDB\n- умеете пользоваться Git\n- желание работать в команде, вносить идеи и предложение по совершенствованию продукта\nВ проекте мы используем Docker, RabbitMQ, Redis, ElasticSearch - будет плюсом, если вы имели опыт работы с чем-то из этого списка. Если нет - приходите и мы научим\n\nЧто у нас есть\n- минимум формальностей и множество возможностей проявить себя\n- погружение в изучение и использование различных практик и инструментов\nсовременной разработки\n- молодую, дружную и целеустремленную команду профессионалов\n- работу над интересными и востребованными сервисами\n- полностью «белая» зарплата\n- гибкий график работы\n- современный удобный офис в минуте ходьбы от станций метро Сухоревская\n\nСтек\n- у нас большой стек современных технологий - Golang, NodeJS, Redis, RabbitMQ, ElasticSearch, MongoDB, ClickHouse\n- для ведения задач и хранения кода мы используем GitLab\n- используем практики CI & CD - наши проекты автоматически разворачиваются на серверах, а некоторые из них - «гоняются» автотестами\n- Docker в наших сердцах - все продакшны работают на Docker внутри Kubernetes\n- вся инфраструктура находится внутри AWS\n- собираем метрики и организуем мониторинг наших проектов с помощью CloudWatch\n\nКомпания: Фармспейс\nСайт: https://pharmaspace.ru\nПродукт: маркетплейс фармакологической тематики совместно с X5 Retail group.\n\nПо всем вопросам в личку или в телегу @irarudakova\n Автор @irarudakova","markup":[{"type":"hashtag","offset":0,"length":9,"data":"вакансия"},{"type":"hashtag","offset":10,"length":7,"data":"office"},{"type":"hashtag","offset":18,"length":7,"data":"golang"},{"type":"hashtag","offset":26,"length":9,"data":"fulltime"},{"type":"link","offset":1552,"length":22,"data":"https://pharmaspace.ru"},{"type":"handle","offset":1691,"length":12,"data":"irarudakova"},{"type":"handle","offset":1711,"length":12,"data":"irarudakova"}],"date":"2020-02-03T19:00:39+00:00","link":"tg://resolve?domain=gogetajobfeed&post=207","tags":[{"name":"go"},{"name":"dotnet"},{"name":"mongodb"},{"name":"git"},{"name":"docker"},{"name":"rabbitmq"},{"name":"redis"},{"name":"elasticsearch"},{"name":"nodejs"},{"name":"gitlab"},{"name":"kubernetes"},{"name":"amazon-web-services"}],"cities":[{"code":"moscow"}],"allowsRemote":false}},{"node":{"__typename":"Job","id":"87031808-1001375797688","title":".net разработчик","text":"#вакансия #орел #fulltime #офис #csharp #netframework\nВсем привет! ✋\nКомпания ИнСистем в поисках C# разработчиков в офис в г. Орел:\n\nОсновные обязанности:\n- Разработка высоконагруженных систем;\n- Поддержка и сопровождение текущих проектов.\n\nДля нас важно: \n- Опыт разработки более 2-х лет.\n- Знание C#, RabbitMQ, LINQ, Git, MySQL, MongoDB, WCF, .NET Framework.\n- Опыт работы с реляционными базами данных.\n\nГотовы рассматривать кандидатов уровня Middle и Senior с заработной вилкой до 150 000 р. на руки. \nУ нас есть все необходимое для работы и отдыха: комфортный современный офис, компенсация поездок на IT – конференции и митапы, бесплатные обеды, спорт зал, современный подход к управлению, постановке задач, процессам.\n\nБуду рада Вашим вопросам и резюме: \n✍️  @hrkaterina \n📨 personal.insistem@gmail.com","markup":[{"type":"hashtag","offset":0,"length":9,"data":"вакансия"},{"type":"hashtag","offset":10,"length":5,"data":"орел"},{"type":"hashtag","offset":16,"length":9,"data":"fulltime"},{"type":"hashtag","offset":26,"length":5,"data":"офис"},{"type":"hashtag","offset":32,"length":7,"data":"csharp"},{"type":"hashtag","offset":40,"length":13,"data":"netframework"},{"type":"bold","offset":133,"length":22,"data":""},{"type":"bold","offset":241,"length":16,"data":""},{"type":"bold","offset":438,"length":13,"data":""},{"type":"bold","offset":453,"length":7,"data":""},{"type":"handle","offset":764,"length":11,"data":"hrkaterina"},{"type":"link","offset":780,"length":27,"data":"mailto:personal.insistem@gmail.com"}],"date":"2020-01-31T15:41:51+00:00","link":"tg://resolve?domain=DotNetRuJobsFeed&post=83","tags":[{"name":"dotnet"},{"name":"csharp"},{"name":"rabbitmq"},{"name":"linq"},{"name":"git"},{"name":"mysql"},{"name":"mongodb"},{"name":"wcf"}],"cities":[],"allowsRemote":false}},{"node":{"__typename":"Job","id":"81788928-1001375797688","title":".net developer","text":"#job #vacancy #Minsk #.Net #dotnet #Net #Middle #Senior #fulltime \n#вакансия #Минск #офис\n\nПривет!!!\nЕсли вы давно хотели работать в game dev- этот пост для вас!\n\nЛокация: Минск, ст.м. Площадь Якуба Колоса\nРабота в офисе, фуллтайм\nЗП: до 4000$\n\nБыстро растущая компания, предоставляющая сервис по аутсорсной разработке программного обеспечения, находится в поисках Middle/Senior .Net Developer. \n\nЧто мы ожидаем:\n✔️ 2+года работы с ASP.Net  и Web API;\n✔ опыт работы MSSQL, PostgreSQL, а также MongoDB, DynamoDB;\n✔ опыт работы с Microservices;\n✔  опыт работы с SCRUM (Agile); \n✔ знание английского языка (от В1);\n\nПлюсом будет:\n⭕  опыт разработки на стороне клиента (JS и CSS);\n⭕ опыт работы с AWS, GC, Azure и т.д.;\n⭕ опыт работы в B2C;\n\nМы предлагаем:\n🔸  работу в дружном коллективе;\n🔸  медицинскую страховку;\n🔸  частичную оплату спорта;\n🔸 3 sick day's;\n🔸  стабильную и достойную заработную плату;\n🔸  гибкий график.\n\n⚡ Пишите в лс за подробной информацией. \ntg: @Ww_Darya","markup":[{"type":"hashtag","offset":0,"length":4,"data":"job"},{"type":"hashtag","offset":5,"length":8,"data":"vacancy"},{"type":"hashtag","offset":14,"length":6,"data":"Minsk"},{"type":"hashtag","offset":27,"length":7,"data":"dotnet"},{"type":"hashtag","offset":35,"length":4,"data":"Net"},{"type":"hashtag","offset":40,"length":7,"data":"Middle"},{"type":"hashtag","offset":48,"length":7,"data":"Senior"},{"type":"hashtag","offset":56,"length":9,"data":"fulltime"},{"type":"hashtag","offset":67,"length":9,"data":"вакансия"},{"type":"hashtag","offset":77,"length":6,"data":"Минск"},{"type":"hashtag","offset":84,"length":5,"data":"офис"},{"type":"handle","offset":969,"length":9,"data":"Ww_Darya"}],"date":"2020-01-29T15:40:11+00:00","link":"tg://resolve?domain=DotNetRuJobsFeed&post=78","tags":[{"name":"dotnet"},{"name":"csharp"},{"name":"web"},{"name":"sql-server"},{"name":"postgresql"},{"name":"mongodb"},{"name":"dynamodb"},{"name":"css"},{"name":"amazon-web-services"},{"name":"azure"},{"name":"asp-net"}],"cities":[{"code":"minsk"}],"allowsRemote":false}},{"node":{"__typename":"Job","id":"211812352-1001352129329","title":"Go разработчик","text":"#вакансия #Ижевск #fulltime\n\nКомпания: Ростелеком БПМ (коллаборация ELMA + Ростелеком)\nНазвание вакансии: go-разработчик\nЗарплатная вилка: 90 000 - 180 000 RUB\nУдаленка: нет, офис\nГород: Ижевск\nНеобходимость знания языков: русский\n\nСписок необходимых навыков: \nЯзыки: go, angular+typescript. \nБД: postgres, mongodb, redis, rabbitmq. \nИнфраструктура: kubernetes, docker.\n+ отсутствие предубеждений против написания логики на фронтенде (многие компоненты готовы и конструирование интерфейса чаще сводится к сборке конструктора, но логику сложных валидаций и обмена данными необходимо будет писать);\n+ опыт работы в команде.\n\nО компании и проекте:\nКомпания Ростелеком БПМ — это коллаборация двух лидеров ИТ-рынка в своей области- ELMA и Ростелеком с целью создания новой BPM-платформы, которая позволит автоматизировать процессы, связанные с оказанием государственных и муниципальн.ых услуг\nНаш продукт — это самый масштабный государственный ИТ-проект в России, с соответствующим бюджетом. И делаться он будет здесь, в Удмуртии! \nМы ищем профессионалов, которые готовы вложить весь свой опыт разработки в создание мощной bpm-платформы.\n\nКонтактное лицо:  @ohhcheese\n Автор @ohhcheese","markup":[{"type":"hashtag","offset":0,"length":9,"data":"вакансия"},{"type":"hashtag","offset":10,"length":7,"data":"Ижевск"},{"type":"hashtag","offset":18,"length":9,"data":"fulltime"},{"type":"handle","offset":1152,"length":10,"data":"ohhcheese"},{"type":"handle","offset":1170,"length":10,"data":"ohhcheese"}],"date":"2020-01-28T09:50:05+00:00","link":"tg://resolve?domain=gogetajobfeed&post=202","tags":[{"name":"go"},{"name":"angularjs"},{"name":"typescript"},{"name":"postgresql"},{"name":"mongodb"},{"name":"redis"},{"name":"rabbitmq"},{"name":"kubernetes"},{"name":"docker"}],"cities":[{"code":"izhevsk"}],"allowsRemote":false}},{"node":{"__typename":"Job","id":"628097024-1001089319619","title":"Ruby разработчик","text":"#вакансия #Senior #Ruby #Rails #Севастополь #офис \n\nгород: Севастополь\nкомпания: SoftLight\nформат работы: офис, fulltime \n\nКратко о нас: \n\nНа протяжении 13 лет наша команда создает кастомные web/mobile applications и design. \nПриглашаем присоединиться к нашей команде Senior RoR разработчика с опытом проектирования и разработки высоконагруженных B2С web applications. \n\nОбязанности:\nПроектирование и разработка серверной части на RoR framework.\n\nПроект - очень сложная и большая финансовая платформа для получения инвестиций, займов etc. на уровне больших компаний (UK). \nОбласть проекта - fintech\n\nТребования: \n\nПрактический опыт работы с RoR/Sinatra/Padrino frameworks от 5 лет \nПрактический опыт работы с PostgreSQL и SQL в целом\nОпыт работы с Redis/Memcached, RSpec\nCистема контроля версий - Git\nБазовые знания Frontend - HTML, CSS, JavaScript/jQuery\nПонимание принципов и шаблонов проектирования сложных систем\nПонимание специфики и опыт работы с highload системами\nАнглийский язык - желательно (Intermediate+), но не обязательно \n\nПлюсом будет:\nОпыт работы с большими объемами данных (сотни GB)\nElasticSearch, MongoDB\nRabbitMQ/Kafka\nДругие технологии JVM/Elixir\nОпыт работы с распределенными системами\n \nМы предлагаем:\n\n- Офис с видом на море и бухту\n- Большая команда опытных разработчиков\n- Бессрочный проект (UK) \n- Сильная проектная команда включая менеджера \n- Бесплатные курсы английского для всех сотрудников\n- Необходимый environment (Mac, PC etc.)\n- Пятидневная рабочая неделя, гибкое начало дня ( с 9-10 до 18-19), госпраздники - выходные\n- Оформление ИП (с нашей стороны бухгалтерское сопровождение + gross) \n- Корпоративный отдых за счет компании\n- Пакет релокации (оплачиваем трансфер в Севастополь и аренду жилья 2 месяца) \n\nВилка: 2800-4000$ net \n\nemail: @MikeHR","markup":[{"type":"hashtag","offset":0,"length":9,"data":"вакансия"},{"type":"hashtag","offset":10,"length":7,"data":"Senior"},{"type":"hashtag","offset":18,"length":5,"data":"Ruby"},{"type":"hashtag","offset":24,"length":6,"data":"Rails"},{"type":"hashtag","offset":31,"length":12,"data":"Севастополь"},{"type":"hashtag","offset":44,"length":5,"data":"офис"},{"type":"handle","offset":1777,"length":7,"data":"MikeHR"}],"date":"2020-01-27T12:08:06+00:00","link":"tg://resolve?domain=rubyjob&post=0","tags":[{"name":"ruby"},{"name":"ruby-on-rails"},{"name":"web"},{"name":"mobile"},{"name":"postgresql"},{"name":"sql"},{"name":"redis"},{"name":"git"},{"name":"html"},{"name":"css"},{"name":"javascript"},{"name":"jquery"},{"name":"elasticsearch"},{"name":"mongodb"},{"name":"rabbitmq"},{"name":"kafka"},{"name":"jvm"},{"name":"elixir"},{"name":"dotnet"}],"cities":[{"code":"sevastopol"}],"allowsRemote":false}},{"node":{"__typename":"Job","id":"74448896-1001375797688","title":".net разработчик","text":"#вакансия #dotnet #csharp #remote #удаленка\n\nФормат: #удаленка\nЗанятость: полная\nЗарплата: от 2 000$ до 3 500$ (зп обсуждается с каждым лично и зависит от вашего уровня...)\nКомпания: IDG\n\n💡Задачи:\n- Разработка высоконагруженных систем на стороне заказчика;\n- Поддержка и сопровождения проектов;\n\n📍Требования:\n- опыт разработки коммерческих приложений на платформе .NET от 2 лет;\n- опыт и понимание ASP.Net MVC, Web API, опыт работы с клиентскими JS фреймворками;\n- опыт и понимание протокола передачи данных REST;\n- знание и опыт работы с MongoDB или другой NoSQL базой данных;\n- технический английский;\n\n🔗Будет плюсом:\n- опыт работы в финансовой индустрии, либо другой корпоративной среде, где важна защита данных и правильная организация контроля доступа к исполнению кода\n- опыт работы с зарубежными заказчиками\n- использование TDD в разработке\n- наличие сертификатов Microsoft\n- опыт работы с Datawarehouse/Big Data системами\n- Опыт работы с VSTS\n- Опыт работы с Kubernetes/Docker\n- Опыт работы с React\n\n📝Условия:\n- Интересные задачи и возможность реализовать свой потенциал в международных проектах компании и внутренних стартапах;\n- Гибкий график (начало и конец рабочего дня согласовываются с менеджером и командой проекта)\n- Полностью удаленная работа\n\nРезюме можно в личку или на почту.\n\nКонтакты:\n📧 seleznevaem@gmail.com\n🖌@EkaterinaSel\n\nТакже буду благодарна за рекомендации.","markup":[{"type":"hashtag","offset":0,"length":9,"data":"вакансия"},{"type":"hashtag","offset":10,"length":7,"data":"dotnet"},{"type":"hashtag","offset":18,"length":7,"data":"csharp"},{"type":"hashtag","offset":26,"length":7,"data":"remote"},{"type":"hashtag","offset":34,"length":9,"data":"удаленка"},{"type":"bold","offset":45,"length":8,"data":""},{"type":"hashtag","offset":53,"length":9,"data":"удаленка"},{"type":"bold","offset":63,"length":11,"data":""},{"type":"bold","offset":81,"length":10,"data":""},{"type":"bold","offset":173,"length":9,"data":""},{"type":"link","offset":1314,"length":21,"data":"mailto:seleznevaem@gmail.com"},{"type":"handle","offset":1338,"length":13,"data":"EkaterinaSel"}],"date":"2020-01-08T12:47:08+00:00","link":"tg://resolve?domain=DotNetRuJobsFeed&post=71","tags":[{"name":"dotnet"},{"name":"csharp"},{"name":"web"},{"name":"rest"},{"name":"mongodb"},{"name":"nosql"},{"name":"kubernetes"},{"name":"docker"},{"name":"reactjs"},{"name":"asp-net"},{"name":"asp-net-mvc"}],"cities":[],"allowsRemote":true}},{"node":{"__typename":"Job","id":"193986560-1001352129329","title":"Golang разработчик","text":"#вакансия #Go #Golang #backend #spb #Спб #fulltime #Python #офис\n\nGo-developer\nКомпания: #Noveo\nЛокация: Санкт-Петербург\nФормат работы: офис\nЗанятость: полная\nВилка: 130.000 – 250.000 рублей net\n\nМы - международная IT компания Noveo, которая занимается заказными разработками софта для крупных европейских компаний. Сейчас мы рады пригласить в команду Go разработчика для работы над проектом одного из наших зарубежных партнеров. Технологии проекта: Golang, Python, PostgreSQL, машинное обучение. \n\n👍Смело откликайся, если:\n\n- ты знаешь Golang и имеешь опыт разработки на нем;\n- можешь поддержать беседу на технические темы на английском языке\n\nТакже здорово, если ты:\n- понимаешь как устроена инфраструктура и используешь Docker в своих проектах;\n- знаешь Python или другие серверные языки программирования;\n- имеешь опыт работы с MongoDB, Redis, RabbitMQ, PostgreSQL;\n\n☕️Что мы предлагаем:\n\n- Достойный уровень заработной платы и ее пересмотр по результатам performance review\n- Официальное трудоустройство, оплачиваемый отпуск и больничные\n- Гибкий график, комфортабельный офис рядом со ст. м. Площадь Ленина (БЦ Петровский форт)\n- Внутреннее обучение, митапы, code-review и прокачка твоих технических навыков\n- Мощный комп для работы + любое количество мониторов по запросу)\n- Курсы английского и французского языков в офисе\n- И другие приятные бонусы (чай/кофе/печеньки, оборудованная офисная кухня, кикер, PS и др.)\n\n📩Отправляй резюме мне @stasya_sot или просто пиши в личку - все обсудим😉\n Автор @stasya_sot","markup":[{"type":"hashtag","offset":0,"length":9,"data":"вакансия"},{"type":"hashtag","offset":10,"length":3,"data":"Go"},{"type":"hashtag","offset":14,"length":7,"data":"Golang"},{"type":"hashtag","offset":22,"length":8,"data":"backend"},{"type":"hashtag","offset":31,"length":4,"data":"spb"},{"type":"hashtag","offset":36,"length":4,"data":"Спб"},{"type":"hashtag","offset":41,"length":9,"data":"fulltime"},{"type":"hashtag","offset":51,"length":7,"data":"Python"},{"type":"hashtag","offset":59,"length":5,"data":"офис"},{"type":"hashtag","offset":89,"length":6,"data":"Noveo"},{"type":"handle","offset":1447,"length":11,"data":"stasya_sot"},{"type":"handle","offset":1506,"length":11,"data":"stasya_sot"}],"date":"2019-12-20T12:27:29+00:00","link":"tg://resolve?domain=gogetajobfeed&post=185","tags":[{"name":"go"},{"name":"python"},{"name":"dotnet"},{"name":"postgresql"},{"name":"docker"},{"name":"mongodb"},{"name":"redis"},{"name":"rabbitmq"}],"cities":[],"allowsRemote":false}},{"node":{"__typename":"Job","id":"69206016-1001375797688","title":".net разработчик","text":"#вакансия #Москва #офис\nРазработчик С#\nЗ.п.: 80-140к\n\nОбязанности:\n\n1. Разработка прикладного ПО для внутренних нужд клиентских сервисов, в том числе:\n\n- реализация высоконагруженных серверных приложений\n- разработка архитектуры реализуемой программной системы\n- решение возникающих при реализации технических проблем\n\n2. Оптимизация текущего ПО (ускорение, снижение потребления ресурсов и т.п.)\n\nТребования:\n\n- высшее образование\n- опыт разработки на C# не менее 3-х лет\n- опыт разработки сложных корпоративных систем автоматизации\n\nБудет плюсом:\n- знание Python, JavaScript\n- знание языков разметки: CSS, HTML\n- опыт работы с ASP.NET Core, Keras, MongoDB\n- опыт написания модульных тестов\n- опыт работы с SVN, Git или Hg\n\nПисать в ЛС","markup":[{"type":"hashtag","offset":0,"length":9,"data":"вакансия"},{"type":"hashtag","offset":10,"length":7,"data":"Москва"},{"type":"hashtag","offset":18,"length":5,"data":"офис"},{"type":"link","offset":628,"length":7,"data":"http://ASP.NET"}],"date":"2019-12-17T16:05:01+00:00","link":"tg://resolve?domain=DotNetRuJobsFeed&post=66","tags":[{"name":"dotnet"},{"name":"csharp"},{"name":"python"},{"name":"javascript"},{"name":"css"},{"name":"html"},{"name":"mongodb"},{"name":"svn"},{"name":"git"},{"name":"asp-net"},{"name":"net-core"},{"name":"asp-net-core"}],"cities":[{"code":"moscow"}],"allowsRemote":false}},{"node":{"__typename":"Job","id":"34603008-1001375797688","title":".net разработчик","text":"#вакансия #dotNET #dotnetcore #офис #backend #SQL #docker #middle #senior #воронеж\n\nМы - компания \"Терра Ассистанс\" - ищем в свою команду человека, который любит свою работу и готов к самореализации.\nНаша команда растет, поэтому мы открыли новый офис по адресу: \nгород Воронеж\nул. Спортивная набережная д. 23б\nФормат: офис\n#удалёнка возможна после стажа работы в компании\nЗанятость: полная\nЗарплатная вилка от 80К до 95К\n\nНаша компания с 2013 года создаёт для пользователей автомобилей ассистанс-сервис.\nКто с нами работает?\nКрупнейшие мировые бренды, автомобильные дилеры, ведущие сервисные компании — каждый наш заказчик уникален, поэтому мы разрабатываем и предлагаем индивидуальные решения.\nВ чем наше отличие?\nВ нашей работе мы имеем дело с нестандартными ситуациями и в нашей отрасли каждая ситуация, каждый новый проект уникален. \n\nВ задачи будет входить проектирование и разработка серверной части приложений, тестирование приложений, проектирование, анализ работы баз данных, доработка, поддержка существующих приложений. \n\nПо мимо молодого и дружного коллектива, мы предлагаем:\n- бонусы по результатам работы;\n- возможности профессионального развития и роста;\n- работа в комфортабельном офисном помещении на набережной Воронежского водохранилища: обеденная зона (чай, кофе за счет компании), релакс-зона, душевая, уютный интерьер;\n- оформление по ТК с первого рабочего дня\n\nДля нас очень важно:\n- знание и опыт работы с MSSQL, T-SQL\nC#\nEntity framework, ASP .NET MVC, ASP .NET Core\nDocker\nNginx\n- знание технического английского языка\n- знание MongoDB желательно, но не критично  \n- ответственность, умение работать в команде\n\nhttps://terra-assistance.ru/\n\nКонтакты\n@I_Kristale","markup":[{"type":"hashtag","offset":0,"length":9,"data":"вакансия"},{"type":"hashtag","offset":10,"length":7,"data":"dotNET"},{"type":"hashtag","offset":18,"length":11,"data":"dotnetcore"},{"type":"hashtag","offset":30,"length":5,"data":"офис"},{"type":"hashtag","offset":36,"length":8,"data":"backend"},{"type":"hashtag","offset":45,"length":4,"data":"SQL"},{"type":"hashtag","offset":50,"length":7,"data":"docker"},{"type":"hashtag","offset":58,"length":7,"data":"middle"},{"type":"hashtag","offset":66,"length":7,"data":"senior"},{"type":"hashtag","offset":74,"length":8,"data":"воронеж"},{"type":"hashtag","offset":323,"length":9,"data":"удалёнка"},{"type":"link","offset":1637,"length":28,"data":"https://terra-assistance.ru/"},{"type":"handle","offset":1676,"length":11,"data":"I_Kristale"}],"date":"2019-10-31T11:53:40+00:00","link":"tg://resolve?domain=DotNetRuJobsFeed&post=33","tags":[{"name":"dotnet"},{"name":"csharp"},{"name":"sql"},{"name":"docker"},{"name":"sql-server"},{"name":"nginx"},{"name":"mongodb"},{"name":"entity-framework"},{"name":"asp-net"},{"name":"net-core"},{"name":"asp-net-mvc"},{"name":"asp-net-core"}],"cities":[{"code":"voronezh"}],"allowsRemote":true}}]}}},"context":{}}