{"hash":"f34fd2c444a074f4e0e67d525015a008ef8e766f","data":{"records":{"id":"php","name":"php","belongsTo":{"totalCount":65,"pageInfo":{"totalPages":7,"currentPage":5},"edges":[{"node":{"__typename":"Job","id":"23911727104-1001075660570","title":"Php developer","text":"#вакансия #Moscow #php #laravel #fulltime #office \n\n📌Вакансия: #PHP Middle developer\n📌Город: #Москва (м. Ботанический сад)\n📌ЗП: 150К net (готовы рассмотреть ваши ожидания)\n📌Занятость: полная/ офис \n📌Компания: АСНА (https://www.asna.ru/)\n\n✅АСНА - крупнейшее объединение аптечных сетей в России и странах СНГ. Это экосистема сервисов и продуктов, нацеленная на улучшение и развитие фармацевтического рынка России.\n\n👆Задачи:\n• создание и развитие b2c и b2b web-проектов компании;\n• участие в командной работе по разработке крупных\n• создание новых проектов компании с нуля;\n• оптимизация существующего PHP-кода и SQL-запросов.\n\n👍Что мы готовы предложить:\n• официальная («белая») заработная плата и мы соблюдаем ТК РФ.\n• переход на удаленку через 6 месяцев работы в компании; \n• мы обеспечим Вам комфортное рабочее место, мощное железо и два монитора J.\n• у нас нет бюрократии, плюс Вы сможете сами выбрать удобное время начала дня.\n• мы профессионально развиваем наших сотрудников – отправляем на курсы и профильные конференции.\n• мы следим за питанием наших сотрудников и компенсируем обеды.\n• мы даем возможность вносить свои идеи!\n• до нашего офиса можно дойти пешком от м. «Ботанический сад».\n\n🔥Наши ожидания:\n• опыт разработки на PHP от 1 года;\n• обязательно знание фреймворка Laravel;\n• опыт создания интеграционных решений с обменом информацией (JSON, XML, SOAP);\n• опыт проектирования БД и оптимизации SQL-запросов;\n• написание кода с комментариями в стиле phpDoc;\n• написание Unit тестов;\n• умение писать отказоустойчивые надежные автоматизированные системы;\n• навыки работы с *nix-системами;\n• опыт командной разработки с использованием системы контроля версий Git или Mercurial.\n\n🤝Контакты: @Kate_Guseva","markup":[{"type":"hashtag","offset":0,"length":9,"data":"вакансия"},{"type":"hashtag","offset":10,"length":7,"data":"Moscow"},{"type":"hashtag","offset":18,"length":4,"data":"php"},{"type":"hashtag","offset":23,"length":8,"data":"laravel"},{"type":"hashtag","offset":32,"length":9,"data":"fulltime"},{"type":"hashtag","offset":42,"length":7,"data":"office"},{"type":"hashtag","offset":64,"length":4,"data":"PHP"},{"type":"hashtag","offset":95,"length":7,"data":"Москва"},{"type":"link","offset":220,"length":20,"data":"https://www.asna.ru/"},{"type":"handle","offset":1708,"length":12,"data":"Kate_Guseva"}],"date":"2020-03-24T10:16:52+00:00","link":"tg://resolve?domain=php_jobs&post=22804","tags":[{"name":"php"},{"name":"laravel"},{"name":"dotnet"},{"name":"web"},{"name":"sql"},{"name":"json"},{"name":"xml"},{"name":"soap"},{"name":"git"},{"name":"mercurial"}],"cities":[{"code":"moscow"}],"allowsRemote":false}},{"node":{"__typename":"Job","id":"23910678528-1001075660570","title":"Php developer","text":"#вакансия #удаленка #webdeveloper\nМы интернет-агентство https://zelo.agency/\nОсновные задачи для решения которых нам нужен коллега на долгосрочное сотрудничество:\n\nСоздание от лендингов до корпоративных сайтов на стеке технологий\nВнесение изменений на сайты клиентов согласно заданиям SЕО-специалиста\nТехническая оптимизация сайтов и устранение ошибок\nУчастие в процессе улучшения юзабилити.\n\nТребования:\nХорошее знание PHP, JS\nОпыт работы с современными CMS.\nБазовые знания SQL.\nЗнание HTML/CSS.\nУмение оценивать сложность‚ соблюдать сроки.\nНесомненными плюсами будут:\nОпыт работы с Git.\nЗнание фреймворков\n\nДостойный фикс + премия до 40.000\nКонтакт @nefertiti_ru","markup":[{"type":"hashtag","offset":0,"length":9,"data":"вакансия"},{"type":"hashtag","offset":10,"length":9,"data":"удаленка"},{"type":"hashtag","offset":20,"length":13,"data":"webdeveloper"},{"type":"link","offset":56,"length":20,"data":"https://zelo.agency/"},{"type":"handle","offset":651,"length":13,"data":"nefertiti_ru"}],"date":"2020-03-24T07:58:19+00:00","link":"tg://resolve?domain=php_jobs&post=22803","tags":[{"name":"php"},{"name":"sql"},{"name":"html"},{"name":"css"},{"name":"git"}],"cities":[],"allowsRemote":true}},{"node":{"__typename":"Job","id":"23908581376-1001075660570","title":"Php разработчик","text":"#вакансия #backend #москва #офис #fulltime #php #senior #lead\n\nМой дружище из Aorti.ru собирает группу разработчиков на PHP. Большой концерн, компания работает с гос заказчиком. Деньги есть, кризис не помеха. Да, в офис, но в небольшой. Не коронизируем :)\n\nИщем: \n1. Одного могучего Lead Backend Developer\n2. Двух крутых Senior Backend Developer\n3. Сурового (одного) Middle Backend Developer\n\nДанное боевое подразделение будет заниматься разработкой интерфейсов управления всяких интересных штук.\n\nКомпания: АО “РТИ”: https://hh.ru/employer/103944\nАдрес: Москва, М Динамо\nЗанятость: полная\nРежим работы: с 9-11 до 18-20, пятница -1 час\nЗарплатная вилка: 120 - 180 т.р. на руки (уже после вычета налогов)\nПлюс: чай, кофе, санитайзер и безлимитная туалетная бумага :-D\n\nОбщие требования / пожелания:\n- PHP 7 + опыт от 3-х лет\n- SQL (PostgreSQL и PL/pgSQL) от 3х лет \n- Опыт с ОС Linux. Умение работать в Unix-окружении\n- Нет страха перех унаследованным кодом\n- Удалось поработать с Jira, Confluence, GitLab\n- Приходилось писать документацию по своему коду\n- Английский уровня чтения тех документации\n- Опыт разработки Web Services, REST, Web API\n- Было время поработать с GIS и OGC-протоколами\n- Code review удается без истерик\n- Есть смелость общаться с Заказчиком\n- Плюсуют карту: Python 3.5.6,  Django, C++ 2011 и новее\n- Удалось посмотреть на Astra Linux\n- Сложилась картина мира как написать UNIT и интеграционные тесты\n- Не пугают слова “отладка и оптимизация”\n\n→ Контакт: @dspv1\n\nПрошу сразу: резюме, о себе, ссылка на git","markup":[{"type":"hashtag","offset":0,"length":9,"data":"вакансия"},{"type":"hashtag","offset":10,"length":8,"data":"backend"},{"type":"hashtag","offset":19,"length":7,"data":"москва"},{"type":"hashtag","offset":27,"length":5,"data":"офис"},{"type":"hashtag","offset":33,"length":9,"data":"fulltime"},{"type":"hashtag","offset":43,"length":4,"data":"php"},{"type":"hashtag","offset":48,"length":7,"data":"senior"},{"type":"hashtag","offset":56,"length":5,"data":"lead"},{"type":"link","offset":78,"length":8,"data":"https://hh.ru/employer/103944"},{"type":"bold","offset":257,"length":7,"data":""},{"type":"link","offset":518,"length":29,"data":"https://hh.ru/employer/103944"},{"type":"underline","offset":721,"length":10,"data":""},{"type":"underline","offset":734,"length":28,"data":""},{"type":"bold","offset":768,"length":30,"data":""},{"type":"handle","offset":1477,"length":6,"data":"dspv1"}],"date":"2020-03-24T03:41:58+00:00","link":"tg://resolve?domain=php_jobs&post=22801","tags":[{"name":"php"},{"name":"sql"},{"name":"postgresql"},{"name":"linux"},{"name":"unix"},{"name":"gitlab"},{"name":"web"},{"name":"rest"},{"name":"python"},{"name":"django"}],"cities":[{"code":"moscow"}],"allowsRemote":false}},{"node":{"__typename":"Job","id":"23900192768-1001075660570","title":"Php developer","text":"#вакансия #php #lead #fulltime #удалёнка \nГород и адрес офиса: Москва (м.Курская)\nНазвание компании: КА\nФормат работы: удаленно/офис \nЗанятость: полная\nЗарплатная вилка: от 150к до 220к net\n\nПривет я ищу Tech lead/Senior php developer. Проект -- платформа для чатботов и воронок продаж. Сейчас у платформы более 1000 пользователей, растет на 20% ежемесячно, в следующем году планируется запуск на глобальном рынке, срочно нужно усиление 🙂 \n\nЗадачи:\n- разработка архитектуры новой части проекта;\n- разработка backend на php;\n- code review, тесты.\n\nТребования:\n- опыт разработки на php от 3х лет;\n- опыт работы с SQL;\n- опыт с брокерами очередей, например RabbitMQ.\n\nБудет плюсом:\n- знание node.js и других языков программирования;\n- noSQL (у нас Cassandra).\n\nУсловия:\n- Белая з/п;\n- Офис в Москве (м.Курская), есть возможность работать удаленно;\n- Крутой продукт, которым ежедневно пользуются тысячи людей;\n- Классная команда;\n- Возможность быстрого карьерного роста и профессионального развития.\n\nКонтакты: @nat_kirisova","markup":[{"type":"hashtag","offset":0,"length":9,"data":"вакансия"},{"type":"hashtag","offset":10,"length":4,"data":"php"},{"type":"hashtag","offset":15,"length":5,"data":"lead"},{"type":"hashtag","offset":21,"length":9,"data":"fulltime"},{"type":"hashtag","offset":31,"length":9,"data":"удалёнка"},{"type":"handle","offset":1008,"length":13,"data":"nat_kirisova"}],"date":"2020-03-23T13:28:18+00:00","link":"tg://resolve?domain=php_jobs&post=22793","tags":[{"name":"php"},{"name":"dotnet"},{"name":"sql"},{"name":"rabbitmq"},{"name":"nodejs"},{"name":"nosql"},{"name":"cassandra"}],"cities":[{"code":"moscow"}],"allowsRemote":true}},{"node":{"__typename":"Job","id":"23899144192-1001075660570","title":"Php разработчик","text":"#вакансия  #fulltime #Fullstack #спб #санкт_петербург\nВакансия: Fullstack-разработчик\nКомпания: 4people\nГород: Санкт-Петербург. ст.м. Обводный канал\nФормат работы: #офис\nЗанятость: #полная\nЗ/п: от 100 000 до 170 000 р. \n\n🔎В нашу команду в связи с расширением срочно разыскивается Fullstack Web-программист!\n\n❗️Основные обязанности:\n- Разработка новых сервисов.\n- Оптимизация и поддержка текущих проектов.\n- Мы используем: PHP7, JavaScript, Redis, MongoDB, YouTrack.\n\nДобро пожаловать, в нашу команду если вы:💪\n- Имеете опыт разработки на PHP.\n- Знаете ООП, умеете применять на практике основные паттерны.\n- Знакомы с JS фреймворками.\n- Работали с MVC-фреймворками на базе PHP.\n- Разбираетесь и умеете использовать разные хранилища данных там где они необходимы.\n\n🏅Мы предлагаем:\n- Достойный уровень заработной платы (зависит от пожеланий и профессионально уровня кандидата).\n- Поездки на ИТ-конференции, митапы, учебные курсы за счет компании.\n- Возможность гибкого начала рабочего дня.\n- Бесплатные корпоративные обеды.\n- Абонемент в спорт зал за счет компании.\n\nЖдем вопросы и резюме: \n✍️ @hrkaterina \n✉️ ekaterina.4people@gmail.com","markup":[{"type":"hashtag","offset":0,"length":9,"data":"вакансия"},{"type":"hashtag","offset":11,"length":9,"data":"fulltime"},{"type":"hashtag","offset":21,"length":10,"data":"Fullstack"},{"type":"hashtag","offset":32,"length":4,"data":"спб"},{"type":"hashtag","offset":37,"length":16,"data":"санкт_петербург"},{"type":"hashtag","offset":164,"length":5,"data":"офис"},{"type":"hashtag","offset":181,"length":7,"data":"полная"},{"type":"handle","offset":1094,"length":11,"data":"hrkaterina"},{"type":"link","offset":1110,"length":27,"data":"mailto:ekaterina.4people@gmail.com"}],"date":"2020-03-23T12:39:08+00:00","link":"tg://resolve?domain=php_jobs&post=22792","tags":[{"name":"php"},{"name":"web"},{"name":"javascript"},{"name":"redis"},{"name":"mongodb"}],"cities":[],"allowsRemote":false}},{"node":{"__typename":"Job","id":"23898095616-1001075660570","title":"Php developer","text":"#вакансия #fullstack #PHP #senior #middle #fulltime #офис\n\nФормат работы: офис\nРасположение: Москва, м. Воробьевы горы\nЗанятость: полная, гибкое начало дня\nЗП: 2500 - 3500 евро на руки \n\n🔹 Кипрская компания Tradernet в поиске Fullstack developer (уровня от middle и выше). \n\nTradernet - это высоконагруженная трейдинговая онлайн платформа. Ежедневно на сервис поступает более 1,5 миллионов запросов. Ребята постоянно улучшают ядро платформы, делают все, чтобы все процессы были максимально производительными и быстрыми. Сейчас в команде 26 технических специалистов, каждый день они сталкиваются с действительно сложными алгоритмами и задачами. \n\nСтек проекта: PHP 7.3, Javascript, SQL (PostgreSQL, MySQL), apache, nginx, php-fpm. Задач на бек и фронт будет примерно 50 на 50.\n\n🔹 Требования:\n- Опыт разработки на PHP, Javascript от 2-ех лет;\n- Желателен опыт с высоконагруженными системами.\n\n🔹 Условия:\n- заработная плата в Евро;\n- компенсация занятий английским языком и частичная компенсация ДМС;\n- возможность принять участие в создании мирового продукта;\n- дружественная рабочая среда с возможностью карьерного и профессионального роста;\n- работать предстоит в уютном офисе в самом центре города (Нескучный сад). \n\n🔹 Контакты:\ne-mail: valeriya@luckyhunter.io\ntelegram: @sobolevavalery\nБуду рада ответить на все вопросы и комментарии 😊","markup":[{"type":"hashtag","offset":0,"length":9,"data":"вакансия"},{"type":"hashtag","offset":10,"length":10,"data":"fullstack"},{"type":"hashtag","offset":21,"length":4,"data":"PHP"},{"type":"hashtag","offset":26,"length":7,"data":"senior"},{"type":"hashtag","offset":34,"length":7,"data":"middle"},{"type":"hashtag","offset":42,"length":9,"data":"fulltime"},{"type":"hashtag","offset":52,"length":5,"data":"офис"},{"type":"link","offset":1242,"length":23,"data":"mailto:valeriya@luckyhunter.io"},{"type":"handle","offset":1276,"length":15,"data":"sobolevavalery"}],"date":"2020-03-23T12:26:03+00:00","link":"tg://resolve?domain=php_jobs&post=22791","tags":[{"name":"php"},{"name":"javascript"},{"name":"sql"},{"name":"postgresql"},{"name":"mysql"},{"name":"apache"},{"name":"nginx"}],"cities":[{"code":"moscow"}],"allowsRemote":false}},{"node":{"__typename":"Job","id":"23887609856-1001075660570","title":"Php разработчик","text":"#вакансия #удаленка #php\n\nИщем бекендера в распределенную команду на веб-проекты в связи с ростом объема заказов. Проекты разной сложности для среднего и малого бизнеса (СРМ, ERP и т.д.)\nЕсть NDA-шный проект под 1млн+ пользователей. \n\nЗП от 150 до 190 т.р. на руки\n\nТребования:\n📌 Самостоятельность и пунктуальность\n📌 Опыт проектирования и разработки веб-проектов с нуля\n📌 Опыт серверной разработки на PHP от 3 лет (любой фремворк)\n📌 Будет плюсом опыт работы с CI (Travis CI, AppVeyor, CLion или др)\n📌 Покрытие кода тестам, работа в GitHub\n\nПредлагаем:\n- Оформление по ГПХ / ТК РФ\n- ДМС\n- Гибкое начало дня \n- Возможность использовать новые технологии\n\nПо любым вопросам пишите @happyogre","markup":[{"type":"hashtag","offset":0,"length":9,"data":"вакансия"},{"type":"hashtag","offset":10,"length":9,"data":"удаленка"},{"type":"hashtag","offset":20,"length":4,"data":"php"},{"type":"handle","offset":682,"length":10,"data":"happyogre"}],"date":"2020-03-23T10:31:49+00:00","link":"tg://resolve?domain=php_jobs&post=22781","tags":[{"name":"php"},{"name":"github"}],"cities":[],"allowsRemote":true}},{"node":{"__typename":"Job","id":"23886561280-1001075660570","title":"Php разработчик","text":"Привет! Познакомлюсь с классным PHP Team Lead! \n\n#вакансия #офис  #Питер  #php #symfony #teamlead  #Санкт #Петербург  #lead  #senior\n\n- з\\п от 200к рублей net\n\n🔥Что будем делать: корп портал с 0, который поможет большой компании работать более эффективно и хорошо. \n\n🔥А дальше: предлагаем возглавить тебе всю php-разработку, то есть взять на себя уже не одну, а несколько команд. И да, это про нанимать людей, создавать dream team и прочие приятности).\n\nСтэк: PHP, API Platform, Symfony 4. MySQL, PostgreSQL. Redis, RabbitMQ, Apache Kafka. SOLID, git, контейнеризация, CI/CD. Agile: Scrum. Любим code review и open source.\n\n🔥Что ждём от тебя:\n— PHP, Symfony — уровень ниндзя/мастер йода/красавчик.\n— PostgreSQL: сложные запросы, оптимизация, понимание внутреннего устройства.\n— Опыт/огромное желание руководить командой от 3-х человек.\n\nБудет плюсом (но не критично на входе):\n— Domain Driven Design \n— JS, React\n \nЧто ты получишь:\n— Компенсация: зп + kpi по результатам выполнения квартального плана (составляется тобой с продакт менеджером).\n— Офис в совсем шаговой доступности от м. Ладожская (Санкт-Петербург)\n— Свобода в найме команды и планировании, нам важны результаты.\n\nПиши (но не сокращай) Кристине @isaevakristi.","markup":[{"type":"bold","offset":0,"length":49,"data":""},{"type":"hashtag","offset":49,"length":9,"data":"вакансия"},{"type":"hashtag","offset":59,"length":5,"data":"офис"},{"type":"hashtag","offset":66,"length":6,"data":"Питер"},{"type":"hashtag","offset":74,"length":4,"data":"php"},{"type":"hashtag","offset":79,"length":8,"data":"symfony"},{"type":"hashtag","offset":88,"length":9,"data":"teamlead"},{"type":"hashtag","offset":99,"length":6,"data":"Санкт"},{"type":"hashtag","offset":106,"length":10,"data":"Петербург"},{"type":"hashtag","offset":118,"length":5,"data":"lead"},{"type":"hashtag","offset":125,"length":7,"data":"senior"},{"type":"bold","offset":160,"length":18,"data":""},{"type":"bold","offset":268,"length":11,"data":""},{"type":"bold","offset":456,"length":5,"data":""},{"type":"bold","offset":626,"length":20,"data":""},{"type":"bold","offset":840,"length":40,"data":""},{"type":"bold","offset":918,"length":17,"data":""},{"type":"bold","offset":1182,"length":45,"data":""},{"type":"handle","offset":1213,"length":13,"data":"isaevakristi"}],"date":"2020-03-23T10:20:51+00:00","link":"tg://resolve?domain=php_jobs&post=22780","tags":[{"name":"php"},{"name":"symfony"},{"name":"dotnet"},{"name":"mysql"},{"name":"postgresql"},{"name":"redis"},{"name":"rabbitmq"},{"name":"apache"},{"name":"kafka"},{"name":"git"},{"name":"reactjs"}],"cities":[],"allowsRemote":false}},{"node":{"__typename":"Job","id":"23859298304-1001075660570","title":"Php разработчик","text":"#вакансия #fullstack #СПб #Санкт-Петербург #office #PHP #JavaScript\nГород: Санкт-Петербург (ст.метро Чернышевская)\nКомпания: Innoscripta GmbH\nПозиция: Full-stack разработчик\nФормат работы: Офис\nЗанятость: полная\nЗарплатная вилка: 120 000 – 250 000 руб на руки \n\nInnoscripta GmbH занимается поиском и продвижением передовых научных технологий на рынке Германии. Сейчас компания ищет middle/senior full-stack разработчиков в новый офис в Санкт-Петербурге для разработки собственных IT-продуктов. Флагманский проект – разработка внутренней CRM-системы. \n\nСтек: PHP/Laravel, JavaScript/React.js, MySQL, Elasticsearch, MongoDB \n\nТребования:\n- Опыт коммерческой разработки от 3-х лет\n- Владение разговорным английским\n- Высокий уровень самостоятельности\n- Уверенное знание указанных технологий \n\nУсловия:\n- Официальное оформление по ТК РФ\n- График 5/2, плавающее начало дня (с 8:00 до 10:00)\n- Работа в одной из крупнейших инновационных компаний Германии\n- Командировки в Мюнхен или релокация через полгода работы\n- Возможность осваивать новые направления разработки\n\nКонтакты: career@innoscripta.com","markup":[{"type":"hashtag","offset":0,"length":9,"data":"вакансия"},{"type":"hashtag","offset":10,"length":10,"data":"fullstack"},{"type":"hashtag","offset":21,"length":4,"data":"СПб"},{"type":"hashtag","offset":26,"length":6,"data":"Санкт"},{"type":"hashtag","offset":43,"length":7,"data":"office"},{"type":"hashtag","offset":51,"length":4,"data":"PHP"},{"type":"hashtag","offset":56,"length":11,"data":"JavaScript"},{"type":"link","offset":1072,"length":22,"data":"mailto:career@innoscripta.com"}],"date":"2020-03-23T06:32:47+00:00","link":"tg://resolve?domain=php_jobs&post=0","tags":[{"name":"php"},{"name":"javascript"},{"name":"laravel"},{"name":"reactjs"},{"name":"mysql"},{"name":"elasticsearch"},{"name":"mongodb"}],"cities":[{"code":"munich"}],"allowsRemote":false}},{"node":{"__typename":"Job","id":"23841472512-1001075660570","title":"Php разработчик","text":"#вакансия #спб #тимлид #vue #php #офис\n\nСанкт-Петербург, ст.м. Чкаловская\nОфис, полная занятость\n\nЗП: от 200 000р.\n\nМеждународная группа компаний ищет Team Lead для создания и развития внутренней кастомной ERP/BI системы. \n\nТребования:\n📌Опыт руководства от 2х человек командой разработки от 4 человек\n📌 Опыт создания и подбора команды с нуля\n📌 Опыт серверной разработки на PHP от 4 лет, желание продолжать быть разработчиком и в качестве тимлида\n📌 Понимание основ highload (работа с высоконагруженными БД) \n📌Опыт быстрой Agile разработки в формате стартапа\n\nТехнический стек: PHP, Laravel, Vue.js, PostgreSQL\n\nЦентр карьеры \"UPstep\"\nБуду благодарна за отклики и готова рассказать подробнее\n📱@kiraosipova\n📬kira.osipova@upstep.ru\n☎ +7 911 774 69 19","markup":[{"type":"hashtag","offset":0,"length":9,"data":"вакансия"},{"type":"hashtag","offset":10,"length":4,"data":"спб"},{"type":"hashtag","offset":15,"length":7,"data":"тимлид"},{"type":"hashtag","offset":23,"length":4,"data":"vue"},{"type":"hashtag","offset":28,"length":4,"data":"php"},{"type":"hashtag","offset":33,"length":5,"data":"офис"},{"type":"handle","offset":697,"length":12,"data":"kiraosipova"},{"type":"link","offset":710,"length":24,"data":"http://📬kira.osipova@upstep.ru"},{"type":"link","offset":737,"length":16,"data":"tel:+7 911 774 69 19"}],"date":"2020-03-21T19:25:20+00:00","link":"tg://resolve?domain=php_jobs&post=0","tags":[{"name":"php"},{"name":"vuejs"},{"name":"laravel"},{"name":"postgresql"}],"cities":[],"allowsRemote":false}}]}}},"context":{}}