{"hash":"f34fd2c444a074f4e0e67d525015a008ef8e766f","data":{"records":{"id":"php","name":"php","belongsTo":{"totalCount":65,"pageInfo":{"totalPages":7,"currentPage":4},"edges":[{"node":{"__typename":"Job","id":"24164433920-1001075660570","title":"Php разработчик","text":"#вакансия  #fulltime #backend #спб #санкт_петербург\nВакансия: backend-разработчик\nКомпания: 4people\nГород: Санкт-Петербург\nФормат работы: #офис\nЗанятость: #полная\nЗарплата : от 140 000 до 250 000 ₽.                                                                                                                                                                                                                    \n\n💡Основные обязанности:\n-Разработка новых сервисов компании.\n-Оптимизация и поддержка текущих продуктов.\n-Наш стек: PHP7, MySQL (Percona), Redis, MongoDB, RabbitMQ, YouTrack.\n💪Добро пожаловать в нашу команду если вы:\n-Имеете законченное высшее образование.\n-Имеете опыт разработки на PHP.\n-Умеете использовать Git.\n-Знаете ООП, умеете применять на практике паттерны проектирования.\n🏆Мы предлагаем:\n-Уровень заработной платы зависит от пожеланий и профессионально уровня кандидата.\n-Поездки на ИТ-конференции, митапы, учебные курсы за счет компании.\n-ДМС , оплачиваемый отпуск 28 календарных дней, подарки для сотрудников и их детей.\n-Бесплатные корпоративные обеды, сладости, чай, кофе. \n-Абонемент в спорт зал за счет компании.\n\nБуду рада Вашим вопросам и резюме:\n✍️  @hrkaterina \n📨 ekaterina.4people@gmail.com","markup":[{"type":"hashtag","offset":0,"length":9,"data":"вакансия"},{"type":"hashtag","offset":11,"length":9,"data":"fulltime"},{"type":"hashtag","offset":21,"length":8,"data":"backend"},{"type":"hashtag","offset":30,"length":4,"data":"спб"},{"type":"hashtag","offset":35,"length":16,"data":"санкт_петербург"},{"type":"hashtag","offset":138,"length":5,"data":"офис"},{"type":"hashtag","offset":155,"length":7,"data":"полная"},{"type":"underline","offset":412,"length":2,"data":""},{"type":"bold","offset":414,"length":22,"data":""},{"type":"underline","offset":587,"length":2,"data":""},{"type":"bold","offset":589,"length":41,"data":""},{"type":"underline","offset":795,"length":2,"data":""},{"type":"bold","offset":797,"length":15,"data":""},{"type":"handle","offset":1183,"length":11,"data":"hrkaterina"},{"type":"link","offset":1199,"length":27,"data":"mailto:ekaterina.4people@gmail.com"}],"date":"2020-03-30T10:37:37+00:00","link":"tg://resolve?domain=php_jobs&post=23045","tags":[{"name":"php"},{"name":"mysql"},{"name":"redis"},{"name":"mongodb"},{"name":"rabbitmq"},{"name":"git"}],"cities":[],"allowsRemote":false}},{"node":{"__typename":"Job","id":"24152899584-1001075660570","title":"Php developer","text":"#вакансия #php #lead #fulltime #удалёнка \nГород и адрес офиса: Москва (м.Курская)\nНазвание компании: КА\nФормат работы: удаленно/офис \nЗанятость: полная\nЗарплатная вилка: от 150к до 220к net\n\nПривет я ищу Tech lead/Senior php developer. Проект -- платформа для чатботов и воронок продаж. Сейчас у платформы более 1000 пользователей, растет на 20% ежемесячно, в следующем году планируется запуск на глобальном рынке, срочно нужно усиление 🙂 \n\nЗадачи:\n- разработка архитектуры новой части проекта;\n- разработка backend на php;\n- code review, тесты.\n\nТребования:\n- опыт разработки на php от 3х лет;\n- опыт работы с SQL;\n- опыт с брокерами очередей, например RabbitMQ.\n\nБудет плюсом:\n- знание node.js и других языков программирования;\n- noSQL (у нас Cassandra).\n\nУсловия:\n- Белая з/п;\n- Офис в Москве (м.Курская), есть возможность работать удаленно;\n- Крутой продукт, которым ежедневно пользуются тысячи людей;\n- Классная команда;\n- Возможность быстрого карьерного роста и профессионального развития.\n\nКонтакты: @nat_kirisova","markup":[{"type":"hashtag","offset":0,"length":9,"data":"вакансия"},{"type":"hashtag","offset":10,"length":4,"data":"php"},{"type":"hashtag","offset":15,"length":5,"data":"lead"},{"type":"hashtag","offset":21,"length":9,"data":"fulltime"},{"type":"hashtag","offset":31,"length":9,"data":"удалёнка"},{"type":"handle","offset":1008,"length":13,"data":"nat_kirisova"}],"date":"2020-03-30T10:00:00+00:00","link":"tg://resolve?domain=php_jobs&post=23034","tags":[{"name":"php"},{"name":"dotnet"},{"name":"sql"},{"name":"rabbitmq"},{"name":"nodejs"},{"name":"nosql"},{"name":"cassandra"}],"cities":[{"code":"moscow"}],"allowsRemote":true}},{"node":{"__typename":"Job","id":"23963107328-1001075660570","title":"Php developer","text":"#вакансия #Питер #Казань #Пенза  #fulltime #middle #laravel #react\n\n📌О компании:\nAndersen (www.andersenlab.com) - международная аутсорсинговая компания. Занимаемся разработкой ПО и тестированием на заказ для зарубежных и русскоязычных заказчиков. Мы быстрорастущая компания, основана в 2007 и на сегодняшний день у нас имеется 15 центров разработки со штатом сотрудников +1300. Проекты в нашей компании ты сможешь увидеть абсолютно разнообразные по своему направлению.\n\n📌Тип работы\nПолный рабочий день\n\n📌Тип занятости\nОфис\n\n📌ЗП: от 200 000 net ( в зависимости от уровня соискателя)\n\n📌Описание вакансии:\nМы в поисках middle Full Stack(Laravel+React) developer в нашу команду для работы над проектом нашего европейского партнера - пиринговой платформы для торговли биткоинами.  Аккаунт на платформе - это своего рода финансовый паспорт. С его помощью можно отправлять деньги и покупать вещи по всему миру.\n\n📌Чем предстоит заниматься:\nпланируется перевод некоторых модулей на микросервисы;\nреализация новых задач;\nнаписание юнит-тестов.\n\n📌Стек технологий: PHP7+, Laravel5.5+, React, PostgreSQL, MongoDB, AWS, Docker\n\n📌 Что мы ждем от кандидата:\nопыт коммерческой разработки на PHP7+Laravel5.5+ от 2-х лет;\nжелателен опыт работы с микросервисами;\nопыт работы с Docker;\nуровень английского от intermediate.\n\nЕсли интересно, пиши мне ✉️, расскажу детали вакансии. Контакты: @natalia_ivanova \nSkype: live:ivanatasha0211","markup":[{"type":"hashtag","offset":0,"length":9,"data":"вакансия"},{"type":"hashtag","offset":10,"length":6,"data":"Питер"},{"type":"hashtag","offset":17,"length":7,"data":"Казань"},{"type":"hashtag","offset":25,"length":6,"data":"Пенза"},{"type":"hashtag","offset":33,"length":9,"data":"fulltime"},{"type":"hashtag","offset":43,"length":7,"data":"middle"},{"type":"hashtag","offset":51,"length":8,"data":"laravel"},{"type":"hashtag","offset":60,"length":6,"data":"react"},{"type":"bold","offset":68,"length":14,"data":""},{"type":"link","offset":92,"length":19,"data":"http://www.andersenlab.com"},{"type":"bold","offset":471,"length":13,"data":""},{"type":"bold","offset":505,"length":16,"data":""},{"type":"bold","offset":529,"length":3,"data":""},{"type":"bold","offset":587,"length":21,"data":""},{"type":"bold","offset":912,"length":26,"data":""},{"type":"bold","offset":1041,"length":18,"data":""},{"type":"bold","offset":1124,"length":26,"data":""},{"type":"handle","offset":1376,"length":16,"data":"natalia_ivanova"}],"date":"2020-03-27T09:25:16+00:00","link":"tg://resolve?domain=php_jobs&post=22853","tags":[{"name":"php"},{"name":"laravel"},{"name":"reactjs"},{"name":"dotnet"},{"name":"postgresql"},{"name":"mongodb"},{"name":"amazon-web-services"},{"name":"docker"}],"cities":[{"code":"kazan"},{"code":"penza"}],"allowsRemote":false}},{"node":{"__typename":"Job","id":"1943011328-1001134745498","title":"Devops инженер","text":"#вакансия #DevOps #Москва #ivi\n\nЛокация: Москва, ст. м. Дмитровская\nФормат работы: офис \nЗанятость: полная\nЗарплатная вилка: от 180 000 до 250 000 руб. на руки.\n\nМы — команда эксплуатации сервиса ivi .\n\nРазыскиваем коллегу в команду для участия в настойке процессов, технических (CI/CD) и в части взаимодействия с коллегами. Активное участие в разворачивании и эксплуатации k8s .Помогаем командам разработки строить CI/CD-пайплайны . Некоторые из нас это делают в составе кросс-команд, другие помогают многим командам, оставшиеся обеспечивают всех нас необходимыми приложениями и инфраструктурой.\n\nХраним код и разрабатываем pipeline-ы с помощью gitlab+artifactory .\nДля мониторинга серверов и сервисов используем zabbix и statsd , заправляем grafana.\nНаши сервисы написаны на python, golang и немного php и java.\nЛюбим и активно используем jenkins для решения самых разнообразных задач.\nИспользуем много open source (и не только) приложений: nginx, redis, postgresql, mongodb, rabbitmq, clickhouse, openstack, gitlab, kafka, hdfs, jira , opennebula.\n\nЧто предстоит делать: \n- развитие и настройки процессов ci/cd;\n- планирование и участие в рефакторинге процессов, инфраструктуры, приложений;\n- сопровождение сервисов от разработки до эксплуатации, участие в эксплуатации;\n- доработка текущих и разработка новых сценариев конфигурирования серверов и приложений; \n- администрирование приложений по результатам выполненной работы подготовка документации, если необходимо. \n\nКак узнать что ты нам подходишь? \n- положительный и продолжительный опыт работы с CI/CD-системами (у нас gitlab и jenkins);\n- умение хорошо готовить docker; \n- опыт программирования на скриптовых языках (shell, python);\nопыт администрирования linux и приложение 5+;\n- понимание сетевых технологий TCP/IP; \n- опыт работы с системами управления версиями (git) и конфигурациями. \n\nСо своей стороны мы обещаем: \n- Офис в 5 минутах ходьбы от м. \"Дмитровская\";\n- У нас гибкий график, мы начинаем до 11 часов дня;\n- Трудоустройство по ТК РФ;\n- ДМС + стоматология после прохождения испытательного срока;\n- Подписка на ivi;\n- Пакет релокации для соискателей со всей России.\n\nОнлайн-кинотеатр ivi \nhttps://www.ivi.tv/\n\nБуду рада рассказать подробности, пишите в личку @daria144 или на почту dsereda@ivi.ru\n\n—\n\n👉 Обсуждение вакансии в чате @devops_jobs","markup":[{"type":"hashtag","offset":0,"length":9,"data":"вакансия"},{"type":"hashtag","offset":10,"length":7,"data":"DevOps"},{"type":"hashtag","offset":18,"length":7,"data":"Москва"},{"type":"hashtag","offset":26,"length":4,"data":"ivi"},{"type":"link","offset":2161,"length":19,"data":"https://www.ivi.tv/"},{"type":"handle","offset":2231,"length":9,"data":"daria144"},{"type":"link","offset":2254,"length":14,"data":"mailto:dsereda@ivi.ru"},{"type":"handle","offset":2303,"length":12,"data":"devops_jobs"}],"date":"2020-03-27T09:21:44+00:00","link":"tg://resolve?domain=devops_jobs_feed&post=1853","tags":[{"name":"gitlab"},{"name":"python"},{"name":"go"},{"name":"php"},{"name":"java"},{"name":"jenkins"},{"name":"nginx"},{"name":"redis"},{"name":"postgresql"},{"name":"mongodb"},{"name":"rabbitmq"},{"name":"kafka"},{"name":"hdfs"},{"name":"docker"},{"name":"shell"},{"name":"linux"},{"name":"git"}],"cities":[{"code":"moscow"}],"allowsRemote":false}},{"node":{"__typename":"Job","id":"23929552896-1001075660570","title":"Php developer","text":"#вакансия #Moscow #php #laravel #fulltime #office \n\n📌Вакансия: #PHP Middle developer\n📌Город: #Москва (м. Ботанический сад)\n📌ЗП: 150К net (готовы рассмотреть ваши ожидания)\n📌Занятость: полная / офис \n📌Компания: АСНА (https://www.asna.ru/)\n\n✅АСНА - крупнейшее объединение аптечных сетей в России и странах СНГ. Это экосистема сервисов и продуктов, нацеленная на улучшение и развитие фармацевтического рынка России.\n\n👆Задачи:\n• создание и развитие b2c и b2b web-проектов компании;\n• участие в командной работе по разработке крупных\n• создание новых проектов компании с нуля;\n• оптимизация существующего PHP-кода и SQL-запросов.\n\n👍Что мы готовы предложить:\n• официальная (белая) заработная плата и мы соблюдаем ТК РФ.\n• переход на удаленку через 6 месяцев работы в компании; \n• мы обеспечим Вам комфортное рабочее место, мощное железо и два монитора J.\n• у нас нет бюрократии, плюс Вы сможете сами выбрать удобное время начала дня.\n• мы профессионально развиваем наших сотрудников – отправляем на курсы и профильные конференции.\n• мы следим за питанием наших сотрудников и компенсируем обеды.\n• мы даем возможность вносить свои идеи!\n• до нашего офиса можно дойти пешком от м. «Ботанический сад».\n\n🔥Наши ожидания:\n• опыт разработки на PHP от 1 года;\n• обязательно знание фреймворка Laravel;\n• опыт создания интеграционных решений с обменом информацией (JSON, XML, SOAP);\n• опыт проектирования БД и оптимизации SQL-запросов;\n• написание кода с комментариями в стиле phpDoc;\n• написание Unit тестов;\n• умение писать отказоустойчивые надежные автоматизированные системы;\n• навыки работы с *nix-системами;\n• опыт командной разработки с использованием системы контроля версий Git или Mercurial.\n\nКонтакты:\n@prynik95 \npatokova.nastya95@mail.ru","markup":[{"type":"hashtag","offset":0,"length":9,"data":"вакансия"},{"type":"hashtag","offset":10,"length":7,"data":"Moscow"},{"type":"hashtag","offset":18,"length":4,"data":"php"},{"type":"hashtag","offset":23,"length":8,"data":"laravel"},{"type":"hashtag","offset":32,"length":9,"data":"fulltime"},{"type":"hashtag","offset":42,"length":7,"data":"office"},{"type":"hashtag","offset":64,"length":4,"data":"PHP"},{"type":"hashtag","offset":95,"length":7,"data":"Москва"},{"type":"link","offset":221,"length":20,"data":"https://www.asna.ru/"},{"type":"handle","offset":1705,"length":9,"data":"prynik95"},{"type":"link","offset":1716,"length":25,"data":"mailto:patokova.nastya95@mail.ru"}],"date":"2020-03-25T07:00:53+00:00","link":"tg://resolve?domain=php_jobs&post=22821","tags":[{"name":"php"},{"name":"laravel"},{"name":"dotnet"},{"name":"web"},{"name":"sql"},{"name":"json"},{"name":"xml"},{"name":"soap"},{"name":"git"},{"name":"mercurial"}],"cities":[{"code":"moscow"}],"allowsRemote":false}},{"node":{"__typename":"Job","id":"23928504320-1001075660570","title":"Php разработчик","text":"#вакансия #Екатеринбург #екб #fulltime #php7 #Yii\nООО \"66 Бит\" — профессиональный разработчик программного обеспечения, специализирующийся на разработке под заказ не типовых IT проектов, ориентированных на международные рынки и крупных государственных заказчиков.\n\nВ связи с расширением компании, мы готовы взять в нашу команду талантливого и целеустремленного PHP разработчика.\n\nНаша основная специализация - разработка сложных программных продуктов на заказ. Мы будем рады всем тем, для кого IT – это призвание и любимое занятие.\n\nОбязанности:\n\n🏅разрабатывать backend-часть сайтов / сервисов;\n🏅разрабатывать CRUD админку на Yii2;\n🏅разрабатывать RESTful API на Yii2;\n\nТребования:\n🏅уверенные знание PHP 7‚ ООП;\n🏅знание Yii2 (или аналогичного фреймворка);\n🏅знание БД (MySQL‚ PostgreSQL): хорошее знание SQL‚ знание тонкостей оптимизации запросов;\n🏅уверенные знания HTML/HTML5‚ CSS‚ AJAX‚ препроцессоры;\n🏅опыт использования системы контроля версий – Git.\n\nБудет плюсом:\n🏅опыт работы с Gitlab-ci, Vue.js, Jira, Confluence;\n🏅опыт внедрения GraphQL в API.\n\nНаш стек технологий:\n🏅Инфраструктура на базе Docker и Gitlab-CI на собственных серверах (CI/CD);\n🏅Elastiсsearch + Kibana для поиска и анализа данных;\n🏅MySQL, PostgreSQL;\n🏅PHP 7+ Yii2;\n🏅Mysql, Redis, RabbitMQ;\n🏅Vue.js на фронте.\n\nУсловия:\n\n🔎Интересные задачи;\n👩🏼‍💻👨🏽‍💻Дружный молодой коллектив;\n⏱Плавающее начало рабочего дня;\n🏢Офис в центре, удобная транспортная развязка;\n📈Большие возможности профессионального роста;\n\n💰Вознаграждение зависит от уровня квалификации и устанавливается по итогам выполнения тестового задания;\n🍪🥤Кола, печеньки, чай, кофе и сок в ассортименте.\n\nКонтакты: @chapnow","markup":[{"type":"hashtag","offset":0,"length":9,"data":"вакансия"},{"type":"hashtag","offset":10,"length":13,"data":"Екатеринбург"},{"type":"hashtag","offset":24,"length":4,"data":"екб"},{"type":"hashtag","offset":29,"length":9,"data":"fulltime"},{"type":"hashtag","offset":39,"length":5,"data":"php7"},{"type":"hashtag","offset":45,"length":4,"data":"Yii"},{"type":"handle","offset":1666,"length":8,"data":"chapnow"}],"date":"2020-03-25T05:44:55+00:00","link":"tg://resolve?domain=php_jobs&post=22820","tags":[{"name":"php"},{"name":"yii"},{"name":"mysql"},{"name":"postgresql"},{"name":"sql"},{"name":"html"},{"name":"css"},{"name":"ajax"},{"name":"git"},{"name":"gitlab"},{"name":"vuejs"},{"name":"graphql"},{"name":"docker"},{"name":"redis"},{"name":"rabbitmq"}],"cities":[],"allowsRemote":false}},{"node":{"__typename":"Job","id":"23926407168-1001075660570","title":"Php разработчик","text":"#вакансия #php #yii2 #job #fulltime #middle #senior #remote #удаленно #relocate #thailand #phuket\n\nВакансия: PHP Yii2 разработчик\nГород и адрес офиса: Пхукет, Таиланд\nФормат работы: удаленка, свободный график, возможна релокация в Таиланд\nЗанятость: полная\nЗарплатная вилка: ~ 500$ - 2500$\n\nНазвание компании: TourHunter - SaaS-платформа для автоматизации туристического бизнеса\nСайт: https://tourhunter.com\n\nОписание вакансии:\nPHP Yii2 разработчик в русскоязычную команду для работы над проектом, а также высокомотивированные стажеры с начальным уровнем опыта которые готовы обучаться.\n\nПодать заявку и выполнить тестовое задание: https://team.tourhunter.com (В России временно сайт доступен через Tor или VPN)\n\nКонтакты: @grandmotivator","markup":[{"type":"hashtag","offset":0,"length":9,"data":"вакансия"},{"type":"hashtag","offset":10,"length":4,"data":"php"},{"type":"hashtag","offset":15,"length":5,"data":"yii2"},{"type":"hashtag","offset":21,"length":4,"data":"job"},{"type":"hashtag","offset":26,"length":9,"data":"fulltime"},{"type":"hashtag","offset":36,"length":7,"data":"middle"},{"type":"hashtag","offset":44,"length":7,"data":"senior"},{"type":"hashtag","offset":52,"length":7,"data":"remote"},{"type":"hashtag","offset":60,"length":9,"data":"удаленно"},{"type":"hashtag","offset":70,"length":9,"data":"relocate"},{"type":"hashtag","offset":80,"length":9,"data":"thailand"},{"type":"hashtag","offset":90,"length":7,"data":"phuket"},{"type":"link","offset":385,"length":22,"data":"https://tourhunter.com"},{"type":"link","offset":632,"length":27,"data":"https://team.tourhunter.com/"},{"type":"handle","offset":723,"length":15,"data":"grandmotivator"}],"date":"2020-03-25T05:22:36+00:00","link":"tg://resolve?domain=php_jobs&post=22818","tags":[{"name":"php"},{"name":"yii"}],"cities":[],"allowsRemote":true}},{"node":{"__typename":"Job","id":"23916969984-1001075660570","title":"Php разработчик","text":"#вакансия #backend  #frontend #php #laravel\nТребуется разработка веб-приложения наподобии smmplanner - инструмент для SMM агентств - есть начальный проект с использованием DM Pilot (php скрипт), реализован на Laravel 5.8.\nНужно допилить функционал под наши задачи - разделение ролей, организация возможности сообщения клиент-менеджер-копирайтер-дизайнер-супер-менеджер, инструментов контроля и отчетности.\nЕсть схема, как это должно выглядеть.\nЗаинтересовавшихся просьба написать в личку в телегу, или на почту hello@bdsmm.net","markup":[{"type":"hashtag","offset":0,"length":9,"data":"вакансия"},{"type":"hashtag","offset":10,"length":8,"data":"backend"},{"type":"hashtag","offset":20,"length":9,"data":"frontend"},{"type":"hashtag","offset":30,"length":4,"data":"php"},{"type":"hashtag","offset":35,"length":8,"data":"laravel"},{"type":"link","offset":511,"length":15,"data":"mailto:hello@bdsmm.net"}],"date":"2020-03-24T16:57:01+00:00","link":"tg://resolve?domain=php_jobs&post=22809","tags":[{"name":"php"},{"name":"laravel"}],"cities":[],"allowsRemote":false}},{"node":{"__typename":"Job","id":"23914872832-1001075660570","title":"Php developer","text":"#вакансия #php #senior #middle #москва \nКомпания skillbox.ru ищет в команду Middle/Senior PHP Developer (Laravel).\n\nЧем предстоит заниматься:\n •  Нужно будет продолжать развивать сервис авторизации;\n •  Поддерживать текущие проектов на Laravel + Vue;\n •  Участвовать в Code Review;\n •  Писать Unit-тесты;\n •  Ведение документации своего кода;\n •  Принимать активное участие в проектировании микросервисов и БД.\n\nЧто мы ждем от вас:\n •  Уверенные знания PHP7, MySQL, Laravel;\n •  Умение разбираться в Legacy code;\n •  Опыт работы с Redis, WebSockets;\n •  Опыт работы с системами контроля версий – git;\n •  Опыт интеграции с внешними системами по API;\n •  Хорошее знание системы Linux (Ubuntu);\n •  Ответственность и инициативность;\n •  Умение внятно выражать свои мысли устно и письменно;\n •  Умение адекватно оценивать сроки на реализацию той или иной задачи.\n\nМы предлагаем отличные условия:\n •  Белую зарплату от 150.000 net (оклад обсудим индивидуально)\n •  Возможность прохождения любых дистанционных курсов Skillbox бесплатно, а еще корпоративную скидку на изучение английского языка в Skyeng и фитнес.\n •  Рост внутри компании не ограничен, всегда найдется то, что будет интересно тебе;\n •  Корпоративные активности (волейбол, футбол, квесты, квизы, шахматы, Skillbox.fm и др.);\n •  Наша команда творит в новом и стильном офисе на м.Октябрьская;\n •  Гибкий график работы (время прихода на работу в интервале с 8 до 12) и отсутствие дресс-кода;\n\nКонтакты: alina.nesterova@skillbox.ru      @AlinalaAlina","markup":[{"type":"hashtag","offset":0,"length":9,"data":"вакансия"},{"type":"hashtag","offset":10,"length":4,"data":"php"},{"type":"hashtag","offset":15,"length":7,"data":"senior"},{"type":"hashtag","offset":23,"length":7,"data":"middle"},{"type":"hashtag","offset":31,"length":7,"data":"москва"},{"type":"link","offset":49,"length":11,"data":"http://skillbox.ru"},{"type":"bold","offset":76,"length":38,"data":""},{"type":"bold","offset":116,"length":25,"data":""},{"type":"bold","offset":412,"length":19,"data":""},{"type":"bold","offset":861,"length":31,"data":""},{"type":"link","offset":1265,"length":11,"data":"http://Skillbox.fm"},{"type":"link","offset":1461,"length":27,"data":"mailto:alina.nesterova@skillbox.ru"},{"type":"handle","offset":1494,"length":13,"data":"AlinalaAlina"}],"date":"2020-03-24T14:13:39+00:00","link":"tg://resolve?domain=php_jobs&post=22807","tags":[{"name":"php"},{"name":"laravel"},{"name":"vuejs"},{"name":"mysql"},{"name":"redis"},{"name":"git"},{"name":"linux"},{"name":"ubuntu"},{"name":"dotnet"}],"cities":[{"code":"moscow"}],"allowsRemote":false}},{"node":{"__typename":"Job","id":"23913824256-1001075660570","title":"Php developer","text":"#вакансия  #спб  #fulltime #офис #php7  #Yii # Go #senior\n📍Кого ищем: Senior PHP/Go Developer\n📍Город: Санкт-Петербург, м. Петроградская\n📍Формат работы: офис, полная занятость\n💰Заработная плата: до 200 К на руки (обсудим на собеседовании)\nПривет, мы компания Фотосклад/АВС.ru, TOP3 e-commerce Санкт-Петербурга.\n🔎Мы ищем ведущего backend-девелопера в группу архитектуры и микросервисов , который владеет стеком PHP7 + Go.\nМы работаем в стандартном пятидневном графике, с возможностью немного двигать начало и окончание рабочего дня. Территориально мы располагаемся в шаговой доступности от м.Петроградская. В нашем офисе есть все стандартные плюшки (как кофе и печеньки), а также кикер, плойка и настолки. \n📌Наш стек:\nPHP7, Go, ElasticSearch, Postgres, Kafka, ELK, gitlab CI\n📌Мы ждем, что наш кандидат:\n- Уверенно знает PHP7 и хорошо знает Go;\n- Интересуется  архитектурой информационных систем;\n- Понимает ООП, SOLID, шаблоны проектирования, гексагональную архитектуру;\n- Владеет одним из фреймворков Yii2, Laravel, Symfony;\n- Понимает микросервисную архитектуру, Event-Driven Architecture;\n- Отличное знание баз данных SQL, NoSQL;\n\nПо всем вопросам: @minataly","markup":[{"type":"hashtag","offset":0,"length":9,"data":"вакансия"},{"type":"hashtag","offset":11,"length":4,"data":"спб"},{"type":"hashtag","offset":17,"length":9,"data":"fulltime"},{"type":"hashtag","offset":27,"length":5,"data":"офис"},{"type":"hashtag","offset":33,"length":5,"data":"php7"},{"type":"hashtag","offset":40,"length":4,"data":"Yii"},{"type":"hashtag","offset":50,"length":7,"data":"senior"},{"type":"link","offset":272,"length":6,"data":"http://АВС.ru"},{"type":"handle","offset":1157,"length":9,"data":"minataly"}],"date":"2020-03-24T12:29:47+00:00","link":"tg://resolve?domain=php_jobs&post=22806","tags":[{"name":"php"},{"name":"yii"},{"name":"elasticsearch"},{"name":"postgresql"},{"name":"kafka"},{"name":"gitlab"},{"name":"laravel"},{"name":"symfony"},{"name":"sql"},{"name":"nosql"}],"cities":[],"allowsRemote":false}}]}}},"context":{}}