{"hash":"f34fd2c444a074f4e0e67d525015a008ef8e766f","data":{"records":{"id":"git","name":"git","belongsTo":{"totalCount":114,"pageInfo":{"totalPages":12,"currentPage":9},"edges":[{"node":{"__typename":"Job","id":"1908408320-1001134745498","title":"Devops инженер","text":"#вакансия #Москва #Калиниград #Linux  #DevOps\n#remote #удалёнка #офис \nГород: Москва, Калиниград\nЗанятость: полная\nФормат работы: офис или удаленка\nЗарплатная вилка: от 100 000 до 150 000\nОписание вакансии:\nЧто нужно делать?\n\n-Автоматизация рутинных процессов;\n-Поддержка и развитие CI/CD\n-Настройка систем непрерывного мониторинга, сбора логов и т.д.\n-Развертывание окружений (dev, test, prod)\n-Разбор критических ситуаций, оперативное устранение выявленных неисправностей\n-Активное участие при прорабатывании новой архитектуры продукта, внедрение новейших сервисов и технологий\nТребования:\n\n-Опыт работы с Docker и (желательно) с системами оркестрации (swarm/kubernetes/openshift)\n-Опыт работы с Web-стеком PHP/NGINX/PostgreSQL\n-Опыт настройки, кластеризации rabbitMQ, PostgreSQL, ElasticSearch будет большим плюсом\n-Опыт работы с SCM (Ansible, Puppet) будет большим плюсом\n-Опыт работы с continuous integration, build&release management\n-Знание систем контроля версий. У нас Git (Gitlab)\n-Scripting (PowerShell, bash/python)\nНазвание компании: Cognitive Technologies \nКонтакты:  @codefather_ru можно в https://kaliningrad.hh.ru/vacancy/36234203\nhttps://kaliningrad.hh.ru/vacancy/36234204\n\n—\n\n👉 Обсуждение вакансии в чате @devops_jobs","markup":[{"type":"hashtag","offset":0,"length":9,"data":"вакансия"},{"type":"hashtag","offset":10,"length":7,"data":"Москва"},{"type":"hashtag","offset":18,"length":11,"data":"Калиниград"},{"type":"hashtag","offset":30,"length":6,"data":"Linux"},{"type":"hashtag","offset":38,"length":7,"data":"DevOps"},{"type":"hashtag","offset":46,"length":7,"data":"remote"},{"type":"hashtag","offset":54,"length":9,"data":"удалёнка"},{"type":"hashtag","offset":64,"length":5,"data":"офис"},{"type":"handle","offset":1082,"length":14,"data":"codefather_ru"},{"type":"link","offset":1105,"length":42,"data":"https://kaliningrad.hh.ru/vacancy/36234203"},{"type":"link","offset":1148,"length":42,"data":"https://kaliningrad.hh.ru/vacancy/36234204"},{"type":"handle","offset":1225,"length":12,"data":"devops_jobs"}],"date":"2020-03-16T14:58:57+00:00","link":"tg://resolve?domain=devops_jobs_feed&post=1820","tags":[{"name":"linux"},{"name":"docker"},{"name":"kubernetes"},{"name":"web"},{"name":"php"},{"name":"nginx"},{"name":"postgresql"},{"name":"rabbitmq"},{"name":"elasticsearch"},{"name":"ansible"},{"name":"git"},{"name":"gitlab"},{"name":"powershell"},{"name":"bash"},{"name":"python"},{"name":"continuous-integration"}],"cities":[{"code":"moscow"},{"code":"kaliningrad"}],"allowsRemote":true}},{"node":{"__typename":"Job","id":"1904214016-1001134745498","title":"Devops инженер","text":"#вакансия \nВакансия: #devops  #fulltime #office\nКомпания: #нспк #псмир\nЛокация: #томск\nЗ/п: 100к-180к net (после вычета налогов)\n\n«Национальная система платежных карт» ищет DevOps-инженера.\n\nНСПК - развивающаяся компания, создающая финтех-сервисы, которыми пользуются миллионы людей. \n\nЗа 5 лет нашей истории мы разработали бизнес-продукты, аналоги которых в мире можно пересчитать по пальцам:\n✔️Платежная система \"Мир\";\n✔️Система быстрых платежей;\n✔️Программа лояльности \"Мир\";\n✔️Сервис мобильной оплаты MirPay;\n✔️Система аутентификации пользователей MirAccept.  \n\n⛏ Наш стек:  \nLinux, Docker, Git, Jenkins, Nexus, Ansible, Groovy, Python, Java, Spring, Gradle, MySql, Nginx, HAProxy, Kafka, Hazelcast, Prometheus, ELK, Atlassian stack. \n\n🧠 Какие у нас бывают задачи?\n- Написание конвейеров (CI/CD); \n- Автоматизация процессов создания окружений инфраструктуры разработки (репозитории, типовые job CI, RBAC, Ansible roles);\n- Автоматизация housekeeping. \n\n🎁 Мы предлагаем:\n- Работу в команде профессионалов;\n- Обучение за счет компании;\n- Развитую корпоративную культуру;\n- ДМС со стоматологией, официальное трудоустройство; \n- Комфортный офис в центре;\n- Чай, кофе, печеньки✌️\n\nХотите поучаствовать в масштабном и сложном проекте?\n\nМои контакты:\n📲 +7-916-051-20-63\n      @Ekaterina1915 \n\n📩 makarovaen@nspk.ru\n\n—\n\n👉 Обсуждение вакансии в чате @devops_jobs","markup":[{"type":"hashtag","offset":0,"length":9,"data":"вакансия"},{"type":"hashtag","offset":21,"length":7,"data":"devops"},{"type":"hashtag","offset":30,"length":9,"data":"fulltime"},{"type":"hashtag","offset":40,"length":7,"data":"office"},{"type":"hashtag","offset":58,"length":5,"data":"нспк"},{"type":"hashtag","offset":64,"length":6,"data":"псмир"},{"type":"hashtag","offset":80,"length":6,"data":"томск"},{"type":"link","offset":1253,"length":16,"data":"tel:+7-916-051-20-63"},{"type":"handle","offset":1276,"length":14,"data":"Ekaterina1915"},{"type":"link","offset":1296,"length":18,"data":"mailto:makarovaen@nspk.ru"},{"type":"handle","offset":1349,"length":12,"data":"devops_jobs"}],"date":"2020-03-16T09:19:44+00:00","link":"tg://resolve?domain=devops_jobs_feed&post=1816","tags":[{"name":"dotnet"},{"name":"linux"},{"name":"docker"},{"name":"git"},{"name":"jenkins"},{"name":"ansible"},{"name":"groovy"},{"name":"python"},{"name":"java"},{"name":"spring"},{"name":"gradle"},{"name":"mysql"},{"name":"nginx"},{"name":"kafka"}],"cities":[{"code":"tomsk"}],"allowsRemote":false}},{"node":{"__typename":"Job","id":"1903165440-1001134745498","title":"Devops инженер","text":"#вакансия #Москва #devops #офис \n\nВакансия: devops\nОфис: Москва, Москва Сити, башня Империя \nКомпания: Диджитал Агро\nФормат работы: офис\nОпыт: 2-3 года \nЗарплатная вилка: 150 000 до 280 000 руб. (Обсуждается на собеседовании)\n\nТребования:\n- Создавать CI/CD продукты \n- Сопровождать продуктовую разработку в команде \n- Выяснять места происхождения ошибок \n- Создавать систему мониторинга ошибок \n- Поддерживать it инфраструктуру разработки.\n\nСтек,который мы ждём:\n- Ansible,Docker,PostgreSQL/MySQL,Zabbix/Grafana/Prometheus,Linux, Git, Gitlab, python, shell.\n\nУсловия:\n- Комфортабельный офис\n- Квартальные + годовые бонусы \n- Белый доход\n- Обучение за счёт компании \n\nКонтакты: tg: @LubaKovalenko\n\n—\n\n👉 Обсуждение вакансии в чате @devops_jobs","markup":[{"type":"hashtag","offset":0,"length":9,"data":"вакансия"},{"type":"hashtag","offset":10,"length":7,"data":"Москва"},{"type":"hashtag","offset":18,"length":7,"data":"devops"},{"type":"hashtag","offset":26,"length":5,"data":"офис"},{"type":"handle","offset":681,"length":14,"data":"LubaKovalenko"},{"type":"handle","offset":730,"length":12,"data":"devops_jobs"}],"date":"2020-03-16T07:52:36+00:00","link":"tg://resolve?domain=devops_jobs_feed&post=1815","tags":[{"name":"ansible"},{"name":"docker"},{"name":"postgresql"},{"name":"mysql"},{"name":"linux"},{"name":"git"},{"name":"gitlab"},{"name":"python"},{"name":"shell"}],"cities":[{"code":"moscow"}],"allowsRemote":false}},{"node":{"__typename":"Job","id":"1900019712-1001134745498","title":"Devops инженер","text":"#вакансия #linux #sberdevices \nВакансия: Linux инженер \nКомпания: Сбербанк\nГород и адрес: Москва, Кутузовский пр-т, 32\nФормат работы: офис \nЗанятость: полная \nЗарплатная вилка: от 100 000 до 250 000\n\nКоманда эксплуатации SberDevices ищет коллег в дружный коллектив.\nМы создаем отказоустойчивую инфраструктуру для умных устройств и высоконагруженных систем.\nХочешь создавать инфраструктуру с 0?\nПосле выполнения пары однотипных задач автоматизируешь процесс?\nЛюбишь нарушать правило «Работает - не трогай!»?\nТогда мы ждём тебя на собеседование! :)\n\nЧем предстоит заниматься:\n• Прорабатывать базовую архитектуру и реализовывать её;\n• Строить и поддерживать отказоустойчивые системы;\n• Мониторинг инфраструктуры (сбор и анализ метрик, логирование, проактивный мониторинг);\n• Troubleshooting проблем на уровне операционной системы/сети (strace, tcpdump, etc);\n• Автоматизация рутинных задач.\n\nТребования:\n• Уверенные знания Linux;\n• Понимание принципов работы сети (TCP/IP);\n• Опыт работы с системами управления конфигурациями (Ansible, Puppet, etc);\n• Опыт работы с системами виртуализации (Proxmox, VmWare, etc);\n• Опыт работы с системами контроля версий (git);\n• Опыт программирования (Bash, Python).\n\nБудет плюсом опыт работы со следующими продуктами:\n• ELK stack, Zabbix, Prometheus, Grafana;\n• Ceph (radosgw);\n• Базами данных (PostgreSQL, Oracle);\n• Nginx.\n\nЧто мы предлагаем?\n• Возможность принять участие в разработке продуктов от идеи до реализации;\n• Гибкий график;\n• Возможность обучения за счет компании;\n• Страхование (от несчастных случаев, ДМС (включая поездки за рубеж));\n• Оздоровительные программы для детей сотрудников;\n• Дисконт-программы от компаний партнеров (фитнес, страхование, туризм);\n• Льготное кредитование;\n• Столовая, бесплатный тренажерный зал на территории офиса, бесплатная парковка;\n• Место работы - ст.м. Кутузовская.\n\nКонтакты:\nhttps://hh.ru/vacancy/36070450 (отклик на Headhunter) \n@Nastik8 (telegram)\n\n—\n\n👉 Обсуждение вакансии в чате @devops_jobs","markup":[{"type":"hashtag","offset":0,"length":9,"data":"вакансия"},{"type":"hashtag","offset":10,"length":6,"data":"linux"},{"type":"hashtag","offset":17,"length":12,"data":"sberdevices"},{"type":"link","offset":1861,"length":30,"data":"https://hh.ru/vacancy/36070450"},{"type":"handle","offset":1916,"length":8,"data":"Nastik8"},{"type":"handle","offset":1970,"length":12,"data":"devops_jobs"}],"date":"2020-03-13T11:01:06+00:00","link":"tg://resolve?domain=devops_jobs_feed&post=1812","tags":[{"name":"linux"},{"name":"ansible"},{"name":"git"},{"name":"bash"},{"name":"python"},{"name":"postgresql"},{"name":"oracle"},{"name":"nginx"}],"cities":[{"code":"moscow"}],"allowsRemote":false}},{"node":{"__typename":"Job","id":"1897922560-1001134745498","title":"Devops инженер","text":"#вакансия #DevOps #Москва \n\nЛокация: Москва, ст. м. Дмитровская\nФормат работы: офис \nЗанятость: полная\nЗарплатная вилка: от 180 000 до 250 000 руб. на руки.\n\nМы — команда эксплуатации сервиса ivi .\n\nРазыскиваем коллегу в команду для участия в настройке процессов, технических (CI/CD) и в части взаимодействия с коллегами. \nАктивное участие в разворачивании и эксплуатации k8s. Помогаем командам разработки строить CI/CD-пайплайны . Некоторые из нас это делают в составе кросс-команд, другие помогают многим командам, оставшиеся обеспечивают всех нас необходимыми приложениями и инфраструктурой.\n\nУчим команды использовать контейнеры (docker) для подготовки разрабатываемых приложений, осваиваем использование k8s для оркестрации. Используем Ubuntu, Linux.\n\nХраним код и разрабатываем pipeline-ы с помощью gitlab+artifactory .\nДля мониторинга серверов и сервисов используем zabbix и statsd , заправляем grafana.\nНаши сервисы написаны на python, golang и немного php и java.\nЛюбим и активно используем jenkins для решения самых разнообразных задач.\nИспользуем много open source (и не только) приложений: nginx, redis, postgresql, mongodb, rabbitmq, clickhouse, openstack, gitlab, kafka, hdfs, jira , opennebula.\n\nЧто предстоит делать: \n- развитие и настройки процессов ci/cd;\n- планирование и участие в рефакторинге процессов, инфраструктуры, приложений;\n- сопровождение сервисов от разработки до эксплуатации, участие в эксплуатации;\n- доработка текущих и разработка новых сценариев конфигурирования серверов и приложений; \n- администрирование приложений по результатам выполненной работы подготовка документации, если необходимо. \n\nКак узнать что ты нам подходишь? \n- положительный и продолжительный опыт работы с CI/CD-системами (у нас gitlab и jenkins);\n- умение хорошо готовить docker; \n- опыт программирования на скриптовых языках (shell, python);\nопыт администрирования linux и приложение 5+;\n- понимание сетевых технологий TCP/IP; \n- опыт работы с системами управления версиями (git) и конфигурациями. \n\nСо своей стороны мы обещаем: \n1. Подписку на ivi;\n2. Трудоустройство по ТК РФ;\n3. ДМС после прохождения испытательного срока;\n4. Футбольная команда ivi.ru принимает новых игроков;\n5. Обучение и митапы внутри компании, а также профессиональные курсы, тренинги и участие в конференциях;\n6. Оснащенный зонами отдыха, кухнями и прочими необходимыми вещами для комфортного нахождения офис в 5 минутах от ст. м. Дмитровская. \n\nОнлайн-кинотеатр ivi \nhttps://www.ivi.tv/\n\nБуду рада рассказать подробности, пишите в личку @daria144 или на почту dsereda@ivi.ru\n\n—\n\n👉 Обсуждение вакансии в чате @devops_jobs","markup":[{"type":"hashtag","offset":0,"length":9,"data":"вакансия"},{"type":"hashtag","offset":10,"length":7,"data":"DevOps"},{"type":"hashtag","offset":18,"length":7,"data":"Москва"},{"type":"link","offset":2158,"length":6,"data":"http://ivi.ru"},{"type":"link","offset":2453,"length":19,"data":"https://www.ivi.tv/"},{"type":"handle","offset":2523,"length":9,"data":"daria144"},{"type":"link","offset":2546,"length":14,"data":"mailto:dsereda@ivi.ru"},{"type":"handle","offset":2595,"length":12,"data":"devops_jobs"}],"date":"2020-03-13T10:36:50+00:00","link":"tg://resolve?domain=devops_jobs_feed&post=1810","tags":[{"name":"docker"},{"name":"ubuntu"},{"name":"linux"},{"name":"gitlab"},{"name":"python"},{"name":"go"},{"name":"php"},{"name":"java"},{"name":"jenkins"},{"name":"nginx"},{"name":"redis"},{"name":"postgresql"},{"name":"mongodb"},{"name":"rabbitmq"},{"name":"kafka"},{"name":"hdfs"},{"name":"shell"},{"name":"git"}],"cities":[{"code":"moscow"}],"allowsRemote":false}},{"node":{"__typename":"Job","id":"1890582528-1001134745498","title":"Devops инженер","text":"#вакансия #москва #офис\nDevOps инженер\nВилка 200 - 230 т.р. на руки\nМосква, офис, полный рабочий день.\nКомпания занимается разработкой платежной системы.\nЗадачи:\n 1. Обеспечение бесперебойной работы серверов и приложений Компании (не менее 99.9% доступности);\n 2. Разработка и поддержка Docker-контейнеров приложений и оркестрация микросервисов с использованием Kubernetes;\n 3. CI/CD pipelining;\n 4. Развитие и поддержка мониторинга доступности сервисов Компании;\n 5. Автоматизация развертывания новых сервисов и управление конфигурациями;\nТребования:\n Linux(Debian-based, RedHat-based) – мы ждем администраторов;\n Nginx;\n Docker– разработка образов контейнеров;\n Bash,Python– написание скриптов автоматизации;\n Teamcity(GitlabCI, Jenkins) – реализация CI/CDpipeline;\n Git;\n Puppet (Chef, Ansible, Salt) – разработка своих модулей, модификация существующих;\n Kubernetes;\n Helm;\n Prometheus;\n vSphere (VCSA HA, advanced networking);\n Понимание Foreman;\n Использование регулярных выражений;\n Использование Hiera;\nУсловия:\n  Возможность выбрать время начала работы (с 8:00/9:00/10:00);\n Современный, просторный офис;\n Современный рабочий компьютер (16 GBRAM, SSD), удобное рабочее место;\n Комфортная кухонная зона для кофе-брейков, зона отдыха, PS4 PRO +VR;\n Возможность выбрать на чем работать: Windows/Linux\n ДМС по окончанию испытательного срока;\n Корпоративные курсы по изучению Английского языка;\n Компенсация расходов на питание по картам Obed.ru;\n Компенсация расходов на спорт, внутри БЦ World Trade Center\n\nКонтакты: @kristina_jobs\nКА RedCode\n\n—\n\n👉 Обсуждение вакансии в чате @devops_jobs","markup":[{"type":"hashtag","offset":0,"length":9,"data":"вакансия"},{"type":"hashtag","offset":10,"length":7,"data":"москва"},{"type":"hashtag","offset":18,"length":5,"data":"офис"},{"type":"link","offset":1442,"length":7,"data":"http://Obed.ru"},{"type":"handle","offset":1523,"length":14,"data":"kristina_jobs"},{"type":"handle","offset":1583,"length":12,"data":"devops_jobs"}],"date":"2020-03-12T13:17:33+00:00","link":"tg://resolve?domain=devops_jobs_feed&post=1803","tags":[{"name":"docker"},{"name":"kubernetes"},{"name":"linux"},{"name":"debian"},{"name":"nginx"},{"name":"bash"},{"name":"python"},{"name":"jenkins"},{"name":"git"},{"name":"ansible"},{"name":"windows"}],"cities":[{"code":"moscow"}],"allowsRemote":false}},{"node":{"__typename":"Job","id":"1886388224-1001134745498","title":"Devops инженер","text":"#вакансия \nВакансия: #devops  #fulltime #office\nКомпания: #нспк #псмир\nЛокация: #томск\nЗ/п: 100к-180к net (после вычета налогов)\n\n«Национальная система платежных карт» ищет DevOps-инженера.\n\nНСПК - развивающаяся компания, создающая финтех-сервисы, которыми пользуются миллионы людей. \n\nЗа 5 лет нашей истории мы разработали бизнес-продукты, аналоги которых в мире можно пересчитать по пальцам:\n✔️Платежная система \"Мир\";\n✔️Система быстрых платежей;\n✔️Программа лояльности \"Мир\";\n✔️Сервис мобильной оплаты MirPay;\n✔️Система аутентификации пользователей MirAccept.  \n\n⛏ Наш стек:  \nLinux, Docker, Git, Jenkins, Nexus, Ansible, Groovy, Python, Java, Spring, Gradle, MySql, Nginx, HAProxy, Kafka, Hazelcast, Prometheus, ELK, Atlassian stack. \n\n🧠 Какие у нас бывают задачи?\n- Написание конвейеров (CI/CD); \n- Автоматизация процессов создания окружений инфраструктуры разработки (репозитории, типовые job CI, RBAC, Ansible roles);\n- Автоматизация housekeeping. \n\n🎁 Мы предлагаем:\n- Работу в команде профессионалов;\n- Обучение за счет компании;\n- Развитую корпоративную культуру;\n- ДМС со стоматологией, официальное трудоустройство; \n- Комфортный офис в центре;\n- Чай, кофе, печеньки✌️\n\nХотите поучаствовать в масштабном и сложном проекте?\n\nМои контакты:\n📲 +7-916-051-20-63\n      @Ekaterina1915 \n\n📩 makarovaen@nspk.ru\n\n—\n\n👉 Обсуждение вакансии в чате @devops_jobs","markup":[{"type":"hashtag","offset":0,"length":9,"data":"вакансия"},{"type":"hashtag","offset":21,"length":7,"data":"devops"},{"type":"hashtag","offset":30,"length":9,"data":"fulltime"},{"type":"hashtag","offset":40,"length":7,"data":"office"},{"type":"hashtag","offset":58,"length":5,"data":"нспк"},{"type":"hashtag","offset":64,"length":6,"data":"псмир"},{"type":"hashtag","offset":80,"length":6,"data":"томск"},{"type":"link","offset":1253,"length":16,"data":"tel:+7-916-051-20-63"},{"type":"handle","offset":1276,"length":14,"data":"Ekaterina1915"},{"type":"link","offset":1296,"length":18,"data":"mailto:makarovaen@nspk.ru"},{"type":"handle","offset":1349,"length":12,"data":"devops_jobs"}],"date":"2020-03-12T08:17:51+00:00","link":"tg://resolve?domain=devops_jobs_feed&post=1799","tags":[{"name":"dotnet"},{"name":"linux"},{"name":"docker"},{"name":"git"},{"name":"jenkins"},{"name":"ansible"},{"name":"groovy"},{"name":"python"},{"name":"java"},{"name":"spring"},{"name":"gradle"},{"name":"mysql"},{"name":"nginx"},{"name":"kafka"}],"cities":[{"code":"tomsk"}],"allowsRemote":false}},{"node":{"__typename":"Job","id":"244318208-1001352129329","title":"Golang developer","text":"#вакансия Golang developer \n#вакансия #работа #кипр #cyprus #fulltime #relocate #релокация #golang #developer \n \nКомпания: TrafficStars \nГород: Лимасcол, Кипр \nФормат работы: офис \nЗанятость: полная \nЗарплатная вилка: от 2500 до 3500 евро на руки \nЯзыки: русский, английский на уровне свободного чтения технической документации, митинги на русском \n \nОбязанности: Разработка серверной части высоконагруженной рекламной сети на Golang. \n \nТребования: \n•Опыт веб-разработки не менее 3 лет; \n•Знание паттернов программирования MVC, ООП; \n•Отличное знание Go; \n•Отличное знание сетевых протоколов; \n•Опыт работы с реляционными базами данных, хорошее знание SQL; \n•Опыт работы с NoSQL; \n•Опыт командной работы (трекеры, знание Git, понимание Git Flow); \n•Умение разбираться в чужом коде. \n   \nМы приветствуем: \n•Знание языков C/C++, Python, Java, Erlang, NodeJs; \n•Опыт работы с высокими нагрузками; \n•Любовь к деталям и желание делать хорошо свою работу, а не так чтобы “просто работало“; \n•Умение отстаивать свою позицию, при этом прислушиваться к другим мнениям и сообща находить компромисс; \n•Желание развиваться и постигать новое; \n•Ориентацию на результат. \n   \nМы предлагаем: \n•Релокационный пакет: \n - покупаем билеты до Кипра тебе и твоей  семье; \n - встречаем в аэропорту; \n - оформляем рабочую визу; \n - оплачиваем жильё на первый месяц; \n•Медицинская страховка для тебя и твоей семьи; \n•50% компенсация затрат на детский сад и школу; \n•Оплачиваемая мобильная связь; \n•Бесплатные и вкусные завтраки, обеды и напитки; \n•Фрукты, снэки и другие вкусняшки в офисе; \n•Рабочий компьютер/ноутбук на выбор: Mac или PC; \n•Корпоративные скидки (кафе, магазины и др); \n•Бесплатные абонементы в спортзал и занятия йогой; \n•Уроки английского и греческого языка; \n•Корпоративные вечеринки, тимбилдинги; \n•Корпоративные митапы и конференции; \n•Интересные проекты; \n•Приятная рабочая атмосфера. \n  \nПрисоединяйся к нашей молодой и талантливой команде! \n \nКонтакты: +35795588440 \ntelegram: sofia_tomashevich \ne-mail: sofia@trafficstars.com\n Автор @sofia_tomashevich","markup":[{"type":"hashtag","offset":0,"length":9,"data":"вакансия"},{"type":"hashtag","offset":28,"length":9,"data":"вакансия"},{"type":"hashtag","offset":38,"length":7,"data":"работа"},{"type":"hashtag","offset":46,"length":5,"data":"кипр"},{"type":"hashtag","offset":52,"length":7,"data":"cyprus"},{"type":"hashtag","offset":60,"length":9,"data":"fulltime"},{"type":"hashtag","offset":70,"length":9,"data":"relocate"},{"type":"hashtag","offset":80,"length":10,"data":"релокация"},{"type":"hashtag","offset":91,"length":7,"data":"golang"},{"type":"hashtag","offset":99,"length":10,"data":"developer"},{"type":"link","offset":1958,"length":12,"data":"tel:+35795588440"},{"type":"link","offset":2009,"length":22,"data":"mailto:sofia@trafficstars.com"},{"type":"handle","offset":2039,"length":18,"data":"sofia_tomashevich"}],"date":"2020-03-05T10:01:01+00:00","link":"tg://resolve?domain=gogetajobfeed&post=233","tags":[{"name":"go"},{"name":"sql"},{"name":"nosql"},{"name":"git"},{"name":"python"},{"name":"java"},{"name":"erlang"},{"name":"nodejs"}],"cities":[{"code":"sofia"}],"allowsRemote":false}},{"node":{"__typename":"Job","id":"240123904-1001352129329","title":"Golang разработчик","text":"#вакансия #go #питер \n\n\n##Компания\n«Софтвайс» занимается разработкой ПО в области рекламы и мобильных игр.\n\n##Продукт:\n\nПрограмматик рекламная платформа с антифродовыми фильтрами. Все протоколы платформы работают с big data и построены по принципу децентрализации. Мы применяем технологии работы с высоконагруженными системами, чтобы создавать умную медийную рекламу, которую пользователь воспринимает как персональную рекомендацию.\n\n##Технологии:\n\nGolang, PostgreSQL, Redis, Kafka, KSQL, ClickHouse, Scylla, Docker, Prometheus, PHP, JS\n\nО наших объёмах: >130k RPS, несколько миллиардов событий в ClickHouse в день\n\n##Команда:\n\nтехнический отдел состоит из проектных команд: несколько команд разработки нового функционала и платформенных команд, занимающихся поддержкой и развитием ядра системы.\n\n## Задачи:\nСейчас нам требуется опытный Golang-разработчик. На Go у нас написан высоконагруженный бекенд, который мы постоянно дорабатываем, улучшаем и разбиваем на микросервисы. Нужно будет вносить изменения в такие сервисы и покрывать тестами новый функционал.\n\n##Опыт:\n\nразработка на Golang 2 года  и больше;\n\nИспользование Docker;\n\nGit;\n\n\n\nБудет плюсом, если ты:\n\nПроектировал архитектуру сервисов;\n\nУмеешь писать SQL запросы;\n\nСтримил сообщения в Kafka;\n\nРаботал с NoSQL;\n\nСталкивался с системой мониторинга Prometheus;\n\nПроверял код профилировщиком;\n\nЗнаешь *nix на уровне пользователя\n\nЕсли нет, то научим.\n\n\n## Условия:\n\nОформляем официально, все по ТК РФ;\nЗарплата в вилке 160 000 -200.000 на руки, по результатам интервью;\n\nЕздим вместе на конференции (оплачивается);\n\nНовый БЦ в 7 минутах пешком от м. Петроградская и м. Чкаловская;\n\nГибкий график работы;\n\nДМС, корпоративный английский, корпоративная растяжка;\n\n## Собеседование:\n\nпервое знакомство - удаленное интервью с рекрутером,\nа дальше техническое интервью в офисе компании;\n \nКонтакты @Kate_888\n Автор @Kate_888","markup":[{"type":"hashtag","offset":0,"length":9,"data":"вакансия"},{"type":"hashtag","offset":10,"length":3,"data":"go"},{"type":"hashtag","offset":14,"length":6,"data":"питер"},{"type":"hashtag","offset":25,"length":9,"data":"Компания"},{"type":"hashtag","offset":109,"length":8,"data":"Продукт"},{"type":"hashtag","offset":435,"length":11,"data":"Технологии"},{"type":"hashtag","offset":617,"length":8,"data":"Команда"},{"type":"hashtag","offset":1062,"length":5,"data":"Опыт"},{"type":"handle","offset":1852,"length":9,"data":"Kate_888"},{"type":"handle","offset":1869,"length":9,"data":"Kate_888"}],"date":"2020-02-26T09:48:38+00:00","link":"tg://resolve?domain=gogetajobfeed&post=229","tags":[{"name":"go"},{"name":"postgresql"},{"name":"redis"},{"name":"kafka"},{"name":"docker"},{"name":"php"},{"name":"git"},{"name":"sql"},{"name":"nosql"}],"cities":[],"allowsRemote":true}},{"node":{"__typename":"Job","id":"654311424-1001089319619","title":"Ruby разработчик","text":"О компании:\n#вакансия #СПБ #офис #фуллтайм #ruby #middle #sinior #HighLoad #Umbrellio #работа #rubydeveloper\nКомпания Umbrellio. Специализируемся на создании собственных IT продуктов (CRM-системы, платежные шлюзы, маркетинговые инструменты). Ищем сильного спеца для усиления одной из команд. У нас большая туса Ruby разработчиков, скучно точно не будет 🙂\n\nЗарплатная вилка\nВилка: 110 - 180 т.р.\n\nТип работы\nПолный рабочий день\n\nТип занятости\nОфис\n\nОписание вакансии:\nМы делаем свою работу качественно и увлеченно. В свою команду мы хотим пригласить такого же увлеченного человека, который считает разработку своим призванием.\n\nТребования по позиции:\n- Глубокое знание фреймворка Ruby on Rails и ORM-фреймворков (Sequel, ActiveRecord);\n- Опыт решения сложных задач и оптимизаций запросов в PostgreSQL;\n- Опыт использования RabbitMQ;\n- Непонимание как жить без Git;\n- Непонимание разработки без тестов (RSpec);\n- Опыт работы с nix-системами;\n- Опыт написания JSON-API-приложений\n\nУсловия работы:\n- Работу в комфортабельном, современном офисе Санкт-Петербурга, в десяти минутах ходьбы от ст. м. \"Комендантский проспект\".\n- Выделенную зону отдыха, где есть вкусный кофе с печеньем, фрукты, пицца и возможность играть в кикер, настольные игры, PS4, а так же гитара и огромная терраса;\n- График работы 5\\2 с гибким началом рабочего дня;\n- Оформление по ТК РФ с первого рабочего дня;\n- Оплачиваемые больничные и отпуск;\n- Компенсация фитнеса 50%, после испытательного срока;\n- ДМС после полугода работы в компании;\n- Возможность не только посещения конференций и курсов, но и выступать в качестве спикера, мы проводим открытые митапы у нас в офисе;\n- Выездные корпоративные праздники и мероприятия;\n- Иногородним кандидатам окажем помощь в релокации;\n    Предоставим все необходимое для работы и поддержим все здравые начинания!\n\nКонтакты:\n@kseniya_larionova","markup":[{"type":"bold","offset":0,"length":11,"data":""},{"type":"hashtag","offset":12,"length":9,"data":"вакансия"},{"type":"hashtag","offset":22,"length":4,"data":"СПБ"},{"type":"hashtag","offset":27,"length":5,"data":"офис"},{"type":"hashtag","offset":33,"length":9,"data":"фуллтайм"},{"type":"hashtag","offset":43,"length":5,"data":"ruby"},{"type":"hashtag","offset":49,"length":7,"data":"middle"},{"type":"hashtag","offset":57,"length":7,"data":"sinior"},{"type":"hashtag","offset":65,"length":9,"data":"HighLoad"},{"type":"hashtag","offset":75,"length":10,"data":"Umbrellio"},{"type":"hashtag","offset":86,"length":7,"data":"работа"},{"type":"hashtag","offset":94,"length":14,"data":"rubydeveloper"},{"type":"bold","offset":357,"length":16,"data":""},{"type":"bold","offset":397,"length":10,"data":""},{"type":"bold","offset":429,"length":13,"data":""},{"type":"bold","offset":449,"length":18,"data":""},{"type":"bold","offset":628,"length":22,"data":""},{"type":"bold","offset":979,"length":15,"data":""},{"type":"bold","offset":1824,"length":9,"data":""},{"type":"handle","offset":1834,"length":18,"data":"kseniya_larionova"}],"date":"2020-02-25T13:20:34+00:00","link":"tg://resolve?domain=rubyjob&post=624","tags":[{"name":"ruby"},{"name":"ruby-on-rails"},{"name":"orm"},{"name":"activerecord"},{"name":"postgresql"},{"name":"rabbitmq"},{"name":"git"},{"name":"json"}],"cities":[],"allowsRemote":false}}]}}},"context":{}}