{"hash":"f5f6bf98bd95e769321482904cbbd488f77922fd","data":{"records":{"id":"apache","name":"apache","belongsTo":{"totalCount":31,"pageInfo":{"totalPages":4,"currentPage":2},"edges":[{"node":{"__typename":"Job","id":"26597130240-1001075660570","title":"Php разработчик","text":"PHP- разработчик \n#Drupal #php #вакансия\n\nКрупный Банк России.\n\nОклад: 100-150к net + премия\n\nОбязательно:\n• Опыт работы с Drupal 7/8 \n• Знания php 7 и ООП\n• Знания современного окружения (nginx\\apache, mysql\\pgsql, MQ и т.д) .\n• Понимание ядра Drupal 8\n• Опыт работы с популярным контрибом (views, token, paragraphs, groups и т.д.)\n• Навыки работы с большим объемом унаследованного кода\n• Опыт промышленной эксплуатации высоконагруженных проектов, со сложным релизным циклом и SLA 99,99+\n• Знание протокола HTTP/HTTPS и понимание REST архитектуры\n• Навыки работы с linux (cli)\n• Навыки по настройке и эксплуатация php приложений в контейнерах\nЖелательно:\n• Опыт ведения больших проектов в git с несколькими релизными ветками.\n• Навыки использования PHPUnit в связке с Drupal 8 (unit, kernel, functional тесты)\n• Опыт работы с криптографией, шифрованием, КЭП, ЭЦП, TLS и т.д.\nОбязанности:\n• Участие в разработке высоконагруженных интернет-порталов;\n• Разработка новых и поддержка/доработка существующих проектов компании;\n• Рефакторинг кода и устранение неисправностей/уязвимостей;\n• Интеграция проектов со сторонними сервисами;\n• Чтение ТЗ и разработка согласно его требований;\n• Документирование создаваемого кода;\n\nРезюме в личку.","markup":[{"type":"hashtag","offset":18,"length":7,"data":"Drupal"},{"type":"hashtag","offset":26,"length":4,"data":"php"},{"type":"hashtag","offset":31,"length":9,"data":"вакансия"}],"date":"2020-06-26T07:40:37+00:00","link":"tg://resolve?domain=php_jobs&post=25365","tags":[{"name":"php"},{"name":"drupal"},{"name":"dotnet"},{"name":"nginx"},{"name":"apache"},{"name":"mysql"},{"name":"rest"},{"name":"linux"},{"name":"git"},{"name":"phpunit"}],"cities":[],"allowsRemote":false}},{"node":{"__typename":"Job","id":"1731198976-1001091028994","title":"Java разработчик","text":"#вакансия  #офис #удаленка #регионы #Москва #Java #Spring #senior #middle #backend\nЛокация: #регион #Москва\nФормат работы: #офис #fulltime #удаленка\nЗ/п: 150-250 NET\nКомпания: МД-IT\nВедущий разработчик/Разработчик JAVA  \nВсем привет!\n\n✅Нужны классные разработчики Java уровня Middle, Senior, Lead\n\n👉Немного о нас: \nЦентр разработки МД-IT реализует проекты федерального масштаба под ключ. Наши специалисты работают с крупнейшими системными интеграторами, выполняя задачи по проектированию, разработке, тестированию, сопровождению и эксплуатации внедренных решений. \nНаши офисы расположены в Москве, Ростове-на –Дону, Нижнем Новгороде. \n\n👉Что ждем от Вас:\n* Уверенные знания java 8+, spring boot, будет плюсом знание Kotlin. \n Глубокие знания и практический опыт использования Java в нагруженных многопоточных приложениях Hibernate, Spring, Maven3, ХML\n\n* Опыт проектирования версионнированных REST-API, знание grpc будет плюсом\n\n* Понимание принципов асинхронного программирования, знание одного из: netty, nio, r2dbc\n\n* Желателен опыт использования библиотек реактивного программирования (rxjava, reactor) или опыт работы с vert.x, ratpack или http4\n\n*Приветствуется опыт работы с современными архитектурами, Apache Ignite, Apache Kafka\n\n👉Что мы можем предложить Вам:\n\n* Работа: удаленка\n\n*График работы 5/2, команда работает с 9(10) до 18(19) ч. по МСК\n\n*Заработную плату белую, конкурентоспособную (рассмотрим ваши предложения).\n\n* Работа в команде сообразительных, открытых, стремящихся к развитию единомышленников.\n\n* Крупные и долгосрочные проекты, увеличивающие профессиональный кругозор и опыт работы. \n* Плюшки к чаю и кофе, оплачиваемая мобильная связь, оплачиваемые тренинги и курсы для повышения квалификации. \n\n🖍 Вопросы, резюме прошу писать в личку Елене @Elenazlh","markup":[{"type":"hashtag","offset":0,"length":9,"data":"вакансия"},{"type":"hashtag","offset":11,"length":5,"data":"офис"},{"type":"hashtag","offset":17,"length":9,"data":"удаленка"},{"type":"hashtag","offset":27,"length":8,"data":"регионы"},{"type":"hashtag","offset":36,"length":7,"data":"Москва"},{"type":"hashtag","offset":44,"length":5,"data":"Java"},{"type":"hashtag","offset":50,"length":7,"data":"Spring"},{"type":"hashtag","offset":58,"length":7,"data":"senior"},{"type":"hashtag","offset":66,"length":7,"data":"middle"},{"type":"hashtag","offset":74,"length":8,"data":"backend"},{"type":"hashtag","offset":92,"length":7,"data":"регион"},{"type":"hashtag","offset":100,"length":7,"data":"Москва"},{"type":"hashtag","offset":123,"length":5,"data":"офис"},{"type":"hashtag","offset":129,"length":9,"data":"fulltime"},{"type":"hashtag","offset":139,"length":9,"data":"удаленка"},{"type":"handle","offset":1772,"length":9,"data":"Elenazlh"}],"date":"2020-06-24T08:41:15+00:00","link":"tg://resolve?domain=jvmjobs&post=1651","tags":[{"name":"java"},{"name":"jvm"},{"name":"spring"},{"name":"dotnet"},{"name":"kotlin"},{"name":"hibernate"},{"name":"maven"},{"name":"rest"},{"name":"apache"},{"name":"kafka"},{"name":"spring-boot"}],"cities":[{"code":"moscow"}],"allowsRemote":true}},{"node":{"__typename":"Job","id":"1728053248-1001091028994","title":"Java разработчик","text":"Вакансия: #java #backend #spring #javadeveloper #middle #senior \nКомпания: Центр Информационных Технологий \nЛокация: #регион #Екатеринбург \nФормат работы: #офис #fulltime \nЗ/п: 100-200 NET \n \nМы в поисках разработчиков Java уровня Middle и Senior.\n \nЦентр Информационных Технологий — российская инжиниринговая компания, которая создает эксклюзивные ИТ-решения и услуги для межведомственного электронного взаимодействия на национальном и международном уровнях. \n\nУ нас вы получите: \n- удобное и современное железо; \n- поддержку от команды единомышленников; \n- полностью белую заработную плату - нам важно, чтобы наши сотрудники были уверены в завтрашнем дне; \n- возможность получить опыт в крупных проектах и изучить новые технологии. \n\nЧем нужно будет заниматься: \nРазрабатывать новые и дорабатывать существующие компоненты интеграционной шины. \n\nЧто мы ожидаем от вас: \n- Высшее техническое образование, желательно в сфере информационных технологий; \n- Опыт работы в области разработки информационных систем от 3 лет; \n- Опыт управления командами разработчиков; \n- Знания и умения применять на практике шаблоны проектирования и интеграции корпоративных приложений; \n- Глубокие знания Java, Java SE, Java EE; \n- Опыт работы с XML-ориентированными топологиями - WebSeivices (SOAP), WSDL/XSD, XML. \n\nБудет плюсом: \nЗнание платформы JBossFuse (Elasticsearch, Zookeeper, Apache Kafka, Apache Camel, Apache Active MQ, Apache CXF). \n \nЕсли предложение интересно, пишите мне в телеграм @mariacentreit или на почту mariya.odintseva@centre-it.com","markup":[{"type":"hashtag","offset":10,"length":5,"data":"java"},{"type":"hashtag","offset":16,"length":8,"data":"backend"},{"type":"hashtag","offset":25,"length":7,"data":"spring"},{"type":"hashtag","offset":33,"length":14,"data":"javadeveloper"},{"type":"hashtag","offset":48,"length":7,"data":"middle"},{"type":"hashtag","offset":56,"length":7,"data":"senior"},{"type":"hashtag","offset":117,"length":7,"data":"регион"},{"type":"hashtag","offset":125,"length":13,"data":"Екатеринбург"},{"type":"hashtag","offset":155,"length":5,"data":"офис"},{"type":"hashtag","offset":161,"length":9,"data":"fulltime"},{"type":"handle","offset":1479,"length":14,"data":"mariacentreit"},{"type":"link","offset":1507,"length":30,"data":"mailto:mariya.odintseva@centre-it.com"}],"date":"2020-06-23T13:27:21+00:00","link":"tg://resolve?domain=jvmjobs&post=1648","tags":[{"name":"java"},{"name":"jvm"},{"name":"spring"},{"name":"dotnet"},{"name":"xml"},{"name":"soap"},{"name":"xsd"},{"name":"elasticsearch"},{"name":"apache"},{"name":"kafka"},{"name":"apache-camel"}],"cities":[],"allowsRemote":false}},{"node":{"__typename":"Job","id":"2238709760-1001134745498","title":"Devops engineer","text":"#вакансия #devops #удаленка #fulltime #remote \n\nВакансия: DevOps Engineer\nЛокация: Казань\nФормат работы: офис или удаленка\nЗП: от 100к до 170к\n\n🔸Современная IT-компания, работающая на стыке банковской, страховой, инвестиционной и страховой сфер, сейчас находится в поиске DevOps Engineer.\n\nОфисы компании расположены в Казани и Иннополисе, также есть возможность работать удаленно.\n\nКомпания занимается изучением перспективных направлений в области финансовых продуктов и сервисов, и проверяет их на практике.\n\n🔸На текущий момент компания запускает очень крупный проект, задачей которого является трансформация архитектуры бизнеса и переезд всех процессов на новую технологическую платформу.\n\nКомпания может рассматривать лишь граждан РФ.\n\n🔹Требования\n— Опыт работы с ОС Linux;\n— Опыт работы в роли DevOps Engineer не менее 2 лет;\n— Знание скриптовых языков (Bash);\n— CI (Teamcity), CD (Octopus);\n— Опыт работы с системами мониторинга (SCOM \\ Zabbix).\n— Опыт работы с NoSQL СУБД;\n— Веб-серверы и балансировщики нагрузки (Apache/nginx haproxy).\n\n🔹**Контакты:**  \nКА: Lucky hunter\ne-mail: maria@luckyhunter.io\ntelegram: @Maria_Rey\n\n—\n\n👉 Обсуждение вакансии в чате @devops_jobs","markup":[{"type":"hashtag","offset":0,"length":9,"data":"вакансия"},{"type":"hashtag","offset":10,"length":7,"data":"devops"},{"type":"hashtag","offset":18,"length":9,"data":"удаленка"},{"type":"hashtag","offset":28,"length":9,"data":"fulltime"},{"type":"hashtag","offset":38,"length":7,"data":"remote"},{"type":"link","offset":1091,"length":20,"data":"mailto:maria@luckyhunter.io"},{"type":"handle","offset":1122,"length":10,"data":"Maria_Rey"},{"type":"handle","offset":1167,"length":12,"data":"devops_jobs"}],"date":"2020-06-22T11:45:33+00:00","link":"tg://resolve?domain=devops_jobs_feed&post=2135","tags":[{"name":"linux"},{"name":"bash"},{"name":"nosql"},{"name":"apache"},{"name":"nginx"}],"cities":[{"code":"kazan"}],"allowsRemote":true}},{"node":{"__typename":"Job","id":"91576336384-1001067529236","title":"Python разработчик","text":"#вакансия #москва #офис #fulltime #backed #developer #python #вакансия\n \nКомпания: MillionAgents\nГород: Москва (м. Новослободская)\nФормат работы: офис\nЗанятость: полная, гибкое начало дня, пару дней в неделю удаленно\nЗП: от 100.000 до 120.000 руб. на руки.\n \nО компании: \nНаша компания проводит маркетинговые исследования для крупных торговых сетей: собираем, обрабатываем и структурируем данные. Для этого мы разработали онлайн-платформу, с помощью которой управляем массовым персоналом по всей стране в режиме 24/7, а это сотни тысяч пользователей и десятки внутренних сервисов.\nВ проект Retail Intelligence входит:\n- Ценовой мониторинг крупных ритейлеров, работающих на территории РФ;\n- Обработка данных, связанных с товарными единицами (SKU) по фотографиям из торговых точек;\n- Розничные исследования - аналитика динамики цен, отсутствия товарного запаса (out of stock);\n- Получение и обработка данных розничной торговли из открытых источников, предоставление аналитических отчётов на основе этих данных\n\nСейчас мы в поиске  Python разработчика со знанием Django.\n \nОсновная задача: \nСоздавать и поддерживать сервисы в стеке технологий Python/Django и, в меньшей степени, Golang. Также в дальнейшем будет задача по рефактору приложения на Ruby on Rails. Взаимодействие предстоит с одним старшим разработчиком, который и будет ставить задачи. Первоначально будет строгое код-ревью.                                                                                                                                                                                                                                                      Взаимодействие: jira, git.                                                                                                                                                                                                                                                    Что нужно знать и уметь: \n- Знание одной из следующих технологий/языков программирования на уровне джун+/middle: Python/Django, Ruby/Rails;\n- Опыт работы с PostgreSQL;\n- Опыт написания интеграционных тестов;\n- Базовое знание UNIX-систем.Круто, если: \n- Есть опыт администрирования БД (создание таблиц/индексов, дамп таблиц, оптимизация);\n- Есть базовое знание JS-фреймворков, вроде Angular или React;\n- Есть базовое знание одного из следующих языков программирования: Golang, Java/Kotlin, Elixir;\n- Есть понимание работы хранилищ данных в памяти, вроде Redis;\n- Есть опыт работы с менеджерами очередей, вроде RabbitMQ или Apache Kafka;\n- Есть опыт работы с Docker и Jenkins\n                                                                                                                                                                                                                                                                                     Почему именно мы:\n-  Светлый офис с большими окнами у метро Новослободская;\n-  График 5/2, начало рабочего дня с 10:00 - 12:00 часов;\n-  Возможность работать пару дней в неделю удаленно;\n-  Никакой бюрократии;\n-  Очередь технических задач;\n-  Технически грамотное руководство;\n-  Официальное трудоустройство                                                                                                                                                                                                                                 По всем вопросам можно писать в личные сообщения @svetafeeva","markup":[{"type":"hashtag","offset":0,"length":9,"data":"вакансия"},{"type":"hashtag","offset":10,"length":7,"data":"москва"},{"type":"hashtag","offset":18,"length":5,"data":"офис"},{"type":"hashtag","offset":24,"length":9,"data":"fulltime"},{"type":"hashtag","offset":34,"length":7,"data":"backed"},{"type":"hashtag","offset":42,"length":10,"data":"developer"},{"type":"hashtag","offset":53,"length":7,"data":"python"},{"type":"hashtag","offset":61,"length":9,"data":"вакансия"},{"type":"handle","offset":3432,"length":11,"data":"svetafeeva"}],"date":"2020-06-22T10:19:47+00:00","link":"tg://resolve?domain=python_jobs&post=0","tags":[{"name":"python"},{"name":"django"},{"name":"go"},{"name":"ruby"},{"name":"ruby-on-rails"},{"name":"git"},{"name":"postgresql"},{"name":"unix"},{"name":"angularjs"},{"name":"reactjs"},{"name":"java"},{"name":"kotlin"},{"name":"elixir"},{"name":"redis"},{"name":"rabbitmq"},{"name":"apache"},{"name":"kafka"},{"name":"docker"},{"name":"jenkins"}],"cities":[{"code":"moscow"}],"allowsRemote":true}},{"node":{"__typename":"Job","id":"1713373184-1001091028994","title":"Java разработчик","text":"#Москва #вакансия #java #spring #fulltime #backend #office #middle #senior \n\nКомпания: СберТех.\n\nОфис: Москва, м. Нагатинская/м. Тульская/ м. Верхние Котлы.\n\nЗП: от 180-290 Net.\n\n📂Проект: Разработка платформы для управления бизнес-процессами Банка и  Цифровой Платформы Sber.\n\n🗓Задачи:\n• Участие в разработке высоконагруженного сервиса исполнения бизнес процессов на языке BPMN2.\n• Участие в RnD и прототипировании open source движков для сервиса.\n• Покрытие своего кода тестами.\n\n📎Cтек: Java8+, Spring Framework, Spring Boot, ORM, Apache Kafka.\n\n🔰Условия:\n• Оформление ТК РФ.\n• ДМС для сотрудников и скидки на медицинскую страховку для родственников;\n• Высокая белая заработная плата (оклад + годовая премия).\n• Возможность обучения за счет компании, посещения IT-конференций.\n• Бесплатный тренажерный зал на территории офиса.\n• Корпоративная жизнь и спортивные мероприятия.\n\n📩Готов ответить на интересующие вопросы - @Dmiryy","markup":[{"type":"hashtag","offset":0,"length":7,"data":"Москва"},{"type":"hashtag","offset":8,"length":9,"data":"вакансия"},{"type":"hashtag","offset":18,"length":5,"data":"java"},{"type":"hashtag","offset":24,"length":7,"data":"spring"},{"type":"hashtag","offset":32,"length":9,"data":"fulltime"},{"type":"hashtag","offset":42,"length":8,"data":"backend"},{"type":"hashtag","offset":51,"length":7,"data":"office"},{"type":"hashtag","offset":59,"length":7,"data":"middle"},{"type":"hashtag","offset":67,"length":7,"data":"senior"},{"type":"handle","offset":924,"length":7,"data":"Dmiryy"}],"date":"2020-06-19T18:13:29+00:00","link":"tg://resolve?domain=jvmjobs&post=1634","tags":[{"name":"java"},{"name":"jvm"},{"name":"spring"},{"name":"dotnet"},{"name":"orm"},{"name":"apache"},{"name":"kafka"},{"name":"spring-boot"}],"cities":[{"code":"moscow"}],"allowsRemote":false}},{"node":{"__typename":"Job","id":"2225078272-1001134745498","title":"Devops engineer","text":"#вакансия #devops #удаленка #fulltime #remote \n\nВакансия: DevOps Engineer\nЛокация: Казань\nФормат работы: офис или удаленка\nЗП: от 100к до 170к\n\n🔸Современная IT-компания, работающая на стыке банковской, страховой, инвестиционной и страховой сфер, сейчас находится в поиске DevOps Engineer.\n\nОфисы компании расположены в Казани и Иннополисе, также есть возможность работать удаленно.\n\nКомпания занимается изучением перспективных направлений в области финансовых продуктов и сервисов, и проверяет их на практике.\n\n🔸На текущий момент компания запускает очень крупный проект, задачей которого является трансформация архитектуры бизнеса и переезд всех процессов на новую технологическую платформу.\n\n🔹Требования\n— Опыт работы с ОС Linux;\n— Опыт работы в роли DevOps Engineer не менее 2 лет;\n— Знание скриптовых языков (Bash);\n— CI (Teamcity), CD (Octopus);\n— Опыт работы с системами мониторинга (SCOM \\ Zabbix).\n— Опыт работы с NoSQL СУБД;\n— Веб-серверы и балансировщики нагрузки (Apache/nginx haproxy).\n\n🔹**Контакты:**  \nКА: Lucky hunter\ne-mail: maria@luckyhunter.io\ntelegram: @Maria_Rey\n\n—\n\n👉 Обсуждение вакансии в чате @devops_jobs","markup":[{"type":"hashtag","offset":0,"length":9,"data":"вакансия"},{"type":"hashtag","offset":10,"length":7,"data":"devops"},{"type":"hashtag","offset":18,"length":9,"data":"удаленка"},{"type":"hashtag","offset":28,"length":9,"data":"fulltime"},{"type":"hashtag","offset":38,"length":7,"data":"remote"},{"type":"link","offset":1044,"length":20,"data":"mailto:maria@luckyhunter.io"},{"type":"handle","offset":1075,"length":10,"data":"Maria_Rey"},{"type":"handle","offset":1120,"length":12,"data":"devops_jobs"}],"date":"2020-06-18T14:39:09+00:00","link":"tg://resolve?domain=devops_jobs_feed&post=2122","tags":[{"name":"linux"},{"name":"bash"},{"name":"nosql"},{"name":"apache"},{"name":"nginx"}],"cities":[{"code":"kazan"}],"allowsRemote":true}},{"node":{"__typename":"Job","id":"1706033152-1001091028994","title":"Java разработчик","text":"#вакансия #backend #java #fulltime #офис #spring\n\n🔷 Вакансия: JAVA разработчик\nФормат работы: офис/удалёнка\nЗанятость: полная \nЗ/п: от 185 000 до 230 000 рублей на руки\nКомпания: Екомобайл\nСфера деятельности: разработка инфраструктурных IT решений\nЛокация: Зеленоград (25 минут от м. Речной вокзал)\n\n🔷 Основные задачи\n• работа в команде разработчиков над проектами с нуля;\n• доработка и поддержка существующих решений;\n• интеграции с внешними информационными системами;\n• участие в проектировании архитектуры приложений и БД;\n\n🔷 Требования\n• Опыт коммерческой разработки\n• Java SE 8 и выше;\n• Принципы ООП;\n• Spring / Spring Boot (Data, MVC, Security, Cloud);\n• Hibernate или MyBatis;\n• PostgreSQL;\n• Apache Tomcat или Eclipse Jetty или другой app server;\n• Опыт работы с сервисами REST/SOAP.\n\n🔷 Мы предлагаем\n• стабильную зарплату по результатам собеседования;\n• оформление по ТК РФ;\n• гибкий график работы;\n• возможность удалённой работы в перспективе;\n• интересные, творческие задачи;\n• перспектива для личного и профессионального роста.\n\n🔷 Контакт: @devstd","markup":[{"type":"hashtag","offset":0,"length":9,"data":"вакансия"},{"type":"hashtag","offset":10,"length":8,"data":"backend"},{"type":"hashtag","offset":19,"length":5,"data":"java"},{"type":"hashtag","offset":25,"length":9,"data":"fulltime"},{"type":"hashtag","offset":35,"length":5,"data":"офис"},{"type":"hashtag","offset":41,"length":7,"data":"spring"},{"type":"bold","offset":53,"length":27,"data":""},{"type":"bold","offset":304,"length":16,"data":""},{"type":"bold","offset":532,"length":11,"data":""},{"type":"bold","offset":800,"length":14,"data":""},{"type":"bold","offset":1056,"length":2,"data":""},{"type":"handle","offset":1058,"length":7,"data":"devstd"}],"date":"2020-06-18T11:27:13+00:00","link":"tg://resolve?domain=jvmjobs&post=1627","tags":[{"name":"java"},{"name":"jvm"},{"name":"spring"},{"name":"cloud"},{"name":"hibernate"},{"name":"postgresql"},{"name":"apache"},{"name":"tomcat"},{"name":"eclipse"},{"name":"jetty"},{"name":"rest"},{"name":"soap"},{"name":"spring-boot"}],"cities":[],"allowsRemote":true}},{"node":{"__typename":"Job","id":"1704984576-1001091028994","title":"Java разработчик","text":"#вакансия  #офис #удалёнка #DevOps #Java\n\nкомпания: #JTSOFT\nгород: #Москва\nвилка: 200-260+ на рук\nконтакты: @reanimatsiya\n\n\n🧑🏻‍💻Я ищу ведущего Java-разработчика со знанием Spring Boot и DevOps практик в компанию JTSOFT.\n\nJTSOFT - это аутсорсинговая IT компания, которая уже 7 лет специализируемся на разработке программных решений в сферах b2b, b2g. \n\nКомпания имеет статус IBM Premier Business Partner и работает практически со всей линейкой IBM. \nКоманды JTSOFT внедряли Универсальную Электронную Карту, разрабатывали приложения и формы для банка «Возрождение», а также реализовали проект по визуализации и контролю системы БД IBM Tivoli.\n\n🤝Вам будут рады при:\n\n✔️Опыте работы не менее 5 лет на Java Core, Java 8+\n✔️Уверенном знании фреймворков Spring\n✔️Знании принципов и шаблонов проектирования\n✔️Опыте профилирования, оптимизации и решения performance-проблем Java-приложений\n✔️Опыте проектирования API (REST, GRPC и т.д.)\n✔️Опыте работы с разными системами оркестрации (Kubernetes, OpenShift, Mesos/Marathon);\n✔️Знании Apache Kafka, MongoDB, Elasticsearch, Docker\n✔️Опыте написания инфраструктурных скриптов на Ansible\n\n\n➕Огромным плюсом будет:\n\n▪️Опыт работы с реляционными БД;\n▪️Опыт работы с SOAP;\n▪️Знакомство с методологией Agile, Scrum.\n\n\n🍪 Компания предоставляет все необходимое:\n\n👌🏻ТК РФ\n👌🏻Ваш вклад в разработку всегда будет учтен, так как работа происходит в небольших автономных группах, обеспечивающих полный цикл разработки.\n👌🏻Компания предоставляет современное и удобное оборудование\n👌🏻Комфортный офис в бизнес-центре \"Технопарк\", в двух минутах ходьбы от м. Технопарк или удаленно при согласовании с командой","markup":[{"type":"hashtag","offset":0,"length":9,"data":"вакансия"},{"type":"hashtag","offset":11,"length":5,"data":"офис"},{"type":"hashtag","offset":17,"length":9,"data":"удалёнка"},{"type":"hashtag","offset":27,"length":7,"data":"DevOps"},{"type":"hashtag","offset":35,"length":5,"data":"Java"},{"type":"hashtag","offset":52,"length":7,"data":"JTSOFT"},{"type":"hashtag","offset":67,"length":7,"data":"Москва"},{"type":"handle","offset":108,"length":13,"data":"reanimatsiya"}],"date":"2020-06-18T08:57:14+00:00","link":"tg://resolve?domain=jvmjobs&post=1626","tags":[{"name":"java"},{"name":"jvm"},{"name":"spring"},{"name":"rest"},{"name":"kubernetes"},{"name":"apache"},{"name":"kafka"},{"name":"mongodb"},{"name":"elasticsearch"},{"name":"docker"},{"name":"ansible"},{"name":"soap"},{"name":"spring-boot"}],"cities":[{"code":"moscow"}],"allowsRemote":true}},{"node":{"__typename":"Job","id":"2218786816-1001134745498","title":"Devops инженер","text":"#вакансия #DevOps\n\nDevOps Engineer \nГород и адрес офиса: Москва, Сочи, Новосибирск \n\nФормат работы: удаленка\n\nЗанятость: полная\n\nЗарплатная вилка: от 40000 до 60000 USD в год \n\nКрупная международная компания по разработке игр ищет в свою команду DevOps инженера. \n\nТребования: \nDevOps/SRE, ключевые слова:\nTypeScrypt, Node.js, SRE, SDN, PoP, VPN, динамическая маршрутизация, инкапсуляция трафика, Kubernetes, Helm и что-нибудь из стораджа типа Lustre, CEPH и про Apache Spark, Hadoop и особенно HDFS\n\nБудет плюсом: \n• Опыт удаленной работы.\n\nP.S. Ищем супер ниндзю, который творит чудеса;) \n\nКонтакт для связи: @nastya_stret\n\n—\n\n👉 Обсуждение вакансии в чате @devops_jobs","markup":[{"type":"hashtag","offset":0,"length":9,"data":"вакансия"},{"type":"hashtag","offset":10,"length":7,"data":"DevOps"},{"type":"handle","offset":611,"length":13,"data":"nastya_stret"},{"type":"handle","offset":659,"length":12,"data":"devops_jobs"}],"date":"2020-06-17T11:52:49+00:00","link":"tg://resolve?domain=devops_jobs_feed&post=2116","tags":[{"name":"nodejs"},{"name":"kubernetes"},{"name":"apache"},{"name":"hadoop"},{"name":"hdfs"},{"name":"apache-spark"}],"cities":[{"code":"moscow"},{"code":"sochi"},{"code":"novosibirsk"}],"allowsRemote":true}}]}}},"context":{}}