{"hash":"f5f6bf98bd95e769321482904cbbd488f77922fd","data":{"records":{"totalCount":669,"pageInfo":{"totalPages":67,"currentPage":19},"edges":[{"node":{"id":"17226006528-1001110946746","title":"Js разработчик","text":"#вакансия #frontend  #React #офис #remote #Спб #senior \n\nКомпания: DBeaver\nЗ/п: 180 000 - 300 000 рублей на руки \nГород и адрес офиса: г. Санкт-Петербург (м. Площадь Ленина/Новочеркасская)\nФормат работы: офис или удаленка \nЗанятость: полная, fulltime\n\n🌏DВeaver  - это международный open source проект, бесплатный многоплатформенный инструмент для работы с базами данных. Поддерживает все популярные базы данных: MySQL, PostgreSQL, MariaDB, SQLite, Oracle, DB2, SQL Server, Sybase, MS Access, Teradata, Firebird, Derby и т. д. Платформа интегрируется с Amazon сервисами и нацелена на облачные решения. \n\nCейчас ребята разрабатывают web решение DВeaver, первый релиз состоялся в начале года и компания активно продолжает развитие. \n\n💠Какой опыт и знания ожидают увидеть ребята:\n- опыт работы с TypeScript и React;\n- опыт участия в многокомпонентных проектах со сложной бизнес-логикой;\n- опыт проектирования и рефакторинга;\n- готовность возглавить разработку интерфейсной части продукта, принимать ключевые архитектурные решения;\n- английский язык от уровня intermediate (письменный и на уровне чтения).\n\nСтек технологий: TypeScript, React, GraphQL, MobX, RxJS, Docker. \n\n💎Что получите вы:\n- комфортный офис в БЦ Бенуа;\n- возможность частично или полностью удаленной работы; \n- официальное оформление;\n- возможность поработать над крутым международным продуктом в сплоченной команде энтузиастов;\n- профессиональные командировки и конференции в США и Европу.\n\nКонтакты:\ne-mail: valeriya@luckyhunter.io\ntelegram: @sobolevavalery\nКА: http://luckyhunter.io\nБуду рада ответить на все вопросы и рассказать подробнее о компании 😊","markup":[{"type":"hashtag","offset":0,"length":9,"data":"вакансия"},{"type":"hashtag","offset":10,"length":9,"data":"frontend"},{"type":"hashtag","offset":21,"length":6,"data":"React"},{"type":"hashtag","offset":28,"length":5,"data":"офис"},{"type":"hashtag","offset":34,"length":7,"data":"remote"},{"type":"hashtag","offset":42,"length":4,"data":"Спб"},{"type":"hashtag","offset":47,"length":7,"data":"senior"},{"type":"link","offset":1477,"length":23,"data":"mailto:valeriya@luckyhunter.io"},{"type":"handle","offset":1511,"length":15,"data":"sobolevavalery"},{"type":"link","offset":1531,"length":21,"data":"http://luckyhunter.io"}],"date":"2020-06-29T15:33:08+00:00","link":"tg://resolve?domain=javascript_jobs_feed&post=16428","tags":[{"name":"javascript"},{"name":"reactjs"},{"name":"mysql"},{"name":"postgresql"},{"name":"mariadb"},{"name":"sqlite"},{"name":"oracle"},{"name":"sql"},{"name":"ms-access"},{"name":"web"},{"name":"typescript"},{"name":"graphql"},{"name":"rxjs"},{"name":"docker"},{"name":"sql-server"}],"cities":[],"allowsRemote":true}},{"node":{"id":"17224957952-1001110946746","title":"Js разработчик","text":"#вакансия #москва #middle #remote #angular #fulltime #офис\n\nИщем frontend разработчика для работы над основным сайтом и новыми разделами.\nГород и адрес офиса: Москва, м. Авиамоторная\nФормат работы: Офис\nЗанятость: полная\nЗарплатная вилка: 130 000 — 150 000 на руки по результатам технического собеседования\n\nAutospot.ru — онлайн гипермаркет автомобилей. \n\nВ 2018 году Mitsubishi Corporation и Mail.ru. оценили нас в $19,1 млн.\n\nВ технической команде 17 человек: СТО, 9 PHP разработчиков, 2 frontend разработчика, 3 тестировщика, DevOps.\n\nЧеловек нужен в Москве или готовый в эту самую Москву переехать.\n\nОбязанности:\n▫️Разработка компонентов и адаптация/интеграция сторонних библиотек и плагинов;\n▫️ Верстка новых разделов, кроссбраузерная, адаптивная, валидная;\n▫️ Развитие библиотеки UI компонентов;\n▫️ Оперативное исправление багов на проде (IE 11+);\n▫️ Помощь в оптимизации работы сайта (скорость загрузки, оптимизация DOM).\n\nТребования:\n▪️ Опыт разработки от 2 лет;\n▪️ Знание JavaScript (jQuery в разумных пределах);\n▪️ Уверенное знание html семантическая верстка, БЭМ, SCSS;\n▪️ Знание работы GIT & NPM;\n▪️ Опыт работы с gulp/webpack;\n▪️ Опыт работы с Figma/Zeplin;\n▪️ Опыт работы с векторной графикой (svg и svg-спрайты).\n\nЖелательно:\n◾️ Хорошее знание Vue.js и/или Angular 5+. Работать надо будет и с тем и с другим. Angular 5+ в приоритете, планируется переход полностью на него;\n◾️ Знание инструментов организации разработки Jira;\n◾️ Знание нюансов работы браузеров на разных устройствах и ОС;\n◾️ Опыт сео оптимизации;\n◾️ Понимание, что такое доступные интерфейсы;\n\nУсловия:\n▫️ Комфортабельный офис, БЦ Light Tower, бесплатный шаттл от м. Площадь Ильича;\n▫️ Оформление по ТК РФ с первого рабочего дня;\n▫️ Гибкое начало рабочего дня, с 9 до 11;\n▫️ Возможность работать 1-2 дня удалённо;\n▫️ Полностью белая заработная плата;\n▫️ Неформальная атмосфера и дружный, амбициозный коллектив;\n▫️ Корпоративная скидка на изучение английского языка.\n\nКонтакт: @dianadoma","markup":[{"type":"hashtag","offset":0,"length":9,"data":"вакансия"},{"type":"hashtag","offset":10,"length":7,"data":"москва"},{"type":"hashtag","offset":18,"length":7,"data":"middle"},{"type":"hashtag","offset":26,"length":7,"data":"remote"},{"type":"hashtag","offset":34,"length":8,"data":"angular"},{"type":"hashtag","offset":43,"length":9,"data":"fulltime"},{"type":"hashtag","offset":53,"length":5,"data":"офис"},{"type":"link","offset":308,"length":11,"data":"http://Autospot.ru"},{"type":"link","offset":393,"length":7,"data":"http://Mail.ru"},{"type":"handle","offset":1957,"length":10,"data":"dianadoma"}],"date":"2020-06-29T15:32:23+00:00","link":"tg://resolve?domain=javascript_jobs_feed&post=16427","tags":[{"name":"javascript"},{"name":"angularjs"},{"name":"php"},{"name":"jquery"},{"name":"html"},{"name":"git"},{"name":"npm"},{"name":"gulp"},{"name":"webpack"},{"name":"svg"},{"name":"vuejs"}],"cities":[{"code":"moscow"}],"allowsRemote":true}},{"node":{"id":"108252889088-1001119539411","title":".net разработчик","text":"#вакансия #fulltime #офис #remote \n\nЛокация: Казань, ст. м. Козья Слобода; Иннополис;\nФормат работы: офис или remote, фуллтайм \nЗанятость: полная, гибкое начало дня\nЗП: до 160 000 Net \n\n🚀Компания Ак Барс Цифровые Технологии запускает новый большой проект по трансформации архитектуры розничного бизнеса (физические лица) и переезд всех процессов на новую технологическую платформу. В рамках проекта будет сформировано 8 команд, занимающихся разными задачами по платежным решениям, каталогам продуктов, работой с электронными досье клиента, операционному обслуживанию и др.\n\nВ связи с чем компания в поисках Middle .Net разработчиков с коммерческим опытом работы от 2 лет. \n\nСтек технологий: C#, ASP.NET MVC / Core, Web API, MS SQLServer / PostgreSql, Entity Framework, JS /React, RabbitMQ\n\n✅Ребята ищут специалиста с опытом разработки веб-платформ, которому знаком .NET, ASP.NET Core, MS SQL Server. Команды гибко рассматривают кандидатов, готовы обучать и делиться опытом. \n\n✅АК Барс Цифровые технологии предлагают отличные условия:\n- официальное оформление и полностью белую зп;\n- гибкий график работы, позитивная атмосфера, дружный молодой коллектив;\n- возможность работать удаленно или в комфортном офисе в Казани;\n- помощь с релокацией, если вы из другого города; \n- возможность быстро «прокачаться» в скиллах на интересных проектах и другие приятные плюшки и бонусы.\n\nКонтакты:\ne-mail: valeriya@luckyhunter.io\ntelegram: @sobolevavalery\nБуду рада ответить на все вопросы и комментарии! 😊","markup":[{"type":"hashtag","offset":0,"length":9,"data":"вакансия"},{"type":"hashtag","offset":10,"length":9,"data":"fulltime"},{"type":"hashtag","offset":20,"length":5,"data":"офис"},{"type":"hashtag","offset":26,"length":7,"data":"remote"},{"type":"bold","offset":675,"length":15,"data":""},{"type":"link","offset":696,"length":7,"data":"http://ASP.NET"},{"type":"link","offset":872,"length":7,"data":"http://ASP.NET"},{"type":"link","offset":1393,"length":23,"data":"mailto:valeriya@luckyhunter.io"},{"type":"handle","offset":1427,"length":15,"data":"sobolevavalery"}],"date":"2020-06-29T15:13:52+00:00","link":"tg://resolve?domain=microsoftstackjobs&post=103238","tags":[{"name":"dotnet"},{"name":"csharp"},{"name":"web"},{"name":"sql-server"},{"name":"postgresql"},{"name":"reactjs"},{"name":"rabbitmq"},{"name":"sql"},{"name":"asp-net"},{"name":"entity-framework"},{"name":"net-core"},{"name":"asp-net-mvc"},{"name":"asp-net-core"}],"cities":[{"code":"kazan"}],"allowsRemote":true}},{"node":{"id":"26800553984-1001075660570","title":"Php разработчик","text":"#разработчикБитрикс #Битрикс #PHPразработчик #ProgressiveMedia #вакансия \n\nProgressive Media приглашает в штат разработчиков PHP/ 1С-Битрикс (удаленно, полная занятость). Работа в проектных группах. Чистый бэкэнд-кодинг, интересные формализованные задачи. \n\n✅Обязанности: \n- Создание бэкенда на PHP на базе Bitrix framework \n- Интеграция фронтенда \n- Разработка сервисов интеграции с различными ERP и CRM-системами \n\n✅Требуется: \n- PHP, MySQL \n- Знание принципов ООП (PHP7) \n- HTML5, CSS3, JavaScript, JQuery, SQL для интеграции фронтенда \n- знание Bitrix framework \n- Знание ядра Bitrix D7 \n\n✅Предлагаем: \n- Удаленная работа \n- Белая ЗП \n- Используем GIT и сервис деплоймента \n\n📩📩📩Для резюме: shevchenko@progressivemedia.ru","markup":[{"type":"hashtag","offset":0,"length":19,"data":"разработчикБитрикс"},{"type":"hashtag","offset":20,"length":8,"data":"Битрикс"},{"type":"hashtag","offset":29,"length":15,"data":"PHPразработчик"},{"type":"hashtag","offset":45,"length":17,"data":"ProgressiveMedia"},{"type":"hashtag","offset":63,"length":9,"data":"вакансия"},{"type":"bold","offset":111,"length":17,"data":""},{"type":"bold","offset":142,"length":26,"data":""},{"type":"link","offset":697,"length":30,"data":"mailto:shevchenko@progressivemedia.ru"}],"date":"2020-06-29T14:45:14+00:00","link":"tg://resolve?domain=php_jobs&post=25559","tags":[{"name":"php"},{"name":"mysql"},{"name":"html"},{"name":"css"},{"name":"javascript"},{"name":"jquery"},{"name":"sql"},{"name":"git"}],"cities":[],"allowsRemote":true}},{"node":{"id":"72279392256-1001054966032","title":"Android разработчик","text":"#вакансия #работа #Android #Kotlin #удаленнаяработа\n\nГород: Москва\nФормат работы: фулл тайм удаленно \n\nЗарплатная вилка: от 150 000 до 230 000;\nКомпания: АО «Почта банк»\n\nМы занимаем лидирующие позиции в рейтингах Интернет-банков, и не останавливаемся на достигнутом. Приглашаем к себе в команду разработчика Android.\n\nВАША ГЛАВНАЯ ЗАДАЧА:\n⚡️Разработка систем дистанционного банковского обслуживания (мобильный банк) на Android.\n\nНАШИ ТРЕБОВАНИЯ:\n✅ Опыт разработки для платформы Android от 3-х лет;\n✅ Знание Android SDK, Java, Kotlin, Rest/SOAP, Google Maps API, SQLite;\n\nВАШИМ ДОПОЛНИТЕЛЬНЫМ ПРЕИМУЩЕСТВОМ БУДЕТ:\n✅ Наличие высшего технического образования;\n✅ Знание стандартов проектирования и разработки мобильных приложений;\n✅ Знание архитектуры мобильных приложений и реализации серверного взаимодействия для мобильных приложений;\n✅ Навыки работы с многопоточностью;\n✅Опыт работы в банковской сфере.\n\nГОТОВЫ ВАМ ПРЕДЛОЖИТЬ:\n🔹 Удобный график («плавающее» начало рабочего дня);\n🔹 Удаленный формат работы;\n🔹 Оклад + квартальное премирование + годовой бонус;\n🔹 Agile. Scrum (двухнедельные спринты, работа в командах по 6-8 человек: 2 backend, 3 frontend, системный аналитик, 2 тестировщика) Демократия и самоорганизация + наличие удаленного доступа;\n🔹 Обучение - доступное внутреннее и внешнее обучение. В Банке есть корпоративная академия. Регулярно проходят внутренние митаппы, tech. chapters и ретроспективы. Мы посещаем ключевые отраслевые конференции;\n🔹 Профессиональное развитие - мы используем современный стэк, поддерживаем разумные инициативы по внедрению новшеств, совершенствуем архитектуру и кодовую базу;\n🔹 Карьерный рост- команда постоянно растет. В зависимости от вклада, каждый сотрудник может претендовать на повышение дохода, новый функционал и дополнительные задачи. Мы держимся за наших сотрудников;\n🔹 ДМС. Многочисленные скидки и бонусы от партнеров (от каршеринга до ипотеки).\n\n📩 Контакты: @dorogavtseva","markup":[{"type":"hashtag","offset":0,"length":9,"data":"вакансия"},{"type":"hashtag","offset":10,"length":7,"data":"работа"},{"type":"hashtag","offset":18,"length":8,"data":"Android"},{"type":"hashtag","offset":27,"length":7,"data":"Kotlin"},{"type":"hashtag","offset":35,"length":16,"data":"удаленнаяработа"},{"type":"handle","offset":1921,"length":13,"data":"dorogavtseva"}],"date":"2020-06-29T14:42:50+00:00","link":"tg://resolve?domain=mobile_jobs&post=68931","tags":[{"name":"mobile"},{"name":"android"},{"name":"kotlin"},{"name":"java"},{"name":"rest"},{"name":"soap"},{"name":"sqlite"},{"name":"google-maps"}],"cities":[{"code":"moscow"}],"allowsRemote":true}},{"node":{"id":"72278343680-1001054966032","title":"Ios developer","text":"‼️Вакансия Senior iOS Developer в MNFST‼️\n\n#вакансия #ios #удалённо \nФормат работы: #удалённо\nЗанятость: полная\n💶 З/п: от 200 000 до 230 000 руб. на руки\n\n🏢 Компания: MNFST (mnfst.com)\n\nЧем предстоит заниматься: \n🔸 Разработка и доработка нового функционала iOS-приложения MNFST\n🔸 Поддержка и развитие AR и face tracker\n🔸 Работа над оптимизацией и стабильностью приложения\n\nТребования:\n✔️ Отличное владение языком Swift (не менее двух лет)\n✔️ Опыт коммерческой разработки iOS-приложений (не менее трех лет)\n✔️ Хорошее владение Objective-C\n✔️ Уверенное знание GCD и понимание ARC\n\nПлюсом будет:\n➕ Знание Objective-C Runtime\n➕ Опыт работы с AVFoundation, Vision, ARKit и CoreML\n➕ Опыт разработки Cocoa Touch Frameworks\n\n📨 Резюме и вопросы по вакансии присылайте на talent@mnfst.com или @aderyabin","markup":[{"type":"hashtag","offset":43,"length":9,"data":"вакансия"},{"type":"hashtag","offset":53,"length":4,"data":"ios"},{"type":"hashtag","offset":58,"length":9,"data":"удалённо"},{"type":"bold","offset":69,"length":14,"data":""},{"type":"hashtag","offset":84,"length":9,"data":"удалённо"},{"type":"bold","offset":94,"length":11,"data":""},{"type":"bold","offset":115,"length":5,"data":""},{"type":"bold","offset":159,"length":10,"data":""},{"type":"link","offset":176,"length":9,"data":"http://mnfst.com"},{"type":"bold","offset":188,"length":25,"data":""},{"type":"bold","offset":378,"length":11,"data":""},{"type":"bold","offset":584,"length":14,"data":""},{"type":"link","offset":768,"length":16,"data":"mailto:talent@mnfst.com"},{"type":"handle","offset":789,"length":10,"data":"aderyabin"}],"date":"2020-06-29T14:33:28+00:00","link":"tg://resolve?domain=mobile_jobs&post=68930","tags":[{"name":"mobile"},{"name":"ios"},{"name":"swift"},{"name":"objective-c"},{"name":"cocoa"},{"name":"cocoa-touch"}],"cities":[],"allowsRemote":true}},{"node":{"id":"17219715072-1001110946746","title":"Javascript developer","text":"Front-end Developer with knowledge of HTMl, CSS, JavaScript, some Photoshop\n \nRemote Project Fixed Job: ~8hrs \nHourly rate: $10-25/hr \n\nTeam is small, English-speaking. Knowledge of English at intermediate level and above is welcome.\n\nProject Description:\n- Create 3 html pages using bootstrap\n\nRequirements:\n- 2+ years of software development in HTML & CSS\n⁃ 1 year of software development in vanilla JavaScript \n- Eagerness to constantly improve and learn new skills.\n- Experience using Ticketing tools.\n⁃ Ability to decompose specs efficiently\n\nКомпания hazelops.com\n\n#вакансия #удалённо #job #project #remote #fixed\n\nРезюме и рейты на jobs@hazelops.com, за описанием в лс @AutomationD\n\n—\n\n👉 Обсуждение вакансии в чате @javascript_jobs","markup":[{"type":"link","offset":557,"length":12,"data":"http://hazelops.com"},{"type":"hashtag","offset":571,"length":9,"data":"вакансия"},{"type":"hashtag","offset":581,"length":9,"data":"удалённо"},{"type":"hashtag","offset":591,"length":4,"data":"job"},{"type":"hashtag","offset":596,"length":8,"data":"project"},{"type":"hashtag","offset":605,"length":7,"data":"remote"},{"type":"hashtag","offset":613,"length":6,"data":"fixed"},{"type":"link","offset":639,"length":17,"data":"mailto:jobs@hazelops.com"},{"type":"handle","offset":676,"length":12,"data":"AutomationD"},{"type":"handle","offset":723,"length":16,"data":"javascript_jobs"}],"date":"2020-06-29T13:43:45+00:00","link":"tg://resolve?domain=javascript_jobs_feed&post=16422","tags":[{"name":"javascript"},{"name":"html"},{"name":"css"},{"name":"bootstrap"}],"cities":[],"allowsRemote":true}},{"node":{"id":"72271003648-1001054966032","title":"Ios разработчик","text":"#вакансия #работа #iOS #Developer #fulltime #удаленно\n\nВсем привет!\n\nМы в applicatura.com опять выросли и ищем middle iOS-разработчика. \nЗП 60 000 - 130 000 руб. после налогов. \n\n\nМы создаем и поддерживаем мобильные приложения для крупных известных брендов , SimpleWine, Перекресток, Абсолют Банк и др. \nВ команде - дизайнеры, мобильные разработчики, бэкенд разработчики, проджект менеджеры, qa-инженеры.\nУ нас налаженные процессы разработки и никакого чайка-менеджмента. \n\nЧто вам придется делать:\n - разрабатывать новые приложений \n - поддерживать имеющиеся приложения клиентов\n - создание библиотек и SDK\n - верстать по макетам дизайнеров\n - проходить технические аудиты от заказчиков\n\n\nТребования:\n- Опыт коммерческой разработки от 0,5 года;\n - Знание Swift\n - Знание особенностей и тонкостей разработки под iOS (UIKit, Foundation, CoreData и др.)\n - Знание git и уверенное использование подходов и инструментов командной разработки и ревью кода - ревьювить будем вас )\n - Имеющееся представление о том, как выстроить архитектуру большого и сложного приложения\n - Знания последних технологий, фреймворков, инструментов и вообще желание разумно следовать прогрессу\n - Понимание аспектов и этапов разработки мобильного приложения полного цикла (от настройки окружения до релиза в сторы)\n - Знание библиотек и стека мобильной разработки\n\nУсловия:\n\n - белая ЗП, соблюдаем и чтим Трудовой Кодекс РФ\n - возможность иметь нестандартный рабочий график\n - предоставляем возможности для карьерного и профессионального роста\n - работа в крупных публичных проектах, которые можно положить себе в портфолио\n \nВАЖНО! Вакансия для граждан РФ/РБ. \n\nПисать в телеграм @k_kononov, CV присылать на почту kononov@applicatura.com","markup":[{"type":"hashtag","offset":0,"length":9,"data":"вакансия"},{"type":"hashtag","offset":10,"length":7,"data":"работа"},{"type":"hashtag","offset":18,"length":4,"data":"iOS"},{"type":"hashtag","offset":23,"length":10,"data":"Developer"},{"type":"hashtag","offset":34,"length":9,"data":"fulltime"},{"type":"hashtag","offset":44,"length":9,"data":"удаленно"},{"type":"link","offset":74,"length":15,"data":"http://applicatura.com"},{"type":"handle","offset":1655,"length":10,"data":"k_kononov"},{"type":"link","offset":1689,"length":23,"data":"mailto:kononov@applicatura.com"}],"date":"2020-06-29T13:43:31+00:00","link":"tg://resolve?domain=mobile_jobs&post=68923","tags":[{"name":"mobile"},{"name":"ios"},{"name":"swift"},{"name":"uikit"},{"name":"git"}],"cities":[],"allowsRemote":true}},{"node":{"id":"17218666496-1001110946746","title":"Javascript разработчик","text":"#вакансия #удаленка #работа #html #css #javascript \n\nГород и адрес офиса: любой\nФормат работы: удаленка\nЗанятость: полная\nЗарплатная вилка:  2000$ - 2400$\n\nИщем крутого верстальщика, фултайм, американский стартап (крутая стартап-корпоративная культура, адекватное начальство, зарплата по курсу в долларах), свой продукт, рост по знаниям и деньгам! \nТребования: \n • Уметь в верстку на 10 из 5 (responsive / adaptive, Pixel Perfect, SASS, HTML5, SEO Optimized, дружить с Figma) \n • Быть адекватным - четко соблюдать оговоренные условия (если вы не придете на пару интервью вовремя или любите проспать гибкое начало рабочего дня - не пишите нам) \n • Мочь в письменный английский (а если можете говорить - это +100 к нашей совместимости) \n\nПолная вакансия по ссылке: https://career.habr.com/vacancies/1000059669\n \nКомпания: Waltbury\n\nКонтакты: Пожалуйста, присылайте ссылки на ваше CV, ссылки на LinkedIn / Habr страничку, ссылку на гитхаб и по возможности портфолио на sergey@waltbury.com\n\n—\n\n👉 Обсуждение вакансии в чате @javascript_jobs","markup":[{"type":"hashtag","offset":0,"length":9,"data":"вакансия"},{"type":"hashtag","offset":10,"length":9,"data":"удаленка"},{"type":"hashtag","offset":20,"length":7,"data":"работа"},{"type":"hashtag","offset":28,"length":5,"data":"html"},{"type":"hashtag","offset":34,"length":4,"data":"css"},{"type":"hashtag","offset":39,"length":11,"data":"javascript"},{"type":"link","offset":763,"length":44,"data":"https://career.habr.com/vacancies/1000059669"},{"type":"link","offset":966,"length":19,"data":"mailto:sergey@waltbury.com"},{"type":"handle","offset":1020,"length":16,"data":"javascript_jobs"}],"date":"2020-06-29T13:35:59+00:00","link":"tg://resolve?domain=javascript_jobs_feed&post=16421","tags":[{"name":"javascript"},{"name":"html"},{"name":"css"},{"name":"sass"},{"name":"seo"}],"cities":[],"allowsRemote":true}},{"node":{"id":"17217617920-1001110946746","title":"Js разработчик","text":"#вакансия \nГород и адрес офиса: москва, москва сити.\nФормат работы: офис или удаленка\nЗанятость: полная,\nЗарплатная вилка: от 80000 до 150.000\nОписание вакансии: Мы в лаборатории сейчас активно накапливаем себе разработчиков-инноваторов, которые хотят создавать продукты в нашей лаборатории в стеке принятом у нас: JS/Node.js) - middle, senior \nНазвание компании: Лаборатория инновационных решений http://SVOI.dev специализируемся на bigdata, ai, нейросети, блокчейн, финтех, чат боты. \nКонтакты: @senenchuk (телеграм), +79266676666","markup":[{"type":"hashtag","offset":0,"length":9,"data":"вакансия"},{"type":"link","offset":398,"length":15,"data":"http://SVOI.dev"},{"type":"handle","offset":497,"length":10,"data":"senenchuk"},{"type":"link","offset":520,"length":12,"data":"tel:+79266676666"}],"date":"2020-06-29T13:32:23+00:00","link":"tg://resolve?domain=javascript_jobs_feed&post=16420","tags":[{"name":"javascript"},{"name":"nodejs"}],"cities":[{"code":"moscow"}],"allowsRemote":true}}]}},"context":{}}