{"hash":"f5f6bf98bd95e769321482904cbbd488f77922fd","data":{"records":{"id":"belarus/minsk","country":{"code":"belarus","ruName":"Беларусь","enName":"Belarus"},"city":{"code":"minsk","ruName":"Минск","enName":"Minsk"},"belongsTo":{"totalCount":14,"pageInfo":{"totalPages":2,"currentPage":1},"edges":[{"node":{"__typename":"Job","id":"17325621248-1001110946746","title":"Js developer","text":"#вакансия #frontend #react  #senior #мbycr #офис #fulltime #релокация в литву #минск\n\nПозиция – Frontend developer (senior)\n\nКомпания – ThiNKT Digital\n\nЛокация – Работать в Литве. Возможна релокация из РБ\n\nЗанятость – полная, офис, гибкое время начала дня\n\nОплата: от 2 000 до 3 400 евро на руки\n\nРелокационный пакет - оплата 1 мес аренды кв и переезд\n\n The Role \n• Discuss the client‘s needs to propose the best solution • Develop responsive web applications • Keep up to date with terminology, concepts and best practices for coding web applications • Work closely with colleagues to constantly innovate product functionality and design • Architect customer-centric front-end part of the solution • Collaborate with Venture Managers and engage with development teams \n   We offer\n • Participation in a dynamic startup solving challenges in the energy sector & beyond • Responsibility over a wide portfolio of products  • Access to large network of startups & corporates through our various partnerships • A great international exposure, and a diverse team with extensive & rich experiences  • Competitive compensation package & flexible work schedule  \n \n       Your Background \n● Solid foundation in web application front-end development ● You know what are the best UI & UX practices ● Experience with front-end programming languages such as HTML, CSS,  Javascript, ReactJS, etc ● Experience in software process models such as Agile / Scrum / etc ● Well-rounded interpersonal and communication skills to work in flexible teams ● You are Problem solver, and very interested in technology-related entrepreneurial start-up projects. ● Relevant experience with Node or other backend programming languages would be a plus ● Experience with Azure or Amazon Web Service (AWS) would be a huge plus ● Relevant experience 3-5 years ● Required language: English \n \n \n\n\n\n☎️ Контакты для обсуждения вакансии:\n\ntelegram @veroneko","markup":[{"type":"hashtag","offset":0,"length":9,"data":"вакансия"},{"type":"hashtag","offset":10,"length":9,"data":"frontend"},{"type":"hashtag","offset":20,"length":6,"data":"react"},{"type":"hashtag","offset":28,"length":7,"data":"senior"},{"type":"hashtag","offset":36,"length":6,"data":"мbycr"},{"type":"hashtag","offset":43,"length":5,"data":"офис"},{"type":"hashtag","offset":49,"length":9,"data":"fulltime"},{"type":"hashtag","offset":59,"length":10,"data":"релокация"},{"type":"hashtag","offset":78,"length":6,"data":"минск"},{"type":"handle","offset":1910,"length":9,"data":"veroneko"}],"date":"2020-07-02T16:31:22+00:00","link":"tg://resolve?domain=javascript_jobs_feed&post=16523","tags":[{"name":"javascript"},{"name":"reactjs"},{"name":"web"},{"name":"ms-access"},{"name":"html"},{"name":"css"},{"name":"nodejs"},{"name":"azure"},{"name":"amazon-web-services"}],"cities":[{"code":"minsk"}],"allowsRemote":false}},{"node":{"__typename":"Job","id":"17324572672-1001110946746","title":"Js developer","text":"#вакансия #frontend #react  #senior #мbycr #офис #fulltime #релокация в литву #минск\n\nПозиция – Frontend developer (senior)\n\nКомпания – ThiNKT Digital\n\nЛокация – Литва\n\nЗанятость – полная, офис, гибкое время начала дня\n\nОплата: от 2 000 до 3400 евро на руки\n\nРелокационный пакет - оплата 1 мес аренды кв и переезд\n\n The Role • Discuss the client‘s needs to propose the best solution • Develop responsive web applications • Keep up to date with terminology, concepts and best practices for coding web applications • Work closely with colleagues to constantly innovate product functionality and design • Architect customer-centric front-end part of the solution • Collaborate with Venture Managers and engage with development teams \n   We offer • Participation in a dynamic startup solving challenges in the energy sector & beyond • Responsibility over a wide portfolio of products  • Access to large network of startups & corporates through our various partnerships • A great international exposure, and a diverse team with extensive & rich experiences  • Competitive compensation package & flexible work schedule  \n \n       Your Background ● Solid foundation in web application front-end development ● You know what are the best UI & UX practices ● Experience with front-end programming languages such as HTML, CSS,  Javascript, ReactJS, etc ● Experience in software process models such as Agile / Scrum / etc ● Well-rounded interpersonal and communication skills to work in flexible teams ● You are Problem solver, and very interested in technology-related entrepreneurial start-up projects. ● Relevant experience with Node or other backend programming languages would be a plus ● Experience with Azure or Amazon Web Service (AWS) would be a huge plus ● Relevant experience 3-5 years ● Required language: English \n \n \n\n\n\n☎️ Контакты для обсуждения вакансии:\n\ntelegram @codebor\n\ne-mail ybb@quadcom.ru","markup":[{"type":"hashtag","offset":0,"length":9,"data":"вакансия"},{"type":"hashtag","offset":10,"length":9,"data":"frontend"},{"type":"hashtag","offset":20,"length":6,"data":"react"},{"type":"hashtag","offset":28,"length":7,"data":"senior"},{"type":"hashtag","offset":36,"length":6,"data":"мbycr"},{"type":"hashtag","offset":43,"length":5,"data":"офис"},{"type":"hashtag","offset":49,"length":9,"data":"fulltime"},{"type":"hashtag","offset":59,"length":10,"data":"релокация"},{"type":"hashtag","offset":78,"length":6,"data":"минск"},{"type":"handle","offset":1869,"length":8,"data":"codebor"},{"type":"link","offset":1886,"length":14,"data":"mailto:ybb@quadcom.ru"}],"date":"2020-07-02T16:29:51+00:00","link":"tg://resolve?domain=javascript_jobs_feed&post=16522","tags":[{"name":"javascript"},{"name":"reactjs"},{"name":"web"},{"name":"ms-access"},{"name":"html"},{"name":"css"},{"name":"nodejs"},{"name":"azure"},{"name":"amazon-web-services"}],"cities":[{"code":"minsk"}],"allowsRemote":false}},{"node":{"__typename":"Job","id":"72565653504-1001054966032","title":"Mobile разработчик","text":"🔹 Город и адрес офиса: Минск, метро Площадь Победы\n🔹 Формат работы: офис \n🔹 Занятость: полная\n🔹 Зарплатная вилка: 3500$ - 4000$\n#вакансия #IOS #Swift #developer #mobile #office #Minsk #fulltime \n🔹 Описание вакансии: \nВсем привет! Мы в поиске сильного IOS разработчика (Swift) для разработки и масштабирования продукта  в стартапе из сферы Health & Fitness.\n✔  Что нужно делать: \n• Разработать и постоянно развивать продукт на Swift \n• Взаимодействовать с нативными API (Apple Health, Subscriptions) и бекендом \n• Оптимизировать продукт и искать узкие места в производительности \n• По мере роста проекта — нанимать и развивать техническую команду \n✔ Что нужно для этой позиции: \n• Опыт работы со Swift от 3 лет \n• Опыт публикации приложений в сторы \n• Фанат pixel-perfect UI \n• Портфолио успешно реализованных коммерческих проектов на Swift \n• Опыт работы с Apple Health (будет плюсом) \n✔ Что ты получишь в проекте: \n• Возможность с командой строить продукт на глобальный рынок \n• Работа в стартапе со всеми преимуществами и недостатками \n• Шанс быстро вырасти до уровня VP / C-level проекта в перспективе 2-3 лет \n• Возможность войти в первую десятку сотрудников проекта \n• Офис в центре Минска в бизнес центре ААА класса\n🔹 Контакты: \nАлёна\nРезюме и отклики можно отправлять сюда: alyona.a.kovalchuk@gmail.com. \nОперативно отвечу на вопросы в телеграм - @alyonakov. \nБуду благодарна за рекомендации)","markup":[{"type":"hashtag","offset":132,"length":9,"data":"вакансия"},{"type":"hashtag","offset":142,"length":4,"data":"IOS"},{"type":"hashtag","offset":147,"length":6,"data":"Swift"},{"type":"hashtag","offset":154,"length":10,"data":"developer"},{"type":"hashtag","offset":165,"length":7,"data":"mobile"},{"type":"hashtag","offset":173,"length":7,"data":"office"},{"type":"hashtag","offset":181,"length":6,"data":"Minsk"},{"type":"hashtag","offset":188,"length":9,"data":"fulltime"},{"type":"link","offset":1287,"length":28,"data":"mailto:alyona.a.kovalchuk@gmail.com"},{"type":"handle","offset":1360,"length":10,"data":"alyonakov"}],"date":"2020-07-02T14:55:51+00:00","link":"tg://resolve?domain=mobile_jobs&post=69204","tags":[{"name":"mobile"},{"name":"ios"},{"name":"swift"}],"cities":[{"code":"minsk"}],"allowsRemote":false}},{"node":{"__typename":"Job","id":"72453455872-1001054966032","title":"Android разработчик","text":"#вакансия #job #Android #remote #удаленка #fulltime #Kotlin #Java\n🔶 Android developer (middle+)\n🔶 BSL (bsl.dev)\n🔶 г. Москва\n🔶 fulltime office/remote\n🔶 ЗП от 1900-2600$\n\n✅ Задачи:  \n• Разработка нового функционала мобильного приложения для сети магазинов;\n• Доработка текущего функционала;\n• Взаимодействие с распределенной командой разработчиков;\n• Проведение Code Review.\n\n✅ Что нужно уметь:\n• Коммерческий опыт на Kotlin;\n• Знание Java;\n• Знание Android SDK (API 21+);\n• Опыт разработки клиент-серверных приложений;\n• Знание современных архитектурных паттернов в разработке (MVP, MVVM, MVI, Clean Architecture и т.д.);\n• Использование стандартного стека технологий: RxJava 2, Dagger 2, Retrofit;\n• Работа по Git Flow в команде.\n\n✅ Что даем взамен:\n• Возможность прокачки hard skills на проектах разного уровня сложности; \n• Команду с сильными разработчиками, product-менеджерами, QA, UX/UI дизайнерами и налаженными процессами;\n• Самореализацию и профессиональный рост, посещение конференций и курсов за счет компании. Расскажите нам о своей профессиональной мечте, возможно мы поможем вам воплотить ее в жизнь;\n• Возможен удаленный формат сотрудничества, или работа в офисе: г. Москва - м. Дмитровская, г. Минск - м. Грушевка\n\n✅Жду ваши резюме и, если есть, вопросы.\nМои контакты: @viktoriya_gw \nhr@bsl.dev","markup":[{"type":"hashtag","offset":0,"length":9,"data":"вакансия"},{"type":"hashtag","offset":10,"length":4,"data":"job"},{"type":"hashtag","offset":15,"length":8,"data":"Android"},{"type":"hashtag","offset":24,"length":7,"data":"remote"},{"type":"hashtag","offset":32,"length":9,"data":"удаленка"},{"type":"hashtag","offset":42,"length":9,"data":"fulltime"},{"type":"hashtag","offset":52,"length":7,"data":"Kotlin"},{"type":"hashtag","offset":60,"length":5,"data":"Java"},{"type":"link","offset":105,"length":7,"data":"http://bsl.dev"},{"type":"handle","offset":1289,"length":13,"data":"viktoriya_gw"},{"type":"link","offset":1304,"length":10,"data":"mailto:hr@bsl.dev"}],"date":"2020-07-01T11:07:13+00:00","link":"tg://resolve?domain=mobile_jobs&post=69097","tags":[{"name":"mobile"},{"name":"android"},{"name":"kotlin"},{"name":"java"},{"name":"mvvm"},{"name":"git"}],"cities":[{"code":"moscow"},{"code":"minsk"}],"allowsRemote":true}},{"node":{"__typename":"Job","id":"72425144320-1001054966032","title":"Mobile программист","text":"#вакансия #middle #senior #iOS #developer #Minsk #Moscow #удаленка #fulltime\n\nГород - Минск или Москва\nФормат работы: #офис или #удаленно\nЗанятость: полная \nЗарплатная вилка: от 2.000$ до 6.000$\n\nКоманда BP Mobile в поисках опытных iOS программистов, для работы над мобильными продуктами!\n\nЖдем в команду людей, у которых:\n-3+ лет опыта в разработке мобильных приложений;\n-Глубокие знания Objective-C и Swift;\n-Уверенные знания Core Data, Rest API, iOS SDK и паттернов MVC/MVVM, знания Realm - плюс;\n-Дополнительно будет плюсом знание С++ и других языков программирования.\n\n У нас: \n-Свобода выбора технологий;\n-Только собственные и разнообразные проекты (одновременно в разработке более 20 продуктов);\n-Курсы английского языка на базе офиса;\n-Медицинская страховка (включает стоматологию);\n-Скидка на паркинг возле офиса;\n-Корпоративы несколько раз в год;\n-5 Sick days в году;\n-Скидка в тренажерный зал и другие бонусы.\nКонтакты: \nemail - nadezhda.kostenevich@bpmobile.com\ntelegram - @nadzzzeya","markup":[{"type":"hashtag","offset":0,"length":9,"data":"вакансия"},{"type":"hashtag","offset":10,"length":7,"data":"middle"},{"type":"hashtag","offset":18,"length":7,"data":"senior"},{"type":"hashtag","offset":26,"length":4,"data":"iOS"},{"type":"hashtag","offset":31,"length":10,"data":"developer"},{"type":"hashtag","offset":42,"length":6,"data":"Minsk"},{"type":"hashtag","offset":49,"length":7,"data":"Moscow"},{"type":"hashtag","offset":57,"length":9,"data":"удаленка"},{"type":"hashtag","offset":67,"length":9,"data":"fulltime"},{"type":"hashtag","offset":118,"length":5,"data":"офис"},{"type":"hashtag","offset":128,"length":9,"data":"удаленно"},{"type":"link","offset":940,"length":33,"data":"mailto:nadezhda.kostenevich@bpmobile.com"},{"type":"handle","offset":985,"length":10,"data":"nadzzzeya"}],"date":"2020-07-01T06:59:55+00:00","link":"tg://resolve?domain=mobile_jobs&post=69070","tags":[{"name":"mobile"},{"name":"ios"},{"name":"objective-c"},{"name":"swift"},{"name":"rest"},{"name":"mvvm"},{"name":"realm"},{"name":"core-data"}],"cities":[{"code":"minsk"},{"code":"moscow"}],"allowsRemote":true}},{"node":{"__typename":"Job","id":"17273192448-1001110946746","title":"Js разработчик","text":"Всем привет!\n#вакансия #Frontend #React #PWA\nФормат работы: удаленка/возможен офис\nГород: г. Москва (м. Дмитровская), г. Минск (м. Грушевка)\nЗанятость: проектная/полная\nЗ/п: от 1200$ до 2500$\nКомпания: BSL (bsl.dev)\n\nСейчас ищем на иностранный проект Frontend разработчика для работы над PWA.\n\n🔸 Задачи:\nРазработка новых сервисов и приложений PWA;\nРабота с инфраструктурой React.JS;\nРабота совместно с тех. руководством, участие в принятии решения об архитектуре проекта;\nПроведение Code Review.\n🔸 Что нужно уметь:\nОпыт работы на JavaScript, знание стандартов ECMAScript;\nУмение создавать интерфейсы с использованием React;\nХорошее понимание принципов ФП, ООП и паттернов проектирования;\nЗнание и понимание Git.\n🔸 Что мы даем взамен:\nВозможность прокачки hard skills на проектах разного уровня сложности;\nКоманду с сильными разработчиками, QA, UX/UI дизайнерами, менеджерами и налаженными внутренними процессами;\nСамореализацию и профессиональный рост, посещение конференций и курсов за счет компании. Расскажите нам о своей профессиональной мечте, возможно мы поможем вам воплотить ее в жизнь;\nГрафик работы: удаленный или можно работать в офисе: г. Москва - м. Дмитровская, г. Минск - м. Грушевка;\n\nКонтакты: hr@bsl.dev или мой телеграм: @viktoriya_gw","markup":[{"type":"hashtag","offset":13,"length":9,"data":"вакансия"},{"type":"hashtag","offset":23,"length":9,"data":"Frontend"},{"type":"hashtag","offset":33,"length":6,"data":"React"},{"type":"hashtag","offset":40,"length":4,"data":"PWA"},{"type":"link","offset":207,"length":7,"data":"http://bsl.dev"},{"type":"link","offset":1214,"length":10,"data":"mailto:hr@bsl.dev"},{"type":"handle","offset":1243,"length":13,"data":"viktoriya_gw"}],"date":"2020-06-30T16:38:59+00:00","link":"tg://resolve?domain=javascript_jobs_feed&post=16473","tags":[{"name":"javascript"},{"name":"reactjs"},{"name":"git"}],"cities":[{"code":"moscow"},{"code":"minsk"}],"allowsRemote":true}},{"node":{"__typename":"Job","id":"17271095296-1001110946746","title":"Js разработчик","text":"#вакансия #vacancy #удаленка #fullstack #nodejs #javascript #remote #remotly #удаленнаяработа #удалённая работа\n\nГород и адрес офиса:Санкт-Петербург,Москва,Ульяновск,Обнинск,Калуга,Казань,Харьков,Минск,Гомель-центр города+удалённое сотрудничество\nФормат работы:офис или удалёнка\nЗанятость: полная\nЗарплатная вилка:$1500-$2000\nОписание вакансии:\n\nИщем опытного и талантливого Full Stack девелопера в команду разработки ERP системы по продаже авиа запчастей и поддержания летной годности.\n\nСсылка на описание системы: http://www.erp.aero/\n\nЧто будет входить в задачи:\n\n🚀Бэкенд-разработка;\n🚀Фронт-енд-разработка;\n🚀Разработка архитектуры модулей приложения;\n🚀Написание документации.\n\nЧто мы ожидаем от кандидата:\n\n⚓️Опыт разработки с использованием Node.js;\n✈️Опыт разработки с использованием Vue.js;\n🚁Знание RabbitMQ;\n⛵️JavaScript (ES6);\n🛥БД MySQL;\n🛳Знание протокола WebSocket и принципов его работы;\n🚢Технический английский.\n\nБольшим плюсом будет:\n\n🛸Фреймворк Express.js;\n🏍Понимание работы с Amazon Web Services;\n🛵Оптимизация проекта под высокие нагрузки;\n🚠Понимание работы «облачных» приложений SaaS.\n\nЧто мы предлагаем:\n🇺🇸Работу в Американской компании\n🔥Возможность удалённой работы\n💵Официальное оформление- заключается договор с нашей ШК в Сан-Франциско по ИП\n☀️Гибкое начало рабочего дня\n💊ДМС\n🏖Оплачиваемый отпуск\n🎓75% компенсация стоимости курсов английского языка\nНазвание компании:  XIM, Ink. https://ximxim.com/\n\nОтклики и рекомендации направляйте, пожалуйста, сюда 👉 @veronikaborisovahr","markup":[{"type":"hashtag","offset":0,"length":9,"data":"вакансия"},{"type":"hashtag","offset":10,"length":8,"data":"vacancy"},{"type":"hashtag","offset":19,"length":9,"data":"удаленка"},{"type":"hashtag","offset":29,"length":10,"data":"fullstack"},{"type":"hashtag","offset":40,"length":7,"data":"nodejs"},{"type":"hashtag","offset":48,"length":11,"data":"javascript"},{"type":"hashtag","offset":60,"length":7,"data":"remote"},{"type":"hashtag","offset":68,"length":8,"data":"remotly"},{"type":"hashtag","offset":77,"length":16,"data":"удаленнаяработа"},{"type":"hashtag","offset":94,"length":10,"data":"удалённая"},{"type":"link","offset":516,"length":20,"data":"http://www.erp.aero/"},{"type":"link","offset":1417,"length":19,"data":"https://ximxim.com/"},{"type":"handle","offset":1494,"length":19,"data":"veronikaborisovahr"}],"date":"2020-06-30T16:10:03+00:00","link":"tg://resolve?domain=javascript_jobs_feed&post=16471","tags":[{"name":"javascript"},{"name":"nodejs"},{"name":"vuejs"},{"name":"rabbitmq"},{"name":"mysql"},{"name":"websocket"},{"name":"express"},{"name":"web"},{"name":"amazon-web-services"}],"cities":[{"code":"moscow"},{"code":"ulyanovsk"},{"code":"obninsk"},{"code":"kaluga"},{"code":"kazan"},{"code":"minsk"},{"code":"gomel"}],"allowsRemote":true}},{"node":{"__typename":"Job","id":"17254318080-1001110946746","title":"Js developer","text":"#вакансия #FrontendDeveloper #AngularJS #JavaScript #HTML5 #CSS3 #Senior #Middle \nГород: Минск \nФормат работы: офис \nЗанятость: полная занятость, полный день\nЗарплатная вилка: 2000 - 4000$\nОписание вакансии: Front-end Developer (AngularJS)\nПроект - Web-сайт\nНеобходимый стек:\n- Глубокие знания JavaScript, AngularJS (1) и принципов работы современных браузеров\n- Отличный уровень знаний HTML5/CSS3\n- Опыт работы с пре- и пост-процессорами (SCSS/LESS/Stylus/PostCSS)\n- Очень желателен опыт работы с React\n- Понимание особенностей кроссбраузерности и адаптивности, умение создавать сложные адаптивные интерфейсы без использования фреймворков.\nНазвание компании: WakeApp (https://wakeapp.ru)\nКонтакты: Telegram - @Katherine_Faleichik","markup":[{"type":"hashtag","offset":0,"length":9,"data":"вакансия"},{"type":"hashtag","offset":10,"length":18,"data":"FrontendDeveloper"},{"type":"hashtag","offset":29,"length":10,"data":"AngularJS"},{"type":"hashtag","offset":40,"length":11,"data":"JavaScript"},{"type":"hashtag","offset":52,"length":6,"data":"HTML5"},{"type":"hashtag","offset":59,"length":5,"data":"CSS3"},{"type":"hashtag","offset":65,"length":7,"data":"Senior"},{"type":"hashtag","offset":73,"length":7,"data":"Middle"},{"type":"link","offset":669,"length":18,"data":"https://wakeapp.ru"},{"type":"handle","offset":710,"length":20,"data":"Katherine_Faleichik"}],"date":"2020-06-30T11:54:45+00:00","link":"tg://resolve?domain=javascript_jobs_feed&post=16455","tags":[{"name":"javascript"},{"name":"angularjs"},{"name":"html"},{"name":"css"},{"name":"web"},{"name":"reactjs"}],"cities":[{"code":"minsk"}],"allowsRemote":false}},{"node":{"__typename":"Job","id":"17216569344-1001110946746","title":"Js разработчик","text":"#вакансия #Frontend #Vue\n #JS\n🔸 Формат работы: удаленка/возможен офис\n🔸 Город: г. Москва (м. Дмитровская), г. Минск (м. Грушевка)\n🔸 Занятость: проектная/полная\n🔸 З/п: от 900$ до 2000$\nМы уже запустили несколько собственных успешных проектов в сфере авиаобслуживания, логистики, такси и др, и теперь помогаем другим компаниям в создании самых разных сервисов — от веб-сайтов до сложных highload проектов. \n\nСейчас ищем Frontend разработчика, готового работать на Vue.JS и разрабатывать с нуля сервис по оформлению и обслуживанию страхового продукта.\nКроме этого, для поддержки есть внутренние проекты из сферы логистики и доставки.\n📌 Задачи:\nРазработка новых сервисов, как в рамках новых проектов, так и для уже существующих;\nРабота с инфраструктурой Vue.JS;\nПроведение Code Review. \n📌 Что нужно уметь:\nОпыт работы на JavaScript, знание стандартов ECMAScript;\nУмение создавать интерфейсы с использованием Vue;\nХорошее понимание принципов ФП, ООП и паттернов проектирования;\nЗнание и понимание Git.\n📌 Что будет полезно:\nЗнание плагинов Vue (Vuex, Vue Router, axios);\nОпыт работы с NuxtJS и element-ui;\nУмение работать с ТЗ заказчика, доводить бизнес-идею до продакшн/\n📌 Что мы даем взамен: \nВозможность прокачки hard skills на проектах разного уровня сложности;\nКоманду с сильными разработчиками, QA, UX/UI дизайнерами, менеджерами и налаженными внутренними процессами;\nСамореализацию и профессиональный рост, посещение конференций и курсов за счет компании;\nГрафик работы: удаленный с пересечением по часам 11:00–19:00 по Москве; или можно работать в офисах и участвовать во всех наших активностях;\n🔸 Компания: BSL (bsl.dev)\n🔸 Контакты: hr@bsl.dev или телеграм: @viktoriya_gw","markup":[{"type":"hashtag","offset":0,"length":9,"data":"вакансия"},{"type":"hashtag","offset":10,"length":9,"data":"Frontend"},{"type":"hashtag","offset":20,"length":4,"data":"Vue"},{"type":"hashtag","offset":26,"length":3,"data":"JS"},{"type":"link","offset":1624,"length":7,"data":"http://bsl.dev"},{"type":"link","offset":1646,"length":10,"data":"mailto:hr@bsl.dev"},{"type":"handle","offset":1671,"length":13,"data":"viktoriya_gw"}],"date":"2020-06-29T13:31:53+00:00","link":"tg://resolve?domain=javascript_jobs_feed&post=16419","tags":[{"name":"javascript"},{"name":"vuejs"},{"name":"git"},{"name":"axios"}],"cities":[{"code":"moscow"},{"code":"minsk"}],"allowsRemote":true}},{"node":{"__typename":"Job","id":"71978450944-1001054966032","title":"Ios разработчик","text":"#вакансия #Senior #iOS #Swift #удаленка #Кипр #Минск #СПб\n\nГород и адрес офиса: Минск, Санкт-Петербург, Лимассол (Кипр)\nФормат работы: удаленка, либо офис\nЗанятость: полная\nЗарплатная вилка (обязательно): $3000-4000 (на руки)\n\n📍Нахожусь в поиске сильного iOS разработчика для международного стартапа. Ребята создают продукт, который помогает людям заводить новые деловые знакомства, находить бизнес-партнеров и поддерживать контакты.\n\n👉Обязательные навыки: \n\n- Глубокое знание iOS разработки (в том числе для 11+ iOS) и языка Swift (Rx Swift), современных системных и сторонних фреймворков.\n- Опыт работы в команде продуктовой разработки от 3х лет\n- Умение создавать проект с нуля.\n- Опыт разработки коммерческих приложений\n- Умения адекватно оценивать сроки разработки и вовремя сигнализировать о проблемах, мешающих их соблюдению\n- Желание делать полезный продукт, понимание ценности задач разработки для пользователей\n- Плюсом будет опыт работы с протоколом xmpp\n\n📧Контакты: \nEmail: seleznevaem@gmail.com\nTG: @EkaterinaSel","markup":[{"type":"hashtag","offset":0,"length":9,"data":"вакансия"},{"type":"hashtag","offset":10,"length":7,"data":"Senior"},{"type":"hashtag","offset":18,"length":4,"data":"iOS"},{"type":"hashtag","offset":23,"length":6,"data":"Swift"},{"type":"hashtag","offset":30,"length":9,"data":"удаленка"},{"type":"hashtag","offset":40,"length":5,"data":"Кипр"},{"type":"hashtag","offset":46,"length":6,"data":"Минск"},{"type":"hashtag","offset":53,"length":4,"data":"СПб"},{"type":"link","offset":989,"length":21,"data":"mailto:seleznevaem@gmail.com"},{"type":"handle","offset":1015,"length":13,"data":"EkaterinaSel"}],"date":"2020-06-25T06:25:03+00:00","link":"tg://resolve?domain=mobile_jobs&post=68644","tags":[{"name":"mobile"},{"name":"ios"},{"name":"swift"}],"cities":[{"code":"minsk"}],"allowsRemote":true}}]}}},"context":{}}