{"hash":"f34fd2c444a074f4e0e67d525015a008ef8e766f","data":{"records":{"id":"postgresql","name":"postgresql","belongsTo":{"totalCount":132,"pageInfo":{"totalPages":14,"currentPage":11},"edges":[{"node":{"__typename":"Job","id":"1887436800-1001134745498","title":"Devops инженер","text":"#вакансия #fulltime #teamlead #DevOps #СПБ \nПривет! \nTL Devops, 1 сотрудник в подчинении. Есть небольшая команда на стороне заказчиков. \nЛокация: Санкт-Петербург\nФормат работы: приоритет - офис, но удаленка тоже возможна. \nГрафик: 5/2 с гибким началом рабочего дня. \nЗанятость: полная\nЗарплатная вилка: от 180 до 220 на руки\n\n🧰Мы: 4xxi.com (разработка проектов-стартапов (веб, мобильные истории IOS/Android)). 90% проектов компании приходятся на зарубежный рынок (США, Англия основные страны).\n\n🍩 Плюшки: \n✔️оформление по ТК РФ (мы белые полностью);\n✔️уроки английского языка;\n✔️ДМС;\n✔️спортивные мероприятия;\n✔️обучение и развитие;\n✔️офис в центре города в стиле лофт, м.Горьковская;\n✔️кухня, забитая вкусняхами;\n\nТребования: \n☑️опыт работы на позиции системного администратора UNIX/Linux от 2х лет;\n☑️ОС: Linux/Unix (Ubuntu/Debian и CentOS/Redhat). Уровень ведущего системного администратора;\n☑️опыт автоматизации рутинных задач с помощью python/php/ruby/bash;\n☑️опыт практического использования Ansible/puppet/chef для управления конфигурациями;\n☑️опыт практического использования систем контейнеризации Docker/LXC/LXD;\n☑️администрирование серверов, сетевого оборудования;\n☑️знание сетевых протоколов, понимание протоколов маршрутизации;\n☑️опыт работы с такими сервисами AWS как SES, SNS, Container engine, Route53, S3, RDS;\n☑️Kubernetes/CoreOS.\n\n☑️список ПО, используемого компанией\n- Nginx\n- PHP(php-fpm)\n- Postgresql\n- MongoDB\n- Mysql/Percona Mysql\n- Nodejs\n- Zabbix\n- Redis\n- postfix/exim\n- bind\n\nПишите и присылайте свои резюме:  vyangurskaya@4xxi.com, @vyangurskaya\n\n—\n\n👉 Обсуждение вакансии в чате @devops_jobs","markup":[{"type":"hashtag","offset":0,"length":9,"data":"вакансия"},{"type":"hashtag","offset":10,"length":9,"data":"fulltime"},{"type":"hashtag","offset":20,"length":9,"data":"teamlead"},{"type":"hashtag","offset":30,"length":7,"data":"DevOps"},{"type":"hashtag","offset":38,"length":4,"data":"СПБ"},{"type":"link","offset":332,"length":8,"data":"http://4xxi.com"},{"type":"link","offset":1540,"length":21,"data":"mailto:vyangurskaya@4xxi.com"},{"type":"handle","offset":1563,"length":13,"data":"vyangurskaya"},{"type":"handle","offset":1611,"length":12,"data":"devops_jobs"}],"date":"2020-03-12T11:28:54+00:00","link":"tg://resolve?domain=devops_jobs_feed&post=1800","tags":[{"name":"ios"},{"name":"android"},{"name":"unix"},{"name":"linux"},{"name":"ubuntu"},{"name":"debian"},{"name":"centos"},{"name":"python"},{"name":"php"},{"name":"ruby"},{"name":"bash"},{"name":"ansible"},{"name":"docker"},{"name":"amazon-web-services"},{"name":"kubernetes"},{"name":"nginx"},{"name":"postgresql"},{"name":"mongodb"},{"name":"mysql"},{"name":"nodejs"},{"name":"redis"}],"cities":[],"allowsRemote":true}},{"node":{"__typename":"Job","id":"1885339648-1001134745498","title":"Devops инженер","text":"#вакансия #DevOps\nМосква, м.Ботанический сад\nФормат работы: офис\nЗанятость: полная\nЗаработная плата: 180 000р. на руки - фиксированный оклад\n(в планах со 2/3 квартала - квартальные премии по итогам работы до 45 000р. на руки) \nЧто делать:\n- Разработка и поддержка инфраструктуры для dev/test/prod (On-Cloud и On-Premise);\n- Разработка и поддержка процессов CI/CD;\n- Выбор технологий для реализации проектов;\n- Разработка и поддержка систем мониторинга, регистрации инцидентов и оповещения;\n- Организация бесперебойной работы всех сервисов (на всех уровнях: от инфраструктуры до разрабатываемого ПО);\n- Развертывание и поддержка общей инфраструктуры (nginx, haproxy, dns, iptables, ssh, sssd & etc).\nЧто нужно знать и уметь:\n- Экспертное понимание Linux (Ubuntu/CentOS7);\n- Знание скриптовых языков;\n- Опыт работы с технологиями виртуализации (VMware) и контейнеризации (Docker);\n- Опыт развёртывания и эксплуатации CI/CD (GitLab-CI, Jenkins);\n- Навыки работы и администрирования GitLab, Jira, Confluence;\n- Опыт внедрения и эксплуатации систем мониторинга и сбора метрик (ELK, Prometheus, Grafana, Sentry);\n- Опыт развёртывания и эксплуатации Redis, MySQL, RabbitMQ, HAProxy, nginx, PostgreSQL, php-fpm);\n- Интеграция Jenkins, Jira, GitLab. \nКомпания: АСНА (www.asna.ru)\nКонтакты: 8(965)194-28-96 (WhatsApp), @mil0lika (Telegram)\n\n—\n\n👉 Обсуждение вакансии в чате @devops_jobs","markup":[{"type":"hashtag","offset":0,"length":9,"data":"вакансия"},{"type":"hashtag","offset":10,"length":7,"data":"DevOps"},{"type":"link","offset":1258,"length":11,"data":"http://www.asna.ru"},{"type":"link","offset":1281,"length":15,"data":"tel:8(965)194-28-96"},{"type":"handle","offset":1309,"length":9,"data":"mil0lika"},{"type":"handle","offset":1364,"length":12,"data":"devops_jobs"}],"date":"2020-03-12T07:46:45+00:00","link":"tg://resolve?domain=devops_jobs_feed&post=1798","tags":[{"name":"cloud"},{"name":"nginx"},{"name":"dns"},{"name":"ssh"},{"name":"linux"},{"name":"ubuntu"},{"name":"centos"},{"name":"docker"},{"name":"gitlab"},{"name":"jenkins"},{"name":"redis"},{"name":"mysql"},{"name":"rabbitmq"},{"name":"postgresql"},{"name":"php"}],"cities":[{"code":"moscow"}],"allowsRemote":false}},{"node":{"__typename":"Job","id":"1883242496-1001134745498","title":"Devops инженер","text":"Всем привет\nПопробуем снова)\n\n#вакансия\nМосква, Бауманская\nРабота в офисе (Классный, современный)\nПолная занятость\nот 150.000 (На руки, после налогов) до 170.000\nМы ищем крутого DevOps в нашу команду. HomeApp быстро растёт, и нам необходим человек, который будет следить за тем, чтобы всё не рухнуло в один момент. \nЧто у нас внутри:\nмы пишем на PHP7 и Symfony 4;\n•  храним данные в PostgreSQL, Google Cloud Storage;\n•  используем Docker как основу для сборки релизов;\n•  запускаем релизы в Google Kubernetes Engine;\n•  пишем unit-тесты и функциональные тесты в Codeception;\n•  придерживаемся scrum;\n•  планируем задачи в Jira;\n•  держим код на GitHub;\n\n\nПодробнее можно ознакомиться здесь:\n\nhttps://career.habr.com/vacancies/1000056382\n\nHomeApp\nhomeapp.ru\n\nПисать можно в телеграмм: \n@SugarLeps\n\nИли на почту: \nEvgeniy.kozlov@homeapp.ru\n\n—\n\n👉 Обсуждение вакансии в чате @devops_jobs","markup":[{"type":"hashtag","offset":30,"length":9,"data":"вакансия"},{"type":"link","offset":692,"length":44,"data":"https://career.habr.com/vacancies/1000056382"},{"type":"link","offset":746,"length":10,"data":"http://homeapp.ru"},{"type":"handle","offset":785,"length":10,"data":"SugarLeps"},{"type":"link","offset":812,"length":25,"data":"mailto:Evgeniy.kozlov@homeapp.ru"},{"type":"handle","offset":872,"length":12,"data":"devops_jobs"}],"date":"2020-03-11T10:56:46+00:00","link":"tg://resolve?domain=devops_jobs_feed&post=1796","tags":[{"name":"php"},{"name":"symfony"},{"name":"postgresql"},{"name":"cloud"},{"name":"docker"},{"name":"kubernetes"},{"name":"github"},{"name":"google-cloud-platform"},{"name":"google-cloud-storage"}],"cities":[{"code":"moscow"}],"allowsRemote":false}},{"node":{"__typename":"Job","id":"1880096768-1001134745498","title":"Devops инженер","text":"#вакансия #НижнийНовгород\n\nАдрес: Нижний Новгород (рассматриваем так же тех, кто готов переехать, предлагаем полный релокационный пакет);\nФормат работы: Офис;\nЗарплатная вилка: 150-250 net\n\nВсем привет! В международной IT компании all.me открыта горящая вакансия \"DevOps\"!\n\nМы активно используем облачные технологии, расширяемся и ищем в команду увлеченных DevOps инженеров, готовых творить что-то новое, активно учиться и решать технические проблемы любой сложности.\n\nЗадачи:\n\nПроектирование, внедрение и сопровождение инфраструктуры программных продуктов компании\nРазработка и поддержка CI/CD\nСопровождение процесса разработки и консультация разработчиков\nКакие технологии используем:\n\nKubernetes и Helm\nTerraform и Ansible\nMongoDB, Elasticsearch, Clickhouse, PostgreSQL, Redis\nRabbitMQ, NATS, ActiveMQ\nТребования:\n\nРабота в highload-проектах от 2 лет\nОтличное знание LInux\nУверенная работа с Kubernetes\nОпыт работы с облачными провайдерами, преимущественно AWS\nВладение каким либо языком программирования: Python, Javascript, Go. Знание всех языков из этого списка будет особым плюсом.\nУсловия:\n\nМеждународная команда профессионалов\nКонкурентная заработная плата, по результатам собеседования;\nКарьерный рост, профессиональное развитие\nОтличный старт для начинающих специалистов\nУникальные мотивационные программы\nПрограмма ДМС “Премиум”\nКорпоративная онлайн-библиотека\nАктивная корпоративная жизнь\nНовейшее оборудование на выбор\nКомфортабельный офис с современным дизайном\n\nПо всем вопросам можно обращаться в личку, либо на почту Oleg.Oltybaev@all.me\n\n—\n\n👉 Обсуждение вакансии в чате @devops_jobs","markup":[{"type":"hashtag","offset":0,"length":9,"data":"вакансия"},{"type":"hashtag","offset":10,"length":15,"data":"НижнийНовгород"},{"type":"link","offset":231,"length":6,"data":"http://all.me"},{"type":"link","offset":1535,"length":20,"data":"mailto:Oleg.Oltybaev@all.me"},{"type":"handle","offset":1590,"length":12,"data":"devops_jobs"}],"date":"2020-03-11T06:58:26+00:00","link":"tg://resolve?domain=devops_jobs_feed&post=1793","tags":[{"name":"dotnet"},{"name":"kubernetes"},{"name":"ansible"},{"name":"mongodb"},{"name":"elasticsearch"},{"name":"postgresql"},{"name":"redis"},{"name":"rabbitmq"},{"name":"linux"},{"name":"amazon-web-services"},{"name":"python"},{"name":"javascript"}],"cities":[{"code":"nizhny-novgorod"}],"allowsRemote":false}},{"node":{"__typename":"Job","id":"240123904-1001352129329","title":"Golang разработчик","text":"#вакансия #go #питер \n\n\n##Компания\n«Софтвайс» занимается разработкой ПО в области рекламы и мобильных игр.\n\n##Продукт:\n\nПрограмматик рекламная платформа с антифродовыми фильтрами. Все протоколы платформы работают с big data и построены по принципу децентрализации. Мы применяем технологии работы с высоконагруженными системами, чтобы создавать умную медийную рекламу, которую пользователь воспринимает как персональную рекомендацию.\n\n##Технологии:\n\nGolang, PostgreSQL, Redis, Kafka, KSQL, ClickHouse, Scylla, Docker, Prometheus, PHP, JS\n\nО наших объёмах: >130k RPS, несколько миллиардов событий в ClickHouse в день\n\n##Команда:\n\nтехнический отдел состоит из проектных команд: несколько команд разработки нового функционала и платформенных команд, занимающихся поддержкой и развитием ядра системы.\n\n## Задачи:\nСейчас нам требуется опытный Golang-разработчик. На Go у нас написан высоконагруженный бекенд, который мы постоянно дорабатываем, улучшаем и разбиваем на микросервисы. Нужно будет вносить изменения в такие сервисы и покрывать тестами новый функционал.\n\n##Опыт:\n\nразработка на Golang 2 года  и больше;\n\nИспользование Docker;\n\nGit;\n\n\n\nБудет плюсом, если ты:\n\nПроектировал архитектуру сервисов;\n\nУмеешь писать SQL запросы;\n\nСтримил сообщения в Kafka;\n\nРаботал с NoSQL;\n\nСталкивался с системой мониторинга Prometheus;\n\nПроверял код профилировщиком;\n\nЗнаешь *nix на уровне пользователя\n\nЕсли нет, то научим.\n\n\n## Условия:\n\nОформляем официально, все по ТК РФ;\nЗарплата в вилке 160 000 -200.000 на руки, по результатам интервью;\n\nЕздим вместе на конференции (оплачивается);\n\nНовый БЦ в 7 минутах пешком от м. Петроградская и м. Чкаловская;\n\nГибкий график работы;\n\nДМС, корпоративный английский, корпоративная растяжка;\n\n## Собеседование:\n\nпервое знакомство - удаленное интервью с рекрутером,\nа дальше техническое интервью в офисе компании;\n \nКонтакты @Kate_888\n Автор @Kate_888","markup":[{"type":"hashtag","offset":0,"length":9,"data":"вакансия"},{"type":"hashtag","offset":10,"length":3,"data":"go"},{"type":"hashtag","offset":14,"length":6,"data":"питер"},{"type":"hashtag","offset":25,"length":9,"data":"Компания"},{"type":"hashtag","offset":109,"length":8,"data":"Продукт"},{"type":"hashtag","offset":435,"length":11,"data":"Технологии"},{"type":"hashtag","offset":617,"length":8,"data":"Команда"},{"type":"hashtag","offset":1062,"length":5,"data":"Опыт"},{"type":"handle","offset":1852,"length":9,"data":"Kate_888"},{"type":"handle","offset":1869,"length":9,"data":"Kate_888"}],"date":"2020-02-26T09:48:38+00:00","link":"tg://resolve?domain=gogetajobfeed&post=229","tags":[{"name":"go"},{"name":"postgresql"},{"name":"redis"},{"name":"kafka"},{"name":"docker"},{"name":"php"},{"name":"git"},{"name":"sql"},{"name":"nosql"}],"cities":[],"allowsRemote":true}},{"node":{"__typename":"Job","id":"238026752-1001352129329","title":"Golang разработчик","text":"#вакансия #Москва #офис #fulltime #middle\n\nПривет! Ostrovok.ru ищет Golang Developer'a в команду маркетинговых интеграций (Metasearch Team).\n\n➡️ Город и метро: Москва, метро ул. 1905 года/Краснопресненская\n➡️ Формат работы: офис\n➡️ Занятость: полная\n➡️ Зарплатная вилка: 100-150k net (если ваши зарплатные ожидания выше, готовы обсуждать)\n\nOstrovok.ru – сервис онлайн-бронирования отелей. Признан \"Лучшим онлайн-тревел агентством России\" по версии World Travel Award в 2019 году.\n\nНемного о проекте:\nПо стеку — #Go, #Python, #Django, #Kafka, #Redis, #Aerospike, #PostgreSQL, #gRPC, #Docker\n\n🔹 Чем предстоит заниматься? Создавать и поддерживать интеграции между нашим продуктом и партнерами (Google, Яндекс, Trivago, TripAdvisor, Kayak и т.д.)\n\n🔹 Чем хорошего? Партнеров много, требования у всех разные. С каждой новой интеграцией ты будешь учиться чему-то новому + узнавать, как работают внешние и внутренние системы. Кросскомандный код ревью, развитый Go-нетворкинг (сообщество гоферов внутри компании).\n\n🔹 Что сложного? Проект играет большую роль, т.к. обеспечивает жизнеспособность самого крупного маркетингового канала в B2С.\n\nПару слов о команде:\nСейчас она состоит из проджекта, тестировщика, двух разработчиков и трех бизнес-менеджеров, каждый из которых отвечает за несколько партнеров.\n\nОсновное требование — опыт работы с Golang от 1 года.\n\nЕсли не испугался_ась, вот ссылка вакансию на hh.ru – https://hh.ru/vacancy/35855877, там подробнее о том, чего мы ждем и что предлагаем взамен.\n\nПиши на почту dpostolucky@ostrovok.ru или в телеграм @darya_laika\n Автор @darya_laika","markup":[{"type":"hashtag","offset":0,"length":9,"data":"вакансия"},{"type":"hashtag","offset":10,"length":7,"data":"Москва"},{"type":"hashtag","offset":18,"length":5,"data":"офис"},{"type":"hashtag","offset":24,"length":9,"data":"fulltime"},{"type":"hashtag","offset":34,"length":7,"data":"middle"},{"type":"link","offset":51,"length":11,"data":"http://Ostrovok.ru"},{"type":"link","offset":340,"length":11,"data":"http://Ostrovok.ru"},{"type":"hashtag","offset":511,"length":3,"data":"Go"},{"type":"hashtag","offset":516,"length":7,"data":"Python"},{"type":"hashtag","offset":525,"length":7,"data":"Django"},{"type":"hashtag","offset":534,"length":6,"data":"Kafka"},{"type":"hashtag","offset":542,"length":6,"data":"Redis"},{"type":"hashtag","offset":550,"length":10,"data":"Aerospike"},{"type":"hashtag","offset":562,"length":11,"data":"PostgreSQL"},{"type":"hashtag","offset":575,"length":5,"data":"gRPC"},{"type":"hashtag","offset":582,"length":7,"data":"Docker"},{"type":"link","offset":1400,"length":5,"data":"http://hh.ru"},{"type":"link","offset":1408,"length":30,"data":"https://hh.ru/vacancy/35855877"},{"type":"link","offset":1514,"length":23,"data":"mailto:dpostolucky@ostrovok.ru"},{"type":"handle","offset":1553,"length":12,"data":"darya_laika"},{"type":"handle","offset":1573,"length":12,"data":"darya_laika"}],"date":"2020-02-25T19:44:39+00:00","link":"tg://resolve?domain=gogetajobfeed&post=227","tags":[{"name":"go"},{"name":"dotnet"},{"name":"python"},{"name":"django"},{"name":"kafka"},{"name":"redis"},{"name":"postgresql"},{"name":"docker"}],"cities":[{"code":"moscow"}],"allowsRemote":false}},{"node":{"__typename":"Job","id":"654311424-1001089319619","title":"Ruby разработчик","text":"О компании:\n#вакансия #СПБ #офис #фуллтайм #ruby #middle #sinior #HighLoad #Umbrellio #работа #rubydeveloper\nКомпания Umbrellio. Специализируемся на создании собственных IT продуктов (CRM-системы, платежные шлюзы, маркетинговые инструменты). Ищем сильного спеца для усиления одной из команд. У нас большая туса Ruby разработчиков, скучно точно не будет 🙂\n\nЗарплатная вилка\nВилка: 110 - 180 т.р.\n\nТип работы\nПолный рабочий день\n\nТип занятости\nОфис\n\nОписание вакансии:\nМы делаем свою работу качественно и увлеченно. В свою команду мы хотим пригласить такого же увлеченного человека, который считает разработку своим призванием.\n\nТребования по позиции:\n- Глубокое знание фреймворка Ruby on Rails и ORM-фреймворков (Sequel, ActiveRecord);\n- Опыт решения сложных задач и оптимизаций запросов в PostgreSQL;\n- Опыт использования RabbitMQ;\n- Непонимание как жить без Git;\n- Непонимание разработки без тестов (RSpec);\n- Опыт работы с nix-системами;\n- Опыт написания JSON-API-приложений\n\nУсловия работы:\n- Работу в комфортабельном, современном офисе Санкт-Петербурга, в десяти минутах ходьбы от ст. м. \"Комендантский проспект\".\n- Выделенную зону отдыха, где есть вкусный кофе с печеньем, фрукты, пицца и возможность играть в кикер, настольные игры, PS4, а так же гитара и огромная терраса;\n- График работы 5\\2 с гибким началом рабочего дня;\n- Оформление по ТК РФ с первого рабочего дня;\n- Оплачиваемые больничные и отпуск;\n- Компенсация фитнеса 50%, после испытательного срока;\n- ДМС после полугода работы в компании;\n- Возможность не только посещения конференций и курсов, но и выступать в качестве спикера, мы проводим открытые митапы у нас в офисе;\n- Выездные корпоративные праздники и мероприятия;\n- Иногородним кандидатам окажем помощь в релокации;\n    Предоставим все необходимое для работы и поддержим все здравые начинания!\n\nКонтакты:\n@kseniya_larionova","markup":[{"type":"bold","offset":0,"length":11,"data":""},{"type":"hashtag","offset":12,"length":9,"data":"вакансия"},{"type":"hashtag","offset":22,"length":4,"data":"СПБ"},{"type":"hashtag","offset":27,"length":5,"data":"офис"},{"type":"hashtag","offset":33,"length":9,"data":"фуллтайм"},{"type":"hashtag","offset":43,"length":5,"data":"ruby"},{"type":"hashtag","offset":49,"length":7,"data":"middle"},{"type":"hashtag","offset":57,"length":7,"data":"sinior"},{"type":"hashtag","offset":65,"length":9,"data":"HighLoad"},{"type":"hashtag","offset":75,"length":10,"data":"Umbrellio"},{"type":"hashtag","offset":86,"length":7,"data":"работа"},{"type":"hashtag","offset":94,"length":14,"data":"rubydeveloper"},{"type":"bold","offset":357,"length":16,"data":""},{"type":"bold","offset":397,"length":10,"data":""},{"type":"bold","offset":429,"length":13,"data":""},{"type":"bold","offset":449,"length":18,"data":""},{"type":"bold","offset":628,"length":22,"data":""},{"type":"bold","offset":979,"length":15,"data":""},{"type":"bold","offset":1824,"length":9,"data":""},{"type":"handle","offset":1834,"length":18,"data":"kseniya_larionova"}],"date":"2020-02-25T13:20:34+00:00","link":"tg://resolve?domain=rubyjob&post=624","tags":[{"name":"ruby"},{"name":"ruby-on-rails"},{"name":"orm"},{"name":"activerecord"},{"name":"postgresql"},{"name":"rabbitmq"},{"name":"git"},{"name":"json"}],"cities":[],"allowsRemote":false}},{"node":{"__typename":"Job","id":"236978176-1001352129329","title":"Go разработчик","text":"#вакансия #aleksi #remote #percona #dollars\n \nПривет. Приходите ко мне писать SaaS-часть Percona Monitoring and Management (https://www.percona.com/software/database-tools/percona-monitoring-and-management).\n \nGo, MySQL/MongoDB/PostgreSQL и другие БД, github.com. Kubernetes желателен. Excellent English written and verbal language skills are required (ну или немного хуже, чем excellent). Отбор по Go суровый :) \n\nПолное описание вакансии: https://bit.ly/percona-saas \n\nРабота полностью удалённая (ездить 2 часа не нужно, но холодильник слишком близко). Зарплата в долларах, налоги нужно платить самому (но вести ИП на упрощёнке в России очень просто). Вилка не публична (вакансия размещена на правах непотизма), но выше чем вакансии тут.  \n\nОбщие вопросы можно спросить тут, личные в личке или (лучше) на почту alexey.palazhchenko@percona.com.\n Автор @alek_si","markup":[{"type":"hashtag","offset":0,"length":9,"data":"вакансия"},{"type":"hashtag","offset":10,"length":7,"data":"aleksi"},{"type":"hashtag","offset":18,"length":7,"data":"remote"},{"type":"hashtag","offset":26,"length":8,"data":"percona"},{"type":"hashtag","offset":35,"length":8,"data":"dollars"},{"type":"link","offset":124,"length":81,"data":"https://www.percona.com/software/database-tools/percona-monitoring-and-management"},{"type":"link","offset":252,"length":10,"data":"http://github.com"},{"type":"link","offset":441,"length":27,"data":"https://bit.ly/percona-saas"},{"type":"link","offset":813,"length":31,"data":"mailto:alexey.palazhchenko@percona.com"},{"type":"handle","offset":853,"length":8,"data":"alek_si"}],"date":"2020-02-25T11:49:33+00:00","link":"tg://resolve?domain=gogetajobfeed&post=226","tags":[{"name":"go"},{"name":"mysql"},{"name":"mongodb"},{"name":"postgresql"},{"name":"github"},{"name":"kubernetes"}],"cities":[],"allowsRemote":true}},{"node":{"__typename":"Job","id":"234881024-1001352129329","title":"Go разработчик","text":"#вакансия #go #lead #senior #blockchain #crypto #fulltime #офис #Москва #выставочная\n\nKICKICO https://www.kickico.com/ru/  — это международная платформа для безопасного и легкого сбора средств для ICO, preICO, краудфандинга и краудинвестинга.\n\nМы ищем Senior Go разработчика (с перспективой роста до лида, если это интересно). Сейчас формируется Go команда на проект по разработке крипто кошелька.На данный момень - есть один Go разработчик, нагнанный трафик, хорошие наработки по криптокошельку (одна из первых задач). После релиза кошелька будете заниматься нашим собственным блокчейном для обслуживания экосистемы (токены, смартконтракты, взаиморасчеты и т.д.) До конца 2020 года соберется команда из 4-5 человек. Предстоит много активной разработки, будет интересно - гарантируем:) \n\n\n## Наш стек: Go gRPC ProtoBuf flash rtmp PostgreSQL Redis Tarantool Prometheus Docker  \n\n\n##Задачи:\nактивная бекенд разработка и проектирование архитектуры;\nоценка и декомпозиция задач;\nкод ревью, тесты, документация.\n\nДа, мы - очередной блокчейн и стартап :) Но есть кое что, что выделяет нас на фоне остальных: самая прибыльная на рынке реферальная программа ref.kickex.com; максимально простой процесс связи сотрудников с руководством – вы сможете предложить свои идеи,озвучить потребности и вас услышат. У нас сплоченная команда разработки, есть возможность делится опытом, расти вертикально и при желании перейти из проекта в проект а также получить навыки в работе с БД и высокими нагрузками.\n\n## От вас:\nОпыт на Go от 2х лет;\nУмение писать unit / feature / integration тесты;\nЗнание основных компонентов и принципов работы Docker (Kubernetes);\nЧтение тех. документации;\nОпыт работы с OS Linux.\n\nБудет БОЛЬШИМ преимуществом опыт работы с блокчейн и знание других языков программирования (в идеале - Java или C++)\n\n## Условия:\nЗП 180-250 тыс на руки \nГибкое начало рабочего дня\nОфис класса А в шаговой доступности от метро Выставочная\nМы предоставляем рабочую машину MacBook или DELL (по вашим предпочтениям)\n\nЗа подробностями - @gablb\n Автор @gablb","markup":[{"type":"hashtag","offset":0,"length":9,"data":"вакансия"},{"type":"hashtag","offset":10,"length":3,"data":"go"},{"type":"hashtag","offset":14,"length":5,"data":"lead"},{"type":"hashtag","offset":20,"length":7,"data":"senior"},{"type":"hashtag","offset":28,"length":11,"data":"blockchain"},{"type":"hashtag","offset":40,"length":7,"data":"crypto"},{"type":"hashtag","offset":48,"length":9,"data":"fulltime"},{"type":"hashtag","offset":58,"length":5,"data":"офис"},{"type":"hashtag","offset":64,"length":7,"data":"Москва"},{"type":"hashtag","offset":72,"length":12,"data":"выставочная"},{"type":"link","offset":94,"length":27,"data":"https://www.kickico.com/ru/"},{"type":"hashtag","offset":880,"length":7,"data":"Задачи"},{"type":"link","offset":1150,"length":14,"data":"http://ref.kickex.com"},{"type":"handle","offset":2023,"length":6,"data":"gablb"},{"type":"handle","offset":2037,"length":6,"data":"gablb"}],"date":"2020-02-20T08:37:44+00:00","link":"tg://resolve?domain=gogetajobfeed&post=224","tags":[{"name":"go"},{"name":"flash"},{"name":"postgresql"},{"name":"redis"},{"name":"docker"},{"name":"kubernetes"},{"name":"linux"},{"name":"java"}],"cities":[{"code":"moscow"},{"code":"lida"}],"allowsRemote":false}},{"node":{"__typename":"Job","id":"637534208-1001089319619","title":"Ruby разработчик","text":"#вакансия #бэкенд #офис #RoR #Ruby #Rails #Москва #фултайм\n\nВакансия: Middle Ruby on Rails backend developer\nКомпания: Revo.ru\nЛокация: Москва, м. Тульская\nФормат работы: офис\nЗанятость: полная, иногда можно работать из дома\nЗарплатная вилка: 170 000 - 190 000 руб net по ТК РФ + оплата конференций и ивентов\n\nРево — финтех компания, на рынке РФ сервис работает с 2012 года, с 2018 запустились в Польше. Поначалу разработку для нас вели команды ДжетРокетса и Эврона, а с выходом в окупаемость мы начали собирать внутреннюю разработку. И за последние несколько лет собрали крутую команду внутренней разработки.\n\nИщу 2-х Middle RoR-разработчиков: \n1 - на разработку&тимлидство B2C-командой (без опыта в тимлидстве, вакансия для тех, кто хочет прокачаться в лида);\n2 - на разработку в B2C-команду.\n\nЧто предлагаем:\n• ЗП до 190 000 руб net, оформление по ТК РФ;\n• место в CoreTeam команды B2C-разработки (4 млн B2C пользователей);\n• оплачиваемые конференции и ивенты;\n• иногородним оказываем помощь с переездом;\n• «железо» на выбор;\n• гибкое начало рабочего дня (8.00-11.00), возможность иногда работать удаленно;\n• турники, «шведская стенка» в 10 метрах от офиса;\n• офис в стиле Loft в Даниловской Мануфактуре, рядом метро Тульская;\n• возможность быстрого роста в тимлида команды B2C-разработки (текущий лид переходит в B2B-\nкоманду);\n• чай, кофе, печенье, снеки, фрукты, оборудованная комфортабельная кухня;\n• тусовки каждую последнюю пятницу месяца;\n\nКоманда B2C-разработки: 2 RoR-разработчика, 3 React-разработчика, 5 mobile-разработчиков, qa. \nСмежники: DevOps, qa, продуктологи, финансисты, рисковики, команда интеграции.\n\nЗадачи:\n• возможность работать и учиться на живом крупном международном проекте;\n• в составе продуктовой Scrum-команды участвовать в полном цикле разработки новых фич для конечных пользователей;\n• разработка новых и поддержка работоспособности существующих облачных сервисов;\n• участие в проектировании и разработке архитектур веб приложений;\n• разработка структур баз данных, хранимых процедур, представлений;\n• декомпозиция и оценка задач, выполнение планов 2-х недельных спринтов;\n• соблюдать баланс между скоростью разработки и перфекционизмом;\n• учиться новому и делиться знаниями с коллегами;\n\nТехнологический стек:\n• Ruby on Rails от 5.2 до 6;\n• PostgreSQL/MySQL;\n• Git, Sidekiq/DelayedJob, Airbrake, ActiveAdmin, Devise, Rspec, FactoryGirl;\n• Обмен между бэком (микросервисы) и фронтом по JSON API (на фронте React + Redux);\n • Nice to have (понимание, как работает): Docker, Kubernetes. \n\nНаши ожидания от кандидата:\n• понимание ООП, MVC, шаблонов проектирования;\n• коммерческий опыт разработки от 3-х лет;\n• понимание принципов RESTful API;\n• умение различать business critical и MVP участки проекта;\n• умение оценивать и выдерживать сроки разработки;\n• опыт работы с PostgreSQL, умение составлять сложные запросы, оптимизировать существующие на уровне чистого SQL;\n• опыт работы с системами кеширования;\n• следование стандартам разработки: стайлгайды, тесты, code review;\n\nДополнительным плюсом будет:\n• опыт работы в финтехе или продуктовой разработке;\n• опыт смены языка разработки и/или предметной области;\n• опыт разработки на функциональных языках.\n\nКонтакты: @akssld","markup":[{"type":"hashtag","offset":0,"length":9,"data":"вакансия"},{"type":"hashtag","offset":10,"length":7,"data":"бэкенд"},{"type":"hashtag","offset":18,"length":5,"data":"офис"},{"type":"hashtag","offset":24,"length":4,"data":"RoR"},{"type":"hashtag","offset":29,"length":5,"data":"Ruby"},{"type":"hashtag","offset":35,"length":6,"data":"Rails"},{"type":"hashtag","offset":42,"length":7,"data":"Москва"},{"type":"hashtag","offset":50,"length":8,"data":"фултайм"},{"type":"bold","offset":60,"length":9,"data":""},{"type":"bold","offset":109,"length":9,"data":""},{"type":"link","offset":119,"length":7,"data":"http://Revo.ru"},{"type":"bold","offset":127,"length":9,"data":""},{"type":"bold","offset":156,"length":14,"data":""},{"type":"bold","offset":176,"length":10,"data":""},{"type":"bold","offset":225,"length":17,"data":""},{"type":"bold","offset":310,"length":4,"data":""},{"type":"bold","offset":611,"length":35,"data":""},{"type":"bold","offset":796,"length":16,"data":""},{"type":"bold","offset":1450,"length":23,"data":""},{"type":"bold","offset":1545,"length":9,"data":""},{"type":"bold","offset":1625,"length":8,"data":""},{"type":"bold","offset":2225,"length":22,"data":""},{"type":"bold","offset":2523,"length":28,"data":""},{"type":"bold","offset":3009,"length":29,"data":""},{"type":"bold","offset":3191,"length":9,"data":""},{"type":"handle","offset":3201,"length":7,"data":"akssld"}],"date":"2020-02-04T13:31:23+00:00","link":"tg://resolve?domain=rubyjob&post=608","tags":[{"name":"ruby"},{"name":"ruby-on-rails"},{"name":"dotnet"},{"name":"reactjs"},{"name":"mobile"},{"name":"postgresql"},{"name":"mysql"},{"name":"git"},{"name":"devise"},{"name":"json"},{"name":"redux"},{"name":"docker"},{"name":"kubernetes"},{"name":"sql"},{"name":"react-redux"}],"cities":[{"code":"moscow"},{"code":"lida"},{"code":"nice"}],"allowsRemote":true}}]}}},"context":{}}