{"hash":"f5f6bf98bd95e769321482904cbbd488f77922fd","data":{"records":{"id":"postgresql","name":"postgresql","belongsTo":{"totalCount":141,"pageInfo":{"totalPages":15,"currentPage":2},"edges":[{"node":{"__typename":"Job","id":"26958888960-1001075660570","title":"Php разработчик","text":"#Удаленка #вакансия #php #fulltime #Senior #middle\nФормат работы: Удаленка \nЗанятость: полная\nЗарплатная вилка: от 80 т.р. до 150 т.р.\n\nMobidoo - AdTech компания, занимаемся рекламой в мобильном сегменте интернета.Мы работаем в области анализа и генерации трафика, с данными пользователей. Мы ищем Backend разработчика, который хотел бы реализовывать нетривиальные задачи и работать с продуктами, нацеленными на большие аудитории. (Возможна удаленная работа)\n\nС чем предстоит работать:\n\nРабота над внутренними проектами компании для аналитики и маркетинга;\nРабота над сервисами по интеграции с third-party партнерами (Facebook, Google, Apple и другие);\nРазработка API для мобильных приложений с DAU 500к+\nВзаимодействие с командой мобильной разработки\n\nТребования:\n\nPHP 7.1-7.4, ООП, паттерны\nPostgreSql (понимать плюсы и минусы БД, уметь работать со сложными запросами и выборками данных)\nОпыт работы с Redis/Memcache/Tarantool\nОпыт работы с Silex, Symfony2, Yii, Laravel\nИнициативность.\n\nПриветствуется:\n\nСильно приветствуется если на предыдущем месте работы занимались геймдевом, BI, трекерами, системами аналитики трафика, а так же имеется опыт работы с google и facebook api.\n\nНазвание компании: Mobidoo http://mobidoo.io\nКонтакты: @ohmytraff","markup":[{"type":"hashtag","offset":0,"length":9,"data":"Удаленка"},{"type":"hashtag","offset":10,"length":9,"data":"вакансия"},{"type":"hashtag","offset":20,"length":4,"data":"php"},{"type":"hashtag","offset":25,"length":9,"data":"fulltime"},{"type":"hashtag","offset":35,"length":7,"data":"Senior"},{"type":"hashtag","offset":43,"length":7,"data":"middle"},{"type":"link","offset":1209,"length":17,"data":"http://mobidoo.io"},{"type":"handle","offset":1237,"length":10,"data":"ohmytraff"}],"date":"2020-07-02T12:17:47+00:00","link":"tg://resolve?domain=php_jobs&post=25710","tags":[{"name":"php"},{"name":"postgresql"},{"name":"redis"},{"name":"symfony"},{"name":"yii"},{"name":"laravel"}],"cities":[],"allowsRemote":true}},{"node":{"__typename":"Job","id":"17315135488-1001110946746","title":"Js разработчик","text":"#вакансия #разработчик #senior #NodeJs #фуллтайм #Иннополис\n\nГород и адрес офиса: РТ, г.Иннополис, ул. Университетская 7.\nФормат работы: офис.\nЗанятость: полная.\n\n💸ЗП: от 80 до 180 тыс.руб. (на руки) (обсуждаемо)\n\nОписание вакансии: \n\nКомпания Zen.Car\n\n⭐️Стек: Node.Js, Nestjs, TypeScript,  TypeOrm, GraphQL, PostgreSQL, Redis.\n\n🔹Требования:\n- Опыт в WEB-программировании от 3х лет;\n- Знания ES6/ES7 на уровне не ниже middle;\n- Опыт работы с реляционными БД;\n- Знание основ систем контроля версий (Git);\n- Умение работать в команде и писать код \n\n💥Будет плюсом:\n- опыт работы с Express.js, Nestjs,TypeScript, TypeOrm, GraphQL ;\n- опыт создания высоконагруженных проектов;\n- опыт создания собственных проектов;\n- TTD.\n   \nОбязанности:\n- Разработка нового функционала в существующем продукте;\n- Улучшение и оптимизация текущего кода;\n- Взаимодействие с командой frontend-разработки.\n\n🔸Условия:\n* комфортный офис в г.Иннополис;\n* 3-х разовое питание в офисе за счет компании;\n* помощь в получении арендного жилья в городе Иннополис;\n* скидка на фитнес.\n \n📩Контакты: \nэл.п.: anna@sayhire.agency; \nтелеграм: @anika0801.\n\n—\n\n👉 Обсуждение вакансии в чате @javascript_jobs","markup":[{"type":"hashtag","offset":0,"length":9,"data":"вакансия"},{"type":"hashtag","offset":10,"length":12,"data":"разработчик"},{"type":"hashtag","offset":23,"length":7,"data":"senior"},{"type":"hashtag","offset":31,"length":7,"data":"NodeJs"},{"type":"hashtag","offset":39,"length":9,"data":"фуллтайм"},{"type":"hashtag","offset":49,"length":10,"data":"Иннополис"},{"type":"link","offset":1076,"length":19,"data":"mailto:anna@sayhire.agency"},{"type":"handle","offset":1108,"length":10,"data":"anika0801"},{"type":"handle","offset":1154,"length":16,"data":"javascript_jobs"}],"date":"2020-07-02T10:41:33+00:00","link":"tg://resolve?domain=javascript_jobs_feed&post=16513","tags":[{"name":"javascript"},{"name":"nodejs"},{"name":"typescript"},{"name":"graphql"},{"name":"postgresql"},{"name":"redis"},{"name":"web"},{"name":"git"},{"name":"express"}],"cities":[],"allowsRemote":false}},{"node":{"__typename":"Job","id":"17311989760-1001110946746","title":"Js разработчик","text":"#вакансия #екб #react #fulltime #Fullstack #NodeJS #middle\n\nПозиция: FULLSTACK разработчик (node.js, react)\nКомпания: SoftMediaLab \nЛокация: Екатеринбург \nФормат работы: #удаленка\nЗанятость: #фултайм\nЗП 110 00 - 140 000 рублей на руки (пересмотр з/п раз в год)\n\nSoftMediaLab —основана в 2015 году в городе Екатеринбурге. Основатели компании - разработчики, поэтому никакой бюрократии и странных решений, процессы максимально простые и понятные, среда дружественная. На данный момент более 50 выполненных проектов в России, Канаде, Европе, Израиле, Сингапуре и США.\n\nТребования:\n- Обязателен опыт работы с Node.js и React (не менее 2х лет)\n- Опыт работы с базой данных PostgreSQL\n- Опыт работы с системами контроля версий.\n- Владение английским языком на уровне чтения документации. Плюсом будет владение разговорным английским для международных проектов.\n- Опыт написания unit-тестов.\n\nСтек: node.js, react, typescript, express.js, socket.io, PostgreSQL , bootstrap, material-ui, JQuery, sass, less\n\nКонтакты: @Ekaterina_Mitroshkina или @iamanastasie","markup":[{"type":"hashtag","offset":0,"length":9,"data":"вакансия"},{"type":"hashtag","offset":10,"length":4,"data":"екб"},{"type":"hashtag","offset":15,"length":6,"data":"react"},{"type":"hashtag","offset":22,"length":9,"data":"fulltime"},{"type":"hashtag","offset":32,"length":10,"data":"Fullstack"},{"type":"hashtag","offset":43,"length":7,"data":"NodeJS"},{"type":"hashtag","offset":51,"length":7,"data":"middle"},{"type":"hashtag","offset":170,"length":9,"data":"удаленка"},{"type":"hashtag","offset":191,"length":8,"data":"фултайм"},{"type":"link","offset":933,"length":9,"data":"http://socket.io"},{"type":"handle","offset":1011,"length":22,"data":"Ekaterina_Mitroshkina"},{"type":"handle","offset":1038,"length":13,"data":"iamanastasie"}],"date":"2020-07-02T09:21:42+00:00","link":"tg://resolve?domain=javascript_jobs_feed&post=16510","tags":[{"name":"javascript"},{"name":"reactjs"},{"name":"nodejs"},{"name":"postgresql"},{"name":"typescript"},{"name":"express"},{"name":"bootstrap"},{"name":"jquery"},{"name":"sass"}],"cities":[],"allowsRemote":true}},{"node":{"__typename":"Job","id":"1772093440-1001091028994","title":"Java разработчик","text":"#вакансия #backend #java #java8 #spring #офис #remote #Мск #Пермь #senior #middle \n\nкомпания: КА: http://luckyhunter.io\nЗ/п: 120 000 - 200 000 рублей на руки (+премии) \nГород и адрес офиса: \nг. Москва (Павелецкая),\nг. Пермь\nФормат работы: офис или удаленка \nЗанятость: полная, fulltime\n\n*У компании нет формальной возможности к трудоустройству иностранных граждан.\n\n🚀Ищем backend разработчиков уровня Middle/Middle+ в крупную продуктовую компанию с возможностью удаленной работы!\n\nРебята разрабатывают интеллектуальную low-code платформу для создания бизнес-приложений и информационных систем в области управления рисками и оптимизации бизнес-процессов любой сложности. Компания не разрабатывает решения для одного заказчика или «под проект», они продвигают собственную продуктовую разработку и реализуют весь новый функционал в удобных инструментах, которые сразу же становятся доступными для всех заказчиков.\n\n❇️Всего в компании трудится около 200 человек, разработчики поделены на 3 группы разработки и работают в scrum командах по 5-6 человек. Коллеги ценят инициативность и активный вклад в общее дело, также поддерживают разумные инициативы по внедрению новых технологий и подходов в разработку.\n\nСтэк технологий: \nJava 8, Spring, React, TypeScript, Webpack, Maven, MobX, HighchartsJS, Gitlab. \n\n✅Какой опыт необходим: \n- опыт коммерческой разработки на Java от 2 лет и больше; \n- опыт работы с БД (у ребят их 3: PostgreSQL, MySQL, Oracle; \n- опыт работы в финтехе будет плюсом☺️ \n\n✅Какие бонусы и перспективы получите вы: \n- возможность работать удаленно или в офисе (Москва, Пермь);\n- официальное оформление и полностью белую зп, которая зависит от ваших компетенций и ожиданий;\n- гибкое начало рабочего дня, отсутствие бюрократии;\n- работу в молодой и развивающейся команде, которая разрабатывает быстроразвивающийся, востребованный продукт;\n- релокационный пакет для переезжающих из других городов.\n\nКонтакты:\ne-mail: daria@luckyhunter.io\ntelegram: @prudentdaria\nБуду рада ответить на все вопросы и комментарии по вакансии 😊 \n\n\n\n\n#вакансия #backend #java #Java8 #senior  \nЛокация: Нижний-Новгород (есть хороший релокационный пакет)\nЗанятость: полная, гибкое начало дня\n*до окончания пандемии работа удаленная (и трудоустройство) далее работа в офисе\nЗП: до 220 000 NET \n\n🔹 Крупная немецкая компания ищет Java разработчиков senior уровня.\nКомпания более 20 лет, является лидером рынка в Европе поставляющем инновационные IT-решения по управлению кредитными рисками и по процессному консультированию. Кроме того в компании есть направления по разработке ПО для анализа финансовой отчетности и сегментации рынка. Продуктом компании пользуется многие известные бренды: Toshiba, Volvo, Росбанк и более 290 других компаний по всему миру.\n\n🔹 Требования:\n- коммерческий опыт разработки на Java от 3-ех лет;\n- знания Java 8 SE;\n- уровень английского языка, позволяющий вести диалог с коллегами из Германии (главное- не бояться говорить ☺️.). Это обязательное требование\n\n🔹 Условия:\n- Расширенный релокационный пакет;\n- Оформление официальное, белая заработная плата и премиальная система;\n- ДМС;\n- Компенсация обучения английскому языку;\n-Широкие возможности профессионального и карьерного роста и разные другие плюшки и бонусы.\n\nКонтакты:\ne-mail: daria@luckyhunter.io\ntelegram: @prudentdaria\nПишите, буду рада ответить на все возможные вопросы здесь или по почте :)","markup":[{"type":"hashtag","offset":0,"length":9,"data":"вакансия"},{"type":"hashtag","offset":10,"length":8,"data":"backend"},{"type":"hashtag","offset":19,"length":5,"data":"java"},{"type":"hashtag","offset":25,"length":6,"data":"java8"},{"type":"hashtag","offset":32,"length":7,"data":"spring"},{"type":"hashtag","offset":40,"length":5,"data":"офис"},{"type":"hashtag","offset":46,"length":7,"data":"remote"},{"type":"hashtag","offset":54,"length":4,"data":"Мск"},{"type":"hashtag","offset":59,"length":6,"data":"Пермь"},{"type":"hashtag","offset":66,"length":7,"data":"senior"},{"type":"hashtag","offset":74,"length":7,"data":"middle"},{"type":"link","offset":98,"length":21,"data":"http://luckyhunter.io"},{"type":"link","offset":1929,"length":20,"data":"mailto:daria@luckyhunter.io"},{"type":"handle","offset":1960,"length":13,"data":"prudentdaria"},{"type":"hashtag","offset":2042,"length":9,"data":"вакансия"},{"type":"hashtag","offset":2052,"length":8,"data":"backend"},{"type":"hashtag","offset":2061,"length":5,"data":"java"},{"type":"hashtag","offset":2067,"length":6,"data":"Java8"},{"type":"hashtag","offset":2074,"length":7,"data":"senior"},{"type":"link","offset":3254,"length":20,"data":"mailto:daria@luckyhunter.io"},{"type":"handle","offset":3285,"length":13,"data":"prudentdaria"}],"date":"2020-07-02T09:10:30+00:00","link":"tg://resolve?domain=jvmjobs&post=1690","tags":[{"name":"java"},{"name":"jvm"},{"name":"spring"},{"name":"reactjs"},{"name":"typescript"},{"name":"webpack"},{"name":"maven"},{"name":"gitlab"},{"name":"postgresql"},{"name":"mysql"},{"name":"oracle"},{"name":"dotnet"}],"cities":[{"code":"perm"},{"code":"moscow"},{"code":"nizhny-novgorod"}],"allowsRemote":true}},{"node":{"__typename":"Job","id":"104180219904-1001089317451","title":"Qa engineer","text":"#Москва  #QA  #вакансия #офис\nКомпания: Start.ru\n\nМы ищем коллег, которые смогут влиться в нашу команду и вместе с нами развивать и совершенствовать наш сервис!\nУ Вас есть возможность стать частью команды, развивающей первую в Восточной Европе студию с собственным международным VOD сервисом.\nВ данный момент мы усиляем нашу команду по тестированию и в поисках позиций Backend QA Engineer и QA Automation Engineer (python)\n\n———————————\nДолжность: Backend QA Engineer\nЗарплатная вилка: От 80.р. до 120т.р. по результатам собеседования\n\nКакие задачи вы будете решать:\n- Прогон описаных кейсов в TestRail и документация найденых дефектов;\n- Тестирование API (программного интерфейса платформы);\n- Разработка тестовых сценариев;\n- Взаимодействие с разработчиками и сопровождение дефектов до полного их решения;\n- Отладка и сбор логов в процессе воспроизведения проблем\n- Проведение регрессионного тестирования\n\nЧего мы хотим:\n- Вас не пугает работа с командной строкой чаще чем работа с графическим интерфейсом\n- Работа с chromedev tools и командной строкой (bash);\n- Знание и понимания клиент-серверной архитектуры приложений;\n- Понимание принципов работы веб-приложений;\n- Умение грамотно составлять свои мысли в предложения и описывать дефекты, чтобы понятно было разработчикам;\n- Навыки работы с технической документацией, анализ и вычленение требований;\n- Работали с программами-снифферами и проксями траффика (charles/wireshark/fiddler/mitmproxy etc)\n\nБудет плюсом:\n- Если знаете python на уровне, достаточном для автоматизации и сможете прочитать код который на нем написан\n- Знаете что такое DOM-дерево, локаторы и селекторы в контексте веб-приложения\n\n—————————\nДолжность: QA Automation Engineer\nЗарплатная вилка: От 130.р. до 170т.р. по результатам собеседования\n\nУ нас:\nВ нашем проекте есть автоматизация тестирования как API, так и WEB UI. \nНаш стек: Python3, PyTest, Requests, Selenium WebDriver, Selenoid, DB clients (MongoDB, PostgreSQL), JSON validation (jsonschema), TestRail API, Telegram API, GitLab CI. \nПомимо автотестов мы разрабатываем проект нагрузочного тестирования на Locust.\n\nВаши задачи:\n- Расширение покрытия автотестов API, WEB UI\n- Поддержка автотестов в актуальном состоянии\n- Анализ прохождения тестов с возможным заведением багов в Jira\n- Ревью кода\n- Ведение тестовой - документации\n- Написание сценариев нагрузочного тестирования\n\nТребования:\n- Хорошее знание теории тестирования\n- Опыт автоматизированного тестирования от 2х лет\n- Знание Python3, PyTest\n- Навыки написания и использования тестовой документации\n- Умение писать простые запросы на SQL и в MongoDB\n- Навыки работы с Git\n- Обсуждение проблем приложения с разработчиками\n\nБудет плюсом:\n- Опыт написания архитектуры проекта автотестов с нуля\n- Работа с Docker, Docker Compose\n- Опыт работы с Telegram API\n- Опыт описания JSON схем для валидации ответов API\n- Базовые знания в Linux\n\nОт нас:\n- На данный момент условия сотрудничества удаленные, но при нормализации ситуации мы выйдем в офис\n- Офис в районе Хамовники (территориально м.Киевская, м. Спортивная в 20.мин ходьбы)\n- График работы: 5/2 начинаем с 9  до 11 (в целом гибкий - главное результат);\n- Оформление в соответствии с ТК РФ (белая зарплата, отпускные, больничные);\n- Все возможности для прокачки имеющихся скиллов и получения новых;\n- Драйвовая и высокопрофессиональная команда единомышленников;\n- Возможность стать частью динамично развивающегося видеосервиса.\n\n\nВопросы и отклики по вакансии писать в tlgrm: @unambo OR emailto: v.selyanin@start.ru","markup":[{"type":"hashtag","offset":0,"length":7,"data":"Москва"},{"type":"hashtag","offset":9,"length":3,"data":"QA"},{"type":"hashtag","offset":14,"length":9,"data":"вакансия"},{"type":"hashtag","offset":24,"length":5,"data":"офис"},{"type":"link","offset":40,"length":8,"data":"http://Start.ru"},{"type":"handle","offset":3471,"length":7,"data":"unambo"},{"type":"link","offset":3491,"length":19,"data":"mailto:v.selyanin@start.ru"}],"date":"2020-07-02T07:33:55+00:00","link":"tg://resolve?domain=qa_jobs&post=99354","tags":[{"name":"qa"},{"name":"python"},{"name":"bash"},{"name":"web"},{"name":"selenium"},{"name":"mongodb"},{"name":"postgresql"},{"name":"json"},{"name":"gitlab"},{"name":"sql"},{"name":"git"},{"name":"docker"},{"name":"linux"},{"name":"docker-compose"}],"cities":[{"code":"moscow"},{"code":"kiev"}],"allowsRemote":false}},{"node":{"__typename":"Job","id":"2272264192-1001134745498","title":"Devops инженер","text":"Приветствую! \n\nУ нас ведется подбор на роль  “Devops” в Сбербанк-Технологии, в проект Школьная цифровая платформа.  \n\nОбразовательная цифровая платформа - SaaS решение для обучения, позволяющее автоматизировать\nразличные виды образовательной деятельности. Гибкость платформы позволяет применить ее в\nразличных областях обучения на всех этапах образовательного процесса. \n\nТребования:\n• Опыт администирования Linux от 3-х лет (поддержка prod)\n• Автоматизация рутинных задач (bash, python)\n• Опыт работы с Ansible\n• Опыт разворачивания инструментов мониторинга: Prometheus, Grafana, Zabbix или аналоги\n• Опыт настройки CI/CD (Jenkins, Gitlab, Bitbucket)\n• Контейнеризация (docker) и оркестрация (Kubernetes)\n• ELK\n• Требуется понимание основ сетей, работы стека TCP/IP\n\nЖелательно:\n• опыт работы с Сeph.\n• опыт администрирования PostgreSQL, MongoDB\n\nУсловия работы:\n• работа в одной из крупнейших ИТ организаций в России;\n• команда профессионалов, готовых поддержать ваши инициативы;\n• мощное железо, дополнительные мониторы и всё, что нужно для продуктивной работы;\n• возможность работы с новыми технологиями;\n• ДМС и дополнительные \"плюшки\" от организации;\n• прозрачная система бонусов и премий, достойная зарплата (размер обсудим на\nсобеседовании);\n• яркая и насыщенная корпоративная жизнь.\n\n🧗‍♂График работы обговаривается и full-time\n\n 🌁Место работы город Москва. \nМетро Савеловская.\n\n💰Доход обговаривается индивидуально после   интервью. Подбор ведется на различные уровни. \nДоходная вилка от 170к до 230к gross + годовая премия!\n\n#вакансия #devops \nЕсли интересно🤔, пишите 🤗\n@KristiSberHR\n\n—\n\n👉 Обсуждение вакансии в чате @devops_jobs","markup":[{"type":"hashtag","offset":1538,"length":9,"data":"вакансия"},{"type":"hashtag","offset":1548,"length":7,"data":"devops"},{"type":"handle","offset":1585,"length":13,"data":"KristiSberHR"},{"type":"handle","offset":1633,"length":12,"data":"devops_jobs"}],"date":"2020-07-02T06:22:12+00:00","link":"tg://resolve?domain=devops_jobs_feed&post=2167","tags":[{"name":"linux"},{"name":"bash"},{"name":"python"},{"name":"ansible"},{"name":"jenkins"},{"name":"gitlab"},{"name":"docker"},{"name":"kubernetes"},{"name":"postgresql"},{"name":"mongodb"}],"cities":[{"code":"moscow"}],"allowsRemote":false}},{"node":{"__typename":"Job","id":"26927431680-1001075660570","title":"Php разработчик","text":"#php #вакансия #удалёнка \n\nPHP Engineer\nФормат работы: #fulltime #remote\nЗарплата: $ 40 000 - 50 000 в год\nГород: удаленно\n\nНебольшая, но быстро растущая студия разработки из Лондона ищет PHP-ниндзю. На нашем счету много успешных проектов, большая часть которых — британские. \n\nТребования:\n— Опыт в разработке не менее 3 лет;\n— Знание PHP как родного,\n— Знание SQL, особенно MySQL или PostgreSQL \n— Понимание HTML/CSS;\n— Быть знакомым с PHP MVC Framework, JavaScript (and jQuery);\n— Опыт в Version Control (Git);\n— Опыт с Bash and Unix (обычно мы используем Ubuntu 16.04) \n— Уровень английского С2;\n— Опыт с алгоритмами приветствуется;\n— Большим плюсом будет знание Laravel (или хотя бы Symfony), фреймворки CakePHP, Zend, CodeIgniter тоже ок, но все равно потребуется освоить Laravel.\n\nЧтобы откликнуться, необходимо пройти короткий отбор по ссылке https://6nomads.com/ (обязательное условие найма🤷‍♀️)\n\nКонтакт для связи @temnik_sofya","markup":[{"type":"hashtag","offset":0,"length":4,"data":"php"},{"type":"hashtag","offset":5,"length":9,"data":"вакансия"},{"type":"hashtag","offset":15,"length":9,"data":"удалёнка"},{"type":"hashtag","offset":55,"length":9,"data":"fulltime"},{"type":"hashtag","offset":65,"length":7,"data":"remote"},{"type":"link","offset":85,"length":15,"data":"tel:40 000 - 50 000"},{"type":"link","offset":850,"length":20,"data":"https://6nomads.com/"},{"type":"handle","offset":924,"length":13,"data":"temnik_sofya"}],"date":"2020-07-01T17:36:31+00:00","link":"tg://resolve?domain=php_jobs&post=25680","tags":[{"name":"php"},{"name":"sql"},{"name":"mysql"},{"name":"postgresql"},{"name":"html"},{"name":"css"},{"name":"javascript"},{"name":"jquery"},{"name":"git"},{"name":"bash"},{"name":"unix"},{"name":"ubuntu"},{"name":"laravel"},{"name":"symfony"},{"name":"cakephp"},{"name":"zend-framework"},{"name":"codeigniter"}],"cities":[],"allowsRemote":true}},{"node":{"__typename":"Job","id":"26920091648-1001075660570","title":"Php developer","text":"#вакансия #удаленно #php\n\nСтабильная растущая IT компания (не стартап) ищет в свою ламповую команду Middle/Senior Backend PHP Developer (или Fullstack с уклоном в Backend) на fulltime.\n\nКлючевые навыки:\n– SQL (PostgreSQL),\n– PHP 7,\n– Symfony 2,\n– умение ориентироваться в базах данных и их проектировании,\n– умение преобразовывать техническое задание в план работ.\n\nБудет плюсом:\n– MySQL,\n– MSSQL,\n– PHP 5,\n– опыт оценки временных затрат на выполнение задач.\n\nСтек технологий:\n– PHP 7.2,\n– PostgreSQL,\n– JS,\n– Bootstrap,\n– Symfony 2.\n\nОт нас:\n– удалённая работа,\n– свободный график,\n– гибкость в профессиональном росте,\n– ламповое общение внутри команды,\n– возможность переключения между проектами,\n– сложные и интересные задачи,\n– поддержка в развитии профессиональных навыков и обучении перспективным для проектов технологиям,\n– возможность влиять на стек технологий проектов,\n– зарплатная вилка в зависимости от прохождения собеседования $12 - $15 в час,\n– полная занятость.\n\nКратко о нас:\n– компания с выстроенным процессом управления, коммуникацией и delivery,\n– специализация: бизнес анализ, развитие, модернизация и поддержка авторских приложений,\n– мы более 10 лет на рынке IT США и Европы,\n– проекты с надёжными заказчиками,\n– русскоязычная команда, которая любит своё дело,\n– основное направление работы – развитие, модернизация и поддержка авторского web-приложения.\n\nЖдём твоего резюме на career@tomita.pro!","markup":[{"type":"hashtag","offset":0,"length":9,"data":"вакансия"},{"type":"hashtag","offset":10,"length":9,"data":"удаленно"},{"type":"hashtag","offset":20,"length":4,"data":"php"},{"type":"link","offset":1401,"length":17,"data":"mailto:career@tomita.pro"}],"date":"2020-07-01T15:47:46+00:00","link":"tg://resolve?domain=php_jobs&post=25673","tags":[{"name":"php"},{"name":"sql"},{"name":"postgresql"},{"name":"symfony"},{"name":"mysql"},{"name":"sql-server"},{"name":"bootstrap"},{"name":"web"}],"cities":[],"allowsRemote":true}},{"node":{"__typename":"Job","id":"104125693952-1001089317451","title":"Qa engineer","text":"#вакансия #QA #Xельсинки #fulltime #relocation \n\nWho? Senior Software Engineer in Test \nWhere? Toughbyte (recruitment agency), Helsinki, Finland 🇫🇮\nSalary: up to 5000 EUR gross/month\n\nOur client is a cloud technology startup launched in January 2016, developing Database-as-a-Service. They run and manage Open Source database and backend messaging systems for the business customers around the world. They take the pain away from running databases and allow the customers to focus on building their own products without worrying about database management. \nRight now the company is looking for a self-driven Senior Software Engineer in Testing to join their team in Helsinki. You’ll be part of a team working on the cloud platform, further extending the test automation and test infrastructure and focusing on more complicated scenarios, like performance testing and upgrade tests. Depending on your interests, you can also take ownership not just of the test automation vision but also of the overall quality and risk levels of the service.\n\n🔹Must-have skills:\n•Strong background in software engineering and test automation\n•Excellent development skills in Python (pytest)\n•Keen interest in test automation\n•Experience on using Linux in development\n•Fluency in English, verbal and written\n\n🔹Nice-to-have skills:\n•Hands-on experience with some of the following systems: Apache Kafka, Apache Cassandra, PostgreSQL, MySQL and Elasticsearch\n•Experience and interest on infrastructure as code\n•Good understanding of security (software, networking)\n\nInterested? 🔹Apply here: https://www.toughbyte.com/positions/finland/helsinki/senior-software-engineer-in-testing-803\nor alina.tagirova@toughbyte.com","markup":[{"type":"hashtag","offset":0,"length":9,"data":"вакансия"},{"type":"hashtag","offset":10,"length":3,"data":"QA"},{"type":"hashtag","offset":14,"length":10,"data":"Xельсинки"},{"type":"hashtag","offset":25,"length":9,"data":"fulltime"},{"type":"hashtag","offset":35,"length":11,"data":"relocation"},{"type":"link","offset":1575,"length":92,"data":"https://www.toughbyte.com/positions/finland/helsinki/senior-software-engineer-in-testing-803"},{"type":"link","offset":1671,"length":28,"data":"mailto:alina.tagirova@toughbyte.com"}],"date":"2020-07-01T10:39:30+00:00","link":"tg://resolve?domain=qa_jobs&post=99302","tags":[{"name":"qa"},{"name":"cloud"},{"name":"python"},{"name":"linux"},{"name":"apache"},{"name":"kafka"},{"name":"cassandra"},{"name":"postgresql"},{"name":"mysql"},{"name":"elasticsearch"}],"cities":[{"code":"helsinki"},{"code":"nice"}],"allowsRemote":false}},{"node":{"__typename":"Job","id":"104108916736-1001089317451","title":"Qa engineer","text":"#вакансия #QA #тестировщик #middle #senior #москва #офис #fulltime\n\nКомпания: СберТех\nЛокация: г. Москва\nЗ/п: 130-250k\n \nСберТех приглашает в команду QA Engineer. Так же того, кто желает обучаться автоматизации на JS/CodeceptJS или уже состоявшегося автоматизатора\n\n💻 Делаем образовательную цифровую платформу - SaaS решение для персонализированного обучения в школах, IT Bootcamp Сбербанка. Сейчас масштабируемся и выходим на университеты\n\nСтек проекта:\nBack: Java 8+, Spring 5, SpringBoot 2, PostgreSQL, MongoDB, Flyway\n﻿Front: ReactJS, Typescript, Apollo-client, Styled-Components\nAutomationQA: API - Java/TestNG; UI - JavaScript/CodeceptJS\nInfracture: Jenkins, Allure, Bitbucket, Jira, EFK, Grafana\nEnvironment: Docker, Kubernetes, Ceph\n\nЧем предстоит заниматься:\n🔹проходить регресс текущего функционала\n🔹разрабатывать кейсы параллельно разработке нового функционала\n🔹проводить анализ требований для новых фич и давать свое заключение\n🔹участвовать в расширении тестовой модели\n🔹автоматизировать регресс, поддерживать старый функционал, писать тесты для новых фич\n\nОжидания от квалификации:\n🔹умение работать с DevTools, различать Get & Post-запросы\n🔹знание видов тестирования, умение отличить функциональное тестирование от нефункционального, понимание зачем и когда нужен regress, end-2-end и smoke testing\n🔹умение/желание тестировать UI\n🔹опыт работы с технической документацией, анализом макетов и составлением тестовой документации \n🔹умение чётко и внятно составлять баг-репорты в таск-трекере (у нас Jira)\n🔹умение писать понятные для других тест-кейсы без лишней информации\n🔹опыт взаимодействия с Rest-API\n\nПлюсом будет:\n🔹если слова cross platform testing & cross device testing не вызывают ступора, на примете есть полезные applications для тестирования UI\n🔹если уже ступил на путь познания JavaScript или Java\n🔹шапочное или личное знакомство с GraphQL\n🔹опыт работы в Agile-команде\n\nПредлагаем:\n✔достойную зарплату (оклад + высокая годовая премия) \n✔профессиональное развитие: конференции, митапы, обучение в Корпоративном университете Сбербанка\n✔ДМС, страховку от несчастных случаев, льготные условия ипотеки, скидки от компаний-партнеров, бесплатный тренажёрный зал\n✔офис А класса в БЦ «Северное Сияние» (5 мин от м. Савеловская), удалёнка до конца июля\n\nЕсли интересно - буду рада обсудить, вот мои контакты:\n📲 @karprokar\n📩 KVProlomova@sberbank.ru","markup":[{"type":"hashtag","offset":0,"length":9,"data":"вакансия"},{"type":"hashtag","offset":10,"length":3,"data":"QA"},{"type":"hashtag","offset":14,"length":12,"data":"тестировщик"},{"type":"hashtag","offset":27,"length":7,"data":"middle"},{"type":"hashtag","offset":35,"length":7,"data":"senior"},{"type":"hashtag","offset":43,"length":7,"data":"москва"},{"type":"hashtag","offset":51,"length":5,"data":"офис"},{"type":"hashtag","offset":57,"length":9,"data":"fulltime"},{"type":"bold","offset":68,"length":8,"data":""},{"type":"bold","offset":86,"length":7,"data":""},{"type":"bold","offset":105,"length":3,"data":""},{"type":"bold","offset":121,"length":40,"data":""},{"type":"bold","offset":442,"length":12,"data":""},{"type":"bold","offset":743,"length":24,"data":""},{"type":"bold","offset":1074,"length":24,"data":""},{"type":"bold","offset":1627,"length":12,"data":""},{"type":"bold","offset":1908,"length":10,"data":""},{"type":"handle","offset":2340,"length":10,"data":"karprokar"},{"type":"link","offset":2354,"length":23,"data":"mailto:KVProlomova@sberbank.ru"}],"date":"2020-06-30T20:08:43+00:00","link":"tg://resolve?domain=qa_jobs&post=99286","tags":[{"name":"qa"},{"name":"java"},{"name":"spring"},{"name":"postgresql"},{"name":"mongodb"},{"name":"reactjs"},{"name":"typescript"},{"name":"javascript"},{"name":"jenkins"},{"name":"docker"},{"name":"kubernetes"},{"name":"rest"},{"name":"graphql"}],"cities":[{"code":"moscow"}],"allowsRemote":true}}]}}},"context":{}}