{"hash":"f5f6bf98bd95e769321482904cbbd488f77922fd","data":{"records":{"id":"dotnet","name":"dotnet","belongsTo":{"totalCount":172,"pageInfo":{"totalPages":18,"currentPage":11},"edges":[{"node":{"__typename":"Job","id":"1716518912-1001091028994","title":"Java программист","text":"#Java  #middle #fulltime #удаленно\nДля московской  компании по разработке банковского ПО ищу middle программиста Java.\nЕсть задачи по созданию новых (больших и интересных) информационных систем, так и задачи по доработке и поддержке существующих. Разработка приложений с использованием микросервисной архитектуры.\nТребования: Java 8, Spring, Hibernate, JMS, REST, SQL\nУсловия обсуждаются в зависимости от опыта: 120 000-150 000 руб. net («белая» з/п).\nРабота постоянная, удаленная с оформлением в штат компании. Готовность начинать рабочий день до 11.00 (Мск).\nКонтакты: @recrut911 или rt@connect-personal.ru","markup":[{"type":"hashtag","offset":0,"length":5,"data":"Java"},{"type":"hashtag","offset":7,"length":7,"data":"middle"},{"type":"hashtag","offset":15,"length":9,"data":"fulltime"},{"type":"hashtag","offset":25,"length":9,"data":"удаленно"},{"type":"handle","offset":571,"length":10,"data":"recrut911"},{"type":"link","offset":586,"length":22,"data":"mailto:rt@connect-personal.ru"}],"date":"2020-06-22T10:41:25+00:00","link":"tg://resolve?domain=jvmjobs&post=1637","tags":[{"name":"java"},{"name":"jvm"},{"name":"spring"},{"name":"hibernate"},{"name":"rest"},{"name":"sql"},{"name":"dotnet"}],"cities":[],"allowsRemote":true}},{"node":{"__typename":"Job","id":"26526875648-1001075660570","title":"Php разработчик","text":"#вакансия #backend #php #remote \nГород и адрес офиса: Москва (м.Курская)\nФормат работы: удаленно/офис \nЗанятость: полная\nЗарплатная вилка: от 120к до 160к net\n\nПривет я ищу php разработчика. Проект -- платформа для чатботов и воронок продаж. Сейчас у платформы более 1000 клиентов, растет на 20% ежемесячно, в следующем году планируется запуск на глобальном рынке, срочно нужно усиление 🙂 \n\nЗадачи:\n- разработка backend на php;\n- разработка новых фич;\n\nТребования:\n- опыт разработки на php от 2х лет;\n- опыт работы с SQL;\n- опыт с брокерами очередей, например RabbitMQ.\n\nБудет плюсом:\n- знание node.js и других языков программирования;\n- noSQL (у нас Cassandra).\n\nУсловия:\n- Белая з/п;\n- Офис в Москве (м.Курская), возможность 100% времни работать удаленно;\n- Крутой продукт, которым ежедневно пользуются тысячи людей;\n- Классная команда;\n\nКонтакты: @nat_kirisova","markup":[{"type":"hashtag","offset":0,"length":9,"data":"вакансия"},{"type":"hashtag","offset":10,"length":8,"data":"backend"},{"type":"hashtag","offset":19,"length":4,"data":"php"},{"type":"hashtag","offset":24,"length":7,"data":"remote"},{"type":"handle","offset":851,"length":13,"data":"nat_kirisova"}],"date":"2020-06-22T09:37:29+00:00","link":"tg://resolve?domain=php_jobs&post=25298","tags":[{"name":"php"},{"name":"dotnet"},{"name":"sql"},{"name":"rabbitmq"},{"name":"nodejs"},{"name":"nosql"},{"name":"cassandra"}],"cities":[{"code":"moscow"}],"allowsRemote":true}},{"node":{"__typename":"Job","id":"1715470336-1001091028994","title":"Java разработчик","text":"#middle #удаленка #Java #Spring #senior #backend #developer\nЛокация: Cанкт-Петербург\nЗанятость: полная, гибкое начало дня\n*до окончания пандемии работа удаленная, далее работа в офисе\nЗ/п: 130 – 200 k net.\nКомпания: CSI\nКонтакты: @Danny_Ushakova\nМы продуктовая компания CSI, создающая решения для автоматизации торговых сетей.  \nМы ищем крутых разработчиков, ответственных за собственный код, любящих тесты и понимающих важность unit тестов. Разработчиков, которые с радостью забывают про бюрократию, и разделение труда, которые умеют защищать собственные решения и хотят сделать этот мир лучше!  \nJAVA developer (высоконагруженные сервисы лояльности)  \nКлючевой задачей будет разработка нового и доработка нашего продукта -  существующего функционала системы Set Retail 10. \nСтек:\n• Java от 2 лет.\n• Spring (Web, Data, Cloud), Kafka.\n• Опыт разработки микросервисов.\n• Опыт проектирования базы данных.\n• SQL (желательно PostgreSQL), JDBC, Hibernate.\n• Git, Gradle.\nБудет плюсом:\n• Опыт работы с J2EE (EJB3, JAX-WS, JAXB, JPA2).\n• Знание Linux.\n• Опыт работы с Redis, MongoDB, Docker, Hashicorp Nomad, Ansible.\n\nМы предлагаем:\n• возможность каждый день видеть результаты своей работы;\n• официальное оформление, белая зарплата, отпуск согласно ТК РФ;\n• гибкий график работы (с 11 до 17 - время присутствия в офисе), есть возможность работать из дома (при необходимости);\n• ДМС со стоматологией, 100% оплата больничных;\n• курсы английского языка в офисе;\n• посещение тренингов, конференций;\n• работа по Agile в команде высокопрофессиональных разработчиков;\n• возможности профессионального роста, четкая схема повышения зарплаты;\n• работа в современном и комфортном офисе в центре города (Чкаловcкий пр-т);\n• оборудованные столовые, чай, кофе, фрукты, печеньки и PlayStation;\n• командные тимбилдинги, футбольная команда.","markup":[{"type":"hashtag","offset":0,"length":7,"data":"middle"},{"type":"hashtag","offset":8,"length":9,"data":"удаленка"},{"type":"hashtag","offset":18,"length":5,"data":"Java"},{"type":"hashtag","offset":24,"length":7,"data":"Spring"},{"type":"hashtag","offset":32,"length":7,"data":"senior"},{"type":"hashtag","offset":40,"length":8,"data":"backend"},{"type":"hashtag","offset":49,"length":10,"data":"developer"},{"type":"handle","offset":230,"length":15,"data":"Danny_Ushakova"}],"date":"2020-06-22T09:26:18+00:00","link":"tg://resolve?domain=jvmjobs&post=1636","tags":[{"name":"java"},{"name":"jvm"},{"name":"spring"},{"name":"dotnet"},{"name":"web"},{"name":"cloud"},{"name":"kafka"},{"name":"sql"},{"name":"postgresql"},{"name":"jdbc"},{"name":"hibernate"},{"name":"git"},{"name":"gradle"},{"name":"jaxb"},{"name":"jpa"},{"name":"linux"},{"name":"redis"},{"name":"mongodb"},{"name":"docker"},{"name":"ansible"}],"cities":[],"allowsRemote":true}},{"node":{"__typename":"Job","id":"103389593600-1001089317451","title":"Qa инженер","text":"#вакансия #QA #Волгоград #fulltime #офис\n💸ЗП вилка: от 70к до 95к NET\n👨🏻‍💻Опыт работы: от 1 года \n\nРазыскивается тестировщик в MODESCO\nПривет!\nУ нас в Волгограде три крупных интернет-сервиса, на которые мы ищем специалиста в сфере автоматического тестирования ПО.\n\n🎯 Какие будут задачи?\n-Разработка тест-кейсов и составление тестовой документации (на основе технического задания и в ходе анализа поведения пользователей);\n-тестирование веб-сервисов Text.ru (https://text.ru/), Telderi (https://www.telderi.ru/ru) и Socpublic (https://socpublic.com/): функциональное, регрессионное и на наличие известных уязвимостей;\n-написание скриптов для автоматизации тестирования;\n-ручное тестирование релизов там, где автоматизация невозможна.\n\n💪🏼 Наш идеальный кандидат:\n-знаком с современными концепциями тестирования;\n-работает с инструментами для автоматического тестирования веб-приложений (JMeter/Selenium/SoapUI или аналоги), пишет автотесты;\n-знает что такое http-протокол, минимально знаком с HTML, CSS и JavaScript;\n-умеет понятно описывать ошибки.\n\n🍩 Что предлагаем?\n-Оформление по ТК РФ и зарплату всегда вовремя;\n-уютный офис рядом с Ворошиловским ТРЦ с кофе и печеньками;\n-7-ми часовой рабочий день с возможностью выбора времени его начала;\n-бонусную систему: оплачиваемые переработки, 50% компенсация внешнего обучения за счет компании, бонус для сотрудников, занимающихся спортом;\n-интересную корпоративную жизнь: кикер, дартс, вечера настолок и крутые корпоративы.\n\n☎️ Контакты: @MarinaModesco, job@modesco.ru","markup":[{"type":"hashtag","offset":0,"length":9,"data":"вакансия"},{"type":"hashtag","offset":10,"length":3,"data":"QA"},{"type":"hashtag","offset":14,"length":10,"data":"Волгоград"},{"type":"hashtag","offset":25,"length":9,"data":"fulltime"},{"type":"hashtag","offset":35,"length":5,"data":"офис"},{"type":"bold","offset":103,"length":36,"data":""},{"type":"italic","offset":139,"length":127,"data":""},{"type":"bold","offset":269,"length":23,"data":""},{"type":"link","offset":454,"length":7,"data":"http://Text.ru"},{"type":"link","offset":463,"length":16,"data":"https://text.ru/"},{"type":"link","offset":491,"length":25,"data":"https://www.telderi.ru/ru"},{"type":"link","offset":531,"length":22,"data":"https://socpublic.com/"},{"type":"bold","offset":739,"length":29,"data":""},{"type":"bold","offset":1056,"length":19,"data":""},{"type":"bold","offset":1480,"length":12,"data":""},{"type":"handle","offset":1493,"length":14,"data":"MarinaModesco"},{"type":"link","offset":1509,"length":14,"data":"mailto:job@modesco.ru"}],"date":"2020-06-22T06:46:27+00:00","link":"tg://resolve?domain=qa_jobs&post=98600","tags":[{"name":"qa"},{"name":"dotnet"},{"name":"jmeter"},{"name":"selenium"},{"name":"html"},{"name":"css"},{"name":"javascript"}],"cities":[{"code":"volgograd"}],"allowsRemote":false}},{"node":{"__typename":"Job","id":"17098080256-1001110946746","title":"Js developer","text":"#вакансия #JavaScript #middle #senior #FrontEnd #удаленно #офиc #Москва #СПБ #Екатеринбург #Ростов-на Дону\n📣Приглашаем middle/senior JavaScript FrontEnd Developer в новый проект от Сбербанка.\n\n💸Уровень ЗП: от 170 000 до 280 000 руб. net. (обсуждается!).\n\n✍🏻Оформление: штат компании партнера или ИП. Занятость: полная.\n\n📍Локация: офис (Москва Кутузовский пр-т 32/1). Или удалено с возможностью посещать офис: СПБ, Екатеринбург, Ростов-на Дону.\n\n🏢О проекте: В рамках стратегической программы «Создание платформы поддержки развития бизнеса» наша команда разрабатывает линейку продуктов Cash Management. Продукта корпоративного блока, предоставляющий функции управления финансовыми потоками для предприятий и корпораций с развитой филиальной сетью. Линейка продуктов содержит порядка 10 продуктов, направленных на управление всеми счетами холдинга единым казначейством. Основная задача – перевод линейки продуктов из Legacy АС на целевые платформы банка и перевод управления продуктами в удаленные каналы обслуживания.\n\n🎯Ваши будущие задачи :\n- проектирование решения, в том числе разработка детальной внутренней архитектуры сервиса, включая интеграционные сценарии;\n- детальное проектирование интеграции со смежными сервисами (в том числе API);\n- разработка программного продукта, внесение изменений в код;\n- разработка автоматических модульных тестов, автоматических скриптов и тестов развертывания.\n\n🤝Мы ожидаем от вас:\n• опыт от 2х лет разработки высоко-нагруженных и отказоустойчивых фронтальных систем;\n• прекрасное знание JavaScript, React;\n• экспертное знание HTML, HTML5, SASS/LESS/CSS;\n• опыт работы с js-фреймоврками (например, Backbone, Angular, React, Reflux), REST-сервисами, Webpack, Bootstrap, Ionic, Foundation;\n• понятие о принципах разработки ПО, ООП, паттернах проектирования;\n• умение разрабатывать прототипы UI с помощью, например, Axure, Pixate, Invision, Proto.io и т.д.\n\nЖду Ваши резюме и буду рада ответить на все вопросы. Прекрасного дня!☺️\nКонтакты для связи: telegram @anisimovaane4ka\n\n—\n\n👉 Обсуждение вакансии в чате @javascript_jobs","markup":[{"type":"hashtag","offset":0,"length":9,"data":"вакансия"},{"type":"hashtag","offset":10,"length":11,"data":"JavaScript"},{"type":"hashtag","offset":22,"length":7,"data":"middle"},{"type":"hashtag","offset":30,"length":7,"data":"senior"},{"type":"hashtag","offset":38,"length":9,"data":"FrontEnd"},{"type":"hashtag","offset":48,"length":9,"data":"удаленно"},{"type":"hashtag","offset":58,"length":5,"data":"офиc"},{"type":"hashtag","offset":64,"length":7,"data":"Москва"},{"type":"hashtag","offset":72,"length":4,"data":"СПБ"},{"type":"hashtag","offset":77,"length":13,"data":"Екатеринбург"},{"type":"hashtag","offset":91,"length":7,"data":"Ростов"},{"type":"link","offset":1883,"length":8,"data":"http://Proto.io"},{"type":"handle","offset":2001,"length":16,"data":"anisimovaane4ka"},{"type":"handle","offset":2052,"length":16,"data":"javascript_jobs"}],"date":"2020-06-21T15:22:14+00:00","link":"tg://resolve?domain=javascript_jobs_feed&post=16306","tags":[{"name":"javascript"},{"name":"dotnet"},{"name":"reactjs"},{"name":"html"},{"name":"sass"},{"name":"css"},{"name":"backbonejs"},{"name":"angularjs"},{"name":"rest"},{"name":"webpack"},{"name":"bootstrap"}],"cities":[{"code":"moscow"},{"code":"rostov"}],"allowsRemote":true}},{"node":{"__typename":"Job","id":"17097031680-1001110946746","title":"Js developer","text":"#вакансия\nГород и адрес офиса: Эйлат, Израиль\nФормат работы: удаленка\nЗанятость: полная\nЗарплатная вилка: (оба значения обязательны) от 2200$ до 4500$ net\nОписание вакансии:\n\nhttps://trucknet.io/en/open-positions/middle-senior-backend-typescript-developer/\n\nWho are we looking for\nWe are looking for a Backend Developer to join our R&D department in Eilat, Israel. Have you ever dreamed of working with a small and capable team in a coastal town on the southern edge of the Negev Desert? Are you interested in creating an eco-friendly product in a domain of logistics and transportation, solving mysteries problems and facing new challenges? If so, the Trucknet team is just the place for you!\nResponsibilities\n • Implementing new features and providing support for various microservices.\n • Proposing, brainstorming and carrying out refactoring to improve the internal structure of our software.\n • Improving the developer experience by constantly bettering our toolbox.\n • Advancing deployment/integration infrastructure.\nRequirements\n • 3+ years of professional experience with backend development.\n • Acquaintance with Typescript, OOP Javascript, NodeJS.\n • Acquaintance with MongoDB and experience with databases in general.\n • Practical skills in software architecture and software design.\nAdvantages\n • Knowledge of Docker and Kubernetes.\n • Understanding the concept of horizontal scaling and what limitations it does impose on the application.\n • Strong knowledge of MongoDB, PostgreSQL.\n • Experience with CI/CD (we use GitLab CI).\n • Experience with test-driven development.\n • Experience with AWS.\n\n\nНазвание компании: Trucknet (https://trucknet.io/)\nКонтакты: @g000seman alex@trucknet.io\n\n—\n\n👉 Обсуждение вакансии в чате @javascript_jobs","markup":[{"type":"hashtag","offset":0,"length":9,"data":"вакансия"},{"type":"link","offset":175,"length":81,"data":"https://trucknet.io/en/open-positions/middle-senior-backend-typescript-developer/"},{"type":"link","offset":1641,"length":20,"data":"https://trucknet.io/"},{"type":"handle","offset":1673,"length":10,"data":"g000seman"},{"type":"link","offset":1684,"length":16,"data":"mailto:alex@trucknet.io"},{"type":"handle","offset":1735,"length":16,"data":"javascript_jobs"}],"date":"2020-06-21T15:12:01+00:00","link":"tg://resolve?domain=javascript_jobs_feed&post=16305","tags":[{"name":"javascript"},{"name":"dotnet"},{"name":"typescript"},{"name":"deployment"},{"name":"nodejs"},{"name":"mongodb"},{"name":"docker"},{"name":"kubernetes"},{"name":"postgresql"},{"name":"gitlab"},{"name":"amazon-web-services"}],"cities":[],"allowsRemote":true}},{"node":{"__typename":"Job","id":"107685609472-1001119539411","title":".net программист","text":"#вакансия #Беларусь #fulltime #офис #remote #dotnet\nЛокация: удалёнка (для особо желающих есть и офис)\nВакансия открыта только для резидентов РБ (ну или для всех, кто сможет открыть себе валютный счёт в белорусском банке)\n\nКомпания Capital Asset Exchange and Trading (CAE, caeonline.com) ищет:\n🔥 fullstack (C# Angular REST SQL) программистов (открыто несколько вакансий уровня middle и senior) в наш Отдел разработки программного обеспечения. Команда занимается разработкой и поддержкой специализированного ПО для нашей компании. Technology stack: .NET/C#, Angular, ASP.NET Core, MVC, SQL Server, MS Azure.\n\nЗарплата от 1500 долларов чистыми и выше, в зависимости от опыта работы соискателя.\n\nОбращайтесь за подробностями!","markup":[{"type":"hashtag","offset":0,"length":9,"data":"вакансия"},{"type":"hashtag","offset":10,"length":9,"data":"Беларусь"},{"type":"hashtag","offset":20,"length":9,"data":"fulltime"},{"type":"hashtag","offset":30,"length":5,"data":"офис"},{"type":"hashtag","offset":36,"length":7,"data":"remote"},{"type":"hashtag","offset":44,"length":7,"data":"dotnet"},{"type":"link","offset":273,"length":13,"data":"http://caeonline.com"},{"type":"link","offset":567,"length":7,"data":"http://ASP.NET"}],"date":"2020-06-21T13:39:05+00:00","link":"tg://resolve?domain=microsoftstackjobs&post=0","tags":[{"name":"dotnet"},{"name":"csharp"},{"name":"angularjs"},{"name":"rest"},{"name":"sql"},{"name":"azure"},{"name":"asp-net"},{"name":"net-core"},{"name":"sql-server"},{"name":"asp-net-core"}],"cities":[],"allowsRemote":true}},{"node":{"__typename":"Job","id":"103360233472-1001089317451","title":"Qa инженер","text":"#вакансия #Автоматизация #QA #fulltime #Bercut #удаленная_работа\n #удаленка\nФормат работы: удаленная\nЗанятость: полная занятость.\nЗарплата: от 120 000 до 180 000 net (белый доход) + годовой бонус.\n\nКомпания Bercut находит в поисках столпа инициативности и изменений! Здесь разрешено всё, что не запрещено. Мы создали среду возможностей, где каждое достижение поощряется. Хардкорные проекты, жесткие коллеги, и отряд аналитиков в комплекте (что бы ты не возился с кучей legacy кода). \n\nРассматриваем кандидатов на новые и текущие проекты BSS, преимущественно - биллинг, и проект RnD (ядро биллинга).\n\n\nТребования\n• Опыт в тестировании от 3-х лет;\n• Опыт в сфере BSS/Биллинга от года (обязательно);\n• Опыт в автоматизации тестирования от 1 года (Python, Java);\n• Опыт работы с CI инструментами (Jenkins/TeamCity);\n• Знание SQL на уровне написания сложных запросов, будет плюсом Oracle PL/SQL;\n• Знание различных методологий тестирования, техник тест-дизайна;\n• Желание развиваться в сфере тестирования.\n\nЧто делать?\n• Составлять тест-планы и тестовые сценарии;\n• Разрабатывать и поддерживать сценарии автоматизированного тестирования;\n• Участвовать в организации и развитии окружения для запуска тестов и тестовой инфраструктуры;\n• Взаимодействовать с разработчиками и аналитиками;\n• Работать над улучшением процесса тестирования, внедрять новые подходы по обеспечению качества.\n\nМы предлагаем:\n•  высокий \"белый\" доход, годовой бонус, ДМС, кафетерий льгот, интересные задачи.\n\n\nКомпания: https://www.bercut.com/\nКонтакты @Double2k или почта Ilya.Kuteinikov@bercut.com","markup":[{"type":"hashtag","offset":0,"length":9,"data":"вакансия"},{"type":"hashtag","offset":10,"length":14,"data":"Автоматизация"},{"type":"hashtag","offset":25,"length":3,"data":"QA"},{"type":"hashtag","offset":29,"length":9,"data":"fulltime"},{"type":"hashtag","offset":39,"length":7,"data":"Bercut"},{"type":"hashtag","offset":47,"length":17,"data":"удаленная_работа"},{"type":"hashtag","offset":66,"length":9,"data":"удаленка"},{"type":"link","offset":1487,"length":23,"data":"https://www.bercut.com/"},{"type":"handle","offset":1520,"length":9,"data":"Double2k"},{"type":"link","offset":1540,"length":26,"data":"mailto:Ilya.Kuteinikov@bercut.com"}],"date":"2020-06-21T10:18:13+00:00","link":"tg://resolve?domain=qa_jobs&post=98572","tags":[{"name":"qa"},{"name":"dotnet"},{"name":"python"},{"name":"java"},{"name":"jenkins"},{"name":"sql"},{"name":"oracle"}],"cities":[],"allowsRemote":true}},{"node":{"__typename":"Job","id":"17093885952-1001110946746","title":"Js разработчик","text":"#вакансия #работа #удаленка #backend #node #nodejs #remote\nГород и адрес офиса: Москва, Савеловская\nФормат работы: удаленка\nЗанятость: полная || проектная\nЗарплатная вилка: 100-160 т.р.\n\nОписание вакансии: \nИщем опытного backend-разработчика node.js для разработки высоконадежных транзакционных сервисов интеграции с различными системами\n\nТребования:\n• Опыт работы с унаследованными системами\n• Знание PHP на уровне понимания и чтения кода будет плюсом\n• Знание и понимание работы сетевых протоколов TCP/IP, HTTP, SMTP, IMAP\n• Знание и понимание языка JavaScript и связанных с ним технологий и фреймворков\n• Опыт разработки серверных приложений\n• Понимание основных процессов разработки, умение работать в команде\n• Понимание принципов ООП, подходов в программировании и требований к транзакционным системам\n\nЗадачи:\n• Разработка высоконадежных транзакционных сервисов интеграции с различными системами\n• Поддержка и модернизация существующих систем\n\nНазвание компании: TechPlatforms (https://techpl.net)\nКонтакты:@desych79\n\n—\n\n👉 Обсуждение вакансии в чате @javascript_jobs","markup":[{"type":"hashtag","offset":0,"length":9,"data":"вакансия"},{"type":"hashtag","offset":10,"length":7,"data":"работа"},{"type":"hashtag","offset":18,"length":9,"data":"удаленка"},{"type":"hashtag","offset":28,"length":8,"data":"backend"},{"type":"hashtag","offset":37,"length":5,"data":"node"},{"type":"hashtag","offset":43,"length":7,"data":"nodejs"},{"type":"hashtag","offset":51,"length":7,"data":"remote"},{"type":"link","offset":985,"length":18,"data":"https://techpl.net"},{"type":"handle","offset":1014,"length":9,"data":"desych79"},{"type":"handle","offset":1058,"length":16,"data":"javascript_jobs"}],"date":"2020-06-21T08:02:39+00:00","link":"tg://resolve?domain=javascript_jobs_feed&post=16302","tags":[{"name":"javascript"},{"name":"nodejs"},{"name":"php"},{"name":"smtp"},{"name":"dotnet"}],"cities":[{"code":"moscow"}],"allowsRemote":true}},{"node":{"__typename":"Job","id":"17087594496-1001110946746","title":"Js разработчик","text":"#вакансия #работа #удаленка #backend #node #nodejs #remote\nГород и адрес офиса: Москва, Савеловская\nФормат работы: удаленка\nЗанятость: полная || проектная\nЗарплатная вилка: 100-160 т.р.\n\nОписание вакансии: \nИщем опытного backend-разработчика node.js для разработки высоконадежных транзакционных сервисов интеграции с различными системами\n\nТребования:\n• Опыт работы с унаследованными системами\n• Знание PHP на уровне понимания и чтения кода будет плюсом\n• Знание и понимание работы сетевых протоколов TCP/IP, HTTP, SMTP, IMAP\n• Знание и понимание языка JavaScript и связанных с ним технологий и фреймворков\n• Опыт разработки серверных приложений\n• Понимание основных процессов разработки, умение работать в команде\n• Понимание принципов ООП, подходов в программировании и требований к транзакционным системам\n\nЗадачи:\n• Разработка высоконадежных транзакционных сервисов интеграции с различными системами\n• Поддержка и модернизация существующих систем\n\nНазвание компании: TechPlatforms (https://techpl.net)\nКонтакты:@desych79\n\n—\n\n👉 Обсуждение вакансии в чате @javascript_jobs","markup":[{"type":"hashtag","offset":0,"length":9,"data":"вакансия"},{"type":"hashtag","offset":10,"length":7,"data":"работа"},{"type":"hashtag","offset":18,"length":9,"data":"удаленка"},{"type":"hashtag","offset":28,"length":8,"data":"backend"},{"type":"hashtag","offset":37,"length":5,"data":"node"},{"type":"hashtag","offset":43,"length":7,"data":"nodejs"},{"type":"hashtag","offset":51,"length":7,"data":"remote"},{"type":"link","offset":985,"length":18,"data":"https://techpl.net"},{"type":"handle","offset":1014,"length":9,"data":"desych79"},{"type":"handle","offset":1058,"length":16,"data":"javascript_jobs"}],"date":"2020-06-20T10:35:03+00:00","link":"tg://resolve?domain=javascript_jobs_feed&post=16296","tags":[{"name":"javascript"},{"name":"nodejs"},{"name":"php"},{"name":"smtp"},{"name":"dotnet"}],"cities":[{"code":"moscow"}],"allowsRemote":true}}]}}},"context":{}}