{"hash":"f5f6bf98bd95e769321482904cbbd488f77922fd","data":{"records":{"id":"json","name":"json","belongsTo":{"totalCount":48,"pageInfo":{"totalPages":5,"currentPage":5},"edges":[{"node":{"__typename":"Job","id":"102911442944-1001089317451","title":"Qa engineer","text":"#Москва #вакансия #QA #fulltime #test #office\n\n💻Компания: СберТех.\n🧰Вакансия: QA Engineer.\n🏢Офис: Москва, м. Нагатинская/м. Тульская/ м. Верхние Котлы.\n💰ЗП: от 150 000 Net.\n\n📂Проект: Разработка платформы для управления бизнес-процессами Банка и Цифровой Платформы Sber.\n\n🗓Задачи:\n• Работа в роли тестировщика в scrum команде.\n• Написание, актуализация тестовых сценариев и их прохождение (API, UI).\n• Проведение функционального, регрессионного, интеграционного и других видов тестирования.\n• Регистрация, отслеживание и верификация дефектов.\n• Участие в развитии команды и процессов тестирования.\n\n📌Требования: \n• Опыт написания тестовых сценариев, чек-листов, составления сложных интеграционных сценариев.\n• Знание теории тестирования, понимание видов тестирования и необходимости их применения на различных этапах реализации проекта.\n• Опыт анализа и тестирования требований.\n• Опыт тестирования rest/soap сервисов.\n• Опыт работы с BPM системами, понимание нотации BPMN 2.0.\n\n📎Cтек: REST, XML, XSD, JSON, SQL, BPMN 2.0, Docker, Kubernetes, Openshift, Kafka.\n\n🔰Условия:\n• Оформление ТК РФ.\n• ДМС для сотрудников и скидки на медицинскую страховку для родственников;\n• Высокая белая заработная плата (оклад + годовая премия).\n• Возможность обучения за счет компании, посещения IT-конференций.\n• Бесплатный тренажерный зал на территории офиса.\n• Корпоративная жизнь и спортивные мероприятия.\n\n📩Готов ответить на интересующие вопросы - @Dmiryy","markup":[{"type":"hashtag","offset":0,"length":7,"data":"Москва"},{"type":"hashtag","offset":8,"length":9,"data":"вакансия"},{"type":"hashtag","offset":18,"length":3,"data":"QA"},{"type":"hashtag","offset":22,"length":9,"data":"fulltime"},{"type":"hashtag","offset":32,"length":5,"data":"test"},{"type":"hashtag","offset":38,"length":7,"data":"office"},{"type":"handle","offset":1443,"length":7,"data":"Dmiryy"}],"date":"2020-06-15T19:05:56+00:00","link":"tg://resolve?domain=qa_jobs&post=0","tags":[{"name":"qa"},{"name":"dotnet"},{"name":"rest"},{"name":"soap"},{"name":"xml"},{"name":"xsd"},{"name":"json"},{"name":"sql"},{"name":"docker"},{"name":"kubernetes"},{"name":"kafka"}],"cities":[{"code":"moscow"}],"allowsRemote":false}},{"node":{"__typename":"Job","id":"102896762880-1001089317451","title":"Qa инженер","text":"#вакансия #Москва #работаQA #Выставочная #офис/удаленная\nЗаработная плата от 70 000 - 90 000 с налогами в зависимости от опыта кандидата\nКомпания https://agregatoreat.ru/  \nЗанятость: полная (50/50 офис и удаленно) \nКонтакт: @OlesyaE \nОбязанности:\n•  Тестирование высоконагруженного web-сервиса (в том числе, во время его обновления в нерабочее время - 2 раза в месяц);\n•  Ручное тестирование ПО (функциональное, нагрузочное, интеграционное и др.);\n•  Разработка тестовой документации;\n•  написание Unit тестов\n•  Оценка времени на проверку задач;\n•  Создание баг-репортов;\n•  Взаимодействие с разработчиками, аналитиками, службой технической поддержки;\nТребования:\n•  Опыт работы в области тестирования ПО от 1 года;\n•  Знание жизненного цикла ПО, тест-кейсов, багов и т.д.\n•  Знание различных методов тестирования;\n•  Опыт разработки тестовой документации;\n•  Базовые знания языка SQL;\n•  Приветствуется опыт работы с файлами *.xml, *.json;\n•  Опыт работы с баг-трекинговыми системами (Jira, TFS и т.д.);\n•  Внимательность, ответственность, умение работать в команде;\n•  Самостоятельность, стремление к профессиональному и карьерному росту.","markup":[{"type":"hashtag","offset":0,"length":9,"data":"вакансия"},{"type":"hashtag","offset":10,"length":7,"data":"Москва"},{"type":"hashtag","offset":18,"length":9,"data":"работаQA"},{"type":"hashtag","offset":28,"length":12,"data":"Выставочная"},{"type":"hashtag","offset":41,"length":5,"data":"офис"},{"type":"link","offset":77,"length":15,"data":"tel:70 000 - 90 000"},{"type":"link","offset":146,"length":24,"data":"https://agregatoreat.ru/"},{"type":"handle","offset":225,"length":8,"data":"OlesyaE"}],"date":"2020-06-15T15:21:59+00:00","link":"tg://resolve?domain=qa_jobs&post=0","tags":[{"name":"qa"},{"name":"web"},{"name":"sql"},{"name":"xml"},{"name":"json"},{"name":"tfs"}],"cities":[{"code":"moscow"}],"allowsRemote":true}},{"node":{"__typename":"Job","id":"71304216576-1001054966032","title":"Ios разработчик","text":"💪#вакансия #удалёнка #iOS #fulltime  #Middle+/#Senior    \n💵З/П 2200-2400 $/месяц по итогам собеседования\nРабота: удалёнка\n\nЧеловек в среднем больше сотни раз взаимодействует с клавиатурой своего мобильного устройства. Для большинства пользователей нашего приложения мы делаем этот процесс  интереснее и выгодней. Мы также оцениваем эмоциональное состояние пользователя, в процессе его взаимодействия с клавиатурой. Руководство компании из топ-менеджмента крупнейших глобальных игроков мобильного рынка. В данный момент открыта вакансия Middle+/Senior IOS разработчика, в подчинении 2 сотрудника                                                                                                               \n\n📌Обязанности:\n- Разработка кастомной клавиатуры iOS\n- Подключение ML-алгоритмов (TensorFlow) распознавания эмоций к iOS-клавиатуре\n- Разработка кода обработки данных камеры, микрофона\n\n📌Требования:\n- Уверенное знание Swift;\n- Хорошее знание платформы iOS, инструментов разработки, работы UI;\n- Опыт работы с REST API, HTTP, JSON, APNs;\n- Знакомство с библиотеками CoreData, AVFoundation, CoreML и CreateML\n- Желание развиваться и развивать свои знания            \n-Знание английского на уровне от Intermediate желательно                                                                                                               \n\n📌Будет плюсом:\n- Опыт работы c TensorFlow на iOS\n- Опыт работы с OpenCV на iOS\n- Опыт работы с фреймворком SwiftUI\n\n📌Условия:\n- Отсутствие бюрократии\n- Время начала рабочего дня обговариваем индивидуально\n- Come to the Dark Side, we have тёплая ламповая атмосфера стартапа, чай, кофе и печеньки!\n- Крутой инновационный проект - возможность самореализации и профессионального роста\n- Стабильное зарубежное финансирование\n- Десятки миллионов установок и множество глобальных партнёров\n📞 Контакты @SvetikS_hr +7(963)-632-12-36 Cветлана","markup":[{"type":"hashtag","offset":2,"length":9,"data":"вакансия"},{"type":"hashtag","offset":12,"length":9,"data":"удалёнка"},{"type":"hashtag","offset":22,"length":4,"data":"iOS"},{"type":"hashtag","offset":27,"length":9,"data":"fulltime"},{"type":"hashtag","offset":38,"length":7,"data":"Middle"},{"type":"hashtag","offset":47,"length":7,"data":"Senior"},{"type":"handle","offset":1841,"length":11,"data":"SvetikS_hr"},{"type":"link","offset":1853,"length":17,"data":"tel:+7(963)-632-12-36"}],"date":"2020-06-15T13:31:43+00:00","link":"tg://resolve?domain=mobile_jobs&post=0","tags":[{"name":"mobile"},{"name":"ios"},{"name":"tensorflow"},{"name":"swift"},{"name":"rest"},{"name":"json"},{"name":"opencv"}],"cities":[],"allowsRemote":true}},{"node":{"__typename":"Job","id":"16931356672-1001110946746","title":"Js разработчик","text":"Друзья, ура! В связи с продолжающимся ростом и развитием, следующие 10 дней ищем себе боевого товарища и коллегу! 🎉\n\n🎸 Трудолюбивый JavaScript (React.js) Engineer, приди!\n\n🔖 #вакансия / #remote #удаленка / #полная #fulltime / #reactjs #javascript\n\nЭта не просто вакансия. Это возможность для стабильного профессионального, финансового и карьерного роста. Мы уделяем большое внимание системности, общей продуктивности и согласованности совместной работы, поэтому ищем коллегу на удалённый (remote) формат работы.\n\n\n📲 Кто мы?\n\n→ Компания Axept занимается консалтингом и заказной разработкой программных продуктов.\n→ Наши клиенты – крупные корпорации в России, профессионалы из Европы, Сингапура и Японии.\n→ Текущий портфель проектов – Личные кабинеты, ERP, Поисковые системы, CRM, dashboards, Социальные сети, мобильные приложения.\n→ Центры разработки находится в Москве. Но 70% сотрудников работают удалённо.\n→ Ключевой момент — мы относимся к проектам наших клиентов ❤️, как к своим собственным, с любовью и максимальной ответственностью.\n→ Мы любим то, что делаем. Более подробно здесь – www.axept.com/ru-ru/jobs\n\n🎸 Чем предстоит заниматься?\n\n→ Разрабатывать и развивать веб-приложения с нами, используя React.js, Redux, TypeScript, Styled Components, иногда – Node.js, React Native и GraphQL.\n→ Принимать архитектурные решения и думать наперёд.\n→ Влиять на развитие команды разработки и выбор технологий в проекте.\n→ Активно учиться, развиваться и делиться знаниями с коллегами.\n→ Заботиться о производительности, качестве и устойчивости поставляемых нами приложений.\n\n💪 Для этого вам потребуется:\n\n→ Любить свою профессию и то, что вы делаете. Горят глаза? Срочно к нам. \n→ Опыт разработки сервисов с REST API. Знакомство с JSON API, Swagger и GraphQL будет жирным плюсом.\n→ Хорошее знание экосистемы React и Redux. Уметь и любить гуглить.\n→ Понимание изоморфных React-приложений и SSR. Про это и наш доклад 5-летней давности https://youtu.be/xarGaBBDROw\n→ Будет плюсом опыт разработки на Node.js (SSR, PostgreSQL, Express, Passport, JWT)\n→ Хорошее понимание HTTP. А если есть опыт с WebSockets, то это wow! 🎉\n→ Свободное владение ES6. Опыт с TypeScript ускорит погружение.\n→ Понимание принципов ФП и ООП.\n→ Уметь свободно пользоваться Git. Знание Git Flow.\n→ Желательно понимание Styled Components.\n→ Свободное владение CSS 3.\n→ Умение решать проблемы (кросс-браузерная верстка, отладка).\n→ Отсутствие проблем с Pixel Perfect и сеткой. Вёрстка для вас – это просто, а для нас – важно.\n→ Умение работать в команде, прогнозировать риски и следовать соглашениям.\n\n🎁 Что мы предлагаем?\n\n1. ПОЛНОСТЬЮ удалённая работа.\n2. Серьезные проекты для крупнейших банков, страховых компаний и Интернет-компаний. Команды и задачи, которые обеспечат вам профессиональный рост и активное развитие.\n3. Возможность выбирать проекты.\n4. Когда пожелаете, можете присоединиться к нам в новом офисе на ст.м. Калужская в БЦ \"Нео Гео\" – самом стильном и награждаемом БЦ в России с качественной новой техникой (Apple, HP, Dell) и гаджетами. Чай/кофе, фрукты, M&M's и прочие сладости в свободном доступе.\n5. Стабильность. Большие возможности для карьерного роста. Профессиональный рост за счёт наших практик – гарантирован.\n6. Гибрид европейской, японской и российской культуры работы. \n7. Оформление по ТК РФ. \n8. Занятость будет полная. Зарплата на руки от 130 000 до 160 000 рублей (Senior), Middle – от 90 000 до 120 000 рублей.\n9. Корпоративный ДМС (по запросу, разные опции).\n10. Гордость за годы, проведённые здесь, за результаты, достигнутые вместе.\n11. Админка в React-чате – в подарок! 😉 Шутка.\n\n🚀 Отнеситесь с вниманием! Жизнь одна. Уделите немного времени. Напишите о себе, приложите резюме и отправьте на jobs@axept.com, или в ЛС @AxeptJobs, или в ЛС @DenisIzmaylov","markup":[{"type":"hashtag","offset":177,"length":9,"data":"вакансия"},{"type":"hashtag","offset":189,"length":7,"data":"remote"},{"type":"hashtag","offset":197,"length":9,"data":"удаленка"},{"type":"hashtag","offset":209,"length":7,"data":"полная"},{"type":"hashtag","offset":217,"length":9,"data":"fulltime"},{"type":"hashtag","offset":229,"length":8,"data":"reactjs"},{"type":"hashtag","offset":238,"length":11,"data":"javascript"},{"type":"link","offset":1093,"length":24,"data":"http://www.axept.com/ru-ru/jobs"},{"type":"link","offset":1935,"length":28,"data":"https://youtu.be/xarGaBBDROw"},{"type":"link","offset":3705,"length":14,"data":"mailto:jobs@axept.com"},{"type":"handle","offset":3730,"length":10,"data":"AxeptJobs"},{"type":"handle","offset":3751,"length":14,"data":"DenisIzmaylov"}],"date":"2020-06-15T12:54:27+00:00","link":"tg://resolve?domain=javascript_jobs_feed&post=0","tags":[{"name":"javascript"},{"name":"reactjs"},{"name":"redux"},{"name":"typescript"},{"name":"nodejs"},{"name":"graphql"},{"name":"rest"},{"name":"json"},{"name":"swagger"},{"name":"postgresql"},{"name":"express"},{"name":"jwt"},{"name":"git"},{"name":"css"},{"name":"react-redux"},{"name":"react-native"}],"cities":[],"allowsRemote":true}},{"node":{"__typename":"Job","id":"2209349632-1001134745498","title":"Devops инженер","text":"#вакансия #офис #Москва #devops #teamlead\n\nDevOps Engineer\nОписание проекта:\nНа текущий момент мы формируем ключевую команду по трансформации интеграционной архитектуры одного из крупнейших\nБанков.\nОдной из ключевых задач трансформации стоит построить принципиально новую платформу управления трафиком между\nприложениями,\nпозволяющую объединить все существующие системы Банка как монолитные, так и контейнеризированные, виртуализировать\nбазовые\nсервисы и инструменты обеспечения ключевых атрибутов масштабирования, надежности, безопасности и сопровождаемости.\nВ результате этой трансформации должны быть реализованы комплексные сервисы платформы для ИТ Банка и партнеров.\nПрофит для участника:\nВозможность трансформировать ИТ-ландшафт одного из крупнейшего Банка своими силами от начала до конца;\nВозможность развить компетенции и получить опыт применения современных технологий и подходов к DevOps;\n\nКлючевые задачи:\nУлучшение инструментов и автоматизация производственных процессов, уменьшение time to market\nПостроение и сопровождение конвейера CI/CD\nАвтоматизация процесса подготовки окружений, тестовых сред, сборки и развертывания приложений\nВнедрение, поддержка и развитие системы мониторинга\nУчастие в подготовке и настройке инфраструктуры проектов банка\nИнтеграция тестов в скрипты развертывания\n\nОсновные требования:\nОпыт конфигурации и уверенное владение Linux (RHEL/CentOS)\nУмение писать сценарии автоматизации (bash, python)\nПонимание языков разметки данных (xml, json, yaml)\nУверенное владение одним из языков: Python, Java, Kotlin, Groovy\nОпыт работы с Git.\nОпыт автоматизации CI/CD процессов. Активное взаимодействие с командами разработки, тестирования, поддержки.\nОпыт работы с CI-Системами (Gitlab CI/Jenkins/TeamCity). Разработка и отладка исходного кода Pipeline, умение\nкастомизировать сборку.\nУверенное владение средством управления конфигурациями – Ansible, написание скриптов. Большим плюсом будет\nявляется опыт разработки модулей и отладки.\nОпыт развертывание и использования Docker: Создание образов, сборка и доставка контейнеров. Развертывание\nприложений в кластере Kubernetes, OpenShift\nОпыт настройки инструментов мониторинга (zabbix, Prometheus, grafana, ELK/EFK)\nОпыт работы с базами данных: Oracle, PostgreSQL, NoSQL DB (Tarantool, Casandra, Redis, RocksDB, etcd, ...)\nОпыт работы с IBM WebSphere MQ\nИнженерные практики (code review, тестирование скриптов и прочее).\nОпыт работы с высокодоступными и высокопроизводительными решениями\nПонимание принципа infrastructure as code\nИнженерное мышление, умение локализовать проблему и предложить оптимальное решение\nРазвитый технический кругозор и желание постоянно развиваться.\n\nЧто предлагаем:\nОформление через интегратора T4u\nЗ.п белая, 200-250 к\nДМС, курсы, сертификация за счет компании\nРабочее место в одном из офисов банка: м. Деловой центр, м. Пролетарская, м. ВДНХ\nКонтакты: @Anastasia202011\n\n—\n\n👉 Обсуждение вакансии в чате @devops_jobs","markup":[{"type":"hashtag","offset":0,"length":9,"data":"вакансия"},{"type":"hashtag","offset":10,"length":5,"data":"офис"},{"type":"hashtag","offset":16,"length":7,"data":"Москва"},{"type":"hashtag","offset":24,"length":7,"data":"devops"},{"type":"hashtag","offset":32,"length":9,"data":"teamlead"},{"type":"handle","offset":2861,"length":16,"data":"Anastasia202011"},{"type":"handle","offset":2912,"length":12,"data":"devops_jobs"}],"date":"2020-06-15T11:01:14+00:00","link":"tg://resolve?domain=devops_jobs_feed&post=2107","tags":[{"name":"linux"},{"name":"centos"},{"name":"bash"},{"name":"python"},{"name":"xml"},{"name":"json"},{"name":"yaml"},{"name":"java"},{"name":"kotlin"},{"name":"groovy"},{"name":"git"},{"name":"gitlab"},{"name":"jenkins"},{"name":"ansible"},{"name":"docker"},{"name":"kubernetes"},{"name":"oracle"},{"name":"postgresql"},{"name":"nosql"},{"name":"redis"}],"cities":[{"code":"moscow"}],"allowsRemote":false}},{"node":{"__typename":"Job","id":"71292682240-1001054966032","title":"Android разработчик","text":"#вакансия #Android #Kotlin #Москва #офис \n\nВакансия: Android разработчик\nГород: Москва м. Выставочная/Арбатская\nЗарплата: от 190 000 рублей до 270 000 рублей на руки \nФормат: офис, полный день, полная занятость (гибкое начало)\nКомпания Innovative People\n\nВ команду «Средний и малый бизнес» ищу разработчика. Проект новый, agile-команда. \n\n📲 Обязанности\n• Разработка функционала мобильного приложения\n• Разработка unit-тестов, рефакторинг, code review\n• Соблюдение принципов командной разработки\n• Работа в офисе с командой\n\n📲 Требования \nОпыт разработки мобильных приложений от 2-х лет; \nОтличные знания ООП, классических алгоритмов и структур данных; \nОтличные знания платформы Android, языков Java и Kotlin; \nОпыт применения паттернов: MVP, MVVM, CLEAN; \nОпыт работы с библиотеками json и xml для мобильных и серверных решений опыт интеграции со сторонними системами по API опыт написания unit-тестов; \nОпыт работы с TFS, JIRA, GIT.\n\n📲 Условия:\n• Хорошую команду\n• ДМС со стоматологией, всё белое\n• Возможность предлагать собственные идеи\n• ноутбук, адекватное руководство\n\n📩Резюме и вопросы @Priboch","markup":[{"type":"hashtag","offset":0,"length":9,"data":"вакансия"},{"type":"hashtag","offset":10,"length":8,"data":"Android"},{"type":"hashtag","offset":19,"length":7,"data":"Kotlin"},{"type":"hashtag","offset":27,"length":7,"data":"Москва"},{"type":"hashtag","offset":35,"length":5,"data":"офис"},{"type":"handle","offset":1098,"length":8,"data":"Priboch"}],"date":"2020-06-15T10:44:21+00:00","link":"tg://resolve?domain=mobile_jobs&post=0","tags":[{"name":"mobile"},{"name":"android"},{"name":"kotlin"},{"name":"java"},{"name":"mvvm"},{"name":"json"},{"name":"xml"},{"name":"tfs"},{"name":"git"}],"cities":[{"code":"moscow"}],"allowsRemote":false}},{"node":{"__typename":"Job","id":"16914579456-1001110946746","title":"Js разработчик","text":"🎸 Трудолюбивый JavaScript (React.js) Engineer, приди!\n\n🔖 #вакансия / #remote #удаленка / #полная #fulltime / #reactjs #javascript\n\nЭта не просто вакансия. Это возможность для стабильного профессионального, финансового и карьерного роста. Мы уделяем большое внимание системности, общей продуктивности и согласованности совместной работы, поэтому ищем коллегу на удалённый (remote) формат работы.\n\n\n📲 Кто мы?\n\n→ Компания Axept занимается консалтингом и заказной разработкой программных продуктов.\n→ Наши клиенты – крупные корпорации в России, профессионалы из Европы, Сингапура и Японии.\n→ Текущий портфель проектов – Личные кабинеты, ERP, Поисковые системы, CRM, dashboards, Социальные сети, мобильные приложения.\n→ Центры разработки находится в Москве. Но 70% сотрудников работают удалённо.\n→ Ключевой момент — мы относимся к проектам наших клиентов ❤️, как к своим собственным, с любовью и максимальной ответственностью.\n→ Мы любим то, что делаем. Более подробно здесь – www.axept.com/ru-ru/jobs\n\n🎸 Чем предстоит заниматься?\n\n→ Разрабатывать и развивать веб-приложения с нами, используя React.js, Redux, TypeScript, Styled Components, иногда – Node.js, React Native и GraphQL.\n→ Принимать архитектурные решения и думать наперёд.\n→ Влиять на развитие команды разработки и выбор технологий в проекте.\n→ Активно учиться, развиваться и делиться знаниями с коллегами.\n→ Заботиться о производительности, качестве и устойчивости поставляемых нами приложений.\n\n💪 Для этого вам потребуется:\n\n→ Любить свою профессию и то, что вы делаете. Горят глаза? Срочно к нам. \n→ Опыт разработки сервисов с REST API. Знакомство с JSON API, Swagger и GraphQL будет жирным плюсом.\n→ Хорошее знание экосистемы React и Redux. Уметь и любить гуглить.\n→ Понимание изоморфных React-приложений и SSR. Про это и наш доклад 5-летней давности https://youtu.be/xarGaBBDROw\n→ Будет плюсом опыт разработки на Node.js (SSR, PostgreSQL, Express, Passport, JWT)\n→ Хорошее понимание HTTP. А если есть опыт с WebSockets, то это wow! 🎉\n→ Свободное владение ES6. Опыт с TypeScript ускорит погружение.\n→ Понимание принципов ФП и ООП.\n→ Уметь свободно пользоваться Git. Знание Git Flow.\n→ Желательно понимание Styled Components.\n→ Свободное владение CSS 3.\n→ Умение решать проблемы (кросс-браузерная верстка, отладка).\n→ Отсутствие проблем с Pixel Perfect и сеткой. Вёрстка для вас – это просто, а для нас – важно.\n→ Умение работать в команде, прогнозировать риски и следовать соглашениям.\n\n🎁 Что мы предлагаем?\n\n1. ПОЛНОСТЬЮ удалённая работа.\n2. Серьезные проекты для крупнейших банков, страховых компаний и Интернет-компаний. Команды и задачи, которые обеспечат вам профессиональный рост и активное развитие.\n3. Возможность выбирать проекты.\n4. Когда пожелаете, можете присоединиться к нам в новом офисе на ст.м. Калужская в БЦ \"Нео Гео\" – самом стильном и награждаемом БЦ в России с качественной новой техникой (Apple, HP, Dell) и гаджетами. Чай/кофе, фрукты, M&M's и прочие сладости в свободном доступе.\n5. Стабильность. Большие возможности для карьерного роста. Профессиональный рост за счёт наших практик – гарантирован.\n6. Гибрид европейской, японской и российской культуры работы. \n7. Оформление по ТК РФ. \n8. Занятость будет полная. Зарплата на руки от 130 000 до 160 000 рублей (Senior), Middle – от 90 000 до 120 000 рублей.\n9. Корпоративный ДМС (по запросу, разные опции).\n10. Гордость за годы, проведённые здесь, за результаты, достигнутые вместе.\n11. Админка в React-чате – в подарок! 😉 Шутка.\n\n🚀 Отнеситесь с вниманием! Жизнь одна. Уделите немного времени. Напишите о себе, приложите резюме и отправьте на jobs@axept.com, или в ЛС @AxeptJobs, или в ЛС @AxeptJobs","markup":[{"type":"hashtag","offset":59,"length":9,"data":"вакансия"},{"type":"hashtag","offset":71,"length":7,"data":"remote"},{"type":"hashtag","offset":79,"length":9,"data":"удаленка"},{"type":"hashtag","offset":91,"length":7,"data":"полная"},{"type":"hashtag","offset":99,"length":9,"data":"fulltime"},{"type":"hashtag","offset":111,"length":8,"data":"reactjs"},{"type":"hashtag","offset":120,"length":11,"data":"javascript"},{"type":"link","offset":975,"length":24,"data":"http://www.axept.com/ru-ru/jobs"},{"type":"link","offset":1817,"length":28,"data":"https://youtu.be/xarGaBBDROw"},{"type":"link","offset":3587,"length":14,"data":"mailto:jobs@axept.com"},{"type":"handle","offset":3612,"length":10,"data":"AxeptJobs"},{"type":"handle","offset":3633,"length":10,"data":"AxeptJobs"}],"date":"2020-06-15T08:03:02+00:00","link":"tg://resolve?domain=javascript_jobs_feed&post=0","tags":[{"name":"javascript"},{"name":"reactjs"},{"name":"redux"},{"name":"typescript"},{"name":"nodejs"},{"name":"graphql"},{"name":"rest"},{"name":"json"},{"name":"swagger"},{"name":"postgresql"},{"name":"express"},{"name":"jwt"},{"name":"git"},{"name":"css"},{"name":"react-redux"},{"name":"react-native"}],"cities":[],"allowsRemote":true}},{"node":{"__typename":"Job","id":"71214039040-1001054966032","title":"Ios разработчик","text":"#вакансия #iOS \n\nНа проект от крупного российского банка требуется Middle iOS разработчик\n\nФормат: офис/удаленка \n\nВилка ЗП: 150-180К\n\nЛокация: Москва/СПБ\n\nТребования:\nОпыт разработки под IOS (Objective-C или Swift) от 2 лет\nУверенное знание iOS SDK, Xcode\nОпыт использования одной из архитектур: MVP, MVVM, VIPER\nЗнание особенностей: Collections, Optionals, Protocol Oriented, Generics\nПонимание, как происходит управление памятью в iOS\nПонимание принципов проектирования SOLID и желание придерживаться их\nНаличие опыта работы с REST API, HTTP, JSON, APNs\nОпыт работы с Git, знание git flow\nЖелательно уметь писать UI тесты\nЖелателен опыт в команде\n\nКонтакт: @mxm_at","markup":[{"type":"hashtag","offset":0,"length":9,"data":"вакансия"},{"type":"hashtag","offset":10,"length":4,"data":"iOS"},{"type":"handle","offset":660,"length":7,"data":"mxm_at"}],"date":"2020-06-13T11:49:54+00:00","link":"tg://resolve?domain=mobile_jobs&post=0","tags":[{"name":"mobile"},{"name":"ios"},{"name":"objective-c"},{"name":"swift"},{"name":"xcode"},{"name":"mvvm"},{"name":"rest"},{"name":"json"},{"name":"git"}],"cities":[{"code":"moscow"}],"allowsRemote":true}}]}}},"context":{}}