{"hash":"f34fd2c444a074f4e0e67d525015a008ef8e766f","data":{"records":{"id":"php","name":"php","belongsTo":{"totalCount":65,"pageInfo":{"totalPages":7,"currentPage":2},"edges":[{"node":{"__typename":"Job","id":"24331157504-1001075660570","title":"Php программист","text":"📌Вакансия: #PHP developer на Битрикс\n📌ЗП: 40-50 тыс. (обсуждается с кандидатом)\n📌Занятость: полная, офис (Томск) или удаленно\n📌Компания: Промресурс (hh.ru/employer/2140160)\n\nНа данный момент у нас функционирует 50 сайтов с абсолютно разными категориями товаров, разработанных в разное время на разных платформах.\n\nМы занимаемся продажами инновационной техники: квадрокоптеры, гироскутеры, смарт-часы, микронаушники, 3D ручки и многого другого.\n\nРаботаем по всей России и ближнему зарубежью. Мы активно развиваемся и формируем свой it-отдел.\n\n👆Задачи:\n• Сопровождение и развитие текущего проекта.\n• Реализация поставленных технических заданий.\n• Работа и усовершенствование существующей ERP системы на Битриксе.\n\n👍Что мы готовы предложить:\n• График работы 5/2, режим работы может быть, как с 8 до 17, так и с 13 до 22. Обсуждаем на собеседовании.\n• Оформление согласно ТК РФ.\n• Стабильная и своевременная выплата заработной платы.\n• Молодой, дружный коллектив.\n• Испытательный срок – 1 месяц.\n\n🔥Наши ожидания:\n• Знание 1С-Битрикс. Хорошее знание PHP.\n• Умение разбираться в чужом коде и качественно комментировать свой.\n• Важное качество — аккуратность.\n\nПлюсом будет:\n\n• HTML5, CSS3, JS, jQuery.\n• Яндекс api, google adwords/analytics api, vk api.\n• Гибкость мышления и понимание, когда уместно применить \"ad-hoc решение\", а когда нужно поднять вопрос серьезного рефакторинга.\n• Опыт оптимизации производительности сайта.\n• Опыт проведения технических оптимизаций сайтов для SEO.\n• Опыт работы с базами данных, развертывание, написание запросов, работа с таблицами.\n\nНе болейте)\n#работа_программист_битрикс, #вакансия_php","markup":[{"type":"hashtag","offset":12,"length":4,"data":"PHP"},{"type":"link","offset":153,"length":22,"data":"http://hh.ru/employer/2140160"},{"type":"hashtag","offset":1586,"length":27,"data":"работа_программист_битрикс"},{"type":"hashtag","offset":1615,"length":13,"data":"вакансия_php"}],"date":"2020-04-07T11:34:56+00:00","link":"tg://resolve?domain=php_jobs&post=23204","tags":[{"name":"php"},{"name":"html"},{"name":"css"},{"name":"jquery"},{"name":"seo"}],"cities":[{"code":"tomsk"}],"allowsRemote":true}},{"node":{"__typename":"Job","id":"24325914624-1001075660570","title":"Php разработчик","text":"#вакансия #удаленка #php #yii\n #штат #highload #ecommerce #официально\n\nРебята, наша компания Hidden Team расширяет штат и приглашает на работу backend-разработчиков уровня middle/middle+. Мы занимаемся разработкой highload проектов в сфере e-commerce и сложных ERP систем. Сотрудничаем с топовыми веб-студиями и digital-агентствами России, любим Битрикс и возможность решать нестандартные проблемы из любой точки страны!\n\nЧто бы мы хотели видеть у наших кандидатов?\n🔸Хорошие знания программирования (PHP, ООП).\n🔸Опыт работы на фреймворке Yii/Symfony/Laravel\n🔸Опыт работы с Git.\n🔸Опыт работы в консоли linux.\n🔸Базовые знания html, java script, css.\n🔸Понимание принципов построения RESTFul сервисов.\n🔸Желателен опыт работы с чем-либо RabbitMQ, Redis, ElasticSearch, PostgreSQL.\n🔸Английский на уровне чтения технической документации.\n\nЛичные качества: аккуратность, внимательность к мелочам, самостоятельность и организованность, умение работать в команде, быстро реагировать на запросы и изменение ситуации, желание обучаться и развиваться, стремление сделать работу максимально качественно.\n\nМы предлагаем:\n🔹только удаленная работа с отлаженным процессом менеджмента проектов (трекинг в Redmine, оценка задач разработчиками);\n🔹работа над сложными e-commerce проектами для крупнейших российских веб-студий (топ-10 рейтинга рунета);\n🔹многосерверная архитектура, высокие нагрузки (500К+ посетителей/месяц);\n🔹множество различных интеграций с большими объемами данных;\n🔹индивидуальные планы развития;\n🔹обучение и семинары внутри компании, собственная он-лайн школа на стадии запуска;\n🔹перспективы карьерного роста (повышения уровня разработчика до senior/team lead, возможность релокации);\n🔹 заработная плата 70К-120К+ по итогам собеседования (белая, на руки), открытая система грейдов;\n🔹 официальное оформление по ТК РФ, оплачиваемый отпуск, удобный график (начало работы 8-11), в выходные, праздники и по ночам не работаем☺️.\n\nКонтакты: Яна @yanaizosimova","markup":[{"type":"hashtag","offset":0,"length":9,"data":"вакансия"},{"type":"hashtag","offset":10,"length":9,"data":"удаленка"},{"type":"hashtag","offset":20,"length":4,"data":"php"},{"type":"hashtag","offset":25,"length":4,"data":"yii"},{"type":"hashtag","offset":31,"length":5,"data":"штат"},{"type":"hashtag","offset":37,"length":9,"data":"highload"},{"type":"hashtag","offset":47,"length":10,"data":"ecommerce"},{"type":"hashtag","offset":58,"length":11,"data":"официально"},{"type":"handle","offset":1954,"length":14,"data":"yanaizosimova"}],"date":"2020-04-07T08:24:30+00:00","link":"tg://resolve?domain=php_jobs&post=23199","tags":[{"name":"php"},{"name":"yii"},{"name":"symfony"},{"name":"laravel"},{"name":"git"},{"name":"linux"},{"name":"html"},{"name":"java"},{"name":"css"},{"name":"rabbitmq"},{"name":"redis"},{"name":"elasticsearch"},{"name":"postgresql"}],"cities":[],"allowsRemote":true}},{"node":{"__typename":"Job","id":"24324866048-1001075660570","title":"Php разработчик","text":"#вакансия #php #backend #senior #developer #удалённо #фуллтайм\n\n📌Vigrom – международная компания-разработчик. Более 9 лет мы создаём решения и продукты для онлайн-игр.\nСегодня в компании работает более 150 сотрудников из России, Латвии, Кипра.\n\n📍Мы ищем Senior PHP developer в сложный и масштабный проект.\n\nСтек наших технологий: PHP 7.4, PostgreSQL 12, Memcache, компоненты Symfony, PHPUnit, Docker, Gitlab CI.\n\nВам предстоит:\n\n🔹 Работа над новым функционалом, непрерывные улучшения и оптимизации текущего;\n🔹Активное участие во всём процессе разработки, начиная с проектирования и заканчивая запуском и поддержкой;\n🔹Коммуникация с командами мобильной разработки и разработки игр. Поиски оптимальных вариантов реализации (архитектура, API, сервисы);\n🔹 Unit- и API-тестирование;\n🔹Проведение Code review;\n🔹Участие в технологическом развитии проекта (выбор новых технологий и подходов к разработке);\n🔹Обеспечение качества кода на всех этапах разработки.\n\nЧто нужно знать/уметь/иметь:\n\n🔹Опыт разработки веб-приложений и сервисов от 3х лет;\n🔹Уверенное владение PHP (сильные и слабые стороны языка);\n🔹 Опыт проектирования реляционных баз данных, уверенное владение SQL;\n🔹 Опыт разработки веб-приложений под существенную нагрузку;\n🔹 Понимание ООП и принципов SOLID;\n🔹 Применение модульного тестирования;\n🔹Быть открытым к диалогу и вести аргументированные споры.\n\nПлюсом будет:\n\n🔹Опыт работы в долгосрочных проектах;\n🔹Опыт работы с PostgreSQL;\n🔹 Знание дополнительных языков - JS, Python.\n\nМы предлагаем:\n\n🔹Высокую заработную плату  + бонусы за результат;\n🔹Возможность карьерного роста;\n🔹Посещение профильных конференций и митапов;\n🔹Сильную команду разработчиков, где можно серьезно прокачать свои скиллы;\n🔹Корпоративные мероприятия, открытое общение с коллегами как в сети, так и в реальном мире. \n\n📝Пиши: @ladychekman, Наталья","markup":[{"type":"hashtag","offset":0,"length":9,"data":"вакансия"},{"type":"hashtag","offset":10,"length":4,"data":"php"},{"type":"hashtag","offset":15,"length":8,"data":"backend"},{"type":"hashtag","offset":24,"length":7,"data":"senior"},{"type":"hashtag","offset":32,"length":10,"data":"developer"},{"type":"hashtag","offset":43,"length":9,"data":"удалённо"},{"type":"hashtag","offset":53,"length":9,"data":"фуллтайм"},{"type":"handle","offset":1824,"length":12,"data":"ladychekman"}],"date":"2020-04-07T07:40:30+00:00","link":"tg://resolve?domain=php_jobs&post=23198","tags":[{"name":"php"},{"name":"postgresql"},{"name":"symfony"},{"name":"phpunit"},{"name":"docker"},{"name":"gitlab"},{"name":"sql"},{"name":"python"}],"cities":[],"allowsRemote":true}},{"node":{"__typename":"Job","id":"24304943104-1001075660570","title":"Php разработчик","text":"#вакансия #TeamLead #PHP #Laravel #Go #PaaS #fulltime #офис\n\nФормат работы: офис\nРасположение офиса: Москва (м.Белорусская)\nЗанятость: полная, гибкое начало дня\nЗП: 300К-370К (на руки)\n\nВсем добрый день.\nЕсть очень интересная вакансия Team Lead`а в крупную e-commerce компанию.\n\n📍Проект - разработка внутренней платформы для запуска и разработки приложений, которая интегрирует в себя инструменты и библиотеки для разработки, pipeline доставки приложений, а также интеграции с хранилищами данных и существующими инструментами.\nСейчас у продукта около 300 пользователей (внутренние заказчики). \n\nЯ ищу человека, который возглавит разработку одной из частей платформы и будет заниматься развитием людей в своей команде.\n\n📌Требования к кандидату:\n\n- хорошо знаешь процесс разработки и можешь круто его организовывать и оптимизировать (например, увеличивать velocity, уменьшать scope drop);\n- обладаешь опытом продуктовой разработки (делаешь фичи для людей, а не для галочки);\n- сможешь управлять командой из 5-6 middle/senior-разработчиков (опыт управления командой от 3-х лет - must have);\n- любишь и умеешь развивать в людях их сильные стороны;\n- понимаешь микросервисную архитектуру и паттерны проектирования;\n- имеешь опыт работы хотя бы с одним из языков: Golang, PHP, Python.\n\n💡Условия:\n- возможность реализовать свои идеи в проекте с многомиллионной аудиторией;\n- команда профессионалов, готовых поддержать ваши инициативы;\n- красивый и комфортный офис в 2 минутах от метро «Белорусская»; \n- ДМС\n- прозрачная система бонусов и премий\n\n📧Контакты для CV и рекомендаций:\nemail: seleznevaem@gmail.com\n@EkaterinaSel","markup":[{"type":"hashtag","offset":0,"length":9,"data":"вакансия"},{"type":"hashtag","offset":10,"length":9,"data":"TeamLead"},{"type":"hashtag","offset":20,"length":4,"data":"PHP"},{"type":"hashtag","offset":25,"length":8,"data":"Laravel"},{"type":"hashtag","offset":34,"length":3,"data":"Go"},{"type":"hashtag","offset":38,"length":5,"data":"PaaS"},{"type":"hashtag","offset":44,"length":9,"data":"fulltime"},{"type":"hashtag","offset":54,"length":5,"data":"офис"},{"type":"link","offset":1583,"length":21,"data":"mailto:seleznevaem@gmail.com"},{"type":"handle","offset":1605,"length":13,"data":"EkaterinaSel"}],"date":"2020-04-06T12:54:20+00:00","link":"tg://resolve?domain=php_jobs&post=23179","tags":[{"name":"php"},{"name":"laravel"},{"name":"go"},{"name":"python"}],"cities":[{"code":"moscow"}],"allowsRemote":false}},{"node":{"__typename":"Job","id":"24303894528-1001075660570","title":"Php разработчик","text":"#вакансия #php #удаленка #спб #phalcon \n\nВакансия: PHP разработчик \nГород: Санкт-Петербург\nФормат: удаленка\nЗанятось: полная\nЗП: 150.000-200.000 «на руки»\n\nПроект: Fantasy invest - игра - симулятор фондового рынка по механике fantasy sport.\nЦелевой рынок: США.\nМобильная версия доступна в AppStore.\n\nСтек: PHP 7.2+, Phalcon 3+, PostgreSQL 10+, Git, SOLID ,Swoole, Zephir Lang, Grafana / Kibana , Nats , Async php \n\nНаше предложение:\n ⁃ Официальное трудоустройство \n ⁃ ДМС с покрытием стоматологии (Ренессанс) \n ⁃ Компенсация спорта, обучений, конференций\n\nКонтакты: @izhuke","markup":[{"type":"bold","offset":0,"length":40,"data":""},{"type":"hashtag","offset":0,"length":9,"data":"вакансия"},{"type":"hashtag","offset":10,"length":4,"data":"php"},{"type":"hashtag","offset":15,"length":9,"data":"удаленка"},{"type":"hashtag","offset":25,"length":4,"data":"спб"},{"type":"hashtag","offset":30,"length":8,"data":"phalcon"},{"type":"bold","offset":415,"length":17,"data":""},{"type":"handle","offset":566,"length":7,"data":"izhuke"}],"date":"2020-04-06T12:04:15+00:00","link":"tg://resolve?domain=php_jobs&post=23178","tags":[{"name":"php"},{"name":"postgresql"},{"name":"git"}],"cities":[],"allowsRemote":true}},{"node":{"__typename":"Job","id":"24299700224-1001075660570","title":"Php разработчик","text":"#вакансия #удаленка #битрикс #bitrix #php #yii\n #штат #highload #ecommerce #официально\n\nРебята, наша компания Hidden Team расширяет штат и приглашает на работу backend-разработчиков уровня middle/middle+. Мы занимаемся разработкой highload проектов в сфере e-commerce и сложных ERP систем. Сотрудничаем с топовыми веб-студиями и digital-агентствами России, любим Битрикс и возможность решать нестандартные проблемы из любой точки страны!\n\nЧто бы мы хотели видеть у наших кандидатов?\n🔸Хорошие знания программирования (PHP, ООП).\n🔸Опыт работы на фреймворке Yii\n🔸Большой опыт реализации проектов на 1С-Битрикс: написание модулей и компонентов, кастомизация свойств.\n🔸Опыт работы с Git.\n🔸Опыт работы в консоли linux.\n🔸Базовые знания html, java script, css.\n🔸Понимание принципов построения RESTFul сервисов.\n🔸Желателен опыт работы с чем-либо RabbitMQ, Redis, ElasticSearch, PostgreSQL.\n🔸Английский на уровне чтения технической документации.\n\nЛичные качества: аккуратность, внимательность к мелочам, самостоятельность и организованность, умение работать в команде, быстро реагировать на запросы и изменение ситуации, желание обучаться и развиваться, стремление сделать работу максимально качественно.\n\nМы предлагаем:\n🔹только удаленная работа с отлаженным процессом менеджмента проектов (трекинг в Redmine, оценка задач разработчиками);\n🔹работа над сложными e-commerce проектами для крупнейших российских веб-студий (топ-10 рейтинга рунета);\n🔹многосерверная архитектура, высокие нагрузки (500К+ посетителей/месяц);\n🔹множество различных интеграций с большими объемами данных;\n🔹индивидуальные планы развития;\n🔹обучение и семинары внутри компании, собственная он-лайн школа на стадии запуска;\n🔹перспективы карьерного роста (повышения уровня разработчика до senior/team lead, возможность релокации);\n🔹 заработная плата 70К-120К+ по итогам собеседования (белая, на руки), открытая система грейдов;\n🔹 официальное оформление по ТК РФ, оплачиваемый отпуск, удобный график (начало работы 8-11), в выходные, праздники и по ночам не работаем☺️.\n\nКонтакты: Яна @yanaizosimova","markup":[{"type":"hashtag","offset":0,"length":9,"data":"вакансия"},{"type":"hashtag","offset":10,"length":9,"data":"удаленка"},{"type":"hashtag","offset":20,"length":8,"data":"битрикс"},{"type":"hashtag","offset":29,"length":7,"data":"bitrix"},{"type":"hashtag","offset":37,"length":4,"data":"php"},{"type":"hashtag","offset":42,"length":4,"data":"yii"},{"type":"hashtag","offset":48,"length":5,"data":"штат"},{"type":"hashtag","offset":54,"length":9,"data":"highload"},{"type":"hashtag","offset":64,"length":10,"data":"ecommerce"},{"type":"hashtag","offset":75,"length":11,"data":"официально"},{"type":"handle","offset":2060,"length":14,"data":"yanaizosimova"}],"date":"2020-04-06T07:30:27+00:00","link":"tg://resolve?domain=php_jobs&post=23174","tags":[{"name":"php"},{"name":"yii"},{"name":"git"},{"name":"linux"},{"name":"html"},{"name":"java"},{"name":"css"},{"name":"rabbitmq"},{"name":"redis"},{"name":"elasticsearch"},{"name":"postgresql"}],"cities":[],"allowsRemote":true}},{"node":{"__typename":"Job","id":"24298651648-1001075660570","title":"Php разработчик","text":"#вакансия #php #javascript #удаленка #удаленно\nВакансия: PHP/Web разработчик\nГород и адрес офиса: Москва, м. Сокол\nФормат: удаленка\nЗанятось: полная/частичная\nЗП: сдельная, по факту\n\nСтек: PHP5/PHP7, MySQL, JavaScript, jQuery, Smarty.\n\nРазвивающийся интернет-магазин мебели ищет PHP/Web разработчика со сдельной оплатой труда по выполненным задачам.\n\nОбязанности: Выполнение доработок по бэк- и фронтенду существующего интернет-магазина, разработка нового функционала.\n\nТребования:\n- Опыт web-разработки от 3 лет.\n- Опыт работы с legacy кодом.\n- Опыт работы с шаблонизатором “Smarty”.\n- Опыт работы с JQuery.\n- Опыт работы со сторонними API.\n- Концентрация, ответственность и исполнительность.\n- Самостоятельность, ориентация на результат.\n- Пунктуальность и системный подход к работе.\n- Соблюдение сроков и качества выполнения задач.\n- Отличные знание PHP, MySQL, Git.\n- Базовые знания работы с консолью (SSH).\n\nУсловия:\n- Удаленная работа.\n- Сдельная оплата по выполненным задачам.\n\ne-mail: kseniya.m@mnogosna.ru\ntelegram: @kseniya_mns","markup":[{"type":"hashtag","offset":0,"length":9,"data":"вакансия"},{"type":"hashtag","offset":10,"length":4,"data":"php"},{"type":"hashtag","offset":15,"length":11,"data":"javascript"},{"type":"hashtag","offset":27,"length":9,"data":"удаленка"},{"type":"hashtag","offset":37,"length":9,"data":"удаленно"},{"type":"bold","offset":351,"length":13,"data":""},{"type":"bold","offset":470,"length":12,"data":""},{"type":"bold","offset":913,"length":9,"data":""},{"type":"link","offset":993,"length":21,"data":"mailto:kseniya.m@mnogosna.ru"},{"type":"handle","offset":1025,"length":12,"data":"kseniya_mns"}],"date":"2020-04-06T07:16:31+00:00","link":"tg://resolve?domain=php_jobs&post=23173","tags":[{"name":"php"},{"name":"javascript"},{"name":"web"},{"name":"mysql"},{"name":"jquery"},{"name":"git"},{"name":"ssh"}],"cities":[{"code":"moscow"}],"allowsRemote":true}},{"node":{"__typename":"Job","id":"24266145792-1001075660570","title":"Php разработчик","text":"#вакансия #juniorphp \nВ IT компанию приглашается Junior PHP разработчик. \n\nОбязанности:\n- разработка и тестирование кода на PHP;\n- разработка модулей к существующим проектам;\n- улучшение существующего кода и решений;\n- разработка структур баз данных.\n\nТребования:\n- знания и умения: PHP, MySQL, HTML, CSS, JavaScript;\n- понимание принципов проектирования структур баз данных;\n- понимание принципов объектно-ориентированного дизайна программ;\n- обязателен опыт работы с Git и Composer;\n- приветствуется знание любых дополнительных языков программирования, особенно со строгой типизацией;\n- желание активно развиваться и изучать новое;\n- умение поддерживать порядок и быть педантичным в вопросах качества;\n- технический английский;\n- терпеливое отношение к чужому коду и к критике собственного;\n- умение работать в команде, желание перенимать опыт коллег и делиться собственным опытом;\n- качественное интернет-соединение.\n\nУсловия и основные принципы: \n- удаленная работа (не фриланс);\n- полная/частичная занятость на выбор (5 дней в неделю, 8/6/4 часов в день);\n- ставка заработной платы 1000 EUR/ 750 EUR/ 500 EUR в месяц (8/6/4 часа);\n- возможен переезд за границу.\n\nПрислать резюме @trlogic","markup":[{"type":"hashtag","offset":0,"length":9,"data":"вакансия"},{"type":"hashtag","offset":10,"length":10,"data":"juniorphp"},{"type":"handle","offset":1184,"length":8,"data":"trlogic"}],"date":"2020-04-03T17:38:59+00:00","link":"tg://resolve?domain=php_jobs&post=23142","tags":[{"name":"php"},{"name":"mysql"},{"name":"html"},{"name":"css"},{"name":"javascript"},{"name":"git"}],"cities":[],"allowsRemote":true}},{"node":{"__typename":"Job","id":"1962934272-1001134745498","title":"Devops инженер","text":"#вакансия #DevOps #Москва #ivi\n\nЛокация: Москва, ст. м. Дмитровская\nФормат работы: офис (на время карантина - удаленка) \nЗанятость: полная\nЗарплатная вилка: от 180 000 до 250 000 руб. на руки.\n\nМы — команда эксплуатации сервиса ivi .\n\nРазыскиваем коллегу в команду для участия в настойке процессов, технических (CI/CD) и в части взаимодействия с коллегами. Активное участие в разворачивании и эксплуатации k8s .Помогаем командам разработки строить CI/CD-пайплайны . Некоторые из нас это делают в составе кросс-команд, другие помогают многим командам, оставшиеся обеспечивают всех нас необходимыми приложениями и инфраструктурой.\n\nУчим команды использовать контейнеры (docker) для подготовки разрабатываемых приложений, осваиваем использование k8s для оркестрации. Используем Ubuntu, Linux.\n\nХраним код и разрабатываем pipeline-ы с помощью gitlab+artifactory .\nДля мониторинга серверов и сервисов используем zabbix и statsd , заправляем grafana.\nНаши сервисы написаны на python, golang и немного php и java.\nЛюбим и активно используем jenkins для решения самых разнообразных задач.\nИспользуем много open source (и не только) приложений: nginx, redis, postgresql, mongodb, rabbitmq, clickhouse, openstack, gitlab, kafka, hdfs, jira , opennebula.\n\nЧто предстоит делать: \n- развитие и настройки процессов ci/cd;\n- планирование и участие в рефакторинге процессов, инфраструктуры, приложений;\n- сопровождение сервисов от разработки до эксплуатации, участие в эксплуатации;\n- доработка текущих и разработка новых сценариев конфигурирования серверов и приложений; \n- администрирование приложений по результатам выполненной работы подготовка документации, если необходимо. \n\nКак узнать что ты нам подходишь? \n- положительный и продолжительный опыт работы с CI/CD-системами (у нас gitlab и jenkins);\n- умение хорошо готовить docker; \n- опыт программирования на скриптовых языках (shell, python);\nопыт администрирования linux и приложение 5+;\n- понимание сетевых технологий TCP/IP; \n- опыт работы с системами управления версиями (git) и конфигурациями. \n\nСо своей стороны мы обещаем: \n- Офис в 5 минутах ходьбы от м. \"Дмитровская\";\n- У нас гибкий график, мы начинаем до 11 часов дня;\n- Трудоустройство по ТК РФ;\n- ДМС + стоматология после прохождения испытательного срока;\n- Подписка на ivi;\n- Пакет релокации для соискателей со всей России.\n\nОнлайн-кинотеатр ivi \nhttps://www.ivi.tv/\n\nБуду рада рассказать подробности, пишите в личку @daria144 или на почту dsereda@ivi.ru\n\n—\n\n👉 Обсуждение вакансии в чате @devops_jobs","markup":[{"type":"hashtag","offset":0,"length":9,"data":"вакансия"},{"type":"hashtag","offset":10,"length":7,"data":"DevOps"},{"type":"hashtag","offset":18,"length":7,"data":"Москва"},{"type":"hashtag","offset":26,"length":4,"data":"ivi"},{"type":"link","offset":2354,"length":19,"data":"https://www.ivi.tv/"},{"type":"handle","offset":2424,"length":9,"data":"daria144"},{"type":"link","offset":2447,"length":14,"data":"mailto:dsereda@ivi.ru"},{"type":"handle","offset":2496,"length":12,"data":"devops_jobs"}],"date":"2020-04-03T12:38:12+00:00","link":"tg://resolve?domain=devops_jobs_feed&post=1872","tags":[{"name":"docker"},{"name":"ubuntu"},{"name":"linux"},{"name":"gitlab"},{"name":"python"},{"name":"go"},{"name":"php"},{"name":"java"},{"name":"jenkins"},{"name":"nginx"},{"name":"redis"},{"name":"postgresql"},{"name":"mongodb"},{"name":"rabbitmq"},{"name":"kafka"},{"name":"hdfs"},{"name":"shell"},{"name":"git"}],"cities":[{"code":"moscow"}],"allowsRemote":true}},{"node":{"__typename":"Job","id":"24242028544-1001075660570","title":"Php разработчик","text":"#php #developer #middle #senior #fulltime #удалённо #job #вакансия #remote #фуллтайм #fulltime #удаленно #удаленка #удалёнка #удаленно \n #москва \n✔️ Вакансия: PHP developer\nЗП: до 160k net\nФормат работы: полная/удаленно\nКомпания: МТС \n\nКрупная российская телекоммуникационная компания приглашает присоединиться PHP разработчика к проекту доработки приложения, позволяющее абонентам эффективно и комфортно управлять финансами абонентского счета.\n\n ✔️ Задачи:\n• Доработка CMS бэкенда проекта;\n• Доработка бэкенда проекта;\n• Интеграции решений с внешними системами;\n• Интеграция решения с мобильными приложениями;\n• Разработка веб-приложений с использованием PHP 5.3, 5.6, 7.3.\n\n✔️ Предлагаем: \n• Официальное трудоустройство;\n• Повышение квалификации;\n•  Удаленная работа из дома.\n\n✔️ Пожелания к Вашему опыту:\n• Знание отличий версий PHP 5.3, 5.6, 7.3;\n• Понимание принципов ООП, MVP;\n• Опыт работы с #Yii2, #Laravel;\n• Работа с БД: PL/SQL, MySQL, MS SQL;\n• Опыт работы с JavaScript, jQuery, Bootstrap, CSS, HTML;\n• Опыт работы с Yii2, Laravel;\n• Работа с БД: PL/SQL, MySQL, MS SQL;\n• Знание команд Unix/Windows;\n• Опыт разработки пользовательских интерфейсов;\n• Опыт работы с системами контроля версий: TFS/SVN/GIT.\n\nКонтактное лицо: @OlgaVzh","markup":[{"type":"hashtag","offset":0,"length":4,"data":"php"},{"type":"hashtag","offset":5,"length":10,"data":"developer"},{"type":"hashtag","offset":16,"length":7,"data":"middle"},{"type":"hashtag","offset":24,"length":7,"data":"senior"},{"type":"hashtag","offset":32,"length":9,"data":"fulltime"},{"type":"hashtag","offset":42,"length":9,"data":"удалённо"},{"type":"hashtag","offset":52,"length":4,"data":"job"},{"type":"hashtag","offset":57,"length":9,"data":"вакансия"},{"type":"hashtag","offset":67,"length":7,"data":"remote"},{"type":"hashtag","offset":75,"length":9,"data":"фуллтайм"},{"type":"hashtag","offset":85,"length":9,"data":"fulltime"},{"type":"hashtag","offset":95,"length":9,"data":"удаленно"},{"type":"hashtag","offset":105,"length":9,"data":"удаленка"},{"type":"hashtag","offset":115,"length":9,"data":"удалёнка"},{"type":"hashtag","offset":125,"length":9,"data":"удаленно"},{"type":"hashtag","offset":137,"length":7,"data":"москва"},{"type":"bold","offset":158,"length":15,"data":""},{"type":"bold","offset":204,"length":16,"data":""},{"type":"bold","offset":447,"length":11,"data":""},{"type":"bold","offset":676,"length":16,"data":""},{"type":"bold","offset":779,"length":29,"data":""},{"type":"hashtag","offset":899,"length":5,"data":"Yii2"},{"type":"hashtag","offset":906,"length":8,"data":"Laravel"},{"type":"handle","offset":1233,"length":8,"data":"OlgaVzh"}],"date":"2020-04-02T08:52:06+00:00","link":"tg://resolve?domain=php_jobs&post=23119","tags":[{"name":"php"},{"name":"dotnet"},{"name":"yii"},{"name":"laravel"},{"name":"sql"},{"name":"mysql"},{"name":"javascript"},{"name":"jquery"},{"name":"bootstrap"},{"name":"css"},{"name":"html"},{"name":"unix"},{"name":"windows"},{"name":"tfs"},{"name":"svn"},{"name":"git"}],"cities":[{"code":"moscow"}],"allowsRemote":true}}]}}},"context":{}}