{"hash":"f5f6bf98bd95e769321482904cbbd488f77922fd","data":{"records":{"id":"rest","name":"rest","belongsTo":{"totalCount":192,"pageInfo":{"totalPages":20,"currentPage":16},"edges":[{"node":{"__typename":"Job","id":"71447871488-1001054966032","title":"Ios разработчик","text":"#вакансия #ios #remote #fulltime \nВакансия: iOS разработчик\nФормат работы: удаленно или при желании в офисе (Москва, м. Трубная)\nЗанятость: полная\nЗ/п: от 170 000 до 200 000 по результатам общения\nКомпания: https://poloniumarts.com/\nСфера деятельности: разработка ПО.\n\nНа один из новых проектов. Все с нуля. Никакого легаси. \n\nОсновные задачи\n▪️верстка экранов приложения\n▪️проработка Api и логика приложения\n▪️полная поддержка проекта\n\nТребования\n▪️опыт коммерческой разработки мобильных приложений под iOS с нуля\n▪️знания Swift, Auto Layout, iOS SDK\n▪️понимание и опыт использования принципов ООП, SOLID\n▪️опыт использования JSON, REST API\n\nМы предлагаем\n▪️стабильную зарплату по результатам собеседования\n▪️оформление по ТК РФ\n▪️гибкий график работы\n▪️интересные, творческие задачи","markup":[{"type":"hashtag","offset":0,"length":9,"data":"вакансия"},{"type":"hashtag","offset":10,"length":4,"data":"ios"},{"type":"hashtag","offset":15,"length":7,"data":"remote"},{"type":"hashtag","offset":23,"length":9,"data":"fulltime"},{"type":"bold","offset":34,"length":9,"data":""},{"type":"bold","offset":60,"length":14,"data":""},{"type":"bold","offset":129,"length":10,"data":""},{"type":"bold","offset":147,"length":5,"data":""},{"type":"bold","offset":197,"length":10,"data":""},{"type":"link","offset":207,"length":25,"data":"https://poloniumarts.com/"},{"type":"bold","offset":233,"length":19,"data":""},{"type":"bold","offset":327,"length":16,"data":""},{"type":"bold","offset":437,"length":11,"data":""},{"type":"bold","offset":643,"length":14,"data":""}],"date":"2020-06-17T07:59:57+00:00","link":"tg://resolve?domain=mobile_jobs&post=0","tags":[{"name":"mobile"},{"name":"ios"},{"name":"swift"},{"name":"json"},{"name":"rest"}],"cities":[{"code":"moscow"}],"allowsRemote":true}},{"node":{"__typename":"Job","id":"26351763456-1001075660570","title":"Php developer","text":"#вакансия #москва #офис #fulltime #yii #php\n\n Позиция: Senior PHP Developer\nЗанятость: полная\nКомпания: ТД ЦУМ \nЛокация: Москва\nЗ/П: до 270.000\n\n   Основные цели и задачи:\n- Разработка программных модулей продуктов компании;\n- Глубокое погружение в процессы работы интернет-магазина;\n- Участие в разработке сервис-ориентированной архитектуре приложения.\n\n   Основные обязанности:\n- Разработка и поддержка инфраструктуры интернет-проекта, мобильного приложения и внутренних сервисов компании;\n- Разработка программных модулей продуктов интернет магазина ЦУМ;\n- Оптимизация приложения под высокую нагрузку, масштабирование, поиск узких мест;\n- Интеграция со сторонними сервисами;\n- Предложение и внедрение высокотехнологичных, инновационных решений.\n\nТребования:\n- Отличное знание и опыт работы с PHP 5.3 (желательно 7) от 3 лет;\n- Понимание как устроен HTTP, REST;\n- Знание и понимание MVC архитектуры;\n- Знание и опыт работы фреймворком YII;\n- Опыт работы с одной или несколькими БД: MySQL, Redis, Mongo;\n- Опыт мониторинга и оптимизации SQL-запросов;\n\n   Условия работы:\n- Полный рабочий день.\n- Официальное оформление по трудовому договору.\n- Офис в центре Москвы.\n- ДМС.\n\nЗа подробностями в личку - @nastyaklassnaya","markup":[{"type":"hashtag","offset":0,"length":9,"data":"вакансия"},{"type":"hashtag","offset":10,"length":7,"data":"москва"},{"type":"hashtag","offset":18,"length":5,"data":"офис"},{"type":"hashtag","offset":24,"length":9,"data":"fulltime"},{"type":"hashtag","offset":34,"length":4,"data":"yii"},{"type":"hashtag","offset":39,"length":4,"data":"php"},{"type":"handle","offset":1202,"length":16,"data":"nastyaklassnaya"}],"date":"2020-06-17T07:47:26+00:00","link":"tg://resolve?domain=php_jobs&post=25131","tags":[{"name":"php"},{"name":"yii"},{"name":"rest"},{"name":"mysql"},{"name":"redis"},{"name":"sql"}],"cities":[{"code":"moscow"}],"allowsRemote":false}},{"node":{"__typename":"Job","id":"91038416896-1001067529236","title":"Python разработчик","text":"#вакансия #python #Казань\n\nНаш основной проект Матур:мастера маникюра. \n\nВаши задачи:\n• Участие в продуктовой разработке с высоким уровнем свободы и ответственности.\n• Изучение и реализация новых требований, анализ и устранение неисправностей в написанном коде.\n• Применение современных подходов и технологий разработки.\n\nТехнологии и требования:\n• ​​​​Знание Python (версии 3+)\n• Знание Python-фреймворков (DRF и Django)\n• Знание Channels под Django\n• Навыки построения REST API на Python\n• Опыт использования ORM\n• Умение работать с системой контроля версий (Git)\n• Опыт работы с Unix-образными системами\n• Опыт работы с базами (postgresql, redis)\n• Опыт работы с Docker, docker-compose\n\nУсловия:\n• Полная занятость; пн-пт; 8 часовой рабочий день. \n• Плавающее начало рабочего дня; возможность несколько раз в неделю работать из дома.\n• Современный и комфортный офис; Бесплатные обеды в офис.\n• Работа в небольшом и дружном коллективе, сплоченной команде профессионалов с отзывчивым руководство.\n• Профессиональное развитие с возможностью посещения ИТ конференций,семинаров, митапов.\n• Заработная плата от 60.000 рублей по результатам собеседования.\n\nПервый контакт: @rkrts","markup":[{"type":"hashtag","offset":0,"length":9,"data":"вакансия"},{"type":"hashtag","offset":10,"length":7,"data":"python"},{"type":"hashtag","offset":18,"length":7,"data":"Казань"},{"type":"bold","offset":73,"length":12,"data":""},{"type":"bold","offset":322,"length":24,"data":""},{"type":"bold","offset":690,"length":8,"data":""},{"type":"handle","offset":1169,"length":6,"data":"rkrts"}],"date":"2020-06-16T18:49:54+00:00","link":"tg://resolve?domain=python_jobs&post=0","tags":[{"name":"python"},{"name":"django"},{"name":"rest"},{"name":"orm"},{"name":"git"},{"name":"unix"},{"name":"postgresql"},{"name":"redis"},{"name":"docker"},{"name":"docker-compose"}],"cities":[{"code":"kazan"}],"allowsRemote":false}},{"node":{"__typename":"Job","id":"102977503232-1001089317451","title":"Qa engineer","text":"#вакансия #работа #удалёнка #fulltime #qa\nДолжность : QA Engineer\nКомпания : 6nomads.com\nФормат работы: #fulltime #remote\nЗарплата: $ 40 000 в год\n\nМолодой стартап из Сан-Франциско, призванный упростить онлайн-коммуникации для бизнеса, недавно привлек $ 4 млн инвестиций и теперь ищет удаленного QA на фул-тайм. \n\nТребования: \n•  Опыт разработки тест кейсов от 2 лет;\n•  Опыт тестирования WEB, API и мобильных iOS/Android приложений;\n•  Умение анализировать логи серверов приложений и локализовать причину сбоя;\n• Опыт интеграционного тестирования систем;\n• Знание PL/SQL;\n• Уровень английского не ниже В2.\n\nБудет плюсом:\n• Опыт работы с Rest Assured, Selenium;\n• Опыт работы с WAS, WildFly и Nginx;\n• Умение работать в Redmine или Jira.\n\nКонтакт для связи: @nastya_stret","markup":[{"type":"hashtag","offset":0,"length":9,"data":"вакансия"},{"type":"hashtag","offset":10,"length":7,"data":"работа"},{"type":"hashtag","offset":18,"length":9,"data":"удалёнка"},{"type":"hashtag","offset":28,"length":9,"data":"fulltime"},{"type":"hashtag","offset":38,"length":3,"data":"qa"},{"type":"link","offset":77,"length":11,"data":"http://6nomads.com"},{"type":"hashtag","offset":104,"length":9,"data":"fulltime"},{"type":"hashtag","offset":114,"length":7,"data":"remote"},{"type":"handle","offset":758,"length":13,"data":"nastya_stret"}],"date":"2020-06-16T18:31:08+00:00","link":"tg://resolve?domain=qa_jobs&post=0","tags":[{"name":"qa"},{"name":"web"},{"name":"ios"},{"name":"android"},{"name":"sql"},{"name":"rest"},{"name":"selenium"},{"name":"nginx"}],"cities":[],"allowsRemote":true}},{"node":{"__typename":"Job","id":"71420608512-1001054966032","title":"Ios разработчик","text":"#вакансия #iOS #москва\n\nНа проект от крупного российского банка требуется Middle iOS разработчик\n\nФормат: офис\n\nВилка ЗП: 150-180К\n\nЛокация: Москва\n\nТребования:\nОпыт разработки под IOS (Objective-C или Swift) от 2 лет\nУверенное знание iOS SDK, Xcode\nОпыт использования одной из архитектур: MVP, MVVM, VIPER\nЗнание особенностей: Collections, Optionals, Protocol Oriented, Generics\nПонимание, как происходит управление памятью в iOS\nПонимание принципов проектирования SOLID и желание придерживаться их\nНаличие опыта работы с REST API, HTTP, JSON, APNs\nОпыт работы с Git, знание git flow\nЖелательно уметь писать UI тесты\nЖелателен опыт в команде\n\nКонтакт: @mxm_at","markup":[{"type":"hashtag","offset":0,"length":9,"data":"вакансия"},{"type":"hashtag","offset":10,"length":4,"data":"iOS"},{"type":"hashtag","offset":15,"length":7,"data":"москва"},{"type":"handle","offset":653,"length":7,"data":"mxm_at"}],"date":"2020-06-16T17:18:18+00:00","link":"tg://resolve?domain=mobile_jobs&post=0","tags":[{"name":"mobile"},{"name":"ios"},{"name":"objective-c"},{"name":"swift"},{"name":"xcode"},{"name":"mvvm"},{"name":"rest"},{"name":"json"},{"name":"git"}],"cities":[{"code":"moscow"}],"allowsRemote":false}},{"node":{"__typename":"Job","id":"71418511360-1001054966032","title":"Ios разработчик","text":"💪#вакансия #удалёнка #iOS #fulltime  #Middle+/#Senior    \n💵З/П 2200-2400 $/месяц по итогам собеседования\nРабота: удалёнка\n\nЧеловек в среднем больше сотни раз взаимодействует с клавиатурой своего мобильного устройства. Для большинства пользователей нашего приложения мы делаем этот процесс  интереснее и выгодней. Мы также оцениваем эмоциональное состояние пользователя, в процессе его взаимодействия с клавиатурой. Руководство компании из топ-менеджмента крупнейших глобальных игроков мобильного рынка. В данный момент открыта вакансия Middle+/Senior IOS разработчика, в подчинении 2 сотрудника                                                                                                               \n\n📌Обязанности:\n- Разработка кастомной клавиатуры iOS\n- Подключение ML-алгоритмов (TensorFlow) распознавания эмоций к iOS-клавиатуре\n- Разработка кода обработки данных камеры, микрофона\n\n📌Требования:\n- Уверенное знание Swift;\n- Хорошее знание платформы iOS, инструментов разработки, работы UI;\n- Опыт работы с REST API, HTTP, JSON, APNs;\n- Знакомство с библиотеками CoreData, AVFoundation, CoreML и CreateML\n- Желание развиваться и развивать свои знания            \n-Знание английского на уровне от Intermediate желательно                                                                                                               \n\n📌Будет плюсом:\n- Опыт работы c TensorFlow на iOS\n- Опыт работы с OpenCV на iOS\n- Опыт работы с фреймворком SwiftUI\n\n📌Условия:\n- Отсутствие бюрократии\n- Время начала рабочего дня обговариваем индивидуально\n- Come to the Dark Side, we have тёплая ламповая атмосфера стартапа, чай, кофе и печеньки!\n- Крутой инновационный проект - возможность самореализации и профессионального роста\n- Стабильное зарубежное финансирование\n- Десятки миллионов установок и множество глобальных партнёров\n📞 Контакты @SvetikS_hr +7(963)-632-12-36 Cветлана","markup":[{"type":"hashtag","offset":2,"length":9,"data":"вакансия"},{"type":"hashtag","offset":12,"length":9,"data":"удалёнка"},{"type":"hashtag","offset":22,"length":4,"data":"iOS"},{"type":"hashtag","offset":27,"length":9,"data":"fulltime"},{"type":"hashtag","offset":38,"length":7,"data":"Middle"},{"type":"hashtag","offset":47,"length":7,"data":"Senior"},{"type":"handle","offset":1841,"length":11,"data":"SvetikS_hr"},{"type":"link","offset":1853,"length":17,"data":"tel:+7(963)-632-12-36"}],"date":"2020-06-16T16:45:08+00:00","link":"tg://resolve?domain=mobile_jobs&post=0","tags":[{"name":"mobile"},{"name":"ios"},{"name":"tensorflow"},{"name":"swift"},{"name":"rest"},{"name":"json"},{"name":"opencv"}],"cities":[],"allowsRemote":true}},{"node":{"__typename":"Job","id":"91035271168-1001067529236","title":"Python разработчик","text":"#вакансия #python\n\nНазвание компании: Appello, appello.com.au\nОписание вакансии: Ищем в команду Python разработчика, Django/Flask. Удаленно, на долгий срок.\n\n-Опыт работы с Python 3, Django REST Framework (DRF);\n-Знание MySQL/PostgreSQL;\n-Конечно же Git;\n-Знание других технологий будет плюсом (NodeJS, RoR, Symfony или другое);\n-Круто если вы участвовали в open-source проектах;\n-Ссылки на выполненные проекты и примеры вашего кода;\n-Возможность работать 30+ часов в неделю;\n\nУсловия работы: \nУдаленно, фуллтайм 30-40 часов в неделю.\nРабота происходит с таймтрекером. Выплаты на основе отработанного времени 2 раза в месяц.\nТехнологии: #python, #django\nОфис или удаленка: #удаленка\nЗанятость: #полная\n\nЗарплатная вилка: 1100-1900$\nКонтакты: jobs@appello.com.au @stpa3k","markup":[{"type":"hashtag","offset":0,"length":9,"data":"вакансия"},{"type":"hashtag","offset":10,"length":7,"data":"python"},{"type":"link","offset":47,"length":14,"data":"http://appello.com.au"},{"type":"hashtag","offset":637,"length":7,"data":"python"},{"type":"hashtag","offset":646,"length":7,"data":"django"},{"type":"hashtag","offset":673,"length":9,"data":"удаленка"},{"type":"hashtag","offset":694,"length":7,"data":"полная"},{"type":"link","offset":742,"length":19,"data":"mailto:jobs@appello.com.au"},{"type":"handle","offset":762,"length":7,"data":"stpa3k"}],"date":"2020-06-16T16:26:20+00:00","link":"tg://resolve?domain=python_jobs&post=0","tags":[{"name":"python"},{"name":"django"},{"name":"flask"},{"name":"rest"},{"name":"mysql"},{"name":"postgresql"},{"name":"git"},{"name":"nodejs"},{"name":"ruby-on-rails"},{"name":"symfony"}],"cities":[],"allowsRemote":true}},{"node":{"__typename":"Job","id":"91031076864-1001067529236","title":"Python разработчик","text":"#job #вакансия #python #Django #vacancy #IT  #remote\n\nДрузья, всем привет! \nНовая вакансия -  #Senior_PythonDeveloper\nЛокация - Россия,\nПолный рабочий день, #remote \n#Оплата: 3000$\n\nТребования:\n\n-Опыт работы в индустрии разработки ПО от 5-ти лет;\n-Уверенное знание Python 3+/Python Core (языковые структуры, стандартные библиотеки, регулярные выражения и т.д.);\n-Практический опыт работы с Django (Django ORM, Django Rest Framework);\n-Иметь представление о GraphQL APIs (Graphene будет плюсом);\n-Знание SQL (знание реляционной СУБД PostgreSQL будет плюсом) на уровне работы как прикладного разработчика;\n-Опыт написания API и работы/интеграции с API сторонних сервисов;\n-Опыт работы с рядом AWS-сервисов: Lambda, API Gateway, SNS, SQS, SES, S3, RDS, VPC, EC2, CloudWatch, etc;\n-The English language MUST HAVE (B2+ level) to work with the english speaking team.\n\n\nЗа дополнительной информацией, пишите в ЛС\nили Telegram: @Zalvovskaya","markup":[{"type":"hashtag","offset":0,"length":4,"data":"job"},{"type":"hashtag","offset":5,"length":9,"data":"вакансия"},{"type":"hashtag","offset":15,"length":7,"data":"python"},{"type":"hashtag","offset":23,"length":7,"data":"Django"},{"type":"hashtag","offset":31,"length":8,"data":"vacancy"},{"type":"hashtag","offset":40,"length":3,"data":"IT"},{"type":"hashtag","offset":45,"length":7,"data":"remote"},{"type":"hashtag","offset":94,"length":23,"data":"Senior_PythonDeveloper"},{"type":"hashtag","offset":157,"length":7,"data":"remote"},{"type":"hashtag","offset":166,"length":7,"data":"Оплата"},{"type":"handle","offset":920,"length":12,"data":"Zalvovskaya"}],"date":"2020-06-16T16:10:10+00:00","link":"tg://resolve?domain=python_jobs&post=0","tags":[{"name":"python"},{"name":"django"},{"name":"orm"},{"name":"rest"},{"name":"graphql"},{"name":"sql"},{"name":"postgresql"},{"name":"amazon-web-services"},{"name":"aws-lambda"}],"cities":[],"allowsRemote":true}},{"node":{"__typename":"Job","id":"102963871744-1001089317451","title":"Qa engineer","text":"#Москва #вакансия #QA #fulltime #test #office\n\n💻Компания: СберТех.\n🧰Вакансия: QA Engineer.\n🏢Офис: Москва, м. Нагатинская/м. Тульская/ м. Верхние Котлы.\n💰ЗП: от 150 000 Net.\n\n📂Проект: Разработка платформы для управления бизнес-процессами Банка и Цифровой Платформы Sber.\n\n🗓Задачи:\n• Работа в роли тестировщика в scrum команде.\n• Написание, актуализация тестовых сценариев и их прохождение (API, UI).\n• Проведение функционального, регрессионного, интеграционного и других видов тестирования.\n• Регистрация, отслеживание и верификация дефектов.\n• Участие в развитии команды и процессов тестирования.\n\n📌Требования: \n• Опыт написания тестовых сценариев, чек-листов, составления сложных интеграционных сценариев.\n• Знание теории тестирования, понимание видов тестирования и необходимости их применения на различных этапах реализации проекта.\n• Опыт анализа и тестирования требований.\n• Опыт тестирования rest/soap сервисов.\n• Опыт работы с BPM системами, понимание нотации BPMN 2.0.\n\n📎Cтек: REST, XML, XSD, JSON, SQL, BPMN 2.0, Docker, Kubernetes, Openshift, Kafka.\n\n🔰Условия:\n• Оформление ТК РФ.\n• ДМС для сотрудников и скидки на медицинскую страховку для родственников;\n• Высокая белая заработная плата (оклад + годовая премия).\n• Возможность обучения за счет компании, посещения IT-конференций.\n• Бесплатный тренажерный зал на территории офиса.\n• Корпоративная жизнь и спортивные мероприятия.\n\n📩Готов ответить на интересующие вопросы - @Dmiryy","markup":[{"type":"hashtag","offset":0,"length":7,"data":"Москва"},{"type":"hashtag","offset":8,"length":9,"data":"вакансия"},{"type":"hashtag","offset":18,"length":3,"data":"QA"},{"type":"hashtag","offset":22,"length":9,"data":"fulltime"},{"type":"hashtag","offset":32,"length":5,"data":"test"},{"type":"hashtag","offset":38,"length":7,"data":"office"},{"type":"handle","offset":1443,"length":7,"data":"Dmiryy"}],"date":"2020-06-16T16:02:50+00:00","link":"tg://resolve?domain=qa_jobs&post=0","tags":[{"name":"qa"},{"name":"dotnet"},{"name":"rest"},{"name":"soap"},{"name":"xml"},{"name":"xsd"},{"name":"json"},{"name":"sql"},{"name":"docker"},{"name":"kubernetes"},{"name":"kafka"}],"cities":[{"code":"moscow"}],"allowsRemote":false}},{"node":{"__typename":"Job","id":"1699741696-1001091028994","title":"Java разработчик","text":"#вакансия #Москва #Архитектор #Java\n \nВакансия: АРХИТЕКТОР\nЛокация: #Москва ст.м.Верхние Лихоборы, МЦК Окружная\nВилка по ЗП: до 300 000 net \nКонтакт: @Hr_Dina\nОсновной проект: Развитие решения класса IDM/AM.\nВ рамках проекта необходимо доработать решение под требования заказчика.\nНаписать проектно-рабочую документацию.\nПройти процедуру сертификации решения.\n \nСтек технологий: OpenJDK 11 Spring 5 Springboot 2 Hibernate 5 Ignite (возможно будет заменен на redis) Netty 4 Postgres 11 Angular 8 Docker (планируется использовать kubernetes)\n \n \nЧем Вам предстоит заниматься:\nРазработка архитектуры и проектирование информационных систем;\nОрганизация и проведение обследований существующей и планируемой IT-инфраструктуры на территории Заказчика;\nРазработка и согласование проектной и технической документации в части системной архитектуры;\nРазработка тендерной документации и технических предложений в части системной архитектуры;\nКонсультирование ИТ и бизнес - специалистов Заказчика по вопросам, относящимся к компетенции архитектора.\nВ рамках текущего проекта:\nСопровождение архитектуры решения;\nУправление запросами на доработку решения от интегрированных прикладных проектов, проектирование общих согласованных решений на доработку;\nОбеспечение нефункциональных требований к масштабируемости и производительности.\n \n \nЧто мы ждем от вас:\nОпыт работы от 2 лет в сфере реализации корпоративных приложений на java платформе в должности руководитель группы разработки, архитектор/ведущий архитектор.\n\nЗнания и навыки:\nЗнание основ разграничения доступа (RBAC/ABAC/мандатное), опыт использования решений класса IDM/AM;\nЗнание и практический опыт применения методологий разработки и проектирования ПО;\nЗнания и опыт применения шаблонов проектирования информационных систем;\nЗнания принципов работы реляционных СУБД, опыт работы с различными реализация БД (Oracle, Postgre предпочтительно).\nОпыт разработки или проектирования высоконагруженных приложений на Java;\nJava SE 8+ (Core, Collections, Multithreading);\nSpring (Core, Boot, Security, Data);\nHibernate/Ebean/Jooq;\nIgnite/redis\nPostgres\n\nПлюсом будет:\nОпыт разработки и/или проектирования СЗИ от НСД в соответствии с требованиями РД ФСТЭК/Гостехкомиссии;\nОпыт подготовки проектной документации, знание ГОСТ 19/34;\nЗнание основ криптографической защиты информации;\nЗнание ОС Astra Linux SE\n\nЗнание:\nOAuth, SSO/SAML, Kerberos, PKI, WS-Security;\nПроектирование REST API (Swagger);\nDocker, Kubernetes\n\nЧто готовы предложить:\nВозможность участвовать в масштабных проектах на уровне страны.\nГибкий график работы. Преимущественно команда работает с 9 (10.00) до 18 (19.00) по московскому времени. Возможность работать удаленно.\nСоциальный пакет (ДМС, дополнительные компенсации по обучению и туризму, изучение английского языка на льготных условиях).","markup":[{"type":"hashtag","offset":0,"length":9,"data":"вакансия"},{"type":"hashtag","offset":10,"length":7,"data":"Москва"},{"type":"hashtag","offset":18,"length":11,"data":"Архитектор"},{"type":"hashtag","offset":30,"length":5,"data":"Java"},{"type":"bold","offset":38,"length":9,"data":""},{"type":"bold","offset":59,"length":8,"data":""},{"type":"hashtag","offset":68,"length":7,"data":"Москва"},{"type":"bold","offset":112,"length":12,"data":""},{"type":"bold","offset":141,"length":8,"data":""},{"type":"handle","offset":150,"length":8,"data":"Hr_Dina"},{"type":"bold","offset":159,"length":16,"data":""},{"type":"bold","offset":362,"length":17,"data":""},{"type":"bold","offset":544,"length":30,"data":""},{"type":"bold","offset":1322,"length":20,"data":""},{"type":"italic","offset":1501,"length":17,"data":""},{"type":"italic","offset":2091,"length":14,"data":""},{"type":"italic","offset":2343,"length":8,"data":""},{"type":"bold","offset":2451,"length":23,"data":""}],"date":"2020-06-16T15:11:33+00:00","link":"tg://resolve?domain=jvmjobs&post=1621","tags":[{"name":"java"},{"name":"jvm"},{"name":"dotnet"},{"name":"spring"},{"name":"hibernate"},{"name":"redis"},{"name":"postgresql"},{"name":"angularjs"},{"name":"docker"},{"name":"kubernetes"},{"name":"oracle"},{"name":"linux"},{"name":"oauth"},{"name":"rest"},{"name":"swagger"}],"cities":[{"code":"moscow"}],"allowsRemote":true}}]}}},"context":{}}