{"hash":"f5f6bf98bd95e769321482904cbbd488f77922fd","data":{"records":{"id":"css","name":"css","belongsTo":{"totalCount":116,"pageInfo":{"totalPages":12,"currentPage":4},"edges":[{"node":{"__typename":"Job","id":"17221812224-1001110946746","title":"Js developer","text":"#вакансия #Frontend #React\n #JS #Lead \n🔸 Формат работы: full time офис\n🔸 Город: г. Москва 1905 года с сентября Кутузовский проспект\n🔸 З/п: от 260 000 руб. net до 300 000 net, готовы обсудить.\n🔸Мы -  международный сервис пассажирских перевозок. Создаем глобальный высокотехнологичный продукт, который меняет жизнь миллионов людей к лучшему.\nВходим в топ-5 мобильных сервисов для заказа поездок.\n\nСейчас ищем Lead frontend developer в Московский офис разработки.\n\nИспользуемые технологии:\n- React;\n- PHP и Go в качестве языков для бекенда;\n- Kubernetes + Teamcity для CI/CD.\n\n📌 Чем придется заниматься:\n- разработкой фронтовых проектов на React;\n- нанимать, проводить Code review и обучать младших коллег;\n- интегрироваться с Backend, отстаивать свою точку зрения почему так и как сделать лучше;\n- проектирование архитектуры приложения.\n📌Мы ожидаем, что вы:\n- отлично владеете базовыми технологиями — HTML, CSS, JavaScript (ES6), DOM, браузерные API;\n- имеете опыт разработки сложных продуктов с использованием React;\n- ответственны, умеете работать в команде и самостоятельно восполнять недостающие навыки и знания;\n\n🔹Будет здорово, если вы:\n- интересуетесь новыми технологиями во фронтенде;\n- обладаете навыками в автоматизации сборки и тестирования фронтенда.\n\n🔸 Компания: inDriver\n🔸 Контакты: @molly_doll","markup":[{"type":"hashtag","offset":0,"length":9,"data":"вакансия"},{"type":"hashtag","offset":10,"length":9,"data":"Frontend"},{"type":"hashtag","offset":20,"length":6,"data":"React"},{"type":"hashtag","offset":28,"length":3,"data":"JS"},{"type":"hashtag","offset":32,"length":5,"data":"Lead"},{"type":"handle","offset":1304,"length":11,"data":"molly_doll"}],"date":"2020-06-29T15:29:20+00:00","link":"tg://resolve?domain=javascript_jobs_feed&post=16424","tags":[{"name":"javascript"},{"name":"reactjs"},{"name":"dotnet"},{"name":"php"},{"name":"kubernetes"},{"name":"html"},{"name":"css"}],"cities":[{"code":"moscow"}],"allowsRemote":false}},{"node":{"__typename":"Job","id":"26800553984-1001075660570","title":"Php разработчик","text":"#разработчикБитрикс #Битрикс #PHPразработчик #ProgressiveMedia #вакансия \n\nProgressive Media приглашает в штат разработчиков PHP/ 1С-Битрикс (удаленно, полная занятость). Работа в проектных группах. Чистый бэкэнд-кодинг, интересные формализованные задачи. \n\n✅Обязанности: \n- Создание бэкенда на PHP на базе Bitrix framework \n- Интеграция фронтенда \n- Разработка сервисов интеграции с различными ERP и CRM-системами \n\n✅Требуется: \n- PHP, MySQL \n- Знание принципов ООП (PHP7) \n- HTML5, CSS3, JavaScript, JQuery, SQL для интеграции фронтенда \n- знание Bitrix framework \n- Знание ядра Bitrix D7 \n\n✅Предлагаем: \n- Удаленная работа \n- Белая ЗП \n- Используем GIT и сервис деплоймента \n\n📩📩📩Для резюме: shevchenko@progressivemedia.ru","markup":[{"type":"hashtag","offset":0,"length":19,"data":"разработчикБитрикс"},{"type":"hashtag","offset":20,"length":8,"data":"Битрикс"},{"type":"hashtag","offset":29,"length":15,"data":"PHPразработчик"},{"type":"hashtag","offset":45,"length":17,"data":"ProgressiveMedia"},{"type":"hashtag","offset":63,"length":9,"data":"вакансия"},{"type":"bold","offset":111,"length":17,"data":""},{"type":"bold","offset":142,"length":26,"data":""},{"type":"link","offset":697,"length":30,"data":"mailto:shevchenko@progressivemedia.ru"}],"date":"2020-06-29T14:45:14+00:00","link":"tg://resolve?domain=php_jobs&post=25559","tags":[{"name":"php"},{"name":"mysql"},{"name":"html"},{"name":"css"},{"name":"javascript"},{"name":"jquery"},{"name":"sql"},{"name":"git"}],"cities":[],"allowsRemote":true}},{"node":{"__typename":"Job","id":"17219715072-1001110946746","title":"Javascript developer","text":"Front-end Developer with knowledge of HTMl, CSS, JavaScript, some Photoshop\n \nRemote Project Fixed Job: ~8hrs \nHourly rate: $10-25/hr \n\nTeam is small, English-speaking. Knowledge of English at intermediate level and above is welcome.\n\nProject Description:\n- Create 3 html pages using bootstrap\n\nRequirements:\n- 2+ years of software development in HTML & CSS\n⁃ 1 year of software development in vanilla JavaScript \n- Eagerness to constantly improve and learn new skills.\n- Experience using Ticketing tools.\n⁃ Ability to decompose specs efficiently\n\nКомпания hazelops.com\n\n#вакансия #удалённо #job #project #remote #fixed\n\nРезюме и рейты на jobs@hazelops.com, за описанием в лс @AutomationD\n\n—\n\n👉 Обсуждение вакансии в чате @javascript_jobs","markup":[{"type":"link","offset":557,"length":12,"data":"http://hazelops.com"},{"type":"hashtag","offset":571,"length":9,"data":"вакансия"},{"type":"hashtag","offset":581,"length":9,"data":"удалённо"},{"type":"hashtag","offset":591,"length":4,"data":"job"},{"type":"hashtag","offset":596,"length":8,"data":"project"},{"type":"hashtag","offset":605,"length":7,"data":"remote"},{"type":"hashtag","offset":613,"length":6,"data":"fixed"},{"type":"link","offset":639,"length":17,"data":"mailto:jobs@hazelops.com"},{"type":"handle","offset":676,"length":12,"data":"AutomationD"},{"type":"handle","offset":723,"length":16,"data":"javascript_jobs"}],"date":"2020-06-29T13:43:45+00:00","link":"tg://resolve?domain=javascript_jobs_feed&post=16422","tags":[{"name":"javascript"},{"name":"html"},{"name":"css"},{"name":"bootstrap"}],"cities":[],"allowsRemote":true}},{"node":{"__typename":"Job","id":"17218666496-1001110946746","title":"Javascript разработчик","text":"#вакансия #удаленка #работа #html #css #javascript \n\nГород и адрес офиса: любой\nФормат работы: удаленка\nЗанятость: полная\nЗарплатная вилка:  2000$ - 2400$\n\nИщем крутого верстальщика, фултайм, американский стартап (крутая стартап-корпоративная культура, адекватное начальство, зарплата по курсу в долларах), свой продукт, рост по знаниям и деньгам! \nТребования: \n • Уметь в верстку на 10 из 5 (responsive / adaptive, Pixel Perfect, SASS, HTML5, SEO Optimized, дружить с Figma) \n • Быть адекватным - четко соблюдать оговоренные условия (если вы не придете на пару интервью вовремя или любите проспать гибкое начало рабочего дня - не пишите нам) \n • Мочь в письменный английский (а если можете говорить - это +100 к нашей совместимости) \n\nПолная вакансия по ссылке: https://career.habr.com/vacancies/1000059669\n \nКомпания: Waltbury\n\nКонтакты: Пожалуйста, присылайте ссылки на ваше CV, ссылки на LinkedIn / Habr страничку, ссылку на гитхаб и по возможности портфолио на sergey@waltbury.com\n\n—\n\n👉 Обсуждение вакансии в чате @javascript_jobs","markup":[{"type":"hashtag","offset":0,"length":9,"data":"вакансия"},{"type":"hashtag","offset":10,"length":9,"data":"удаленка"},{"type":"hashtag","offset":20,"length":7,"data":"работа"},{"type":"hashtag","offset":28,"length":5,"data":"html"},{"type":"hashtag","offset":34,"length":4,"data":"css"},{"type":"hashtag","offset":39,"length":11,"data":"javascript"},{"type":"link","offset":763,"length":44,"data":"https://career.habr.com/vacancies/1000059669"},{"type":"link","offset":966,"length":19,"data":"mailto:sergey@waltbury.com"},{"type":"handle","offset":1020,"length":16,"data":"javascript_jobs"}],"date":"2020-06-29T13:35:59+00:00","link":"tg://resolve?domain=javascript_jobs_feed&post=16421","tags":[{"name":"javascript"},{"name":"html"},{"name":"css"},{"name":"sass"},{"name":"seo"}],"cities":[],"allowsRemote":true}},{"node":{"__typename":"Job","id":"26779582464-1001075660570","title":"Php developer","text":"#backend #вакансия #офис #удаленка #PHP #remote\n\nВилка: 80к - 250k руб.\nЛокация: Удаленная работа или офис в Новосибе\nЗанятость: #полная\n\nМы — Legionfarm.com.\nМы помогаем игрокам по всему миру нанимать крутых киберспортсменов для помощи в освоении end-game контента, получении топ шмота и титулов, повышении рейтингов. Основные игровые дисциплины - Destiny 2, WoW, Division 2.\n\nТысячи игроков по всему миру пользуются сервисом ежедневно, мы растем, поэтому сейчас ищем в одну из команд PHP Developer (#middle и #senior)\n\n😱Что будем делать?\n• Будем ходить в API игр Bungie, Blizzard, анализировать игровые профили наших клиентов, строить рекомендательные системы.\n• Автоматическая отправка сообщений через API в мессенджеры: discord, telegram, fb, будем сводить общение наших клиентов через мессенджеры в единую систему intercom.com.\n• Автоматизация процессов в нашей команде (полуавтоматизированные инструменты для работы с сайтом).\n\n👍Что ты должен знать/уметь?\n• Знание PHP, Linux на хорошем уровне.\n• Умение работать в системах контроля версий.\n• Знание mysql, redis.\n• Опыт работы с различными API.\n\n⭐️Будет плюсом\n• Сильный математический бэкграунд.\n• Базовое знание html, CSS, JavaScript.\n• Опыт работы с фронтенд фреймворками (React one love).\n\n✅Вопросы прошу направлять в личку @isaevakristi","markup":[{"type":"hashtag","offset":0,"length":8,"data":"backend"},{"type":"hashtag","offset":9,"length":9,"data":"вакансия"},{"type":"hashtag","offset":19,"length":5,"data":"офис"},{"type":"hashtag","offset":25,"length":9,"data":"удаленка"},{"type":"hashtag","offset":35,"length":4,"data":"PHP"},{"type":"hashtag","offset":40,"length":7,"data":"remote"},{"type":"bold","offset":49,"length":6,"data":""},{"type":"bold","offset":72,"length":9,"data":""},{"type":"bold","offset":118,"length":9,"data":""},{"type":"hashtag","offset":129,"length":7,"data":"полная"},{"type":"link","offset":143,"length":14,"data":"http://Legionfarm.com"},{"type":"bold","offset":143,"length":14,"data":""},{"type":"bold","offset":464,"length":77,"data":""},{"type":"hashtag","offset":501,"length":7,"data":"middle"},{"type":"hashtag","offset":511,"length":7,"data":"senior"},{"type":"link","offset":820,"length":12,"data":"http://intercom.com"},{"type":"bold","offset":935,"length":29,"data":""},{"type":"bold","offset":1105,"length":15,"data":""},{"type":"handle","offset":1287,"length":13,"data":"isaevakristi"}],"date":"2020-06-29T12:07:04+00:00","link":"tg://resolve?domain=php_jobs&post=25539","tags":[{"name":"php"},{"name":"linux"},{"name":"mysql"},{"name":"redis"},{"name":"html"},{"name":"css"},{"name":"javascript"},{"name":"reactjs"}],"cities":[],"allowsRemote":true}},{"node":{"__typename":"Job","id":"1763704832-1001091028994","title":"Java разработчик","text":"#Java #developer #Сочи #fulltime #работа #офис \n\nВакансия: Java-разработчик\n\nГород: Сочи\n\nФормат работы: офис\n\nЗанятость: fulltimе\n\nЗарплатная вилка: от 130 000 до 150 000 рублей\n\nОписание вакансии:\nСоздание системы по управлению метаданными компании. Работа в кроссфункциональной команде в составе до 10 человек\n\nНазвание компании: ОЦРВ\n\nПримерный пул задач:\n•  Разработка системы по управлению метаданными\n•  Участие в построение архитектуры решения\n•  Разработка интеграционных сценариев с другими системами\n•  Подготовка инструкций и документации\n\n\nНаши требования к кандидату: \n•  Аналитическое мышление, понимание работы алгоритмов, структур данных и оптимизации работы приложений\n•  Понимание паттернов проектирования, умение писать чистый читаемый код\n•  Знание Java SE (Core, Servlets, Exceptions)\n•  Опыт работы с Spring Framework (Boot, MVC, Data, Security), Hibernate ORM\n•  Опыт работы с веб-сервисами (SOAP, REST)\n•  Опыт работы с микросервисной архитектурой\n•  Опыт работы и развертывания приложений под Linux\n•  Опыт работы с очередями и брокерами сообщений (Kafka, Rabbit, ActiveMQ)\n•  Знание SQL\n•  Опыт работы с инструментами сборки Maven, Gradle\n•  Опыт работы с GIT\n\nБудет плюсом\n•  Опыт написания скриптов автоматизации для CI/CD (bash, python, Java, Groovy)\n•  Опыт работы с базами данных NoSQL (Janus Graph, HBase, Cassandra)\n•  Навыки frontend-разработки (HTML, CSS, React/Vue.js)\n•  Опыт работы с системами BPM или СЭД (Spring Activity, Camunda)\n•  Опыт работы с Apache Atlas, ODPi Egeria\n\n\n\nНаш стек:\nБек: Java 8-11, Spring, PostgreSQL/HBase/MongoDB/JanusGraph, GIT, Docker, Kubernetes, Kafka\nФронт: Vue.js\n\nУсловия: \n•  Офис в Адлере в 10 минутах до моря\n•  Оклад: 130 000 - 150 000 руб. gross\n•  Компенсация проживания 20 000 руб. gross в месяц (для кандидатов из других регионов)\n•  Релокационный бонус в размере оклада (для кандидатов из других регионов)\n•  Премия до 30% годового оклада\n•  Работа в динамичной команде единомышленников\n•  Компенсация ДМС после прохождения испытательного срока\n•  Скидки на ДМС для родственников\n•  Компенсация мобильной связи\n•  Новейшее оборудование и просторный офис\n•  Лучшая экология и климат в России\n•  Море и горнолыжный курорт рядом\n\n\nКомпания: ОЦРВ\nСайт: http://www.ocrv.ru/\nКонтакты: @Mirovan","markup":[{"type":"hashtag","offset":0,"length":5,"data":"Java"},{"type":"hashtag","offset":6,"length":10,"data":"developer"},{"type":"hashtag","offset":17,"length":5,"data":"Сочи"},{"type":"hashtag","offset":23,"length":9,"data":"fulltime"},{"type":"hashtag","offset":33,"length":7,"data":"работа"},{"type":"hashtag","offset":41,"length":5,"data":"офис"},{"type":"link","offset":2229,"length":19,"data":"http://www.ocrv.ru/"},{"type":"handle","offset":2259,"length":8,"data":"Mirovan"}],"date":"2020-06-29T11:37:47+00:00","link":"tg://resolve?domain=jvmjobs&post=1682","tags":[{"name":"java"},{"name":"jvm"},{"name":"spring"},{"name":"hibernate"},{"name":"orm"},{"name":"soap"},{"name":"rest"},{"name":"linux"},{"name":"kafka"},{"name":"rabbitmq"},{"name":"sql"},{"name":"maven"},{"name":"gradle"},{"name":"git"},{"name":"bash"},{"name":"python"},{"name":"groovy"},{"name":"nosql"},{"name":"hbase"},{"name":"cassandra"},{"name":"html"},{"name":"css"},{"name":"reactjs"},{"name":"vuejs"},{"name":"apache"},{"name":"postgresql"},{"name":"mongodb"},{"name":"docker"},{"name":"kubernetes"}],"cities":[{"code":"sochi"}],"allowsRemote":false}},{"node":{"__typename":"Job","id":"103967358976-1001089317451","title":"Qa инженер","text":"#вакансия #QA  #fulltime  #офис #Москва\nИщу ВЕДУЩЕГО ТЕСТИРОВЩИКА  в HOLODILNIK.RU, это  один из ведущих игроков на рынке электронной торговли. Компания приглашает в свою команду профессионала, кто своими знаниями в тестировании программного обеспечения поможет в проектах развития информационных систем интернет-магазина, CRM, интеграции партнерами.\n\n✅Обязанности:\n\n· Построение и поддержка процессов тестирования (ручного и автоматизированного UI тестирования).\n\n· Осуществление процесса тестирования: декомпозиция и оценка задач QA, распределение задач, ревью результатов работы.\n\n· Непосредственное участие в процессе функционального и регрессионного тестирования web-приложений; анализа и тестирования требований.\n\n· Составление тестовой документации (тест-планы, тест-кейсы, чек- листы) и поддержка уже существующей в актуальном состоянии.\n\n· Планирование тестовых сценариев для автоматизации.\n\n✅Требования:\n\n· Опыт работы в качестве QA инженера веб-приложений (от 3-х лет)\n\n· Опыт построения и поддержания процесса обеспечения качества\n\n· Опыт автоматизации тестирования (желательно - Selenium WebDriver);\n\n· Опыт работы с инструментами CI (Jenkins)\n\n· Знание методологий и инструментов тестирования\n\n· Навыки тест-дизайна (тест-кейсы, чек-листы), опыт создания комплексных тест-кейсов;\n\n· Опыт участия в сессиях исследовательского тестирования\n\n· Знание REST, опыт тестирования API (Postman, SoapUI);\n\n· Знание SQL, опыт написания SQL-скриптов и запросов\n\n· Понимание процессов разработки ПО\n\n· Знания XML, CSS, Html;\n\n· Опыт работы с баг-трекинговыми системами (желательно - Jira).\n\n\n✅Условия:\nЗП от 140 000 до 170 000 на руки\n\n· Место работы: Москва, м.Краснопресненская\n\n· При необходимости удаленная работа.\n\n· График работы: 5/2 с 9:00 до 18:00.\n\nКонтакты 🖊\ne-mail: anna-recruitment@mail.ru\nTelegram: @anna_recruitment","markup":[{"type":"hashtag","offset":0,"length":9,"data":"вакансия"},{"type":"hashtag","offset":10,"length":3,"data":"QA"},{"type":"hashtag","offset":15,"length":9,"data":"fulltime"},{"type":"hashtag","offset":26,"length":5,"data":"офис"},{"type":"hashtag","offset":32,"length":7,"data":"Москва"},{"type":"link","offset":69,"length":13,"data":"http://HOLODILNIK.RU"},{"type":"link","offset":1780,"length":24,"data":"mailto:anna-recruitment@mail.ru"},{"type":"handle","offset":1815,"length":17,"data":"anna_recruitment"}],"date":"2020-06-29T10:25:38+00:00","link":"tg://resolve?domain=qa_jobs&post=99151","tags":[{"name":"qa"},{"name":"web"},{"name":"selenium"},{"name":"jenkins"},{"name":"rest"},{"name":"sql"},{"name":"xml"},{"name":"css"},{"name":"html"}],"cities":[{"code":"moscow"}],"allowsRemote":true}},{"node":{"__typename":"Job","id":"17201889280-1001110946746","title":"Js разработчик","text":"#вакансия #remote #удаленка #Angular9 #SASS #Fulstack #Frontend #Backend #Bulma #Node.js #JavaScript\n\nФормат: Удаленка\nЗанятость: Проектная\nУровень: Middle/Senior\nЗп: 500 USD -> 2000 USD или проектная после собеседования.\n\nО компании: БиКинг (https://beking.co) - разработка приложений и сервисов на основе web-технологий. Мы ищем к себе в команду ответственного человека, который хочет и готов активно расти как разработчик и специалист. Компания молодая. Пока в компании програмистов нету.\n\nОбязанности:\n- Разработка Web приложений на Angular, Reakt с применением современных framework-ов\n- Исследование и внедрение новых тенденций и технологий\n\nТребования:\n- Хорошее знание JavaScript (ES5, ES6), HTML, SASS, CSS, Typescript\n- Знание Адаптивной Вёрстки\n- Опыт работы с современными фреймворками (Angular/React, Bulma)\n- Умение работать с REST\n- Хорошее умение пользоваться Git\n- Навыки работы в интернациональной команде\n\nБудет плюсом:\n- Разговорный английский, испаский язык\n- Знание Node.js и опыт работы с Express.js/Nest.js/Next.js\n- Умение верстать дизайн из Adobe XD.\n\nМы предлагаем:\n- Гибкий график работы\n- Постоянное обучение, развитие скиллов\n- Возможность получить опыт в разных проектах и изучить новые технологии\n\nКонтакты: @yuribkng","markup":[{"type":"hashtag","offset":0,"length":9,"data":"вакансия"},{"type":"hashtag","offset":10,"length":7,"data":"remote"},{"type":"hashtag","offset":18,"length":9,"data":"удаленка"},{"type":"hashtag","offset":28,"length":9,"data":"Angular9"},{"type":"hashtag","offset":38,"length":5,"data":"SASS"},{"type":"hashtag","offset":44,"length":9,"data":"Fulstack"},{"type":"hashtag","offset":54,"length":9,"data":"Frontend"},{"type":"hashtag","offset":64,"length":8,"data":"Backend"},{"type":"hashtag","offset":73,"length":6,"data":"Bulma"},{"type":"hashtag","offset":80,"length":5,"data":"Node"},{"type":"hashtag","offset":89,"length":11,"data":"JavaScript"},{"type":"link","offset":243,"length":17,"data":"https://beking.co"},{"type":"handle","offset":1240,"length":9,"data":"yuribkng"}],"date":"2020-06-29T06:52:19+00:00","link":"tg://resolve?domain=javascript_jobs_feed&post=16405","tags":[{"name":"javascript"},{"name":"angularjs"},{"name":"sass"},{"name":"nodejs"},{"name":"web"},{"name":"html"},{"name":"css"},{"name":"typescript"},{"name":"reactjs"},{"name":"rest"},{"name":"git"},{"name":"express"}],"cities":[],"allowsRemote":true}},{"node":{"__typename":"Job","id":"17200840704-1001110946746","title":"Js разработчик","text":"#вакансия #remote #frontend #Angularjs #Angular #middle #senior #удаленка \n\nГород: Краснодар\nФормат работы: remote \nЗанятость: fulltime\nВилка: 120-180k net \n\nНа протяжении 14 лет наша команда создает кастомные веб/мобильные приложения и дизайн. \nПриглашаем к сотрудничеству на удаленной постоянной основе опытного разработчика front-end со знанием Angular (Angular.js/Angular 9). \nПроект:  продукт для крупного бизнеса (USA) \n\nЗадачи: разработка front-end части на Anagular. \n\nНазвание компании: Softlight \n\nТребования: \nОпыт в разработке front-end на Angular от 3-х лет;\nОпыт работы с версией Angular 1.x от 1 года\n JavaScript, HTML5/CSS3 \nработа в распределенной команде \n\nМы предлагаем:\n- Полностью удаленную работу\n- Участие в разработке зарубежных продуктов (USA)\n- Пятидневная рабочая неделя ( с 9-10 до 18-19 МСК), госпраздники - выходные\n- Оформление ИП\n- Оплачиваемый отпуск и больничный \n- Работу в слаженной опытной команде \n\nКонтакты: @MikeHR или mzaharov@softlightllc.com","markup":[{"type":"hashtag","offset":0,"length":9,"data":"вакансия"},{"type":"hashtag","offset":10,"length":7,"data":"remote"},{"type":"hashtag","offset":18,"length":9,"data":"frontend"},{"type":"hashtag","offset":28,"length":10,"data":"Angularjs"},{"type":"hashtag","offset":39,"length":8,"data":"Angular"},{"type":"hashtag","offset":48,"length":7,"data":"middle"},{"type":"hashtag","offset":56,"length":7,"data":"senior"},{"type":"hashtag","offset":64,"length":9,"data":"удаленка"},{"type":"handle","offset":947,"length":7,"data":"MikeHR"},{"type":"link","offset":959,"length":25,"data":"mailto:mzaharov@softlightllc.com"}],"date":"2020-06-29T06:51:53+00:00","link":"tg://resolve?domain=javascript_jobs_feed&post=16404","tags":[{"name":"javascript"},{"name":"angularjs"},{"name":"dotnet"},{"name":"html"},{"name":"css"}],"cities":[{"code":"krasnodar"}],"allowsRemote":true}},{"node":{"__typename":"Job","id":"17190354944-1001110946746","title":"Js разработчик","text":"#вакансия #frontend  #офис #fulltime #спб #петербург  #fulltime #middle #vue #JavaScript #lodash #middle #petersburg #jquery #sass #less \n\nГород: Санкт-Петербург м.Чернышевская\n\nЗанятость: fulltime\n\nКомпания Rixtrema Inc. находится в поиске frontend-разработчика уровня middle, который, также, как и мы, обожает программировать и разрабатывать интерфейсы.  Нам важно видеть у соискателя огонь в глазах и желание развиваться вместе с командой. \nШтаб-квартира компании находится в Нью-Йорке. Мы обслуживаем одни из крупнейших инвестиционных домов и управляющих активами в США. \nМы продаёт свой софт в США. Это не аутсорс, а интересная работа со своими динамичными продуктами. Именно поэтому ищем кандидата, способного продемонстрировать  креативность.\n\nОбязанности:\n\n - Разработка интерфейсов, приложений и сайтов\n-  Поддержание проектов в продакшне\n- Участие в разработке новых приложений\n- Постоянное, непрерывное развитие и обучение (это как и условие, так и обязанность)\n\nТребования:\n\n Уверенное знание JavaScript (само собой, HTML5, CSS3 ) Понимание основных паттернов проектирования\nПонимание основных принципов UI/UX, умение верстать без макетов\nНе так важна углубленная работа с конкретным фреймворком, важно понимание их работы в целом (Angular, React, Vue и пр.). Тем не менее, новые проекты пишутся на Vue и кандидат должен быть готов на кратчайшие сроки сориентироваться. \nДополнительным плюсом будет работа с jquery, lodash (в т.ч. шаблонизаторами), cordova, electron, nodejs, less, sass.\n\n\nВ первую очередь ищем петербуржцев, готовых работать в офисе. Однако готовы рассмотреть и вариант удалённой работы.\n\nУсловия:\n\n    Удалённая работа (если в Питере, то можно в офисе)\n    Зарплата от 1300 USD до 2000 USD после уплаты налогов. Фиксируется в долларах. \n    3 недели оплачиваемого отпуска\nпрактически отсутствует бюрократия, все предельно прозрачно\nвозможность разработчику непросто кодить по ТЗ, а принимать в том числе стратегические решения по проекту.\n    Фирма продаёт свой софт в США. Это не аутсорс, а интересная работа со своими динамичными продуктами. \n\nЕсли Вы подходите под требования и готовы решать нестандартные задачи вместе с нами - смело записывайтесь на собеседование!  Не забывайте прилагать пример кода и ссылки на проекты в продакшне, особенно на самые нетривиальные на Ваш взгляд. \n\nКонтакты:\n@sanyanx\n\n—\n\n👉 Обсуждение вакансии в чате @javascript_jobs","markup":[{"type":"hashtag","offset":0,"length":9,"data":"вакансия"},{"type":"hashtag","offset":10,"length":9,"data":"frontend"},{"type":"hashtag","offset":21,"length":5,"data":"офис"},{"type":"hashtag","offset":27,"length":9,"data":"fulltime"},{"type":"hashtag","offset":37,"length":4,"data":"спб"},{"type":"hashtag","offset":42,"length":10,"data":"петербург"},{"type":"hashtag","offset":54,"length":9,"data":"fulltime"},{"type":"hashtag","offset":64,"length":7,"data":"middle"},{"type":"hashtag","offset":72,"length":4,"data":"vue"},{"type":"hashtag","offset":77,"length":11,"data":"JavaScript"},{"type":"hashtag","offset":89,"length":7,"data":"lodash"},{"type":"hashtag","offset":97,"length":7,"data":"middle"},{"type":"hashtag","offset":105,"length":11,"data":"petersburg"},{"type":"hashtag","offset":117,"length":7,"data":"jquery"},{"type":"hashtag","offset":125,"length":5,"data":"sass"},{"type":"hashtag","offset":131,"length":5,"data":"less"},{"type":"handle","offset":2329,"length":8,"data":"sanyanx"},{"type":"handle","offset":2372,"length":16,"data":"javascript_jobs"}],"date":"2020-06-28T15:15:36+00:00","link":"tg://resolve?domain=javascript_jobs_feed&post=16394","tags":[{"name":"javascript"},{"name":"vuejs"},{"name":"jquery"},{"name":"sass"},{"name":"html"},{"name":"css"},{"name":"angularjs"},{"name":"reactjs"},{"name":"cordova"},{"name":"electron"},{"name":"nodejs"}],"cities":[],"allowsRemote":true}}]}}},"context":{}}