{"hash":"f5f6bf98bd95e769321482904cbbd488f77922fd","data":{"records":{"id":"html","name":"html","belongsTo":{"totalCount":110,"pageInfo":{"totalPages":11,"currentPage":3},"edges":[{"node":{"__typename":"Job","id":"17266900992-1001110946746","title":"Js разработчик","text":"Добрый день\n\n#вакансия #работа #parttime #JavaScript #vuejs #Frontend #Web\n\nГород и адрес офиса: Москва\nКомпания: Enlighted\nФормат работы: удаленка\nЗанятость: частичная, не менее 20-30 часов в неделю\nЗарплатная вилка: от 7-10$ в час либо сдельная\n\n\nМакеты в Sketch, задачи в Трекере\n\nСтек:\nVue2 + Vuex\n\nТребования:\nУмение верстать по макетам из Sketch/Figma\nПонимание принципа работы Vuex, уметь рассказать зачем он вообще нужен.\nvue+vuex, es6, vue-cli\nЗнание html, css3, BEM-методологии\nУмение работать с git, знание процесса git flow будет плюсом.\nОпыт интеграции Google/OSM maps будет плюсом.\nОпыт настройки CI/CD или хотя бы понимание как устроен процесс сборки Vue проекта.\n\nВам предстоит:\nРазрабатывать фронтенд-часть проекта по предоставленным макетам, никакого legacy, проект начинается с нуля.\nКомандная работа, утренние стендапы и еженедельные релизы.\n\nПисать мне в личку @westarakagrek или на почту ra@enlighted.ru","markup":[{"type":"hashtag","offset":13,"length":9,"data":"вакансия"},{"type":"hashtag","offset":23,"length":7,"data":"работа"},{"type":"hashtag","offset":31,"length":9,"data":"parttime"},{"type":"hashtag","offset":41,"length":11,"data":"JavaScript"},{"type":"hashtag","offset":53,"length":6,"data":"vuejs"},{"type":"hashtag","offset":60,"length":9,"data":"Frontend"},{"type":"hashtag","offset":70,"length":4,"data":"Web"},{"type":"handle","offset":882,"length":14,"data":"westarakagrek"},{"type":"link","offset":910,"length":15,"data":"mailto:ra@enlighted.ru"}],"date":"2020-06-30T16:06:01+00:00","link":"tg://resolve?domain=javascript_jobs_feed&post=16467","tags":[{"name":"javascript"},{"name":"vuejs"},{"name":"web"},{"name":"html"},{"name":"css"},{"name":"git"}],"cities":[{"code":"moscow"}],"allowsRemote":true}},{"node":{"__typename":"Job","id":"17260609536-1001110946746","title":"Javascript разработчик","text":"#вакансия #javascript #typescript \n\nFrontend-разработчик (удаленно или в офисе)\n\nBlogman\n\nГород и адрес офиса: \n— Санкт-Петербург\nФормат работы:           \n— офис в Санкт-Петербурге или удаленка по России \nЗанятость:                     \n— полная / full time\nЗарплатная вилка:       \n— от 80 000 до 300 000 рублей\n\nОсновной стек технологий — JavaScript, TypeScript, HTML/CSS. Сейчас мы разрабатываем бизнес-функционал приложения и будем рады новому специалисту в нашей команде, который вольется в проект и мы вместе будем делать frontend с нативным кодом и отзывчивым интерфейсом.\n\nМы ожидаем, что у вас есть:\n🔹Опыт коммерческой разработки от 3 лет\n🔹Хорошее знание JavaScript, TypeScript, HTML/CSS;\n\nРады предложить:\n🔹Возможность работать удаленно;\n🔹Желаемый оклад по результатам собеседования;\n🔹Cистему роста зарплаты каждые 6 месяцев\n\nКонтакт: @alinablogman\nhttps://spb.hh.ru/employer/3069197?customDomain=","markup":[{"type":"hashtag","offset":0,"length":9,"data":"вакансия"},{"type":"hashtag","offset":10,"length":11,"data":"javascript"},{"type":"hashtag","offset":22,"length":11,"data":"typescript"},{"type":"handle","offset":851,"length":13,"data":"alinablogman"},{"type":"link","offset":865,"length":48,"data":"https://spb.hh.ru/employer/3069197?customDomain="}],"date":"2020-06-30T11:57:37+00:00","link":"tg://resolve?domain=javascript_jobs_feed&post=16461","tags":[{"name":"javascript"},{"name":"typescript"},{"name":"html"},{"name":"css"}],"cities":[],"allowsRemote":true}},{"node":{"__typename":"Job","id":"17258512384-1001110946746","title":"Js разработчик","text":"#вакансия #remote #frontend #Angularjs #Angular #middle #senior #удаленка \n\nФормат работы: remote \nЗанятость: fulltime\nВилка: 120-180k net \n\nНа протяжении 14 лет наша команда создает кастомные веб/мобильные приложения и дизайн. \nПриглашаем к сотрудничеству на удаленной постоянной основе опытного разработчика front-end со знанием Angular (Angular.js/Angular 9). \nПроект:  продукт для крупного бизнеса (USA) \n\nЗадачи: разработка front-end части на Anagular. \n\nНазвание компании: Softlight \n\nТребования: \nОпыт в разработке front-end на Angular.js обязательный;\nОпыт работы с  Angular 9 \n JavaScript, HTML5/CSS3 \nработа в распределенной команде \n\nМы предлагаем:\n- Полностью удаленную работу\n- Участие в разработке зарубежных продуктов (USA)\n- Пятидневная рабочая неделя ( с 9-10 до 18-19 МСК), госпраздники - выходные\n- Оформление ИП\n- Оплачиваемый отпуск и больничный \n- Работу в слаженной опытной команде \n\nP.S. рассмотрим парт-тайм занятость 20ч в неделю \n\nКонтакты: @MikeHR или mzaharov@softlightllc.com","markup":[{"type":"hashtag","offset":0,"length":9,"data":"вакансия"},{"type":"hashtag","offset":10,"length":7,"data":"remote"},{"type":"hashtag","offset":18,"length":9,"data":"frontend"},{"type":"hashtag","offset":28,"length":10,"data":"Angularjs"},{"type":"hashtag","offset":39,"length":8,"data":"Angular"},{"type":"hashtag","offset":48,"length":7,"data":"middle"},{"type":"hashtag","offset":56,"length":7,"data":"senior"},{"type":"hashtag","offset":64,"length":9,"data":"удаленка"},{"type":"handle","offset":968,"length":7,"data":"MikeHR"},{"type":"link","offset":980,"length":25,"data":"mailto:mzaharov@softlightllc.com"}],"date":"2020-06-30T11:56:03+00:00","link":"tg://resolve?domain=javascript_jobs_feed&post=16459","tags":[{"name":"javascript"},{"name":"angularjs"},{"name":"dotnet"},{"name":"html"},{"name":"css"}],"cities":[],"allowsRemote":true}},{"node":{"__typename":"Job","id":"17254318080-1001110946746","title":"Js developer","text":"#вакансия #FrontendDeveloper #AngularJS #JavaScript #HTML5 #CSS3 #Senior #Middle \nГород: Минск \nФормат работы: офис \nЗанятость: полная занятость, полный день\nЗарплатная вилка: 2000 - 4000$\nОписание вакансии: Front-end Developer (AngularJS)\nПроект - Web-сайт\nНеобходимый стек:\n- Глубокие знания JavaScript, AngularJS (1) и принципов работы современных браузеров\n- Отличный уровень знаний HTML5/CSS3\n- Опыт работы с пре- и пост-процессорами (SCSS/LESS/Stylus/PostCSS)\n- Очень желателен опыт работы с React\n- Понимание особенностей кроссбраузерности и адаптивности, умение создавать сложные адаптивные интерфейсы без использования фреймворков.\nНазвание компании: WakeApp (https://wakeapp.ru)\nКонтакты: Telegram - @Katherine_Faleichik","markup":[{"type":"hashtag","offset":0,"length":9,"data":"вакансия"},{"type":"hashtag","offset":10,"length":18,"data":"FrontendDeveloper"},{"type":"hashtag","offset":29,"length":10,"data":"AngularJS"},{"type":"hashtag","offset":40,"length":11,"data":"JavaScript"},{"type":"hashtag","offset":52,"length":6,"data":"HTML5"},{"type":"hashtag","offset":59,"length":5,"data":"CSS3"},{"type":"hashtag","offset":65,"length":7,"data":"Senior"},{"type":"hashtag","offset":73,"length":7,"data":"Middle"},{"type":"link","offset":669,"length":18,"data":"https://wakeapp.ru"},{"type":"handle","offset":710,"length":20,"data":"Katherine_Faleichik"}],"date":"2020-06-30T11:54:45+00:00","link":"tg://resolve?domain=javascript_jobs_feed&post=16455","tags":[{"name":"javascript"},{"name":"angularjs"},{"name":"html"},{"name":"css"},{"name":"web"},{"name":"reactjs"}],"cities":[{"code":"minsk"}],"allowsRemote":false}},{"node":{"__typename":"Job","id":"17246978048-1001110946746","title":"Js developer","text":"#Харьков #офис #FullTime #вакансия #Middle #FullStack #Node #Vue \n\nКомпания: Business Process Technologies\nГород: Харьков, Гимназическая Набережная 24\nФормат работы: офис\nЗанятость: полная \nЗарплатная вилка: 2000 - 3500$ (50% налога берем на себя) \n\nОписание вакансии \nВсем привет\nВ продуктовую компанию на наши проекты ищем Middle Full Stack Node\\Vue.JS Developer \nТребования\n— Опыт работы с Vue от 2х лет\n— Опыт работы с SSR (nuxt, gridsome etc.)\n— Опыт работы с node (express || adonis || sails) от 1 года\n— Опыт работы как FullStack от 1,5 лет\n— Понимание принципов ООП, S.O.L.I.D., паттернов разработки и архитектуры приложений\n— Опыт работы с HTML/CSS\n— Опыт работы с GIT\n— Опыт работы с MySQL, MongoDB\n— Английский на уровне чтения тех документации\n\nБудет плюсом\n\n— Опыт работы с tailwindcss, bootstrap или vuetify\n— Опыт работы с firebase\n— Опыт работы с Docker\n\nУДАЛЕННОЕ СОТРУДНИЧЕСТВО НЕ РАССМАТРИВАЕМ\n\nКонтакты:\n@nataliashlyahova \nSkype live:shlyahovanatalia","markup":[{"type":"hashtag","offset":0,"length":8,"data":"Харьков"},{"type":"hashtag","offset":9,"length":5,"data":"офис"},{"type":"hashtag","offset":15,"length":9,"data":"FullTime"},{"type":"hashtag","offset":25,"length":9,"data":"вакансия"},{"type":"hashtag","offset":35,"length":7,"data":"Middle"},{"type":"hashtag","offset":43,"length":10,"data":"FullStack"},{"type":"hashtag","offset":54,"length":5,"data":"Node"},{"type":"hashtag","offset":60,"length":4,"data":"Vue"},{"type":"handle","offset":924,"length":17,"data":"nataliashlyahova"}],"date":"2020-06-30T11:51:49+00:00","link":"tg://resolve?domain=javascript_jobs_feed&post=16448","tags":[{"name":"javascript"},{"name":"nodejs"},{"name":"vuejs"},{"name":"express"},{"name":"html"},{"name":"css"},{"name":"git"},{"name":"mysql"},{"name":"mongodb"},{"name":"bootstrap"},{"name":"firebase"},{"name":"docker"}],"cities":[],"allowsRemote":false}},{"node":{"__typename":"Job","id":"17244880896-1001110946746","title":"Js разработчик","text":"#вакансия #удаленка #junior #reactjs #remote\n\nГород и адрес офиса: Москва, удаленка\n\nФормат работы: удаленка\n\nЗанятость: полная\n\nЗарплатная вилка:  от 15000р до 25000р\n\n\nОписание вакансии: \nМы ищем стажера или джуна на стажировку React-разработчика :)\n\n\nНеобходимые знания:\nБазовые знания html / css / js\nЖелание развиваться в front-end разработке, особеннов в React\nРазвитое логическое мышление\nСтремление развиваться и создавать не только функциональные, но и удобные продукты\nПреимуществом будет опыт разработки в роли front-end разработчика\n\n\nОбязанности:\nСоздание веб-сервиса в роли front-end разработчика (стажера) на React\nучастие в полном цикле работы команды: от планирования до релиза\nвозможность участвовать\n\nПредлагем: \nИнтересные и сложные задачи для улучшения скиллов React-разработчика\nнаставника, который будет помогать и подсказывать \nудаленную работу с комфортным графиком\nвознаграждение по итогам стажировки\n\nНазвание компании: Outlines tech\n\nКонтакты: телеграм @MrNapcae","markup":[{"type":"hashtag","offset":0,"length":9,"data":"вакансия"},{"type":"hashtag","offset":10,"length":9,"data":"удаленка"},{"type":"hashtag","offset":20,"length":7,"data":"junior"},{"type":"hashtag","offset":28,"length":8,"data":"reactjs"},{"type":"hashtag","offset":37,"length":7,"data":"remote"},{"type":"handle","offset":981,"length":9,"data":"MrNapcae"}],"date":"2020-06-30T11:47:46+00:00","link":"tg://resolve?domain=javascript_jobs_feed&post=16446","tags":[{"name":"javascript"},{"name":"reactjs"},{"name":"html"},{"name":"css"}],"cities":[{"code":"moscow"}],"allowsRemote":true}},{"node":{"__typename":"Job","id":"17242783744-1001110946746","title":"Js разработчик","text":"#вакансия #владимир #удаленно #middle #angular #fulltime \n\nИщем frontend разработчика для работы над основным сайтом и новыми разделами.\nГород и адрес офиса: Владимир\nФормат работы: Удаленно/Офис\nЗанятость: полная\nЗарплатная вилка: 75 000 — 100 000 на руки по результатам технического собеседования\n\nСайт компании: srvhub.ru\n\nВ технической команде 70 человек.\n\nОбязанности:\n▫ Самостоятельно разрабатывать ПО;\n▫ Тестировать продукт;\n▫ Запускать ПО в работу;\n▫ Корректировать ПО на основе анализа выходных данных;\n▫ Разрабатывать инструкции по работе с ПО, оформлять необходимую техническую документацию.\nТребования:\n▪ Опыт разработки от 1-2 лет;\n▪ Уверенное знание JavaScript;\n▪ работа с DOM;\n▪ понимание EventLoop (задачи, микрозадачи , animation frames);\n▪ браузерное API;\n▪ Опыт работы с Figma/Zeplin;\n▪ Работа с сетью (кэширование, безопасность)\n▪ Уверенное знание HTML, CSS3:\n Владение адаптивной вёрсткой\n БЭМ (для CSS)\n Умение оптимально выбрать способ отображения графики, растр, вектор (SVG)\n Оптимизация трафика\n RxJS\nPromise (async, await)\nGit, Git-flow\n\nЖелательно:\n◾ Хорошее знание или желание изучить Angular последней версии;\n◾ Владение адаптивной вёрсткой\n◾ БЭМ (для CSS)\n◾ Умение оптимально выбрать способ отображения графики, растр, вектор (SVG)\n◾ Оптимизация трафика\n◾ RxJS, Promise (async, await), Git, Git-flow.\n\nУсловия:\n\n▫ Комфортный офис в центре г.Владимира;\n▫ Оформление по ТК РФ с первого рабочего дня;\n▫ Возможность работать удалённо;\n▫ Полностью белая заработная плата;\n▫ Неформальная атмосфера и дружный, амбициозный коллектив;\n▫ Корпоративная скидка на изучение английского языка.\n\nКонтакт: https://t.me/olya_fru","markup":[{"type":"hashtag","offset":0,"length":9,"data":"вакансия"},{"type":"hashtag","offset":10,"length":9,"data":"владимир"},{"type":"hashtag","offset":20,"length":9,"data":"удаленно"},{"type":"hashtag","offset":30,"length":7,"data":"middle"},{"type":"hashtag","offset":38,"length":8,"data":"angular"},{"type":"hashtag","offset":47,"length":9,"data":"fulltime"},{"type":"link","offset":315,"length":9,"data":"http://srvhub.ru"},{"type":"link","offset":1621,"length":21,"data":"https://t.me/olya_fru"}],"date":"2020-06-30T08:31:24+00:00","link":"tg://resolve?domain=javascript_jobs_feed&post=16444","tags":[{"name":"javascript"},{"name":"angularjs"},{"name":"html"},{"name":"css"},{"name":"svg"},{"name":"rxjs"},{"name":"git"}],"cities":[{"code":"vladimir"}],"allowsRemote":true}},{"node":{"__typename":"Job","id":"17241735168-1001110946746","title":"Js разработчик","text":"#вакансия #frontend #Москва #fulltime #middle #senior #react #работа\nГород и адрес офиса: Москва, между метро Нагатинская и Тульская, мцк Верхние котлы \nФормат работы: офис\nЗанятость:полная\nОплата: 180-250 тыс. рублей\nОписание вакансии:\n💥Команда СберТеха  ищет сильного Frontend-разработчика!🙌\n💥Проект «Управление сбойными ситуациями, возникающими при работе банковских процессов». Система находится в промышленной эксплуатации, имеет пользовательский интерфейс для ручного разбора инцидентов ( реализован на React JS).Продукт активно развивается, поэтому мы хотим усилить нашу команду. От нас вы получите опыт и развитие компетенций, амбициозные задачи, карьерный рост и открытость к инновациям!\n💥Стек: React JS, react-redux, webPack, CSS, HTML, Java, Spring, Git, Maven.\n💥 Процесс разработки : Scrum, Jira, Gitflow, DevOps до Production (переход на OpenShift)\n💥-Оформление ТК РФ;\n     -ДМС;\n     - Белая заработная плата (оклад + годовая премия);\n     -Возможность обучения за счет компании;\n     -   Льготное кредитование;\n      -Бесплатный тренажерный зал на территории офиса;\n       - корпоративная жизнь и спортивные мероприятия;\n       -возможность карьерного роста.\nКомпания: СберТех\nКонтакты: @TaliaHR","markup":[{"type":"hashtag","offset":0,"length":9,"data":"вакансия"},{"type":"hashtag","offset":10,"length":9,"data":"frontend"},{"type":"hashtag","offset":20,"length":7,"data":"Москва"},{"type":"hashtag","offset":28,"length":9,"data":"fulltime"},{"type":"hashtag","offset":38,"length":7,"data":"middle"},{"type":"hashtag","offset":46,"length":7,"data":"senior"},{"type":"hashtag","offset":54,"length":6,"data":"react"},{"type":"hashtag","offset":61,"length":7,"data":"работа"},{"type":"handle","offset":1208,"length":8,"data":"TaliaHR"}],"date":"2020-06-30T08:30:19+00:00","link":"tg://resolve?domain=javascript_jobs_feed&post=16443","tags":[{"name":"javascript"},{"name":"reactjs"},{"name":"redux"},{"name":"webpack"},{"name":"css"},{"name":"html"},{"name":"java"},{"name":"spring"},{"name":"git"},{"name":"maven"},{"name":"react-redux"}],"cities":[{"code":"moscow"}],"allowsRemote":false}},{"node":{"__typename":"Job","id":"17240686592-1001110946746","title":"Js разработчик","text":"#вакансия #удаленка #работа #js #javascript #разработчик\n\nГород и адрес офиса: Тель-Авив \nФормат работы: удаленка\nЗанятость: полная, гибкий график.\n\nЗарплатная вилка: 5500-6000$/мес. (Почасовая оплата 35$/час + ежемесячный бонус 250$)\n\nНалоги платите по месту жительства. ИП 6%. Если патент, то он зависит от места жительства. В Подмосковье 12 000 руб в год. В Москве 300 тыс. в год. Как сами оформите налоги, так и платите. \n\nИщу разработчика к нам в команду: израильский проект Luminati (https://luminati.io).  Full-Stack. Компания разрабатывает несколько продуктов, в том числе p2p vpn, видео cdn нового поколения http://holaspark.com/\nОфис в Тель-Авиве, работа удаленная! График свободный. Что нам нужно:\n\n • Knowledge in Node JS framework: ExpressJS, Promise - Experience with MongoDB \n- Creating RESTful web services/API’s using Node.js with or without framework assistance \n\n- JavaScript-based unit testing tools \n\n- Client-side browser technologies including JavaScript, CSS, and HTML \n\n- 1 year development experience in Node JS with a solid working knowledge of frameworks and architecture \n\n- 2+ year’s overall development experience using JavaScript and open web technologies \n\n- хороший английский язык, идеальная грамматика не обязательна \n\n • работа удаленная, 7-9 часов в день (по желанию)\n • зарплата от 35$/час (+фиксированный бонус 250$ ежемесячно), через полгода повышается\n • после того, как откроют границы и будут возможны перелёты - выезд в офис на заключение контракта (перед этим возможно заключение с электронной подписью), отель и перелет за счет компании, море под окном\n\nОтвечу на все вопросы:)\n\nИнстаграмм https://instagram.com/hola_better_internet\n\nРезюме сюда:  luda.hola@gmail.com","markup":[{"type":"hashtag","offset":0,"length":9,"data":"вакансия"},{"type":"hashtag","offset":10,"length":9,"data":"удаленка"},{"type":"hashtag","offset":20,"length":7,"data":"работа"},{"type":"hashtag","offset":28,"length":3,"data":"js"},{"type":"hashtag","offset":32,"length":11,"data":"javascript"},{"type":"hashtag","offset":44,"length":12,"data":"разработчик"},{"type":"link","offset":490,"length":19,"data":"https://luminati.io"},{"type":"link","offset":617,"length":21,"data":"http://holaspark.com/"},{"type":"link","offset":1637,"length":42,"data":"https://instagram.com/hola_better_internet"},{"type":"link","offset":1695,"length":19,"data":"mailto:luda.hola@gmail.com"}],"date":"2020-06-30T08:30:05+00:00","link":"tg://resolve?domain=javascript_jobs_feed&post=16442","tags":[{"name":"javascript"},{"name":"nodejs"},{"name":"mongodb"},{"name":"web"},{"name":"css"},{"name":"html"},{"name":"unit-testing"}],"cities":[],"allowsRemote":true}},{"node":{"__typename":"Job","id":"26847739904-1001075660570","title":"Php разработчик","text":"#работа #вакансия #удаленка #job #РНР #Yii #Laravel #Symfony \n\nСейчас нахожусь в поисках РНР разработчика уровня senior в одну из крупнейших ecommerce компаний России - Bork/Technopark. \nНа текущий  момент внутри идет несколько проектов по поддержке и развитию интернет-площадки по продаже бытовой техники и электроники премиум-класса.\n\nПродукты реализуются на стеке: PHP (Yii2), MySql, JS (Vue), HTML, CSS, Gulp, Webpack, SVG, Canvas. \nЗадачи: разработка серверной части веб-проектов на всех этапах (от участия в проектировании архитектуры, до разработки сервисов), участие в митапах для обсуждения предстоящих задач, вносить вклад в планирование архитектуры и т.д.\n\nОсновные требования:\n\n- Опыт коммерческой разработки от 3 лет на PHP (7.1 или выше);\n\n- Хорошие знания современных фреймворков  (YII, Symfony);\n\n- Знание ООП, базовых алгоритмов, шаблонов проектирования, стандартов написания кода.\n\nУсловия: \n\n- ЗП до 220 000 net;\n\n- Полная УДАЛЁНКА; \n\n- Оформление через ИП или как самозанятый; \n\nКто заинтересовался - пишите в ЛС (@nastyaklassnaya),  буду рада пообщаться :)","markup":[{"type":"hashtag","offset":0,"length":7,"data":"работа"},{"type":"hashtag","offset":8,"length":9,"data":"вакансия"},{"type":"hashtag","offset":18,"length":9,"data":"удаленка"},{"type":"hashtag","offset":28,"length":4,"data":"job"},{"type":"hashtag","offset":33,"length":4,"data":"РНР"},{"type":"hashtag","offset":38,"length":4,"data":"Yii"},{"type":"hashtag","offset":43,"length":8,"data":"Laravel"},{"type":"hashtag","offset":52,"length":8,"data":"Symfony"},{"type":"handle","offset":1034,"length":16,"data":"nastyaklassnaya"}],"date":"2020-06-30T07:37:17+00:00","link":"tg://resolve?domain=php_jobs&post=25604","tags":[{"name":"php"},{"name":"yii"},{"name":"laravel"},{"name":"symfony"},{"name":"mysql"},{"name":"vuejs"},{"name":"html"},{"name":"css"},{"name":"gulp"},{"name":"webpack"},{"name":"svg"},{"name":"canvas"},{"name":"dotnet"}],"cities":[],"allowsRemote":true}}]}}},"context":{}}