{"hash":"f5f6bf98bd95e769321482904cbbd488f77922fd","data":{"records":{"id":"typescript","name":"typescript","belongsTo":{"totalCount":104,"pageInfo":{"totalPages":11,"currentPage":8},"edges":[{"node":{"__typename":"Job","id":"16983785472-1001110946746","title":"Javascript разработчик","text":"#вакансия #frontend #javascript #typescript #удаленка #fulltime \nВакансия: Frontend разработчик\nФормат работы: удаленная работа\nЗанятость: полная\nЗарплатная вилка: от 120000 до 200000 рублей на руки\nОписание вакансии: \nВ данный момент мы используем:\n• TypeScript\n• Vue + SFC + Vuex\n• Scoped SCSS, CSS variables, animations, flexbox, SVG\n• Различные “хаки” для улучшения производительности (rAF, gpu layers etc.)\nСобранное вебпаком приложение мы деплоим сразу на CDN.\nВам предстоит:\n• делать новые фичи, интеграции и развивать ядро продукта\n• реализовывать элегантные UX/UI-концепции (из Zeplin)\n• добиваться максимальной отзывчивости интерфейса при минимальной нагрузке на систему\nНазвание компании: SpatialChat - платформа для живого неформального онлайн-общения \nКонтакты: @ElizavetaKoHR\n\n—\n\n👉 Обсуждение вакансии в чате @javascript_jobs","markup":[{"type":"hashtag","offset":0,"length":9,"data":"вакансия"},{"type":"hashtag","offset":10,"length":9,"data":"frontend"},{"type":"hashtag","offset":20,"length":11,"data":"javascript"},{"type":"hashtag","offset":32,"length":11,"data":"typescript"},{"type":"hashtag","offset":44,"length":9,"data":"удаленка"},{"type":"hashtag","offset":54,"length":9,"data":"fulltime"},{"type":"handle","offset":775,"length":14,"data":"ElizavetaKoHR"},{"type":"handle","offset":824,"length":16,"data":"javascript_jobs"}],"date":"2020-06-16T13:00:03+00:00","link":"tg://resolve?domain=javascript_jobs_feed&post=0","tags":[{"name":"javascript"},{"name":"typescript"},{"name":"vuejs"},{"name":"css"},{"name":"svg"}],"cities":[],"allowsRemote":true}},{"node":{"__typename":"Job","id":"16981688320-1001110946746","title":"Js разработчик","text":"#вакансия #frontend  #React #офис #remote #Спб #senior \n\nКомпания: DBeaver\nЗ/п: 180 000 - 300 000 рублей на руки \nГород и адрес офиса: г. Санкт-Петербург (м. Площадь Ленина/Новочеркасская)\nФормат работы: офис или удаленка (приоритет кандидатам из Санкт-Петербурга)\nЗанятость: полная, fulltime\n\n🌏DВeaver  - это международный open source проект, бесплатный многоплатформенный инструмент для работы с базами данных. Поддерживает все популярные базы данных: MySQL, PostgreSQL, MariaDB, SQLite, Oracle, DB2, SQL Server, Sybase, MS Access, Teradata, Firebird, Derby и т. д. Платформа интегрируется с Amazon сервисами и нацелена на облачные решения. \n\nCейчас ребята разрабатывают web решение DВeaver, первый релиз состоялся в начале года и компания активно продолжает развитие. \n\n💠Какой опыт и знания ожидают увидеть ребята:\n- опыт работы с TypeScript и React;\n- опыт участия в многокомпонентных проектах со сложной бизнес-логикой;\n- опыт проектирования и рефакторинга;\n- готовность возглавить разработку интерфейсной части продукта, принимать ключевые архитектурные решения;\n- английский язык от уровня intermediate (письменный и на уровне чтения).\n\nСтек технологий: TypeScript, React, GraphQL, MobX, RxJS, Docker. \n\n💎Что получите вы:\n- комфортный офис в БЦ Бенуа;\n- возможность частично или полностью удаленной работы; \n- официальное оформление;\n- возможность поработать над крутым международным продуктом в сплоченной команде энтузиастов;\n- профессиональные командировки и конференции в США и Европу.\n\nКонтакты:\ne-mail: valeriya@luckyhunter.io\ntelegram: @sobolevavalery\nКА: http://luckyhunter.io\nБуду рада ответить на все вопросы и рассказать подробнее о компании 😊\n\n—\n\n👉 Обсуждение вакансии в чате @javascript_jobs","markup":[{"type":"hashtag","offset":0,"length":9,"data":"вакансия"},{"type":"hashtag","offset":10,"length":9,"data":"frontend"},{"type":"hashtag","offset":21,"length":6,"data":"React"},{"type":"hashtag","offset":28,"length":5,"data":"офис"},{"type":"hashtag","offset":34,"length":7,"data":"remote"},{"type":"hashtag","offset":42,"length":4,"data":"Спб"},{"type":"hashtag","offset":47,"length":7,"data":"senior"},{"type":"link","offset":1519,"length":23,"data":"mailto:valeriya@luckyhunter.io"},{"type":"handle","offset":1553,"length":15,"data":"sobolevavalery"},{"type":"link","offset":1573,"length":21,"data":"http://luckyhunter.io"},{"type":"handle","offset":1700,"length":16,"data":"javascript_jobs"}],"date":"2020-06-16T12:56:30+00:00","link":"tg://resolve?domain=javascript_jobs_feed&post=0","tags":[{"name":"javascript"},{"name":"reactjs"},{"name":"mysql"},{"name":"postgresql"},{"name":"mariadb"},{"name":"sqlite"},{"name":"oracle"},{"name":"sql"},{"name":"ms-access"},{"name":"web"},{"name":"typescript"},{"name":"graphql"},{"name":"rxjs"},{"name":"docker"},{"name":"sql-server"}],"cities":[],"allowsRemote":true}},{"node":{"__typename":"Job","id":"71383908352-1001054966032","title":"Mobile разработчик","text":"#вакансия #офис #краснодар #krasnodar #fulltime #react #native\n\n✅Вакансия: React developer \n✅Город: Краснодар\n✅Занятость: полная, офис\n✅ЗП вилка: 40 000 - 100 000р. \n✅Компания: WILIX\n\nПривет!\nМы создаём веб и мобильные приложения, помогаем большим и маленьким компаниям, разбросанным по всему Миру, создать надежные и быстрые программные решения.\nИщем React разработчика в свою команду!\n🙌Наши ожидания:\nJS, TypeScript,\nReact\nRedux (Redux-toolkit), \nReact Router (React Navigation), \nRedux Thunk, \nWebpack,\nHTML+CSS,\nBootstrap/material\n\nБудет плюсом:\nReact Native\nreselect, normalizr\nstyle-components, css-modules, css-in-js\n\n👍Что мы готовы предложить:\n- Работу в офисе (40 часов в неделю), возможна частичная удаленка \n- Комфортное рабочее место \n- Дружный и отзывчивый коллектив, выезды на природу и разного рода мероприятия \n- Mac или PC \n- Классика: Чай/Кофе/Печеньки/Тенис/XBox\n\nКонтакты: @Aleen_ku","markup":[{"type":"hashtag","offset":0,"length":9,"data":"вакансия"},{"type":"hashtag","offset":10,"length":5,"data":"офис"},{"type":"hashtag","offset":16,"length":10,"data":"краснодар"},{"type":"hashtag","offset":27,"length":10,"data":"krasnodar"},{"type":"hashtag","offset":38,"length":9,"data":"fulltime"},{"type":"hashtag","offset":48,"length":6,"data":"react"},{"type":"hashtag","offset":55,"length":7,"data":"native"},{"type":"handle","offset":895,"length":9,"data":"Aleen_ku"}],"date":"2020-06-16T11:49:43+00:00","link":"tg://resolve?domain=mobile_jobs&post=0","tags":[{"name":"mobile"},{"name":"reactjs"},{"name":"typescript"},{"name":"redux"},{"name":"webpack"},{"name":"html"},{"name":"css"},{"name":"bootstrap"},{"name":"react-native"},{"name":"react-redux"},{"name":"react-router"}],"cities":[{"code":"krasnodar"}],"allowsRemote":true}},{"node":{"__typename":"Job","id":"16977494016-1001110946746","title":"Js разработчик","text":"Всем привет.\nИщу Тимлид/Техлид команды в компанию bianca.\nС опытом TypeScript от 2-х лет, NodeJS от 3-х лет и Angular или React от 2-х лет.\n\nСеть химчисток Bianca-city это крупная сеть.\nУ нас предстоит развитие нескольких продуктов:  - собственной логистической платформы на Yandex.Routing - производственного модуля - CRM - клиентского мобильного приложения.\n\nЧто предстоит делать\n1) Технический аудит текущих проектов (инхаус + аутсорс), выработка первичной стратегии разработки, с учетом пожеланий бизнеса\n2) Обсуждение с СЕО и декомпозиция задач для текущей команды\n3) Контроль качества аутсорс-проектов\n4) Расширение инхаус-команды и аккумуляция задач на внутренних ресурсах\n\nФункционал: \n-управление командой 3 чел\n-контроль разработки от 2 аутсорсеров (мобайл+розничный блок)\n-интерес к продуктовой аналитике и улучшениям продукта\n\nЧто нужно уметь\nЗнания Node.js на уровне Senior\nFrontend –React/TypeScript/Angular и др.\nопыт постановки задач, код-ревью\nПожелания: развитые софт-скиллы для общения с собственником\n\nУсловия и преимущества \nБесплатные (неограниченно) услуги химчистки \nГрафик 5/2 с 10 до 19, возможно подвигать, возможно часть удаленно \n\n\nФормат работы: Работа в офисе у метро Электрозаводская (200 метров от метро). \nЗанятость: Полная. оформление по ТК РФ (возможность оформления через ИП)\nЗарплатная вилка: 200 000–300 000 ₽ / мес\n\n#вакансия #Frontend #Backend #TypeScript #NodeJS #Angular #МСК #офис #js #javascript #Fullstack\n\n—\n\n👉 Обсуждение вакансии в чате @javascript_jobs","markup":[{"type":"hashtag","offset":1356,"length":9,"data":"вакансия"},{"type":"hashtag","offset":1366,"length":9,"data":"Frontend"},{"type":"hashtag","offset":1376,"length":8,"data":"Backend"},{"type":"hashtag","offset":1385,"length":11,"data":"TypeScript"},{"type":"hashtag","offset":1397,"length":7,"data":"NodeJS"},{"type":"hashtag","offset":1405,"length":8,"data":"Angular"},{"type":"hashtag","offset":1414,"length":4,"data":"МСК"},{"type":"hashtag","offset":1419,"length":5,"data":"офис"},{"type":"hashtag","offset":1425,"length":3,"data":"js"},{"type":"hashtag","offset":1429,"length":11,"data":"javascript"},{"type":"hashtag","offset":1441,"length":10,"data":"Fullstack"},{"type":"handle","offset":1486,"length":16,"data":"javascript_jobs"}],"date":"2020-06-16T11:45:58+00:00","link":"tg://resolve?domain=javascript_jobs_feed&post=0","tags":[{"name":"javascript"},{"name":"typescript"},{"name":"nodejs"},{"name":"angularjs"},{"name":"reactjs"}],"cities":[],"allowsRemote":true}},{"node":{"__typename":"Job","id":"16971202560-1001110946746","title":"Js developer","text":"#вакансия\nГород и адрес офиса: Эйлат, Израиль\nФормат работы: удаленка\nЗанятость: полная\nЗарплатная вилка: (оба значения обязательны) от 1500$ до 3000$ net\nОписание вакансии:\n\nhttps://trucknet.io/en/open-positions/middle-senior-backend-typescript-developer/\n\nWho are we looking for\nWe are looking for a Backend Developer to join our R&D department in Eilat, Israel. Have you ever dreamed of working with a small and capable team in a coastal town on the southern edge of the Negev Desert? Are you interested in creating an eco-friendly product in a domain of logistics and transportation, solving mysteries problems and facing new challenges? If so, the Trucknet team is just the place for you!\nResponsibilities\n • Implementing new features and providing support for various microservices.\n • Proposing, brainstorming and carrying out refactoring to improve the internal structure of our software.\n • Improving the developer experience by constantly bettering our toolbox.\n • Advancing deployment/integration infrastructure.\nRequirements\n • 3+ years of professional experience with backend development.\n • Acquaintance with Typescript, OOP Javascript, NodeJS.\n • Acquaintance with MongoDB and experience with databases in general.\n • Practical skills in software architecture and software design.\nAdvantages\n • Knowledge of Docker and Kubernetes.\n • Understanding the concept of horizontal scaling and what limitations it does impose on the application.\n • Strong knowledge of MongoDB, PostgreSQL.\n • Experience with CI/CD (we use GitLab CI).\n • Experience with test-driven development.\n • Experience with AWS.\n\n\nНазвание компании: Trucknet (https://trucknet.io/)\nКонтакты: @g000seman alex@trucknet.io\n\n—\n\n👉 Обсуждение вакансии в чате @javascript_jobs","markup":[{"type":"hashtag","offset":0,"length":9,"data":"вакансия"},{"type":"link","offset":175,"length":81,"data":"https://trucknet.io/en/open-positions/middle-senior-backend-typescript-developer/"},{"type":"link","offset":1641,"length":20,"data":"https://trucknet.io/"},{"type":"handle","offset":1673,"length":10,"data":"g000seman"},{"type":"link","offset":1684,"length":16,"data":"mailto:alex@trucknet.io"},{"type":"handle","offset":1735,"length":16,"data":"javascript_jobs"}],"date":"2020-06-16T11:37:40+00:00","link":"tg://resolve?domain=javascript_jobs_feed&post=0","tags":[{"name":"javascript"},{"name":"dotnet"},{"name":"typescript"},{"name":"deployment"},{"name":"nodejs"},{"name":"mongodb"},{"name":"docker"},{"name":"kubernetes"},{"name":"postgresql"},{"name":"gitlab"},{"name":"amazon-web-services"}],"cities":[],"allowsRemote":true}},{"node":{"__typename":"Job","id":"16954425344-1001110946746","title":"Js разработчик","text":"#вакансия #удалённо #nestjs #nest #fullstack #typescript \n\nFullstack TypeScript Developer\n\nhttps://edm-ghost-production.com ищет в команду разработчика для создания музыкальной платформы. \n\n⭐Стек: \nNode.Js, TypeScript, Express, NestJS, TypeOrm, PostgreSQL, Redis, Vue \n\n🔻 Требования:\n- Опыт работы с NestJS (не менее 6 месяцев), TypeOrm;\n- Опыт работы с Vue (vue-class-component, vue-property-decorator) не менее года\n- Знания ES6/ES7/ES8;\n- REST APIs, на основе Express и NestJS;\n- Опыт работы с PostgreSQL; \n- Typescript (не менее года)\n- ESLint;\n- Знание основ систем контроля версий (Git);\n- Умение работать в команде и писать чистый код;\n\n💥Будет плюсом:\n- AWS S3;\n- Интеграция с Helpdesk (Zendesk/Intercom/Helpcrunch etc.)\n\n🙋♂Обязанности:\n- Разработка бэкенда и фронтэнда нового приложения \n- Взаимодействие с другими разработчиками\n\n🔹Условия:\n- Удалённая работа\n- Полная занятость \n- Гибкий график работы (важно что бы все задачи были выполнены)\n- Зарплатная вилка 120 000 - 200 000 рублей (в зависимости от уровня кандидата middle/senior)\n\nПрисылайте CV в ЛС @alexlarichev","markup":[{"type":"hashtag","offset":0,"length":9,"data":"вакансия"},{"type":"hashtag","offset":10,"length":9,"data":"удалённо"},{"type":"hashtag","offset":20,"length":7,"data":"nestjs"},{"type":"hashtag","offset":28,"length":5,"data":"nest"},{"type":"hashtag","offset":34,"length":10,"data":"fullstack"},{"type":"hashtag","offset":45,"length":11,"data":"typescript"},{"type":"link","offset":91,"length":32,"data":"https://edm-ghost-production.com"},{"type":"handle","offset":1070,"length":13,"data":"alexlarichev"}],"date":"2020-06-16T06:34:02+00:00","link":"tg://resolve?domain=javascript_jobs_feed&post=0","tags":[{"name":"javascript"},{"name":"typescript"},{"name":"nodejs"},{"name":"express"},{"name":"postgresql"},{"name":"redis"},{"name":"vuejs"},{"name":"rest"},{"name":"git"},{"name":"amazon-web-services"}],"cities":[],"allowsRemote":true}},{"node":{"__typename":"Job","id":"16952328192-1001110946746","title":"Javascript разработчик","text":"#вакансия #frontend #react #typescript #middle #senior #москва #офис #fulltime\n\nПозиция – Frontend developer\nКомпания – Quadcom\nЛокация – Москва, м. Ботанический сад\nЗанятость – полная, офис, гибкое время начала дня\nОплата: от 150 000 до 200 000 рублей на руки\n\nМы ищем талантливого фронтенд-разработчика в нашу не очень большую, но дружную команду.\nЕсли ты легко осваиваешь новые технологии, любишь чистый и красивый код, знаешь алгоритмы и готов развиваться, то мы очень хотим тебя к себе!\n\nМы разрабатываем различные сервисы и интерфейсы для внутреннего и внешнего использования. У нас есть как большие проекты, так и маленькие. Начиная с 2014 года с небольшой команды мы развились до довольно большой компании и развиваемся дальше\n\nБазируемся в уютном бизнес-центре недалеко от метро Ботанический сад и ВДНХ. У нас гибкий рабочий график, современный офис и отличное оборудование для работы.\n\n✅ Необходимые навыки:\n\n• Знание Javascript и ES6+, React + Redux\n• Уверенные знания HTML, CSS/SASS/LESS\n• Опыт работы в команде с использованием Git и системой управления задачами\n\n✅ Плюсом будет:\n\n• Опыт написания собственного REST API\n• Знакомство с TypeScript\n• Знание алгоритмов и структур данных\n\n✅ Мы предлагаем:\n\n• Работу в успешной, растущей компании\n• Карьерный и профессиональный рост\n• Уютный офис\n• Отсутствие какого-либо дресс-кода\n• Свободный график\n• Адекватное руководство\n\nЗП от 150 000 до 200 000 рублей на руки\nпо итогам собеседования и испытательного срока\n\n☎️ Контакты для обсуждения вакансии:\n\ntelegram @codebor\ne-mail ybb@quadcom.ru\n\n💡Для желающих мы подготовили небольшое задание [~4 часа]\nhttps://github.com/walborn/test-backend-jwt/blob/master/task.md","markup":[{"type":"hashtag","offset":0,"length":9,"data":"вакансия"},{"type":"hashtag","offset":10,"length":9,"data":"frontend"},{"type":"hashtag","offset":20,"length":6,"data":"react"},{"type":"hashtag","offset":27,"length":11,"data":"typescript"},{"type":"hashtag","offset":39,"length":7,"data":"middle"},{"type":"hashtag","offset":47,"length":7,"data":"senior"},{"type":"hashtag","offset":55,"length":7,"data":"москва"},{"type":"hashtag","offset":63,"length":5,"data":"офис"},{"type":"hashtag","offset":69,"length":9,"data":"fulltime"},{"type":"handle","offset":1521,"length":8,"data":"codebor"},{"type":"link","offset":1537,"length":14,"data":"mailto:ybb@quadcom.ru"},{"type":"link","offset":1611,"length":63,"data":"https://github.com/walborn/test-backend-jwt/blob/master/task.md"}],"date":"2020-06-15T21:32:03+00:00","link":"tg://resolve?domain=javascript_jobs_feed&post=0","tags":[{"name":"javascript"},{"name":"reactjs"},{"name":"typescript"},{"name":"redux"},{"name":"html"},{"name":"css"},{"name":"sass"},{"name":"git"},{"name":"rest"},{"name":"github"},{"name":"jwt"},{"name":"react-redux"}],"cities":[{"code":"moscow"}],"allowsRemote":false}},{"node":{"__typename":"Job","id":"16942891008-1001110946746","title":"Js разработчик","text":"Greenatom.ru\n#вакансия #Москва #javascript #React #Typescript #Node.js #Middle #Senior #удаленка #удаленная работа \n\n👨🏼‍💻 Middle/Senior Frontend Developer, Middle/Senior Backend Developer\nГород и адрес офиса: #Москва, БЦ Сириус Парк, метро Нагатинская\n\n✅Формат работы: \nУДАЛЕННАЯ РАБОТА\n\n💻Занятость: полная, гибкое начало трудового дня.\n\nЗарплатная вилка: от 170 000 до 230 000 руб. на руки.\n\n🏢Компания: АО Гринатом\n\nПривет! Мы растём и активно развиваем ряд внутренних проектов: например, корпоративный портал, горячая линия, собственная кадровая система. Мы формируем НЕСКОЛЬКО КОМАНД и ищем классных:\n\n✅фронтенд разработчиков;\n\n✅бэкенд разработчиков. \n\nПроекты в стадии разработки пилота и у тебя есть возможность повлиять на дальнейшее развитие продукта. Если у тебя есть крутые идеи - ты сможешь их здесь реализовать! Откликайся сам и зови друзей! Вирус пройдёт, работа останется!\n\n✅Требуемые знания и навыки:\n- Опыт разработки от двух лет\n- Хорошее знание чистого JS\n- Опыт работы с TypeScript\n- React, MobX, Less/Sass\n- Опыт написания юнит-тестов с помощью Jest, Enzymе очень приветствуется\n\n💡Наш стек:\n      React, TypeScript, Node.js, MobX, Docker\n\nМы работаем по Scrum.\n\n✅Условия:\n- Официальное оформление по ТК, белая зп;\n- Возможности профессионального и карьерного роста;\n- Дополнительные 3 дня к отпуску;\n- Плавающее начало дня;\n- ДМС со стоматологией\n\n☎️Контакты:\nЮлия - YAnZueva@Greenatom.ru","markup":[{"type":"link","offset":0,"length":12,"data":"http://Greenatom.ru"},{"type":"hashtag","offset":13,"length":9,"data":"вакансия"},{"type":"hashtag","offset":23,"length":7,"data":"Москва"},{"type":"hashtag","offset":31,"length":11,"data":"javascript"},{"type":"hashtag","offset":43,"length":6,"data":"React"},{"type":"hashtag","offset":50,"length":11,"data":"Typescript"},{"type":"hashtag","offset":62,"length":5,"data":"Node"},{"type":"hashtag","offset":71,"length":7,"data":"Middle"},{"type":"hashtag","offset":79,"length":7,"data":"Senior"},{"type":"hashtag","offset":87,"length":9,"data":"удаленка"},{"type":"hashtag","offset":97,"length":10,"data":"удаленная"},{"type":"hashtag","offset":212,"length":7,"data":"Москва"},{"type":"link","offset":1392,"length":21,"data":"mailto:YAnZueva@Greenatom.ru"}],"date":"2020-06-15T18:41:43+00:00","link":"tg://resolve?domain=javascript_jobs_feed&post=0","tags":[{"name":"javascript"},{"name":"reactjs"},{"name":"typescript"},{"name":"nodejs"},{"name":"sass"},{"name":"docker"}],"cities":[{"code":"moscow"}],"allowsRemote":true}},{"node":{"__typename":"Job","id":"16939745280-1001110946746","title":"Js developer","text":"#вакансия #JavaScript #Angular \n\nЛокация: Москва м.Достоевская/Новослободская/Менделеевская\nФормат работы: Удаленный формат работы на время карантина/далее офис\nЗанятость: полная\nЗаработная плата: от 140 000 до 240 000 после вычета налогов\nВакансия: Middle/Senior Front Developer\nКомпания: YCLIENTS\nКонтакты: @chernoglazau\n\n⭐️YCLIENTS -облачная ERP система - предоставляет сервисы онлайн-записи, складского учета, расчета зарплат сотрудников, управления уведомлениями и программой лояльности. \nПроекту 10 лет. На сегодняшний день клиентами YCLIENTS являются более 19 тысяч компаний в 400 городах России и стран СНГ. Ежемесячно на платформе совершается более 9 миллионов записей к 160 000 специалистов.\n\n💥Требования:\n    • Отличные знания JavaScript (es.next), TypeScript\n    • Обширный опыт работы с angular (4+) и angularjs, опыт работы с большими проектами\n    • Качественно верстать по mobile-first (Edge и нормальные браузеры)\n    • Опыт работы с cordova/phonegap\n    • Хорошо знаешь как работает git, комфортно себя чувствует в *nix-консоли\n    • Знает, как настраивать webpack\n     \n     💥 Мы работаем командой, и мнение каждого члена для нас имеет значение\n    • Работаем по Agile, в команде есть Scrum-мастер\n    • Отличный Work/Life баланс\n    • Гарантируем, что каждый получит технический буст на этом проекте. Научим, расскажем, главное чтобы Вы были открыты к новым знаниям.\n\nЕсли ты готов к переменам, пиши сразу мне, буду рада пообщаться!","markup":[{"type":"hashtag","offset":0,"length":9,"data":"вакансия"},{"type":"hashtag","offset":10,"length":11,"data":"JavaScript"},{"type":"hashtag","offset":22,"length":8,"data":"Angular"},{"type":"handle","offset":309,"length":13,"data":"chernoglazau"},{"type":"link","offset":751,"length":7,"data":"http://es.next"}],"date":"2020-06-15T18:34:34+00:00","link":"tg://resolve?domain=javascript_jobs_feed&post=0","tags":[{"name":"javascript"},{"name":"angularjs"},{"name":"typescript"},{"name":"mobile"},{"name":"cordova"},{"name":"git"},{"name":"webpack"}],"cities":[{"code":"moscow"}],"allowsRemote":false}},{"node":{"__typename":"Job","id":"16938696704-1001110946746","title":"Javascript developer","text":"#вакансия #удаленка #react\n\nRocketech.it срочно ищет Senior Frontend React Developer\n\nФормат занятости: удаленка\nЗанятость: fulltime\nЗарплатная вилка: 2200 -2700$/месяц на руки\n\nО компании: \n\nRocketech - компания, предоставляющая полноценные продуктовые команды для инвесторов, стартаперов и крупных компаний. Мы уже больше 5 лет на рынке разработки програмного обеспечения. Сотни выполненых кейсов, десятки крупных клиентов. \n\nО проекте:\n\nМаркетинговый инструмент.\n\nСтек технологий: \n\nTypeScript, React, CRA, less, mobx, antd\n\nТребования: \n\n3+ года опыта коммерческой разработки в frontend\n\nБудет плюсом:\n\nРазговорный английский\n\nКонтакт: @mxm_at\n\n—\n\n👉 Обсуждение вакансии в чате @javascript_jobs","markup":[{"type":"hashtag","offset":0,"length":9,"data":"вакансия"},{"type":"hashtag","offset":10,"length":9,"data":"удаленка"},{"type":"hashtag","offset":20,"length":6,"data":"react"},{"type":"link","offset":28,"length":12,"data":"http://Rocketech.it"},{"type":"handle","offset":640,"length":7,"data":"mxm_at"},{"type":"handle","offset":682,"length":16,"data":"javascript_jobs"}],"date":"2020-06-15T14:35:41+00:00","link":"tg://resolve?domain=javascript_jobs_feed&post=0","tags":[{"name":"javascript"},{"name":"reactjs"},{"name":"typescript"}],"cities":[],"allowsRemote":true}}]}}},"context":{}}