{"hash":"f5f6bf98bd95e769321482904cbbd488f77922fd","data":{"records":{"id":"sql","name":"sql","belongsTo":{"totalCount":169,"pageInfo":{"totalPages":17,"currentPage":9},"edges":[{"node":{"__typename":"Job","id":"103458799616-1001089317451","title":"Qa engineer","text":"#Москва #вакансия #QA #fulltime #test #office\n\n💻Компания: СберТех.\n🧰Вакансия: QA Engineer.\n🏢Офис: Москва, м. Нагатинская/м. Тульская/ м. Верхние Котлы.\n💰ЗП: от 150 000 Net.\n\n📂Проект: Разработка платформы для управления бизнес-процессами Банка и Цифровой Платформы Sber.\n\n🗓Задачи:\n• Работа в роли тестировщика в scrum команде.\n• Написание, актуализация тестовых сценариев и их прохождение (API, UI).\n• Проведение функционального, регрессионного, интеграционного и других видов тестирования.\n• Регистрация, отслеживание и верификация дефектов.\n• Участие в развитии команды и процессов тестирования.\n\n📌Требования: \n• Опыт написания тестовых сценариев, чек-листов, составления сложных интеграционных сценариев.\n• Знание теории тестирования, понимание видов тестирования и необходимости их применения на различных этапах реализации проекта.\n• Опыт анализа и тестирования требований.\n• Опыт тестирования rest/soap сервисов.\n• Опыт работы с BPM системами, понимание нотации BPMN 2.0.\n\n📎Cтек: REST, XML, XSD, JSON, SQL, BPMN 2.0, Docker, Kubernetes, Openshift, Kafka.\n\n🔰Условия:\n• Оформление ТК РФ.\n• ДМС для сотрудников и скидки на медицинскую страховку для родственников;\n• Высокая белая заработная плата (оклад + годовая премия).\n• Возможность обучения за счет компании, посещения IT-конференций.\n• Бесплатный тренажерный зал на территории офиса.\n• Корпоративная жизнь и спортивные мероприятия.\n\n📩Готов ответить на интересующие вопросы - @Dmiryy","markup":[{"type":"hashtag","offset":0,"length":7,"data":"Москва"},{"type":"hashtag","offset":8,"length":9,"data":"вакансия"},{"type":"hashtag","offset":18,"length":3,"data":"QA"},{"type":"hashtag","offset":22,"length":9,"data":"fulltime"},{"type":"hashtag","offset":32,"length":5,"data":"test"},{"type":"hashtag","offset":38,"length":7,"data":"office"},{"type":"handle","offset":1443,"length":7,"data":"Dmiryy"}],"date":"2020-06-22T15:07:24+00:00","link":"tg://resolve?domain=qa_jobs&post=98666","tags":[{"name":"qa"},{"name":"dotnet"},{"name":"rest"},{"name":"soap"},{"name":"xml"},{"name":"xsd"},{"name":"json"},{"name":"sql"},{"name":"docker"},{"name":"kubernetes"},{"name":"kafka"}],"cities":[{"code":"moscow"}],"allowsRemote":false}},{"node":{"__typename":"Job","id":"103450411008-1001089317451","title":"Qa инженер","text":"#тестировщик #QA #manual #СПб #fulltime #вакансия \nИнженер по тестированию middle/senior\nКомпания: Yota \nСанкт-Петербург, м. Беговая (БЦ Атлантик Сити) \nСредняя ЗП: **120 000**/на руки\nПолная занятость, офис (сейчас работаем удаленно)\n\nВсем привет! Я Олеся – HR компании Yota. В развивающуюся команду биллинга и тарификации ищем внимательного QA инженера. \nОднозначно пиши, если НЕТ опыта в автотестах, но очень хочешь расти в этом направлении. БОльшая часть времени-ручные тесты, + развитие в авто.\nТесная работа с БД (Oracle).\nИнтересные задачи: \n• Проведение приёмочного тестирования новой функциональности биллинговой системы;\n• Тестирование новых бизнес продуктов;\n• Тестирование-исследование на предмет реализуемости функционала.\n*остальное в вакансии на НН\n\nОбязательные требования: \n• Опыт работы в тестировании ПО от 2 лет; \n• Базовые знания REST API;\n• Базовые знания Linux;\n• Понимание QA как процесса обеспечения качества, знание процессов и методологий разработки ПО\n• Знания ORACLE (SQL, PL/SQL на уровне написания запросов/простых процедур).\n\nУсловия:\nДМС \nЗП полностью белая\nКофетерий: спорт, иностранные языки, корпоративные активности (футбол, теннис), клуб аналитиков и много других приятных мелочей.\nУютный новый офис в Атлантик-Сити (м.Беговая)\n\nВакансия: https://spb.hh.ru/vacancy/36958391\nОС: @olesyaromanova01","markup":[{"type":"hashtag","offset":0,"length":12,"data":"тестировщик"},{"type":"hashtag","offset":13,"length":3,"data":"QA"},{"type":"hashtag","offset":17,"length":7,"data":"manual"},{"type":"hashtag","offset":25,"length":4,"data":"СПб"},{"type":"hashtag","offset":30,"length":9,"data":"fulltime"},{"type":"hashtag","offset":40,"length":9,"data":"вакансия"},{"type":"bold","offset":75,"length":13,"data":""},{"type":"bold","offset":99,"length":4,"data":""},{"type":"bold","offset":153,"length":7,"data":""},{"type":"bold","offset":185,"length":22,"data":""},{"type":"bold","offset":301,"length":8,"data":""},{"type":"bold","offset":500,"length":18,"data":""},{"type":"bold","offset":540,"length":6,"data":""},{"type":"bold","offset":778,"length":10,"data":""},{"type":"bold","offset":1058,"length":7,"data":""},{"type":"link","offset":1277,"length":34,"data":"https://spb.hh.ru/vacancy/36958391"},{"type":"handle","offset":1316,"length":17,"data":"olesyaromanova01"}],"date":"2020-06-22T13:52:39+00:00","link":"tg://resolve?domain=qa_jobs&post=98658","tags":[{"name":"qa"},{"name":"oracle"},{"name":"rest"},{"name":"linux"},{"name":"sql"}],"cities":[],"allowsRemote":true}},{"node":{"__typename":"Job","id":"91639250944-1001067529236","title":"Python developer","text":"#вакансия #python #fulltime #office #remote #Senior #Lead #backend #офис #удаленка #работа\nВсем привет!\nКомпания в поисках Lead Python в офис в Томск или удаленно\n 💸 Зп от 150 000 net \n\nНеобходимые навыки:\n🔸Software development experience 5+, \n🔸Experience with Django (Django ORM, Django Rest Framework (1+years);\n🔸Experience with AWS services: Lambda, API Gateway, SNS, SQS, SES, S3, RDS, VPC, EC2, CloudWatch, etc.\n🔸Experience writing API and working / integration with API of third-party services;\n🔸Knowledge of the GraphQL API (Graphene will be a plus)\n🔸Knowledge of SQL (PostgreSQL relational DBMS will be a plus)\n🔸Knowledge of CloudFormation in AWS and Terraform;\n🔸Ability to read code and understand it at the level of business logic;\n🔸Ability to work with general abstract tasks;\n🔸Written and spoken English is a MUST (B2+)\n\n📝🔍Описание вакансии: https://art2hire.catsone.com/careers/89104-General/jobs/13388214-Senior-Python-Developer/\n📥Контакты: @Nataly_3 или на почту: n.mazepa@art2hires.com","markup":[{"type":"hashtag","offset":0,"length":9,"data":"вакансия"},{"type":"hashtag","offset":10,"length":7,"data":"python"},{"type":"hashtag","offset":18,"length":9,"data":"fulltime"},{"type":"hashtag","offset":28,"length":7,"data":"office"},{"type":"hashtag","offset":36,"length":7,"data":"remote"},{"type":"hashtag","offset":44,"length":7,"data":"Senior"},{"type":"hashtag","offset":52,"length":5,"data":"Lead"},{"type":"hashtag","offset":58,"length":8,"data":"backend"},{"type":"hashtag","offset":67,"length":5,"data":"офис"},{"type":"hashtag","offset":73,"length":9,"data":"удаленка"},{"type":"hashtag","offset":83,"length":7,"data":"работа"},{"type":"link","offset":867,"length":89,"data":"https://art2hire.catsone.com/careers/89104-General/jobs/13388214-Senior-Python-Developer/"},{"type":"handle","offset":969,"length":9,"data":"Nataly_3"},{"type":"link","offset":993,"length":22,"data":"mailto:n.mazepa@art2hires.com"}],"date":"2020-06-22T13:31:31+00:00","link":"tg://resolve?domain=python_jobs&post=0","tags":[{"name":"python"},{"name":"dotnet"},{"name":"django"},{"name":"orm"},{"name":"rest"},{"name":"amazon-web-services"},{"name":"aws-lambda"},{"name":"graphql"},{"name":"sql"},{"name":"postgresql"}],"cities":[{"code":"tomsk"}],"allowsRemote":true}},{"node":{"__typename":"Job","id":"103440973824-1001089317451","title":"Qa инженер","text":"#вакансия #qa #middle #fulltime #удаленно\nПривет!\nКомпания: ПИК Digital (https://www.pik.ru/).\nMiddle QA - от 50к и выше (по результатам собеседования) \n\nЗадачи:\n• Участие в интересных проектах по тестированию web и мобильных приложений;\n• Проведение функционального, регрессионного, юзабилити тестирования;\n• Разработка ручных тестовых сценариев и написание тестовой документации;\n• Оценка задач на тестирование;\n• Заведение дефектов и контроль их исправления;\n• Согласование тестовых требований и планов тестирования;\n• Составление отчетов и документации по результатам тестирования;\n• Поддержка автотестов.\n\nТребования:\n• Опыт работы на аналогичной должности от 1 года;\n• Опыт тестирования API;\n• Уверенные знания SQL;\n• Опыт работы с developer tools в браузере;\n• Понимание процессов тестирования и разработки;\n• Понимание принципов работы front и backend приложений;\n• Умение ясно и грамотно формулировать свои мысли;\n• Умение пользоваться устройствами на базе Android и iOS;\n\nБудет плюсом:\n• Опыт разработки автоматизированных тестовых сценариев (Java, Pyton, JavaScript);\n• Умение работать с unix-системами, знание bash-скриптов.\n• Понимание принципов непрерывной интеграции и доставки (CI, CD).\n\nНаши преимущества:\n• Большое внутреннее community разработчиков, аналитиков;\n• Современный стек технологий и техническое оснащение;\n• Минимум бюрократии;\n• Возможности для роста и развития;\n• Обучение и посещение конференций за счет компании.\n\nУсловия:\n• Оформление в соответствии с ТК РФ;\n• После испытательного срока медицинское обслуживание;\n• Официальная заработная плата обсуждается при собеседовании;\n• Премии по итогам года;\n• Гибкое начало рабочего дня;\n• Возможность удаленной работы.\nКонтакты: @alexey_petrunin","markup":[{"type":"hashtag","offset":0,"length":9,"data":"вакансия"},{"type":"hashtag","offset":10,"length":3,"data":"qa"},{"type":"hashtag","offset":14,"length":7,"data":"middle"},{"type":"hashtag","offset":22,"length":9,"data":"fulltime"},{"type":"hashtag","offset":32,"length":9,"data":"удаленно"},{"type":"link","offset":73,"length":19,"data":"https://www.pik.ru/"},{"type":"handle","offset":1708,"length":16,"data":"alexey_petrunin"}],"date":"2020-06-22T12:44:10+00:00","link":"tg://resolve?domain=qa_jobs&post=98649","tags":[{"name":"qa"},{"name":"web"},{"name":"sql"},{"name":"android"},{"name":"ios"},{"name":"java"},{"name":"javascript"},{"name":"unix"},{"name":"bash"}],"cities":[],"allowsRemote":true}},{"node":{"__typename":"Job","id":"26534215680-1001075660570","title":"Php разработчик","text":"#вакансия #php #удаленка #удаленно #офис #фултайм  #fulltime #msk #мск \nГде: Москва\nО нас: К50\nМы разрабатываем программные продукты в области контекстной рекламы. На рынке уже 7 лет.\nИщем коллегу, чтобы разрабатывать и развивать высоконагруженные сервисы компании.\nСтек наших технологий: \nPHP7 + Symfony + Doctrine + Composer;\nMySQL, Redis, Vertica; Jira/Confluence, Git, Gitlab;\n\nНаши требования к кандидату:\n- Опыт программирования на языке PHP от 2-х лет;\n- Опыт работы с современными MVC PHP фреймворком\n- Опыт работы с MySQL, умение писать оптимизированные SQL запросы\n- Знание основ построения высоконагруженных систем\n- Опыт работы с git\n- Опыт с Google API, Yandex API как преимущество\n\nМы со своей стороны обещаем:\n- Интересные задачи, работу с BigData\n- Актуальный стек технологий\n- Отсутствие овертаймов, спланированную работу по методикам Agile\n- Гибкий график работы\n- Полностью белая заработная плата, которая выплачивается без задержек 2 раза в месяц\n- Профессиональную команду, которая готова помочь.\n- Возможность получать обратную связь по результатам работы\n- Человечное отношение (стараемся вместе понять и помочь решить возникающие проблемы, не бросаем сотрудников на произвол судьбы)\n- Открытое и вовлеченное руководство, которое полностью отдает себя компании\n- Веселые корпоративы\n- Клуб английского языка\n\nЗарплатная вилка: 100-200 тысяч рублей в месяц на руки по результатам технического интервью\nКонтактное лицо: @brungilda_vo_tme (Кирилл), k.alekseenko@k50.ru (рабочая почта)","markup":[{"type":"hashtag","offset":0,"length":9,"data":"вакансия"},{"type":"hashtag","offset":10,"length":4,"data":"php"},{"type":"hashtag","offset":15,"length":9,"data":"удаленка"},{"type":"hashtag","offset":25,"length":9,"data":"удаленно"},{"type":"hashtag","offset":35,"length":5,"data":"офис"},{"type":"hashtag","offset":41,"length":8,"data":"фултайм"},{"type":"hashtag","offset":51,"length":9,"data":"fulltime"},{"type":"hashtag","offset":61,"length":4,"data":"msk"},{"type":"hashtag","offset":66,"length":4,"data":"мск"},{"type":"handle","offset":1441,"length":17,"data":"brungilda_vo_tme"},{"type":"link","offset":1469,"length":19,"data":"mailto:k.alekseenko@k50.ru"}],"date":"2020-06-22T12:35:16+00:00","link":"tg://resolve?domain=php_jobs&post=25305","tags":[{"name":"php"},{"name":"symfony"},{"name":"doctrine"},{"name":"mysql"},{"name":"redis"},{"name":"git"},{"name":"gitlab"},{"name":"sql"}],"cities":[{"code":"moscow"}],"allowsRemote":true}},{"node":{"__typename":"Job","id":"103437828096-1001089317451","title":"Qa инженер","text":"#qa #вакансия #fulltime #удаленно\nКомпания: КлаудФэктори (cloudfactory.ru) \n\nCloudfactory  –компания разработчик мобильных приложений. Наша специализация это создание инвестиционных для финансовых компаний и банков на основе собственной платформы. Наши приложения входят в ТОП-100 App Store и Google Play.\n\n\nДолжность: Инженер по ручному и автоматизированному тестированию (QA & Automation Engineer)\n\nПриглашаем  инженера по тестированию в распределенную команда (~50 человек).\n\nЗП от  100к и по результатам собеседования\nОформление по ТК или возможны иные варианты сотрудничества\n\nОбязанности\n•  Тестирование мобильного приложения (приемочное, регрессионное, исследовательское)\n•  Разбор дефектов, полученных от поддержки\n•  Ведение тестовой документации\n•  Подготовка тестовой среды (формирование данных, локальные изменения хранимых процедур)\n\nТребуемые навыки\n•  Понимание принципов работы мобильного приложения\n•  Знания методов и техник тестирования\n•  Умение работать с Postman / Swagger или аналогами\n•  Умение работать с Fiddler / Charles / Mitmproxy или аналогами\n•  Базовые знания SQL\n•  Самостоятельность и самоорганизованность\n•  Опыт работы от 1 года\nЛичные качества:\n•  Аналитические способности;\n•  Системное мышление;\n•  Ответственность.\n•  Умение работать в команде.\n•  Целеустремленность.\nУсловия работы:\n•  Удаленная работа на полный рабочий день\n•  Работа в стабильной компании\n•  ЗП без задержек.\n•  Оформление по ТК РФ\n•  График работы: 5/2\n\nУ нас интересная команда и хорошие проекты (топ 100 в google play и app store)\nЕсли вас заинтересовало наше предложение, ждем ваши отклики на e-mail: guskov@cloudfactory.ru  или в Телеграмм  @ConstG","markup":[{"type":"hashtag","offset":0,"length":3,"data":"qa"},{"type":"hashtag","offset":4,"length":9,"data":"вакансия"},{"type":"hashtag","offset":14,"length":9,"data":"fulltime"},{"type":"hashtag","offset":24,"length":9,"data":"удаленно"},{"type":"link","offset":58,"length":15,"data":"http://cloudfactory.ru"},{"type":"link","offset":1615,"length":22,"data":"mailto:guskov@cloudfactory.ru"},{"type":"handle","offset":1656,"length":7,"data":"ConstG"}],"date":"2020-06-22T12:34:51+00:00","link":"tg://resolve?domain=qa_jobs&post=98646","tags":[{"name":"qa"},{"name":"playframework"},{"name":"swagger"},{"name":"sql"}],"cities":[],"allowsRemote":true}},{"node":{"__typename":"Job","id":"26532118528-1001075660570","title":"Php developer","text":"#вакансия #офис #спб #senior\nЛокация: СПб, ул. Рубинштейна\nФормат работы: Office\nЗанятость: Full-time\nЗарплатная вилка: 150 000 - 250 000 (net)\nПозиция: Senior Developer\n\nПроект:\nOndoc.me — современный медицинский сервис для пользователей, интегрированный с клиниками.\nМы разработали платформу, которая объединяет клиники, врачей, пациентов в цифровом пространстве и помогает более эффективно решать задачи заботы о здоровье.\n\nКакие задачи нужно решать:\n- Разработка и развитие бизнес логики проекта и RESTful API\n- Участие в развитии архитектуры проекта\n- Повышение отказоустойчивости и улучшение масштабируемости проекта\n- Написание тестов\n- Работа в команде по agile-методологии\n\nОжидания:\n- Не менее 4 лет коммерческой разработки\n- Уверенное владение PHP (>=7.2)\n- Опыт написания тестов\n- Знание стандартов PSR\n- Знание паттернов проектирования и принципов ООП\n- Опыт разработки API\n- Необходимы базовые навыки JavaScript, HTML, CSS, Git, Bash, SQL\n- Желание писать хороший код, проводить код ревью\n- Умение работать в команде\n\nНаш stack: PHP 7.2, Symfony 3.4, Doctrine, PHPunit 6, Behat 3, GitHub Flow, Ansible, Vagrant, Docker, Redis\n\nМы предлагаем:\n- Полностью белая зарплата;\n- У нас плавающее начало рабочего дня (10-12 утра) и иногда можно работать удаленно;\n- Для нас важно качество продукта, поэтому мы очень много работаем в течение всего года и стремимся обеспечить лучший сервис нашим клиентам. Такой интенсивный ритм сформировал у нас традицию устраивать длинные новогодние каникулы (около 3-4 недель)\nи пр.\n\nКритика, вопросы, резюме - всегда welcome!\nTelegram @ru_spiridonov","markup":[{"type":"hashtag","offset":0,"length":9,"data":"вакансия"},{"type":"hashtag","offset":10,"length":5,"data":"офис"},{"type":"hashtag","offset":16,"length":4,"data":"спб"},{"type":"hashtag","offset":21,"length":7,"data":"senior"},{"type":"bold","offset":153,"length":18,"data":""},{"type":"link","offset":179,"length":8,"data":"http://Ondoc.me"},{"type":"handle","offset":1577,"length":14,"data":"ru_spiridonov"}],"date":"2020-06-22T12:01:32+00:00","link":"tg://resolve?domain=php_jobs&post=25303","tags":[{"name":"php"},{"name":"dotnet"},{"name":"javascript"},{"name":"html"},{"name":"css"},{"name":"git"},{"name":"bash"},{"name":"sql"},{"name":"symfony"},{"name":"doctrine"},{"name":"phpunit"},{"name":"github"},{"name":"ansible"},{"name":"vagrant"},{"name":"docker"},{"name":"redis"}],"cities":[],"allowsRemote":true}},{"node":{"__typename":"Job","id":"1719664640-1001091028994","title":"Java разработчик","text":"#java #middle #москва #офис #fulltime\nJava-разработчик (CDP)\nКомпания: Эвотор\nЛокация: Москва, м. Парк Культуры\nЗп: 150 - 200К net\nКонтакты: @viktori_may, v.plotnikova@evotor.ru\n\nНаша команда занимается созданием Customer Data Platform (CDP) - система, которая идентифицирует пользователя через любой канал взаимодействия и собирает информацию о нем в одном профиле, позволяет сегментировать пользователей и коммуницировать с ними на основании сформированных правил. \n\nЗадачи:\n- Проектирование и реализация отказоустойчивых и готовых к масштабированию сервисов\n- Обширный круг задач по проектированию архитектуры и API системы\n- Участие в выборе используемых технологий\n\nКого ищем:\n• Знание основных алгоритмов и шаблонов проектирования ПО;\n• Знание фреймворков Spring Boot, Spring Cloud, Spring Cloud Stream, Kafka, Hibernate, веб-стека;\n• Знание технологий контейнеризации (Docker, Kubernetes);\n• Опыт работы c SQL и NoSQL базами данных(PostgreSQL, Aerospike, ClickHouse);\n• Опыт работы с инструментами Gradle, Git, Jira, Jenkins.\n\nСтек:\nJava12, Spring, Hibernate,Git, PostgreSQL, Kafka, Kubernetes, Docker\n\nУсловия:\n- Полностью официальная заработная плата\n- Офис в шаговой доступности от м. Парк Культуры со своей кухней и террасой\n- ДМС после прохождения испытательного срока","markup":[{"type":"hashtag","offset":0,"length":5,"data":"java"},{"type":"hashtag","offset":6,"length":7,"data":"middle"},{"type":"hashtag","offset":14,"length":7,"data":"москва"},{"type":"hashtag","offset":22,"length":5,"data":"офис"},{"type":"hashtag","offset":28,"length":9,"data":"fulltime"},{"type":"handle","offset":141,"length":12,"data":"viktori_may"},{"type":"link","offset":155,"length":22,"data":"mailto:v.plotnikova@evotor.ru"},{"type":"bold","offset":469,"length":6,"data":""},{"type":"bold","offset":671,"length":10,"data":""},{"type":"bold","offset":1034,"length":4,"data":""}],"date":"2020-06-22T11:44:13+00:00","link":"tg://resolve?domain=jvmjobs&post=1640","tags":[{"name":"java"},{"name":"jvm"},{"name":"dotnet"},{"name":"spring"},{"name":"cloud"},{"name":"kafka"},{"name":"hibernate"},{"name":"docker"},{"name":"kubernetes"},{"name":"sql"},{"name":"nosql"},{"name":"postgresql"},{"name":"gradle"},{"name":"git"},{"name":"jenkins"},{"name":"spring-boot"}],"cities":[{"code":"moscow"}],"allowsRemote":false}},{"node":{"__typename":"Job","id":"91589967872-1001067529236","title":"Python разработчик","text":"#вакансия #python #fulltime #office #remote #спб #Senior #Lead #backend #офис #удаленка #работа\nЗп 140 000-160 000 net \n\nПривет! Компания e-Legion в поисках senior Python-разработчика в офис в Санкт-Петербург или удаленно.\n\nНеобходимые навыки:\n🔹 Python 3,6+, \n🔹 Django Framework и сопутствующие ему библиотеки и утилиты,\n🔹 asyncio, aiohttp и другие асинхронные библиотеки,\n🔹 PostgreSQL или другие реляционные БД,\nхорошее знание принципов работы HTTP и смежных сетевых протоколов,\n🔹 английский язык на уровне чтения и написания технической документации,\n🔹 Git.\n\nПреимуществом будет:\n🔹 знание SQL и реляционной алгебры,\n🔹 знакомство с Redis, RabbitMQ,\n🔹 опыт работы с Ansible,\n🔹 основы администрирования Linux,\n🔹 знание других языков программирования, фреймворков и технологий.\n🔹 понимание микросервисной архитектуры, опыт разработки высоконагруженных систем\n\nОт нас:\n🔹 гибкий график работы,\n🔹 компенсацию спорта, обучения и медицины,\n🔹 обучение и систему наставничества,\nвозможность писать статьи для отраслевых медиа и выступать на конференциях и митапах.\n\nОписание вакансии: https://www.e-legion.ru/vacancies/spb/python/\nКонтакты: @alexandrashirokina или на почту: hr@e-legion.com","markup":[{"type":"hashtag","offset":0,"length":9,"data":"вакансия"},{"type":"hashtag","offset":10,"length":7,"data":"python"},{"type":"hashtag","offset":18,"length":9,"data":"fulltime"},{"type":"hashtag","offset":28,"length":7,"data":"office"},{"type":"hashtag","offset":36,"length":7,"data":"remote"},{"type":"hashtag","offset":44,"length":4,"data":"спб"},{"type":"hashtag","offset":49,"length":7,"data":"Senior"},{"type":"hashtag","offset":57,"length":5,"data":"Lead"},{"type":"hashtag","offset":63,"length":8,"data":"backend"},{"type":"hashtag","offset":72,"length":5,"data":"офис"},{"type":"hashtag","offset":78,"length":9,"data":"удаленка"},{"type":"hashtag","offset":88,"length":7,"data":"работа"},{"type":"link","offset":1091,"length":45,"data":"https://www.e-legion.ru/vacancies/spb/python/"},{"type":"handle","offset":1147,"length":19,"data":"alexandrashirokina"},{"type":"link","offset":1181,"length":15,"data":"mailto:hr@e-legion.com"}],"date":"2020-06-22T10:42:54+00:00","link":"tg://resolve?domain=python_jobs&post=0","tags":[{"name":"python"},{"name":"dotnet"},{"name":"django"},{"name":"postgresql"},{"name":"git"},{"name":"sql"},{"name":"redis"},{"name":"rabbitmq"},{"name":"ansible"},{"name":"linux"}],"cities":[],"allowsRemote":true}},{"node":{"__typename":"Job","id":"1716518912-1001091028994","title":"Java программист","text":"#Java  #middle #fulltime #удаленно\nДля московской  компании по разработке банковского ПО ищу middle программиста Java.\nЕсть задачи по созданию новых (больших и интересных) информационных систем, так и задачи по доработке и поддержке существующих. Разработка приложений с использованием микросервисной архитектуры.\nТребования: Java 8, Spring, Hibernate, JMS, REST, SQL\nУсловия обсуждаются в зависимости от опыта: 120 000-150 000 руб. net («белая» з/п).\nРабота постоянная, удаленная с оформлением в штат компании. Готовность начинать рабочий день до 11.00 (Мск).\nКонтакты: @recrut911 или rt@connect-personal.ru","markup":[{"type":"hashtag","offset":0,"length":5,"data":"Java"},{"type":"hashtag","offset":7,"length":7,"data":"middle"},{"type":"hashtag","offset":15,"length":9,"data":"fulltime"},{"type":"hashtag","offset":25,"length":9,"data":"удаленно"},{"type":"handle","offset":571,"length":10,"data":"recrut911"},{"type":"link","offset":586,"length":22,"data":"mailto:rt@connect-personal.ru"}],"date":"2020-06-22T10:41:25+00:00","link":"tg://resolve?domain=jvmjobs&post=1637","tags":[{"name":"java"},{"name":"jvm"},{"name":"spring"},{"name":"hibernate"},{"name":"rest"},{"name":"sql"},{"name":"dotnet"}],"cities":[],"allowsRemote":true}}]}}},"context":{}}