{"hash":"f5f6bf98bd95e769321482904cbbd488f77922fd","data":{"records":{"id":"bootstrap","name":"bootstrap","belongsTo":{"totalCount":13,"pageInfo":{"totalPages":2,"currentPage":2},"edges":[{"node":{"__typename":"Job","id":"16984834048-1001110946746","title":"Js разработчик","text":"#вакансия #офис #краснодар #krasnodar #fulltime #react #native\n\n✅Вакансия: React developer \n✅Город: Краснодар\n✅Занятость: полная, офис\n✅ЗП вилка: 40 000 - 100 000р. на руки\n✅Компания: WILIX\n\nПривет!\nМы создаём веб и мобильные приложения, помогаем большим и маленьким компаниям, разбросанным по всему Миру, создать надежные и быстрые программные решения.\nИщем React разработчика в свою команду!\n🙌Наши ожидания:\nJS, TypeScript,\nReact\nRedux (Redux-toolkit), \nReact Router (React Navigation), \nRedux Thunk, \nWebpack,\nHTML+CSS,\nBootstrap/material\n\nБудет плюсом:\nReact Native\nreselect, normalizr\nstyle-components, css-modules, css-in-js\n\n👍Что мы готовы предложить:\n- Работу в офисе (40 часов в неделю), возможна частичная удаленка \n- Комфортное рабочее место \n- Дружный и отзывчивый коллектив, выезды на природу и разного рода мероприятия \n- Mac или PC \n- Классика: Чай/Кофе/Печеньки/Тенис/XBox\n\nКонтакты: @Aleen_ku\n\n—\n\n👉 Обсуждение вакансии в чате @javascript_jobs","markup":[{"type":"hashtag","offset":0,"length":9,"data":"вакансия"},{"type":"hashtag","offset":10,"length":5,"data":"офис"},{"type":"hashtag","offset":16,"length":10,"data":"краснодар"},{"type":"hashtag","offset":27,"length":10,"data":"krasnodar"},{"type":"hashtag","offset":38,"length":9,"data":"fulltime"},{"type":"hashtag","offset":48,"length":6,"data":"react"},{"type":"hashtag","offset":55,"length":7,"data":"native"},{"type":"handle","offset":902,"length":9,"data":"Aleen_ku"},{"type":"handle","offset":946,"length":16,"data":"javascript_jobs"}],"date":"2020-06-16T14:24:18+00:00","link":"tg://resolve?domain=javascript_jobs_feed&post=0","tags":[{"name":"javascript"},{"name":"reactjs"},{"name":"typescript"},{"name":"redux"},{"name":"webpack"},{"name":"html"},{"name":"css"},{"name":"bootstrap"},{"name":"react-native"},{"name":"react-redux"},{"name":"react-router"}],"cities":[{"code":"krasnodar"}],"allowsRemote":true}},{"node":{"__typename":"Job","id":"71383908352-1001054966032","title":"Mobile разработчик","text":"#вакансия #офис #краснодар #krasnodar #fulltime #react #native\n\n✅Вакансия: React developer \n✅Город: Краснодар\n✅Занятость: полная, офис\n✅ЗП вилка: 40 000 - 100 000р. \n✅Компания: WILIX\n\nПривет!\nМы создаём веб и мобильные приложения, помогаем большим и маленьким компаниям, разбросанным по всему Миру, создать надежные и быстрые программные решения.\nИщем React разработчика в свою команду!\n🙌Наши ожидания:\nJS, TypeScript,\nReact\nRedux (Redux-toolkit), \nReact Router (React Navigation), \nRedux Thunk, \nWebpack,\nHTML+CSS,\nBootstrap/material\n\nБудет плюсом:\nReact Native\nreselect, normalizr\nstyle-components, css-modules, css-in-js\n\n👍Что мы готовы предложить:\n- Работу в офисе (40 часов в неделю), возможна частичная удаленка \n- Комфортное рабочее место \n- Дружный и отзывчивый коллектив, выезды на природу и разного рода мероприятия \n- Mac или PC \n- Классика: Чай/Кофе/Печеньки/Тенис/XBox\n\nКонтакты: @Aleen_ku","markup":[{"type":"hashtag","offset":0,"length":9,"data":"вакансия"},{"type":"hashtag","offset":10,"length":5,"data":"офис"},{"type":"hashtag","offset":16,"length":10,"data":"краснодар"},{"type":"hashtag","offset":27,"length":10,"data":"krasnodar"},{"type":"hashtag","offset":38,"length":9,"data":"fulltime"},{"type":"hashtag","offset":48,"length":6,"data":"react"},{"type":"hashtag","offset":55,"length":7,"data":"native"},{"type":"handle","offset":895,"length":9,"data":"Aleen_ku"}],"date":"2020-06-16T11:49:43+00:00","link":"tg://resolve?domain=mobile_jobs&post=0","tags":[{"name":"mobile"},{"name":"reactjs"},{"name":"typescript"},{"name":"redux"},{"name":"webpack"},{"name":"html"},{"name":"css"},{"name":"bootstrap"},{"name":"react-native"},{"name":"react-redux"},{"name":"react-router"}],"cities":[{"code":"krasnodar"}],"allowsRemote":true}},{"node":{"__typename":"Job","id":"26294091776-1001075660570","title":"Php разработчик","text":"#вакансия #удалённо #фронтенд #javascript #AngularJs #Symfony\n\nКомпания: Промрукав\nО компании: Компания «Промрукав» — это торгово-производственная организация, с 1999 года динамично развивающаяся на рынке кабеленесущих систем. \nФормат работы: удалённая работа, график работы 5/2, частичная занятость (<5 ч/день), по желанию возможна работа в офисе\nПроект: B2B Ecommerce\nЗаработная плата: от 50 000 и выше (на руки)\nЗадачи/Обязанности: \nПоддержка и развитие e-commerce проектов компании: b2b-платформа, сайт: \n- разработка новых сервисов компании\n- оптимизация и поддержка текущих продуктов\n- улучшать имеющийся функционал и разрабатывать новый \n- участвовать в принятии архитектурных решений\n- способного к эффективному взаимодействию удалённо или в офисе\n- чёткое следование установленным Вами же срокам \n- оперативное решение проблем   \nСтек: \n  LAMP/LEMP для оптовой онлайн торговли.\n  PHP 7, MySQL, Nginx, Nodejs\n  Фреймворки: Symfony (Symfony console component, Symfony process component, Swift Mailer)\n  Модульная сетка и внешний вид: gentelella\n  Фреймворки: bootstrap, AngularJs\n\nТребования:\n•  Опыт работы от 3х лет\n•  Уверенное знание , MySQL, OOP, Composer, Design patterns в целом, Git.  PHP 7 \n•  Навыки работы в Linux, Apache/nginx, Bootstrap (Gentelella), AngularJs, Nodejs (сборщик js -> gulp на nodejs работает + различные js компоненты). \n•  Приветствуются знания в области интеграции сайта с 1С (использование Web- и HTTP-сервисов) \n\nЧто предлагаем: \nМы не web-студия и не зарабатываем, продавая Ваши способности третьим лицам, поэтому для разработчика наши проекты — это возможность заниматься одним интересным делом без необходимости каждый раз вникать в новый проект и тонкости его работы. Преимущества работы у нас это:\n • стабильный ежемесячный заработок в формате удалённой работы с оформление по ТК; \n • небольшой, но очень дружный коллектив (ИТ-отдел);\n • один руководитель;  \n • возможность посещения всероссийских и международных IT-конференций;\n • возможность принимать участие в корпоративных мероприятиях (проезд оплачивается)\n\nКонтакт для связи: \nTelegram: @dnmit","markup":[{"type":"hashtag","offset":0,"length":9,"data":"вакансия"},{"type":"hashtag","offset":10,"length":9,"data":"удалённо"},{"type":"hashtag","offset":20,"length":9,"data":"фронтенд"},{"type":"hashtag","offset":30,"length":11,"data":"javascript"},{"type":"hashtag","offset":42,"length":10,"data":"AngularJs"},{"type":"hashtag","offset":53,"length":8,"data":"Symfony"},{"type":"handle","offset":2095,"length":6,"data":"dnmit"}],"date":"2020-06-14T14:06:14+00:00","link":"tg://resolve?domain=php_jobs&post=25076","tags":[{"name":"php"},{"name":"javascript"},{"name":"angularjs"},{"name":"symfony"},{"name":"mysql"},{"name":"nginx"},{"name":"nodejs"},{"name":"swift"},{"name":"bootstrap"},{"name":"git"},{"name":"linux"},{"name":"apache"},{"name":"gulp"},{"name":"web"}],"cities":[],"allowsRemote":true}}]}}},"context":{}}