{"hash":"f5f6bf98bd95e769321482904cbbd488f77922fd","data":{"records":{"id":"java","name":"java","belongsTo":{"totalCount":242,"pageInfo":{"totalPages":25,"currentPage":15},"edges":[{"node":{"__typename":"Job","id":"103421050880-1001089317451","title":"Qa инженер","text":"Юлия Романова, [17.06.20 14:29]\n#вакансия #спб #fulltime #qa #удаленно\n\nКомпания: Smart Design (smddev.com) \n\nДолжность: Инженер по ручному и автоматизированному тестированию (QA & Automation Engineer)\n\nИщем инженера по тестированию BSS сотового оператора.\nБольшая распределенная команда (~30 человек).\nНужно хорошо уметь тестировать вручную и, когда это выгодно, суметь автоматизировать.\n\n\nНаши пожелания к кандидатам:\n✔️Опыт работы с Java или любым другим высокоуровневым языком программирования на уровне, достаточном для самостоятельного написания игры \"Сапёр\"\n✔️Опыт работы в консоли linux на уровне, достаточном для для решения задач:\nпоиск и изменение строк в файле\nуправление системными процессами\n✔️Опыт взаимодействия с REST API на уровне, достаточном для того, чтобы получить из ВКонтакте имя и фамилию своего аккаунта, не используя браузер\n\nПлюсом будет:\n✔️Опыт работы с протоколом SOAP\n✔️Профессиональный опыт функционального тестирования\n✔️Опыт работы с JUnit, Gradle, Oracle\n\nУсловия:\n✔️\"Белая\" зарплата до 110K gross\n✔️ДМС\n✔️ Работа в удаленном режиме на данный момент, далее в уютном офисе.\n\nhttps://spb.hh.ru/vacancy/37540632\n\nМои контакты: @romanovaya iyliia.romanova@smddev.com","markup":[{"type":"hashtag","offset":32,"length":9,"data":"вакансия"},{"type":"hashtag","offset":42,"length":4,"data":"спб"},{"type":"hashtag","offset":47,"length":9,"data":"fulltime"},{"type":"hashtag","offset":57,"length":3,"data":"qa"},{"type":"hashtag","offset":61,"length":9,"data":"удаленно"},{"type":"link","offset":96,"length":10,"data":"http://smddev.com"},{"type":"link","offset":1109,"length":34,"data":"https://spb.hh.ru/vacancy/37540632"},{"type":"handle","offset":1159,"length":11,"data":"romanovaya"},{"type":"link","offset":1171,"length":26,"data":"mailto:iyliia.romanova@smddev.com"}],"date":"2020-06-22T10:04:08+00:00","link":"tg://resolve?domain=qa_jobs&post=98630","tags":[{"name":"qa"},{"name":"java"},{"name":"linux"},{"name":"rest"},{"name":"soap"},{"name":"junit"},{"name":"gradle"},{"name":"oracle"}],"cities":[],"allowsRemote":true}},{"node":{"__typename":"Job","id":"1715470336-1001091028994","title":"Java разработчик","text":"#middle #удаленка #Java #Spring #senior #backend #developer\nЛокация: Cанкт-Петербург\nЗанятость: полная, гибкое начало дня\n*до окончания пандемии работа удаленная, далее работа в офисе\nЗ/п: 130 – 200 k net.\nКомпания: CSI\nКонтакты: @Danny_Ushakova\nМы продуктовая компания CSI, создающая решения для автоматизации торговых сетей.  \nМы ищем крутых разработчиков, ответственных за собственный код, любящих тесты и понимающих важность unit тестов. Разработчиков, которые с радостью забывают про бюрократию, и разделение труда, которые умеют защищать собственные решения и хотят сделать этот мир лучше!  \nJAVA developer (высоконагруженные сервисы лояльности)  \nКлючевой задачей будет разработка нового и доработка нашего продукта -  существующего функционала системы Set Retail 10. \nСтек:\n• Java от 2 лет.\n• Spring (Web, Data, Cloud), Kafka.\n• Опыт разработки микросервисов.\n• Опыт проектирования базы данных.\n• SQL (желательно PostgreSQL), JDBC, Hibernate.\n• Git, Gradle.\nБудет плюсом:\n• Опыт работы с J2EE (EJB3, JAX-WS, JAXB, JPA2).\n• Знание Linux.\n• Опыт работы с Redis, MongoDB, Docker, Hashicorp Nomad, Ansible.\n\nМы предлагаем:\n• возможность каждый день видеть результаты своей работы;\n• официальное оформление, белая зарплата, отпуск согласно ТК РФ;\n• гибкий график работы (с 11 до 17 - время присутствия в офисе), есть возможность работать из дома (при необходимости);\n• ДМС со стоматологией, 100% оплата больничных;\n• курсы английского языка в офисе;\n• посещение тренингов, конференций;\n• работа по Agile в команде высокопрофессиональных разработчиков;\n• возможности профессионального роста, четкая схема повышения зарплаты;\n• работа в современном и комфортном офисе в центре города (Чкаловcкий пр-т);\n• оборудованные столовые, чай, кофе, фрукты, печеньки и PlayStation;\n• командные тимбилдинги, футбольная команда.","markup":[{"type":"hashtag","offset":0,"length":7,"data":"middle"},{"type":"hashtag","offset":8,"length":9,"data":"удаленка"},{"type":"hashtag","offset":18,"length":5,"data":"Java"},{"type":"hashtag","offset":24,"length":7,"data":"Spring"},{"type":"hashtag","offset":32,"length":7,"data":"senior"},{"type":"hashtag","offset":40,"length":8,"data":"backend"},{"type":"hashtag","offset":49,"length":10,"data":"developer"},{"type":"handle","offset":230,"length":15,"data":"Danny_Ushakova"}],"date":"2020-06-22T09:26:18+00:00","link":"tg://resolve?domain=jvmjobs&post=1636","tags":[{"name":"java"},{"name":"jvm"},{"name":"spring"},{"name":"dotnet"},{"name":"web"},{"name":"cloud"},{"name":"kafka"},{"name":"sql"},{"name":"postgresql"},{"name":"jdbc"},{"name":"hibernate"},{"name":"git"},{"name":"gradle"},{"name":"jaxb"},{"name":"jpa"},{"name":"linux"},{"name":"redis"},{"name":"mongodb"},{"name":"docker"},{"name":"ansible"}],"cities":[],"allowsRemote":true}},{"node":{"__typename":"Job","id":"103395885056-1001089317451","title":"Qa engineer","text":"#вакансия #москва #полнаязанятость #qaengineer #auto #manual\nКомпания: #Mетрквадратный www.m2.ru\nЛокация: м.Белорусская \nФормат работы: офис (удаленная до сентября)  \nЗ/п: от 120к - 180к на руки\nКонтакты: @maxdmitrov\n\nЭто экосистема недвижимости, которая помогает клиентам решать любые жилищные вопросы: от поиска вариантов и оформления сделки до организации ремонта и переезда в новую квартиру. Мы также создаем решения для партнёров и профессиональных участников рынка недвижимости.\n\nНаш стэк:\n• Java\n • Node.js\n • React, TypeScript\n • Kafka, ElasticSearch, gRPC\n • Docker\n\nЧем предстоит заниматься:\n • анализировать и тестировать требования к разрабатываемым приложениям;\n • писать приемочные критерии к пользовательским историям;\n • проводить функциональное, регрессионное и smoke тестирование;\n • заниматься задачами по автоматизации тестирования.\n\nЧего мы ждем:\n • глубокое понимание процессов тестирования и разработки ПО;\n • опыт интеграционного тестирования:\n    - системная интеграция;\n    - компонентная интеграция\n • опыт тестирования АРI;\n • опыт автоматизации тестирования на любом стеке.\n\nБудет плюсом\n • опыт исследовательского тестирования;\n • опыт тестирования ПО с микросервисной архитектурой.\n\nМы предлагаем:\n • белая конкурентная ЗП, официальное оформление;\n • гибкий график работы;\n • ДМС, компенсация фитнеса, льготная ставка по ипотеке;\n • комфортный офис в БЦ «Белая площадь» (минута от метро): лаундж-зоны, бариста, фрукты.","markup":[{"type":"hashtag","offset":0,"length":9,"data":"вакансия"},{"type":"hashtag","offset":10,"length":7,"data":"москва"},{"type":"hashtag","offset":18,"length":16,"data":"полнаязанятость"},{"type":"hashtag","offset":35,"length":11,"data":"qaengineer"},{"type":"hashtag","offset":47,"length":5,"data":"auto"},{"type":"hashtag","offset":53,"length":7,"data":"manual"},{"type":"hashtag","offset":71,"length":15,"data":"Mетрквадратный"},{"type":"link","offset":87,"length":9,"data":"http://www.m2.ru"},{"type":"handle","offset":205,"length":11,"data":"maxdmitrov"},{"type":"bold","offset":485,"length":11,"data":""},{"type":"bold","offset":576,"length":26,"data":""},{"type":"bold","offset":853,"length":15,"data":""},{"type":"bold","offset":1103,"length":14,"data":""},{"type":"bold","offset":1212,"length":16,"data":""}],"date":"2020-06-22T07:52:58+00:00","link":"tg://resolve?domain=qa_jobs&post=98606","tags":[{"name":"qa"},{"name":"java"},{"name":"nodejs"},{"name":"reactjs"},{"name":"typescript"},{"name":"kafka"},{"name":"elasticsearch"},{"name":"docker"}],"cities":[{"code":"moscow"}],"allowsRemote":true}},{"node":{"__typename":"Job","id":"103394836480-1001089317451","title":"Qa engineer","text":"#вакансия #TestAutomation #Java #JS #НижнийНовгород #Казань #MERA\n💼  Java and JS Test Automation Engineers\n🔹 Формат работы: office (до конца лета 2020 remote)\n🔹 Локация офисов: НН, Казань (бонус при релокации)\n🔹 Занятость: full-time\n🔹 Опыт: от 2х лет (Test Automation)\n🔹 Английский язык:  Чтение и написание документации не ниже pre-intermediate\n🏢 О компании: MERA (крупная международная компания) сейчас быстро растет. В связи со стартом масштабного проекта наш крупный Заказчик, ведущий поставщик глобальных корпоративных облачных коммуникаций и решений для бизнеса, расширяет команду Test Automation Engineers. Открыто более 10 вакансий на Java and JS Test Automation.\n📁 О проекте:\nПроект по разработке высоконагруженных сервисов облачной телефонии для физических лиц и глобальных корпораций. Продукт объединяет в себе возможности телефонии, видеосвязи, организации встреч и обмен сообщениями в одном надежном, простом в использовании решении.\n👉🏻Подробнее о компании и проекте: https://www.youtube.com/watch?v=V9l0TkZWHfI\n✔ Обязанности: \n- Разработка и поддержка тест-планов и сценариев.\n- Автоматизация тестовых сценариев, сопровождение библиотеки автотестов.\n- Участие в разработке тестового фреймворка.\n- Запуск тестовых скриптов, анализ результатов прогона на разных окружениях, поддержка CI.\n🔹 Гибкая метология: Scrum/Agile\n👋  Команда: Работаем в рамках распределённой (Вильнюс, НН, Казань, Дзержинск), совмещённой с заказчиком команды.  80% - Test Automation Engineers, 20% - Software Developers.\n🙌 Мы предлагаем:\n• Официальное трудоустройство, полностью белая зарплата + премиальная система\n• Участие в перспективных масштабных международных проектах. Заказчики: Северная Америка, Западная Европа.\n• ДМС после прохождения испытательного срока (3 месяца).\n• Широкие возможности профессионального развития (участие в митапах, конференциях, корпоративные программы обучения) и карьерного роста.\n\n💵Бонус за рекомендацию: 60 000 рублей за Middle и 80 000 рублей за Senior.\nЗП стартуем от 70000\nКонтакты:  telegram: @nazahvat, natalya.zakhvatova@orioninc.com","markup":[{"type":"hashtag","offset":0,"length":9,"data":"вакансия"},{"type":"hashtag","offset":10,"length":15,"data":"TestAutomation"},{"type":"hashtag","offset":26,"length":5,"data":"Java"},{"type":"hashtag","offset":32,"length":3,"data":"JS"},{"type":"hashtag","offset":36,"length":15,"data":"НижнийНовгород"},{"type":"hashtag","offset":52,"length":7,"data":"Казань"},{"type":"hashtag","offset":60,"length":5,"data":"MERA"},{"type":"link","offset":991,"length":43,"data":"https://www.youtube.com/watch?v=V9l0TkZWHfI"},{"type":"handle","offset":2034,"length":9,"data":"nazahvat"},{"type":"link","offset":2045,"length":31,"data":"mailto:natalya.zakhvatova@orioninc.com"}],"date":"2020-06-22T07:23:05+00:00","link":"tg://resolve?domain=qa_jobs&post=98605","tags":[{"name":"qa"},{"name":"java"}],"cities":[{"code":"kazan"},{"code":"vilnius"},{"code":"dzerzhinsk"}],"allowsRemote":true}},{"node":{"__typename":"Job","id":"1714421760-1001091028994","title":"Java разработчик","text":"#java#Junior#Java#developer#telecom\nЛокация: Москва, Нижний Новгород, Россия\nЗанятость: офис, полная, удаленная\nЗ/п: от 100 000 рублей на руки\nКомпания: ГК INTECH\n\nКонтакты: @vkechatova\n\nINTECH – IT компания, контент и сервис провайдер на рынке телекома России и стран СНГ, разработчик инновационных идей для мобильной и WEB индустрии. Мы работаем с операторами сотовой связи не только в России, но и в странах СНГ и Вьетнаме.\n\nПримеры наших проектов:\nПроект «Глаголь» - Платформа создания и управления высоко нагружёнными видео конференциями с мобильными приложениями.\nCashback - Сервис Сахар;\nОблачная АТС - Решение облачной телефонии для корпоративных клиентов;\nСтриминговая платформа - Видео, аудио стриминговые решения для работы с ТВ трансляциями;\nВидео Истории - Платформа для видеозвонков и для проигрывания пользовательских и коммерческих видео роликов на экране мобильного телефона во время вызова.\n\nЗадачи:\n•  Разработка голосовых и SMS/USSD сервисов для сотовых операторов;\n•  Сопровождение существующие продуктов и разработка новых.\n\nДля работы потребуется:\n•  Опыт разработки от 1 года;\n•  Уверенное знание Java Core, Multithreading, Collections;\n•  Уверенные навыки работы с реляционными базами данных;\n•  Опыт работы с JPA, Hibernate\n•  Опыт работы с Spring (MVC, Data)\n•  Опыт работы с ОС Linux;\n•  Опыт работы с системой контроля версий;\n•  Навыки работы с JUnit - приветствуются.\n\nПлюсом будет:\n•  Опыт работы в телеком (SIP, SS7).\n\nМы предлагаем:\n•  Официальное трудоустройство, полностью официальная заработная плата;\n•  Белая заработная плата - полностью зависит от квалификации кандидата и обсуждается на интервью;\n•  Возможность карьерного и профессионального роста;\n•  Возможность предлагать и реализовывать собственные идеи;\n•  Работа в профессиональной команде разработчиков;\n•  Обучение в процессе работы;\nА также:\n•  Гибкая мотивационная программа;\n•  Ежемесячные премии;\n•  Ежегодные корпоративные мероприятия.","markup":[{"type":"handle","offset":174,"length":11,"data":"vkechatova"}],"date":"2020-06-22T06:35:58+00:00","link":"tg://resolve?domain=jvmjobs&post=1635","tags":[{"name":"java"},{"name":"jvm"},{"name":"web"},{"name":"jpa"},{"name":"hibernate"},{"name":"spring"},{"name":"linux"},{"name":"junit"},{"name":"spring-mvc"}],"cities":[{"code":"moscow"},{"code":"nizhny-novgorod"}],"allowsRemote":true}},{"node":{"__typename":"Job","id":"103362330624-1001089317451","title":"Qa инженер","text":"#вакансия #qa #офис #москва #вднх\n\nВакансия: Middle/Senior QA для автоматизированного и ручного тестирования web-приложения (сначала 50/50, затем автоматизация 70+%), ,\nКомпания: Webinar.ru\nЗП: до 180 000 руб. на руки\nФормат работы: офис, гибкое начало дня\nЗанятость: полная\n\nЗадачи: Ручное и автоматизированное тестирование нового функционала web-приложения, регрессионное, ui/ux, тестирование требований. Улучшение процесса тестирования. \nАвтоматизация на java+selenide\n\nЧто ожидаем:\n- Понимаешь, как устроены веб-сервисы, имеешь опыт их ручного и автоматизированного тестирования не менее одного года\n- Есть понимание клиент-серверной архитектуры;\n-Умеешь развернуто описывать шаги, приведшие к обнаруженной проблеме\n- Понимаешь принципы SCRUM’a;\n- Хочешь прокачаться в автоматизированном тестировании и научиться программировать (если уже умеешь - ещё круче)- \n-Есть понимание значений слов: HTTP, REST API, JSON, Git, SQL, HTML/CSS\n\nЧто предлагаем:\n- Официально оформим, з/п белая,\n- Гибкий график (чаще всего работаем с 10/11);\n- Отлаженные процессы без бюрократии;\n- Работа в современном лофтовом офисе в шаговой доступности от м. ВДНХ со своей парковкой;\n- Комфортное рабочее место, удобное кресло, все необходимое для работы оборудование и ПО (ноутбук DELL, 2 монитора);\n- 50% компенсация ДМС после испытательного срока, обучение за счёт компании;\n- Вкусные бесплатные завтраки, кофе-поинты;\nЕсли нужна помощь в релокации в Москву, расходы берем на себя ;)\n\nОтклики, вопросы, рекомендации: @dariavvk (telegram, FB) или на d.vovk@webinar.ru","markup":[{"type":"hashtag","offset":0,"length":9,"data":"вакансия"},{"type":"hashtag","offset":10,"length":3,"data":"qa"},{"type":"hashtag","offset":14,"length":5,"data":"офис"},{"type":"hashtag","offset":20,"length":7,"data":"москва"},{"type":"hashtag","offset":28,"length":5,"data":"вднх"},{"type":"link","offset":179,"length":10,"data":"http://Webinar.ru"},{"type":"handle","offset":1499,"length":9,"data":"dariavvk"},{"type":"link","offset":1531,"length":17,"data":"mailto:d.vovk@webinar.ru"}],"date":"2020-06-21T12:04:32+00:00","link":"tg://resolve?domain=qa_jobs&post=98574","tags":[{"name":"qa"},{"name":"web"},{"name":"java"},{"name":"rest"},{"name":"json"},{"name":"git"},{"name":"sql"},{"name":"html"},{"name":"css"}],"cities":[{"code":"moscow"}],"allowsRemote":false}},{"node":{"__typename":"Job","id":"103360233472-1001089317451","title":"Qa инженер","text":"#вакансия #Автоматизация #QA #fulltime #Bercut #удаленная_работа\n #удаленка\nФормат работы: удаленная\nЗанятость: полная занятость.\nЗарплата: от 120 000 до 180 000 net (белый доход) + годовой бонус.\n\nКомпания Bercut находит в поисках столпа инициативности и изменений! Здесь разрешено всё, что не запрещено. Мы создали среду возможностей, где каждое достижение поощряется. Хардкорные проекты, жесткие коллеги, и отряд аналитиков в комплекте (что бы ты не возился с кучей legacy кода). \n\nРассматриваем кандидатов на новые и текущие проекты BSS, преимущественно - биллинг, и проект RnD (ядро биллинга).\n\n\nТребования\n• Опыт в тестировании от 3-х лет;\n• Опыт в сфере BSS/Биллинга от года (обязательно);\n• Опыт в автоматизации тестирования от 1 года (Python, Java);\n• Опыт работы с CI инструментами (Jenkins/TeamCity);\n• Знание SQL на уровне написания сложных запросов, будет плюсом Oracle PL/SQL;\n• Знание различных методологий тестирования, техник тест-дизайна;\n• Желание развиваться в сфере тестирования.\n\nЧто делать?\n• Составлять тест-планы и тестовые сценарии;\n• Разрабатывать и поддерживать сценарии автоматизированного тестирования;\n• Участвовать в организации и развитии окружения для запуска тестов и тестовой инфраструктуры;\n• Взаимодействовать с разработчиками и аналитиками;\n• Работать над улучшением процесса тестирования, внедрять новые подходы по обеспечению качества.\n\nМы предлагаем:\n•  высокий \"белый\" доход, годовой бонус, ДМС, кафетерий льгот, интересные задачи.\n\n\nКомпания: https://www.bercut.com/\nКонтакты @Double2k или почта Ilya.Kuteinikov@bercut.com","markup":[{"type":"hashtag","offset":0,"length":9,"data":"вакансия"},{"type":"hashtag","offset":10,"length":14,"data":"Автоматизация"},{"type":"hashtag","offset":25,"length":3,"data":"QA"},{"type":"hashtag","offset":29,"length":9,"data":"fulltime"},{"type":"hashtag","offset":39,"length":7,"data":"Bercut"},{"type":"hashtag","offset":47,"length":17,"data":"удаленная_работа"},{"type":"hashtag","offset":66,"length":9,"data":"удаленка"},{"type":"link","offset":1487,"length":23,"data":"https://www.bercut.com/"},{"type":"handle","offset":1520,"length":9,"data":"Double2k"},{"type":"link","offset":1540,"length":26,"data":"mailto:Ilya.Kuteinikov@bercut.com"}],"date":"2020-06-21T10:18:13+00:00","link":"tg://resolve?domain=qa_jobs&post=98572","tags":[{"name":"qa"},{"name":"dotnet"},{"name":"python"},{"name":"java"},{"name":"jenkins"},{"name":"sql"},{"name":"oracle"}],"cities":[],"allowsRemote":true}},{"node":{"__typename":"Job","id":"1713373184-1001091028994","title":"Java разработчик","text":"#Москва #вакансия #java #spring #fulltime #backend #office #middle #senior \n\nКомпания: СберТех.\n\nОфис: Москва, м. Нагатинская/м. Тульская/ м. Верхние Котлы.\n\nЗП: от 180-290 Net.\n\n📂Проект: Разработка платформы для управления бизнес-процессами Банка и  Цифровой Платформы Sber.\n\n🗓Задачи:\n• Участие в разработке высоконагруженного сервиса исполнения бизнес процессов на языке BPMN2.\n• Участие в RnD и прототипировании open source движков для сервиса.\n• Покрытие своего кода тестами.\n\n📎Cтек: Java8+, Spring Framework, Spring Boot, ORM, Apache Kafka.\n\n🔰Условия:\n• Оформление ТК РФ.\n• ДМС для сотрудников и скидки на медицинскую страховку для родственников;\n• Высокая белая заработная плата (оклад + годовая премия).\n• Возможность обучения за счет компании, посещения IT-конференций.\n• Бесплатный тренажерный зал на территории офиса.\n• Корпоративная жизнь и спортивные мероприятия.\n\n📩Готов ответить на интересующие вопросы - @Dmiryy","markup":[{"type":"hashtag","offset":0,"length":7,"data":"Москва"},{"type":"hashtag","offset":8,"length":9,"data":"вакансия"},{"type":"hashtag","offset":18,"length":5,"data":"java"},{"type":"hashtag","offset":24,"length":7,"data":"spring"},{"type":"hashtag","offset":32,"length":9,"data":"fulltime"},{"type":"hashtag","offset":42,"length":8,"data":"backend"},{"type":"hashtag","offset":51,"length":7,"data":"office"},{"type":"hashtag","offset":59,"length":7,"data":"middle"},{"type":"hashtag","offset":67,"length":7,"data":"senior"},{"type":"handle","offset":924,"length":7,"data":"Dmiryy"}],"date":"2020-06-19T18:13:29+00:00","link":"tg://resolve?domain=jvmjobs&post=1634","tags":[{"name":"java"},{"name":"jvm"},{"name":"spring"},{"name":"dotnet"},{"name":"orm"},{"name":"apache"},{"name":"kafka"},{"name":"spring-boot"}],"cities":[{"code":"moscow"}],"allowsRemote":false}},{"node":{"__typename":"Job","id":"71663878144-1001054966032","title":"Android разработчик","text":"#вакансия #android #kotlin  #senior #удаленнаяработа \n\nКомпания Digital Zone — разработчик информационных систем полного цикла, создает и развивает программные решения под любые задачи заказчика с 2005 года. \n\n💡Мы ищем Android разработчика  уровня senior.\n\nЧего мы ждем:\n✅Опыт командной разработки коммерческих проектов;\n✅Приверженность к чистому коду и принципам S.O.L.I.D;\n✅ Уверенное знание Kotlin, Java и основных шаблонов проектирования;\n✅Уверенное знание Android SDK, опыт с Gradle;\n✅Хорошее понимание Reactive Extensions (RxJava);\n✅Опыт с основными библиотеками (Dagger, Retrofit, Glide, Kodein);\n✅Умение писать Unit и UI тесты;\n✅Знание и опыт применения Material Design;\n✅ Умеете пользоваться git;\n✅Слышали про JIRA, Confluence, Slack, Agile.\n\nОт нас:\n✅Зарплатная вилка от  150 000 до 180 000 рублей;\n✅Сильная команда специалистов, с которой можно расти;\n✅Компенсация занятий спортом, английским языком и проф.обучения;\n✅Удаленная работа;\n✅Работа по Agile-методологиям;\n✅Пересмотр заработной платы по итогам аттестации 2 раза в год.\nОтвечу на любые вопросы по вакансии)\nМои контакты: @Darua_N","markup":[{"type":"hashtag","offset":0,"length":9,"data":"вакансия"},{"type":"hashtag","offset":10,"length":8,"data":"android"},{"type":"hashtag","offset":19,"length":7,"data":"kotlin"},{"type":"hashtag","offset":28,"length":7,"data":"senior"},{"type":"hashtag","offset":36,"length":16,"data":"удаленнаяработа"},{"type":"handle","offset":1093,"length":8,"data":"Darua_N"}],"date":"2020-06-19T14:51:53+00:00","link":"tg://resolve?domain=mobile_jobs&post=0","tags":[{"name":"mobile"},{"name":"android"},{"name":"kotlin"},{"name":"java"},{"name":"gradle"},{"name":"git"}],"cities":[],"allowsRemote":true}},{"node":{"__typename":"Job","id":"1712324608-1001091028994","title":"Java разработчик","text":"#java #fulltime\n\nНа проект от одного из лидирующих российских банков требуется\nMiddle Java Developer (backend)\n\nЛокация: Москва, ул. Сретенка\nФормат работы: Офис\nЗанятость: полная\n\nВилка зп: 150 000 - 180 000 рублей/месяц нетто\n\nСтек: \nSpring, Hibernate, Maven, JMS, REST, SOAP, Git, Jenkins, UML, TestNG.\n\nТребования: \n- Опыт от 2х лет разработки высоко-нагруженных и отказоустойчивых фронтальных систем.\n- Знание основных методологий разработки программного обеспечения, включая гибкие методологии.\n- Опыт командной разработки.\n- Умение разбираться в чужом коде, писать чистый и понятный код для других разработчиков, опыт написания автотестов.\n- Уверенное знание Java Core (типы данных, Collections Framework, JMM...)\n- Знание парадигм ООП и их реализации в Java.\n- Знание структур данных и алгоритмов.\n- Знание шаблонов проектирования (GoF)\n\nКонтакт: @mxm_at","markup":[{"type":"hashtag","offset":0,"length":5,"data":"java"},{"type":"hashtag","offset":6,"length":9,"data":"fulltime"},{"type":"handle","offset":855,"length":7,"data":"mxm_at"}],"date":"2020-06-19T13:20:17+00:00","link":"tg://resolve?domain=jvmjobs&post=1633","tags":[{"name":"java"},{"name":"jvm"},{"name":"spring"},{"name":"hibernate"},{"name":"maven"},{"name":"rest"},{"name":"soap"},{"name":"git"},{"name":"jenkins"}],"cities":[{"code":"moscow"}],"allowsRemote":false}}]}}},"context":{}}