{"hash":"f5f6bf98bd95e769321482904cbbd488f77922fd","data":{"records":{"id":"google-cloud-platform","name":"google-cloud-platform","belongsTo":{"totalCount":12,"pageInfo":{"totalPages":2,"currentPage":2},"edges":[{"node":{"__typename":"Job","id":"2210398208-1001134745498","title":"Devops инженер","text":"#вакансия #devops #fulltime #релокация \n\nКомпания: 2Glab\nГород и адрес офиса: Helsinki, Stockholm, Amsterdam, Berlin.\nФормат работы: Удаленка / Релокация, Европа.\nЗанятость: Полная занятость\nЗарплатная вилка: 3500$-4500$, Уровень дохода указан на период работы в РФ\nОписание вакансии: Европейский лидер инфраструктурных решений, облачных сервисов и разработке приложений.\n\nЖдем от Вас:\n- хороший английский\n- поддержка инфраструктуры проекта на AWS или Google Cloud\n- не менее 5 лет работы с linux системами в роли системного администратора/devops инженера\n-  Системы управления конфигурацией (одна из Ansible, Chef, Puppet или аналогичная) и  контейнерные  технологии (например, Kubernetes, Mesosphere, Docker Swarm)\n- опыт построения CI/CD\n- Иметь четкое представление о локальных технологиях (например, VMware, OpenStack или Hyper-V)\n- улучшение существующей инфраструктуры, включая масштабирование и отказоустойчивость\n- мониторинг системы, анализ быстродействия и тонкая настройка\n- выбор и внедрение DevOps практик и инструментов\n- автоматизация рутинных задач;\n- Готовность путешествовать примерно 25% вашего времени;\n\nДополнительным плюсом будет:\n- знание Python/Ruby\n- опыт работы с Azure\n\nКонтакты: usubow@gmail.com +79182255234  @Yuriy_2Glab\n\n—\n\n👉 Обсуждение вакансии в чате @devops_jobs","markup":[{"type":"hashtag","offset":0,"length":9,"data":"вакансия"},{"type":"hashtag","offset":10,"length":7,"data":"devops"},{"type":"hashtag","offset":18,"length":9,"data":"fulltime"},{"type":"hashtag","offset":28,"length":10,"data":"релокация"},{"type":"link","offset":1209,"length":16,"data":"mailto:usubow@gmail.com"},{"type":"link","offset":1226,"length":12,"data":"tel:+79182255234"},{"type":"handle","offset":1240,"length":12,"data":"Yuriy_2Glab"},{"type":"handle","offset":1287,"length":12,"data":"devops_jobs"}],"date":"2020-06-15T11:01:39+00:00","link":"tg://resolve?domain=devops_jobs_feed&post=2108","tags":[{"name":"amazon-web-services"},{"name":"cloud"},{"name":"linux"},{"name":"ansible"},{"name":"kubernetes"},{"name":"docker"},{"name":"python"},{"name":"ruby"},{"name":"azure"},{"name":"google-cloud-platform"}],"cities":[{"code":"helsinki"},{"code":"stockholm"},{"code":"amsterdam"},{"code":"berlin"}],"allowsRemote":false}},{"node":{"__typename":"Job","id":"16841179136-1001110946746","title":"Js developer","text":"#вакансия #remote #node #fullstack_developer #startup\nSenior Software Developer \nЛокация: г. Москва, м. Белорусская\nФормат работы: удаленка и офис, мы за свободу выбора.\nЗанятость: полная (возможно частичная в период onboarding’a)\nЗарплатная вилка: от 200 000 до 300 000 рублей net\n\nОписание вакансии:\n\nSegmentStream — это технологический стартап со штаб-квартирой в Лондоне и офисом в Москве, где в основном сосредоточена команда разработки. Также часть сотрудников работает удаленно из Кипра, Санкт-Петербурга и других городов. \n\nПродукт:\nПлатформа для построения продвинутой маркетинговой аналитики. \n\nМы используем технологии обработки больших данных и машинное обучение, чтобы помочь маркетологам точно оценивать эффективность рекламных кампаний, при этом не тратить время на подготовку подобной отчетности вручную.\n\nТак, платформа SegmentStream позволяет наладить сбор данных из всех рекламных кабинетов, сайта, CRM-систем и других источников данных, объединить их в полезные маркетинговые отчеты, и применить справедливую модель атрибуции для понимания реальной ценности каждого маркетингового канала и кампании.   \n\nЧто мы делаем:\n- Мы разрабатываем высоконагруженные data pipelines с использованием NodeJs\n- Мы строим UI на React\n- Мы разрабатываем наш API, используя NodeJS и TypeScript.\n- Мы деплоим наш код несколько раз в день. Мы любим эффективность, облачные решения, CI / CD, Spinnaker, Kubernetes и Terraform.\n\nСтек команды: JavaScript, Node.js, React, TypeScript, Kubernetes, Google Cloud, Rust, Scala.\n\n Пример будущих задач:\n\n- Создать масштабируемую и отказоустойчивую архитектуру микросервиса с балансировкой нагрузки и автоматическим обнаружением.\n- Параллельная обработка терабайтов данных в условиях жестких ограничений оперативной памяти.\n- Создание высокодоступных конвейеров обработки событий в реальном времени с неограниченной масштабируемостью.\n- Построение эффективных систем кэширования и проксирования.\n\nТребования:\n\n- Опыт разработки бекенда и фронтенда на  ES6 или TypeScript;\n- 4+ лет опыта разработки или наличия крутых проектов с открытым исходным кодом на GitHub.\n- Сильные теоретические знания и практический опыт в проектировании и реализации высокодоступных, высоконагруженных, отказоустойчивых распределенных систем.\n- Знание английского языка не ниже B1\nЖелательно:\nТехническое образование\n\nКонтакты: @bezelune ; nelya.bakhshibaeva@segmentstream.com; segmentstream.com","markup":[{"type":"hashtag","offset":0,"length":9,"data":"вакансия"},{"type":"hashtag","offset":10,"length":7,"data":"remote"},{"type":"hashtag","offset":18,"length":5,"data":"node"},{"type":"hashtag","offset":24,"length":20,"data":"fullstack_developer"},{"type":"hashtag","offset":45,"length":8,"data":"startup"},{"type":"handle","offset":2346,"length":9,"data":"bezelune"},{"type":"link","offset":2358,"length":36,"data":"mailto:nelya.bakhshibaeva@segmentstream.com"},{"type":"link","offset":2396,"length":17,"data":"http://segmentstream.com"}],"date":"2020-06-11T19:44:16+00:00","link":"tg://resolve?domain=javascript_jobs_feed&post=0","tags":[{"name":"javascript"},{"name":"nodejs"},{"name":"dotnet"},{"name":"reactjs"},{"name":"typescript"},{"name":"kubernetes"},{"name":"cloud"},{"name":"rust"},{"name":"scala"},{"name":"github"},{"name":"google-cloud-platform"}],"cities":[{"code":"moscow"}],"allowsRemote":true}}]}}},"context":{}}