{"hash":"f5f6bf98bd95e769321482904cbbd488f77922fd","data":{"records":{"id":"cloud","name":"cloud","belongsTo":{"totalCount":32,"pageInfo":{"totalPages":4,"currentPage":2},"edges":[{"node":{"__typename":"Job","id":"1757413376-1001091028994","title":"Java разработчик","text":"#Middle #Java #Developer\nЛокация: #удаленка #офис (Москва)\nЗ/п: 100 000 – 150 000 Net\nКонтакт: @Elena19_10Kom\n\nНаша компания занимается разработкой программного обеспечения в сфере аффилированного маркетинга, оказывает сервис, связанный с обслуживанием клиентов, генерирующих трафик для различных зарубежных проектов.\nМы запускаем очередной новый проект. Цель проекта - получить современный портал в области теннисного спорта. Это должна быть мощная платформа, которая превзойдет по удобству и современности все существующие на данный момент платформы этой тематики.\nПроект стартует с \"0\", поэтому предоставляется уникальная возможность начать \"все с самого начала\", а не разбираться и пилить Legacy код.\n\nОбязанности:\n•  разработка и сопровождение веб-проектов\n•  модульное и интеграционное тестирование\n•  системная интеграция и развертывание приложений\n•  обеспечение технической поддержки второго и третьего уровня\nТребования:\n•  опыт коммерческой разработки на java от 3-х лет\n•  знание Spring Framework (в т.ч. SpringBoot, SpringData, SpringSecurity)\n•  знание ORM (JPA или Hibernate)\n•  опыт работы с RDBMS, желательно PostgreSQL\n•  опыт работы по практикам Agile, DevOps, CI/CD\n•  знание Java Core, collections, multithreading, concurrency, generics, reflection\n•  знание и понимание основных принципов ООП\n•  знание паттернов проектирования\n•  умение писать качественный и понятный код\n•  английский – уровень Intermediate\nБудет плюсом:\n•  опыт разработки на Playframework, Akka, Akka-Persistence\n•  опыт работы Full-Stack разработчиком на React/Redux\n•  опыт работы в команде\n•  знание Apache Cassandra\n•  опыт работы с Docker и Kubernetes\n•  опыт работы с микросервисной архитектурой\n•  опыт работы c AWS или другими Cloud платформами\n•  понимание принципов работы HTTP, Websockets\n•  понимание принципов работы stream-processing, reactive, CQRS\n•  наличие примеров кода на GitHub\n•  опыт администрирования Linux\nУсловия:\n•  зарплату обсуждаем\n•  оформление по ТК РФ\n•  можно работать удаленно или в комфортном офисе, который находится в пешей доступности от м. Динамо, с панорамным видом на Москву, на 25 этаже бизнес-центра класса \"А\"\n•  гибкое начало рабочего дня\n•  работа на MacBook air\n•  выделение бюджета для каждого сотрудника на развитие как профессиональных навыков (английский язык, курсы повышения квалификации), так и физических возможностей (корпоративный фитнес)","markup":[{"type":"hashtag","offset":0,"length":7,"data":"Middle"},{"type":"hashtag","offset":8,"length":5,"data":"Java"},{"type":"hashtag","offset":14,"length":10,"data":"Developer"},{"type":"hashtag","offset":34,"length":9,"data":"удаленка"},{"type":"hashtag","offset":44,"length":5,"data":"офис"},{"type":"handle","offset":95,"length":14,"data":"Elena19_10Kom"}],"date":"2020-06-29T10:38:58+00:00","link":"tg://resolve?domain=jvmjobs&post=1676","tags":[{"name":"java"},{"name":"jvm"},{"name":"dotnet"},{"name":"spring"},{"name":"orm"},{"name":"jpa"},{"name":"hibernate"},{"name":"postgresql"},{"name":"playframework"},{"name":"akka"},{"name":"reactjs"},{"name":"redux"},{"name":"apache"},{"name":"cassandra"},{"name":"docker"},{"name":"kubernetes"},{"name":"amazon-web-services"},{"name":"cloud"},{"name":"github"},{"name":"linux"},{"name":"react-redux"}],"cities":[{"code":"moscow"}],"allowsRemote":true}},{"node":{"__typename":"Job","id":"1744830464-1001091028994","title":"Java разработчик","text":"#москва #вакансия #java #javateamlead \nВакансия: Lead/Senior java разработчик \nВилка заработной платы: 180 000 – 250 000 net\nФормат: офис\n\nПроекты по созданию/развитию информационных систем в части цифровизации городских сервисов ЖКХ.\nРабота с IoT-системами, проекты по Bigdata, сбору и анализу данных с множества источников.\n\n🔸Мы предлагаем:\n-Высокая заработная плата от 180 000 до 250 000 на руки;\n-Повышение ставки после испытательного срока;\n-13-я зарплата+премии по итогу выполнения проектов;\n-Полностью официальное оформление по ТК РФ;\n\n🔸Требования:\n-Опыт управления командой 6+ человек от 1-го года;\n-Базовые знания Computer Science (алгоритмы, структуры данных);\n-Опыт разработки серверной части приложений на Java;\n-Знание практик и инструментария DevOps;\n-Отличное знание Java 8+ и популярных библиотек (Log4J, Apache Commons, Google Guava);\n-Знание Linux, основы Shell scripts, понимание архитектуры ОС.\n\n🔸Стек технологий:\n-На проектах используются языки: Java, JavaScript(React + Redux);\n-Java-стэк: Java8, Spring, Spring Cloud, Apache Kafka, Apache Spark, Tomcat;\n-Docker, Postgres, HDFS, Apache Hive;\n-Gitlab, Telegram.\n\nКонтакт: @Zarnica_hr","markup":[{"type":"hashtag","offset":0,"length":7,"data":"москва"},{"type":"hashtag","offset":8,"length":9,"data":"вакансия"},{"type":"hashtag","offset":18,"length":5,"data":"java"},{"type":"hashtag","offset":24,"length":13,"data":"javateamlead"},{"type":"handle","offset":1147,"length":11,"data":"Zarnica_hr"}],"date":"2020-06-26T12:01:03+00:00","link":"tg://resolve?domain=jvmjobs&post=1664","tags":[{"name":"java"},{"name":"jvm"},{"name":"dotnet"},{"name":"apache"},{"name":"linux"},{"name":"shell"},{"name":"javascript"},{"name":"reactjs"},{"name":"redux"},{"name":"spring"},{"name":"cloud"},{"name":"kafka"},{"name":"tomcat"},{"name":"docker"},{"name":"postgresql"},{"name":"hdfs"},{"name":"hive"},{"name":"gitlab"},{"name":"react-redux"},{"name":"apache-spark"}],"cities":[{"code":"moscow"}],"allowsRemote":false}},{"node":{"__typename":"Job","id":"92275736576-1001067529236","title":"Python developer","text":"#вакансия #python #Django #vacancy #IT  #remote\n\nI’m looking for a very strong python developer to become one of key engineers for one of our clients. The client is a US-based startup developing revolutionary products in the Gaming and Lottery industries using NFC and SmartCard-based solutions. This role is extremely important for our client as it has the responsibility of coordinating with the whole team to provide a backend and APIs that support mobile and web clients, as well as third-party integrations.\n\nLocation: Remote\nJob Type: Full-time, contract\nIndustries: Technology, Gaming, Lottery\nLanguages: English, Russian\nPay Rate: $25/hr - $35/hr depending on experience\nProbationary Period: 1 month\nStart Date: ASAP\n\nQualifications\nBS in Information Systems, Engineering, other related discipline \n6-10 years Software Engineering experience\n4-6+ years of work experience developing in Python\n2-3+ years developing on the Django platform\nWorking experience with microservices architecture.\nSolid understanding of data structures, coding standards, best practices\nDevelopment experience in Cloud and DevSecOps environments\nExperience working with relational databases and various data formats and technologies.\nExperience with test-driven development\nExperience working in adaptive methodologies like Agile, DevOps and Scrum, etc.\nStrong written and communication skills required.\nMust be a self-starter/self-directed member of the team\nProficient with Git\nB2+ CEFR English level\n\nFor more information, write to the PM.","markup":[{"type":"hashtag","offset":0,"length":9,"data":"вакансия"},{"type":"hashtag","offset":10,"length":7,"data":"python"},{"type":"hashtag","offset":18,"length":7,"data":"Django"},{"type":"hashtag","offset":26,"length":8,"data":"vacancy"},{"type":"hashtag","offset":35,"length":3,"data":"IT"},{"type":"hashtag","offset":40,"length":7,"data":"remote"}],"date":"2020-06-25T10:09:29+00:00","link":"tg://resolve?domain=python_jobs&post=88001","tags":[{"name":"python"},{"name":"django"},{"name":"mobile"},{"name":"web"},{"name":"cloud"},{"name":"git"}],"cities":[],"allowsRemote":true}},{"node":{"__typename":"Job","id":"2255486976-1001134745498","title":"Devops инженер","text":"#вакансия #Systemarchitect #DevOps\nГород и адрес офиса: Витебск\nФормат работы: удаленка\nЗарплатная вилка: от 3000 до 3900$\nОписание вакансии: \nсначала  System architect потом DevOps.\nMust-Have Skills DevOps AWS,Google Cloud, MySQL, PHP English, Redis, Nice-to-Have Skills Java\nНемецкий заказчик\nНазвание компании: ООО «Дженерал Софт»\nКонтакты: @Hr_mihail_gurin\n\n—\n\n👉 Обсуждение вакансии в чате @devops_jobs","markup":[{"type":"hashtag","offset":0,"length":9,"data":"вакансия"},{"type":"hashtag","offset":10,"length":16,"data":"Systemarchitect"},{"type":"hashtag","offset":27,"length":7,"data":"DevOps"},{"type":"handle","offset":344,"length":16,"data":"Hr_mihail_gurin"},{"type":"handle","offset":395,"length":12,"data":"devops_jobs"}],"date":"2020-06-25T07:35:38+00:00","link":"tg://resolve?domain=devops_jobs_feed&post=2151","tags":[{"name":"amazon-web-services"},{"name":"cloud"},{"name":"mysql"},{"name":"php"},{"name":"redis"},{"name":"java"},{"name":"google-cloud-platform"}],"cities":[{"code":"vitebsk"},{"code":"nice"}],"allowsRemote":true}},{"node":{"__typename":"Job","id":"2249195520-1001134745498","title":"Devops engineer","text":"#вакансия #devops #azure #remote #спб #fulltime #релокация \n\nSenior DevOps Remote Engineer (Azure)\n\nCity: Saint-Petersburg, metro Mayakovskaya | Chernyshevskaya \nFormat: office or remote (both are possible)\nSalary: ₽220-300k\n\nProject: We are BeKitzur and now we are looking for a Senior DevOps Engineer to support and drive innovative collaboration software products used by dozens of thousands of clients across the world. \nThe platform is an Azure-hosted solution and offers you a great opportunity in driving state-of-the-art CI/CD, security, monitoring and DB management. This is a great position for an energetic and ambitious professional to get to the next career step and become a member of a stable and growing international company.\n\nResponsibilities:\n🔹Set up the best monitoring ever - unified, transparent and flexible\n🔹Improve our CI/CD process and automation to deliver faster, more frequent and reliable releases\n🔹Migrate databases to more secure and powerful clusters\n🔹Migrate applications to Kubernetes\n🔹Increase High-Availability and Reliability of applications and DB clusters\n🔹Optimize Azure costs and design more cost-effective DevOps solutions\n🔹Improve the existing DevOps processes and technologies, such as CI/CD, monitoring, logs aggregation, and security\n🔹Participate in all DevOps decisions together with Senior engineers and Tech leads\n🔹Define and implement the security architecture to ensure data security at rest and in transit, application security, key management, identity management, authentication, and authorization with OIDC and OAuth2, infrastructure security with Azure VNets, NSGs, UDR, etc.\n\nRequired Skills and Experience:\n🔹5 years of experience in IT with good knowledge in Linux\n🔹Experience in maintaining a production data processing system\n🔹Hands-on experience with git, Jenkins, Docker, and MySQL\n🔹Azure Networking - Azure Virtual Networks, ExpressRoute, NSG, App Service Environment\n🔹Azure PAAS Services Security and Provisioning\n🔹Cloud Security - Azure Key Vault, HSTS, SSL/TLS Ingress Control\n🔹Cloud monitoring - Experience with Azure Log Analytics, Azure Monitor, DataDog\n🔹Experience with any configuration management tool (Ansible, Saltstack, Chef, Puppet, etc), Ansible preferred\n🔹Hands-on experience with cloud technologies (Azure in our case)\n🔹Bash and Python scripting skills\n🔹Good written and spoken English\n\nBenefits:\n🔹Extremely interesting complex products\n🔹The most modern technology stack\n🔹Wonderful result-oriented team of senior professionals\n🔹Support for all your Cloud studies and certificates (you will have access and we will pay for exams)\n🔹Friendly atmosphere\n🔹Competitive salary\n🔹Medical insurance, sport, English classes in the office\n🔹Business trips to the US (Silicon Valley)\n🔹Relocation package to St.Petersburg\n🔹Opportunity to build a career in a growing branch of the stable US company\n🔹Professional growth in the international business environment\n\n📩\nОткликнуться: @Khabibulin_it\n\n—\n\n👉 Обсуждение вакансии в чате @devops_jobs","markup":[{"type":"hashtag","offset":0,"length":9,"data":"вакансия"},{"type":"hashtag","offset":10,"length":7,"data":"devops"},{"type":"hashtag","offset":18,"length":6,"data":"azure"},{"type":"hashtag","offset":25,"length":7,"data":"remote"},{"type":"hashtag","offset":33,"length":4,"data":"спб"},{"type":"hashtag","offset":38,"length":9,"data":"fulltime"},{"type":"hashtag","offset":48,"length":10,"data":"релокация"},{"type":"handle","offset":2975,"length":14,"data":"Khabibulin_it"},{"type":"handle","offset":3024,"length":12,"data":"devops_jobs"}],"date":"2020-06-23T16:22:03+00:00","link":"tg://resolve?domain=devops_jobs_feed&post=2145","tags":[{"name":"azure"},{"name":"kubernetes"},{"name":"rest"},{"name":"oauth"},{"name":"linux"},{"name":"git"},{"name":"jenkins"},{"name":"docker"},{"name":"mysql"},{"name":"cloud"},{"name":"ssl"},{"name":"ansible"},{"name":"bash"},{"name":"python"},{"name":"ms-access"}],"cities":[],"allowsRemote":true}},{"node":{"__typename":"Job","id":"2246049792-1001134745498","title":"Devops инженер","text":"#вакансия #МСК #DevOps #удаленно\nГород : Москва \nГрафик работы: 5/2\nЗанятость: полная\nЗ/п: от 100 т.р до 250 т.р. на руки 💥\nКомпания: wavesenterprise.com\n\nПозиция открыта в очень крутую команду, которая занимается разработкой и внедрением кастомизированных решений на технологии блокчейн внешним заказчикам (b2b, b2g).\n\nЗадачи:\n- подготовка инфраструктуры для сборки, развертывания и тестирования программного обеспечения;\n- построение и сопровождение конвейера непрерывной интеграции\\поставки программного обеспечения;\n- администрирование и обеспечение работоспособности ИТ-инфраструктуры разработки.\n\nТребования:\n- Опыт администрирования linux;\n- Опыт работы с Jenkins, Kubernetes, Ansible, public cloud engines.\n- Умение писать на bash/python и желательно groovy.\n\nПо вакансии прошу писать мне в tg @v_soloveva\n\n—\n\n👉 Обсуждение вакансии в чате @devops_jobs","markup":[{"type":"hashtag","offset":0,"length":9,"data":"вакансия"},{"type":"hashtag","offset":10,"length":4,"data":"МСК"},{"type":"hashtag","offset":15,"length":7,"data":"DevOps"},{"type":"hashtag","offset":23,"length":9,"data":"удаленно"},{"type":"link","offset":135,"length":19,"data":"http://wavesenterprise.com"},{"type":"handle","offset":803,"length":11,"data":"v_soloveva"},{"type":"handle","offset":849,"length":12,"data":"devops_jobs"}],"date":"2020-06-23T12:50:03+00:00","link":"tg://resolve?domain=devops_jobs_feed&post=2142","tags":[{"name":"linux"},{"name":"jenkins"},{"name":"kubernetes"},{"name":"ansible"},{"name":"cloud"},{"name":"bash"},{"name":"python"},{"name":"groovy"}],"cities":[{"code":"moscow"}],"allowsRemote":true}},{"node":{"__typename":"Job","id":"91801780224-1001067529236","title":"Python developer","text":"#вакансия #remote #fulltime #python\n\nBack-end Python Developer\n\nФормат работы: #fulltime #remote\nЗарплата: от  $ 50 000 до $ 70 000  в год\n\nКоманда с большим опытом в компьютерном зрении и экспертами мирового уровня ищет в свои ряды Backend Python Developer. Продукт и его основатели базируются в Калифорнии, а почти вся команда — в России и Украине.\n\nЗадачи :\n• Оптимизация и улучшение качества алгоритмов трекинга людей;\n• Доработка основного кода клиентской стороны;\n• Разработка механизмов обновления клиентских приложений (Linux\\Docker);\n• Разработка системы сбора и разметки данных;\n• Доработка инфраструктурных сервисов и системы оценки качества.\n\nТребования:\n• Опыт промышленной работы от двух лет;\n• Опыт разработки оптимизационных алгоритмов разного назначения;\n• Опыт работы с AWS, Google Cloud, Azure, Docker.\n• Знание Python и\\или С++ и\\или Java;\n• Знание сетевых протоколов, их вариаций и особенностей;\n• Умение работать с многопоточной средой, понимание принципов работы сопрограмм;\n• Умение создавать сервера, способные выдерживать большие нагрузки.\n\nБудет плюсом:\n• Веб каркас Tornado, знания протокола HTTP;\n• Базы данных MongoDB, Redis, Aerospike, Cassandra;\n• Опыт работы с распределенной инфраструктурой;\n• Опыт использования нейронных сетей на TensorFlow / Keras / Caffe;\n• Понимание принципов работы различных архитектур нейронных сетей, знание алгоритмов машинного обучения.\n\nКонтакт для связи: @temnik_sofya","markup":[{"type":"hashtag","offset":0,"length":9,"data":"вакансия"},{"type":"hashtag","offset":10,"length":7,"data":"remote"},{"type":"hashtag","offset":18,"length":9,"data":"fulltime"},{"type":"hashtag","offset":28,"length":7,"data":"python"},{"type":"hashtag","offset":79,"length":9,"data":"fulltime"},{"type":"hashtag","offset":89,"length":7,"data":"remote"},{"type":"handle","offset":1419,"length":13,"data":"temnik_sofya"}],"date":"2020-06-23T10:09:17+00:00","link":"tg://resolve?domain=python_jobs&post=87549","tags":[{"name":"python"},{"name":"linux"},{"name":"docker"},{"name":"amazon-web-services"},{"name":"cloud"},{"name":"azure"},{"name":"java"},{"name":"mongodb"},{"name":"redis"},{"name":"cassandra"},{"name":"tensorflow"},{"name":"google-cloud-platform"}],"cities":[],"allowsRemote":true}},{"node":{"__typename":"Job","id":"1719664640-1001091028994","title":"Java разработчик","text":"#java #middle #москва #офис #fulltime\nJava-разработчик (CDP)\nКомпания: Эвотор\nЛокация: Москва, м. Парк Культуры\nЗп: 150 - 200К net\nКонтакты: @viktori_may, v.plotnikova@evotor.ru\n\nНаша команда занимается созданием Customer Data Platform (CDP) - система, которая идентифицирует пользователя через любой канал взаимодействия и собирает информацию о нем в одном профиле, позволяет сегментировать пользователей и коммуницировать с ними на основании сформированных правил. \n\nЗадачи:\n- Проектирование и реализация отказоустойчивых и готовых к масштабированию сервисов\n- Обширный круг задач по проектированию архитектуры и API системы\n- Участие в выборе используемых технологий\n\nКого ищем:\n• Знание основных алгоритмов и шаблонов проектирования ПО;\n• Знание фреймворков Spring Boot, Spring Cloud, Spring Cloud Stream, Kafka, Hibernate, веб-стека;\n• Знание технологий контейнеризации (Docker, Kubernetes);\n• Опыт работы c SQL и NoSQL базами данных(PostgreSQL, Aerospike, ClickHouse);\n• Опыт работы с инструментами Gradle, Git, Jira, Jenkins.\n\nСтек:\nJava12, Spring, Hibernate,Git, PostgreSQL, Kafka, Kubernetes, Docker\n\nУсловия:\n- Полностью официальная заработная плата\n- Офис в шаговой доступности от м. Парк Культуры со своей кухней и террасой\n- ДМС после прохождения испытательного срока","markup":[{"type":"hashtag","offset":0,"length":5,"data":"java"},{"type":"hashtag","offset":6,"length":7,"data":"middle"},{"type":"hashtag","offset":14,"length":7,"data":"москва"},{"type":"hashtag","offset":22,"length":5,"data":"офис"},{"type":"hashtag","offset":28,"length":9,"data":"fulltime"},{"type":"handle","offset":141,"length":12,"data":"viktori_may"},{"type":"link","offset":155,"length":22,"data":"mailto:v.plotnikova@evotor.ru"},{"type":"bold","offset":469,"length":6,"data":""},{"type":"bold","offset":671,"length":10,"data":""},{"type":"bold","offset":1034,"length":4,"data":""}],"date":"2020-06-22T11:44:13+00:00","link":"tg://resolve?domain=jvmjobs&post=1640","tags":[{"name":"java"},{"name":"jvm"},{"name":"dotnet"},{"name":"spring"},{"name":"cloud"},{"name":"kafka"},{"name":"hibernate"},{"name":"docker"},{"name":"kubernetes"},{"name":"sql"},{"name":"nosql"},{"name":"postgresql"},{"name":"gradle"},{"name":"git"},{"name":"jenkins"},{"name":"spring-boot"}],"cities":[{"code":"moscow"}],"allowsRemote":false}},{"node":{"__typename":"Job","id":"2236612608-1001134745498","title":"Devops инженер","text":"#вакансия #фуллтайм #офис #senior #teamlead #SRE #Kubernetes #Москва #fulltime\n\nВсем привет! \n\nИщем Team Lead /Senior SRE в крутую команду разработки аналитической платформы на базе Kubernetes и компонентов из экосистемы Hadoop.\nЛокация: Центр Москвы \nЗанятость: full time в офисе \nДоход: 250-350к рублей на руки. Мы готовы гибко обсуждать функции, роли и наименование позиции в зависимости от опыта и квалификации кандидата.\n\nЗадачи:\n✅Автоматизация механизмов развертывания и настройки операционной системы, платформы оркестрации контейнеров и инфраструктурных сервисов.\n✅Автоматизация всех рутинных/повторяющихся процессов, реализация концепции Infrastructure as Code, обеспечение воспроизводимости и повторяемости результата.\n✅Проектирование аппаратной составляющий платформы, подбор и планирование аппаратных ресурсов, настройка и администрирование серверов и сетевого оборудования.\n✅Проектирование программной составляющий платформы, тестирование и доработка существующих решений, интеграция компонентов друг с другом.\n\nТребования:\n✅Экспертные знания и опыт эксплуатации инфраструктуры на базе Linux от 3-х лет.\n✅Опыт внедрения и эксплуатации платформ контейнеризации и/или виртуализации (Ванильный Kubernetes, OpenShift, CoreOS Tectonic, Rancher, Cloud Foundry, OpenStack OpenNebula, Mesos или аналогичных по сложности) от 1 года.\n✅Уверенное понимание устройства контейнеров, cgroups, namespaces в Linux.\n✅Уверенное владение инструментами автоматизации (Ansible, Chef, Salt, Puppet и д.р.).\n\nЧто предлагаем: \n✅Интересные задачи и возможность развития, ДМС , корпоративное обучение английскому языку, возможность участие в профессиональных конференциях. \n\nПишите сюда - matvejchuk@r-code.info или @matvejchuk_m\n\n—\n\n👉 Обсуждение вакансии в чате @devops_jobs","markup":[{"type":"hashtag","offset":0,"length":9,"data":"вакансия"},{"type":"hashtag","offset":10,"length":9,"data":"фуллтайм"},{"type":"hashtag","offset":20,"length":5,"data":"офис"},{"type":"hashtag","offset":26,"length":7,"data":"senior"},{"type":"hashtag","offset":34,"length":9,"data":"teamlead"},{"type":"hashtag","offset":44,"length":4,"data":"SRE"},{"type":"hashtag","offset":49,"length":11,"data":"Kubernetes"},{"type":"hashtag","offset":61,"length":7,"data":"Москва"},{"type":"hashtag","offset":69,"length":9,"data":"fulltime"},{"type":"link","offset":1675,"length":22,"data":"mailto:matvejchuk@r-code.info"},{"type":"handle","offset":1702,"length":13,"data":"matvejchuk_m"},{"type":"handle","offset":1750,"length":12,"data":"devops_jobs"}],"date":"2020-06-22T09:37:27+00:00","link":"tg://resolve?domain=devops_jobs_feed&post=2133","tags":[{"name":"kubernetes"},{"name":"hadoop"},{"name":"linux"},{"name":"cloud"},{"name":"ansible"}],"cities":[{"code":"moscow"}],"allowsRemote":false}},{"node":{"__typename":"Job","id":"1715470336-1001091028994","title":"Java разработчик","text":"#middle #удаленка #Java #Spring #senior #backend #developer\nЛокация: Cанкт-Петербург\nЗанятость: полная, гибкое начало дня\n*до окончания пандемии работа удаленная, далее работа в офисе\nЗ/п: 130 – 200 k net.\nКомпания: CSI\nКонтакты: @Danny_Ushakova\nМы продуктовая компания CSI, создающая решения для автоматизации торговых сетей.  \nМы ищем крутых разработчиков, ответственных за собственный код, любящих тесты и понимающих важность unit тестов. Разработчиков, которые с радостью забывают про бюрократию, и разделение труда, которые умеют защищать собственные решения и хотят сделать этот мир лучше!  \nJAVA developer (высоконагруженные сервисы лояльности)  \nКлючевой задачей будет разработка нового и доработка нашего продукта -  существующего функционала системы Set Retail 10. \nСтек:\n• Java от 2 лет.\n• Spring (Web, Data, Cloud), Kafka.\n• Опыт разработки микросервисов.\n• Опыт проектирования базы данных.\n• SQL (желательно PostgreSQL), JDBC, Hibernate.\n• Git, Gradle.\nБудет плюсом:\n• Опыт работы с J2EE (EJB3, JAX-WS, JAXB, JPA2).\n• Знание Linux.\n• Опыт работы с Redis, MongoDB, Docker, Hashicorp Nomad, Ansible.\n\nМы предлагаем:\n• возможность каждый день видеть результаты своей работы;\n• официальное оформление, белая зарплата, отпуск согласно ТК РФ;\n• гибкий график работы (с 11 до 17 - время присутствия в офисе), есть возможность работать из дома (при необходимости);\n• ДМС со стоматологией, 100% оплата больничных;\n• курсы английского языка в офисе;\n• посещение тренингов, конференций;\n• работа по Agile в команде высокопрофессиональных разработчиков;\n• возможности профессионального роста, четкая схема повышения зарплаты;\n• работа в современном и комфортном офисе в центре города (Чкаловcкий пр-т);\n• оборудованные столовые, чай, кофе, фрукты, печеньки и PlayStation;\n• командные тимбилдинги, футбольная команда.","markup":[{"type":"hashtag","offset":0,"length":7,"data":"middle"},{"type":"hashtag","offset":8,"length":9,"data":"удаленка"},{"type":"hashtag","offset":18,"length":5,"data":"Java"},{"type":"hashtag","offset":24,"length":7,"data":"Spring"},{"type":"hashtag","offset":32,"length":7,"data":"senior"},{"type":"hashtag","offset":40,"length":8,"data":"backend"},{"type":"hashtag","offset":49,"length":10,"data":"developer"},{"type":"handle","offset":230,"length":15,"data":"Danny_Ushakova"}],"date":"2020-06-22T09:26:18+00:00","link":"tg://resolve?domain=jvmjobs&post=1636","tags":[{"name":"java"},{"name":"jvm"},{"name":"spring"},{"name":"dotnet"},{"name":"web"},{"name":"cloud"},{"name":"kafka"},{"name":"sql"},{"name":"postgresql"},{"name":"jdbc"},{"name":"hibernate"},{"name":"git"},{"name":"gradle"},{"name":"jaxb"},{"name":"jpa"},{"name":"linux"},{"name":"redis"},{"name":"mongodb"},{"name":"docker"},{"name":"ansible"}],"cities":[],"allowsRemote":true}}]}}},"context":{}}