{"hash":"f34fd2c444a074f4e0e67d525015a008ef8e766f","data":{"records":{"id":"windows","name":"windows","belongsTo":{"totalCount":12,"pageInfo":{"totalPages":2,"currentPage":1},"edges":[{"node":{"__typename":"Job","id":"98270445568-1001089317451","title":"Qa инженер","text":"#вакансия #Москва #QA #работа\n❗️Команда Тинькофф ищет талантливых тестировщиков❗️\nА у нас есть позиции в команде, которая разрабатывает продукты для бизнеса, команде, которая разрабатывает мобильное приложение для физ.лиц (он же SuperApp) , а еще есть вакансии в Тинькофф Инвестиции, в Тинькофф Мобайл – все они ищут тестировщика мобильных приложений. \n\n 📍Основные задачи:\n-Проведение функционального, регрессионного, smoke тестирования мобильных приложений на 3-х платформах (iOS, Android, Windows)\n-Использование инструментов разработчиков (Android Studio, Xcode, ITools)\n-Участие в процессе автоматизации: составление тест-кейсов и оценка результатов запуска автокейсов, их актуализация\n-Поддержка/развитие решений автоматизированного тестирования мобильного банка Тинькофф на платформе iOS (swift, xCode, XCTest) / Android (Java, JUnit, Espresso, UIAutomator)\n-Автоматизация регресса мобильного банка Тинькофф                                                                                                                                                                 \n📍Наши ожидания от кандидата:\n-Опыт работы в качестве мобильного тестировщика от 1 года\n-Понимание рынка мобильных технологий (ОС, оболочки и т.д.)\n-Понимание процесса интеграционного тестирования;принципа работы REST и SOAP API\n-Опыт использования сниффера трафика (Charles, Fiddler)\n-Знание SQL на уровне простых запросов\n\n✅Мы предлагаем:\n•Профессиональное развитие: проводим митапы, тренинги и мастер-классы; огромная tech-библиотека\n•Бесплатные и вкусные обеды в уютном Tinkoff.Сafe; чай, кофе и фрукты в кухнях на каждом этаже офиса\n•Заботу о здоровье: полис ДМС и страховку от несчастных случаев, льготные условия страхования для близких\n•Занятия в бесплатном фитнес-зале «Tinkoff.Sport»: есть тренажеры, групповые программы с крутыми тренерами, сауна. Устраиваем турниры по футболу, волейболу и хоккею\n•Работу в комфортном офисе с современной техникой и панорамным видом на город в 5 минутах пешком от м. Водный стадион. Для тех, кто за рулем, есть удобная парковка\n•Заработная плата от 130K, обсуждаем с каждым индивидуально\n\n📌Резюме и вопросы можете присылать на почту a.a.sklyarova@tinkoff.ru","markup":[{"type":"hashtag","offset":0,"length":9,"data":"вакансия"},{"type":"hashtag","offset":10,"length":7,"data":"Москва"},{"type":"hashtag","offset":18,"length":3,"data":"QA"},{"type":"hashtag","offset":22,"length":7,"data":"работа"},{"type":"link","offset":2155,"length":24,"data":"mailto:a.a.sklyarova@tinkoff.ru"}],"date":"2020-04-09T08:36:28+00:00","link":"tg://resolve?domain=qa_jobs&post=93718","tags":[{"name":"qa"},{"name":"ios"},{"name":"android"},{"name":"windows"},{"name":"xcode"},{"name":"swift"},{"name":"java"},{"name":"junit"},{"name":"rest"},{"name":"soap"},{"name":"sql"},{"name":"android-studio"}],"cities":[{"code":"moscow"}],"allowsRemote":false}},{"node":{"__typename":"Job","id":"1987051520-1001134745498","title":"Devops инженер","text":"#вакансия #DevOps #Москва\nMiddle DevOps\nФормат работы: офис\\удаленно, Занятость: полная\nКомпания: SnegirSoft - вендор ITSM-платформы «4it».\nРазрабатываем и поддерживаем платформу для управления it-процессами больших компаний.\n\nЗадачи:\n⚙️Развитие и поддержка инфраструктуры;\n⚙️Автоматизация сборки и доставки кода;\n⚙️Поддержка разработчиков;\n⚙️Анализ и устранение инцидентов на продуктовых контурах;\n⚙️Обеспечение работоспособности и отказоустойчивости сервисов;\n⚙️Внедрение новых инструментов администрирования;\n\nНаши хотелки:\n🛠Системы контроля версий Git (Bitbucket, Gitlab);\n🛠Управление конфигурациями (Ansible);\n🛠CI\\CD: Teamcity \\ Gitlab \\ Jenkins;\n🛠Опыт администрирования Windows, IIS;\n🛠Умение хорошо писать на Powershell;\n🛠Cистемы мониторинга (Zabbix \\ Prometheus);\n🛠ELK – стек (Elasticsearch, Kibana);\n🛠Сообщения, очереди: RabbitMQ, Kafka;\nБудет круто если:\n🛠Опыт администрирования Apache \\ Nginx;\n🛠Опыт администрирования Linux;\n🛠Контейнеризация (Docker);\n🛠Умение писать SQL-запросы, понимание принципов работы СУБД;\n🛠Опыт работы с монолитными и микросервисными архитектурами;\n🛠Навыки написание скриптов на bash;\n\nПредлагаем:\n🏢м. Нововкузнецкая 3(!) мин. пешком,\n🚑  ДМС (почти all inclusive)\n💰  Доход: 140 000 – 180 000 нетт\n⏰Начало дня гибко с 9-10-11, как договоримся.\n🖥ПК: i7 8-gen, 24Gb, SSD 512Gb, 2 хороших монитора.\n🚀  Стэк актуальный: .Net Core, Angular, Elasticsearch, RabbitMQ, MS SQL->Postgres, Almost SCRUM ^)\nКонтакты: @aastaf  a.astafev@snegirsoft.com\n\n—\n\n👉 Обсуждение вакансии в чате @devops_jobs","markup":[{"type":"hashtag","offset":0,"length":9,"data":"вакансия"},{"type":"hashtag","offset":10,"length":7,"data":"DevOps"},{"type":"hashtag","offset":18,"length":7,"data":"Москва"},{"type":"handle","offset":1457,"length":7,"data":"aastaf"},{"type":"link","offset":1466,"length":24,"data":"mailto:a.astafev@snegirsoft.com"},{"type":"handle","offset":1525,"length":12,"data":"devops_jobs"}],"date":"2020-04-08T10:14:42+00:00","link":"tg://resolve?domain=devops_jobs_feed&post=1895","tags":[{"name":"git"},{"name":"gitlab"},{"name":"ansible"},{"name":"jenkins"},{"name":"windows"},{"name":"iis"},{"name":"powershell"},{"name":"elasticsearch"},{"name":"rabbitmq"},{"name":"kafka"},{"name":"apache"},{"name":"nginx"},{"name":"linux"},{"name":"docker"},{"name":"sql"},{"name":"bash"},{"name":"dotnet"},{"name":"angularjs"},{"name":"postgresql"},{"name":"net-core"}],"cities":[{"code":"moscow"}],"allowsRemote":true}},{"node":{"__typename":"Job","id":"98199142400-1001089317451","title":"Qa engineer","text":"QA automation engineer (OpenStack)\n\nВсем привет!\n\n#вакансия #sbercloud #тестировщик # QAautomationengineer #QA #OpenStack #автоматизация #москва #офис #мск  #auto\n\n🏢Компания: SberCloud\n🏙Город: Москва, м. Боровицкая, м. Библиотека им Ленина, м. Александровский сад\n💰Зп: от 110к (обсуждается по результатам собеседования)\n\nФормат работы: офис \nЗанятость: полная\n\nSberCloud – облачный провайдер Группы Сбербанк, предоставляющий услуги для бизнес-клиентов на базе технологий Группы Сбербанк, одной из крупнейших технологических экосистем в России. Предоставляя клиентам передовые облачные технологии, совместимые с привычной для их бизнеса архитектурой ИТ-приложений, мы делаем возможным технологический прорыв. Мы создаем облачную платформу SberCloud, используя многолетний опыт развития ИТ-инфраструктуры Группы Сбербанк, обеспечения ее надежности, безопасности и эффективности в условиях стремительно растущих нагрузок и темпа изменений.\n\nОбязанности:\n✔️ Разрабатывать автотесты\n✔️ Участвовать в разработке и поддержке CI процесса\n✔️ Участвовать в функциональном, интеграционном, системном тестировании\n✔️ Проводить ручное и автоматизированное тестирование\n✔️ Анализировать результаты выполнения тестов\n✔️ Разрабатывать и поддерживать в актуальном состоянии тестовую документацию\n✔️ Работать с дефектами (обнаружение, анализ, контроль исправления)\n✔️ Взаимодействовать с другими отделами и членами команды для решения поставленных задач\n\nТребования:\n✔️ Понимание теории тестирования\n✔️ Опыт администрирования Linux/Windows серверов\n✔️ Опыт использования платформ виртуализации\n✔️ Опыт использования облачных платформ (OpenStack)\n✔️ Понимание сетевых технологий и протоколов (DNS, DHCP, VPN)\n✔️ Знание Python/других языков\n\nБудет плюсом:\n✔️ Знание фреймворков для автоматизации тестирования WEB UI\n✔️ Знание инструментов для тестирования REST API\n\nУсловия:\n✔️ Офис у м. Боровицкая, м. Библиотека им Ленина, м. Александровский сад\n✔️ ДМС + стоматология;\n✔️ Корпоративные скидки для сотрудников Группы Сбербанк;\n✔️ Льготные условия для кредитования;\n✔️ Гибкое начало рабочего дня.\n\n📲Контакты: aosamarov@sbercloud.ru или в лс (в телеге)","markup":[{"type":"hashtag","offset":50,"length":9,"data":"вакансия"},{"type":"hashtag","offset":60,"length":10,"data":"sbercloud"},{"type":"hashtag","offset":71,"length":12,"data":"тестировщик"},{"type":"hashtag","offset":107,"length":3,"data":"QA"},{"type":"hashtag","offset":111,"length":10,"data":"OpenStack"},{"type":"hashtag","offset":122,"length":14,"data":"автоматизация"},{"type":"hashtag","offset":137,"length":7,"data":"москва"},{"type":"hashtag","offset":145,"length":5,"data":"офис"},{"type":"hashtag","offset":151,"length":4,"data":"мск"},{"type":"hashtag","offset":157,"length":5,"data":"auto"},{"type":"link","offset":2093,"length":22,"data":"mailto:aosamarov@sbercloud.ru"}],"date":"2020-04-08T07:19:20+00:00","link":"tg://resolve?domain=qa_jobs&post=93650","tags":[{"name":"qa"},{"name":"linux"},{"name":"windows"},{"name":"dns"},{"name":"python"},{"name":"web"},{"name":"rest"}],"cities":[{"code":"moscow"}],"allowsRemote":false}},{"node":{"__typename":"Job","id":"1977614336-1001134745498","title":"Devops инженер","text":"#вакансия #devops \nГород и адрес офиса: #москва ул. Барклая, 6, стр. 5\nФормат работы: #офис\nЗанятость: #полная #fulltime \nЗарплатная вилка: от 220 до 260 т.р. на руки\nНаша компания ищет сильного инженера, обладающего большим бэкграундом в DevOps, который бы занял ключевую техническую роль в развитии данного направления и стал бы лидером нашего центра компетенций по DevOps. Мы ожидаем, что кандидат разделяет принципы философии DevOps и является экспертом с большим техническим кругозором в данной области.\nТебе предстоит:\nРазвивать центр компетенций DevOps в компании, проводить RnD, обучать коллег, участвовать в найме DevOps-инженеров и SRE.\nУчаствовать в пресейловых активностях: проработка, планирование и оценка внедряемых решений.\nВнедрять DevOps решения, включающих такие области, как автоматизация процессов сборки и развертывания систем, автоматизированное тестирование, мониторинг и менеджмент релизов.\nУстанавливать и настраивать инструменты DevOps.\nПодготавливать документацию по проектам и внедрению DevOps решений.\nБез чего ты не сможешь работать у нас: Наличие в портфолио успешно завершенных проектов по внедрению DevOps инструментов и методологии.\nОпыт работы в роли DevOps-инженера не менее 3х лет.\nОпыт системного администрирования Linux/Unix, Windows не менее 2х лет.\nОпыт работы с серверной виртуализацией (VMWare, KVM, Xen, etc.).\nОпыт работы с инструментами управления конфигурациями (Ansible или Puppet, Chef).\nОпыт настройки CI и CD (Jenkins, Gitlab CI, Teamcity), понимание плюсов и минусов данных инструментов.\nЗнание идеологии и инструментов infrastructure as code.\nОпыт работы с системами контейнерной виртуализации (Docker, Docker Swarm).\nОпыт развития и поддержки средств мониторинга инфраструктуры и сервисов (Prometheus, Zabbix, Grafana).\nХорошее знание Git, включая стратегии ветвления и слияния (Git-Flow).\nБонусы и дополнительные условия: 3 дополнительных отгула в год; корпоративный английский язык; настольный футбол, гибкое начало дня.\nНазвание компании: Перфоманс Лаб \nКонтакты: @bystrova_ak / a.bystrova@pflb.ru\n\n—\n\n👉 Обсуждение вакансии в чате @devops_jobs","markup":[{"type":"hashtag","offset":0,"length":9,"data":"вакансия"},{"type":"hashtag","offset":10,"length":7,"data":"devops"},{"type":"hashtag","offset":40,"length":7,"data":"москва"},{"type":"hashtag","offset":86,"length":5,"data":"офис"},{"type":"hashtag","offset":103,"length":7,"data":"полная"},{"type":"hashtag","offset":111,"length":9,"data":"fulltime"},{"type":"handle","offset":2022,"length":12,"data":"bystrova_ak"},{"type":"link","offset":2037,"length":18,"data":"mailto:a.bystrova@pflb.ru"},{"type":"handle","offset":2090,"length":12,"data":"devops_jobs"}],"date":"2020-04-07T13:04:24+00:00","link":"tg://resolve?domain=devops_jobs_feed&post=1886","tags":[{"name":"linux"},{"name":"unix"},{"name":"windows"},{"name":"ansible"},{"name":"jenkins"},{"name":"gitlab"},{"name":"docker"},{"name":"git"}],"cities":[{"code":"moscow"}],"allowsRemote":false}},{"node":{"__typename":"Job","id":"1976565760-1001134745498","title":"Devops инженер","text":"#вакансия #vacancy #Москва #Moscow #fulltime #DevOps \nПозиция: DevOps / Инженер внедрения\nЛокация: Москва, м. Калужская\nВилка: 110.000-150.000 RUB net \nЗанятость: Полная\nФормат работы: офис\nКонтакты: @cated_z\nekdzolotareva@gmail.com\n \nОбязанности:\n▫️Проводить деплой;\n▫️Дорабатывать схему деплоя текущих и будущих проектов;\n▫️Перенести текущую инфраструктуру компании в код (две стойки различного оборудования с бородой из патчкордов);\n▫️Поиск проблем: взаимодействие с командой разработчиков по вопросам внедрения системы и исправления найденных в процессе внедрения недостатков;\n▫️Ведение базы знаний (у нас Confluence);\n▫️Ведение отчетной документации;\n▫️Подготовка элементов документации (описания, схемы).\n \nНеобходимые навыки: \n▫️Опыт работы с Docker, Docker-реестром, Docker-swarm (чтение структуры, запуск, конфигурирование, обслуживание, оптимизация);\n▫️Опыт работы с Windows-сервер (установка, удаление сервисов, написание конфигурации для Cocholatey реестра, PowerShell);\n▫️Опыт отладки и оптимизации сетей (просмотр трафика, обнаружение сервисов, потребляющих канал и т.д.);\n▫️Знание основных инструментов CI/CD, IasC, CasC (у нас Jenkins, BitBucket, Ansible, Terraform, Vmware, в процессе переноса инфраструктуры в облако);\n▫️Умение писать  на одном из языков: Bash, Python, Groovy;\n▫️Опыт отладки REST API;\n▫️Опыт работы с PostgreSQL (написание запросов, поиск данных);\n▫️Опыт работы с MongoDB (просмотр, поиск, редактирование данных);\n▫️Способность разбираться в сложных программных алгоритмах, логике и структуре системы.\n \nУсловия: \n▫️Официальное оформление по ТК РФ;\n▫️График работы 5/2, гибкое начало рабочего дня;\n▫️Комфортное рабочее место;\n▫️Пятидневная рабочая неделя с гибким началом рабочего дня;\n▫️Расширенный ДМС;\n▫️Скидки у компаний-партнеров;\n▫️Помощь в релокации: оплата залога + первого месяца проживания;\n▫️Офис в 7 минутах от м. Калужская, БЦ \"Neo Geo\".\n\n—\n\n👉 Обсуждение вакансии в чате @devops_jobs","markup":[{"type":"hashtag","offset":0,"length":9,"data":"вакансия"},{"type":"hashtag","offset":10,"length":8,"data":"vacancy"},{"type":"hashtag","offset":19,"length":7,"data":"Москва"},{"type":"hashtag","offset":27,"length":7,"data":"Moscow"},{"type":"hashtag","offset":35,"length":9,"data":"fulltime"},{"type":"hashtag","offset":45,"length":7,"data":"DevOps"},{"type":"handle","offset":200,"length":8,"data":"cated_z"},{"type":"link","offset":209,"length":23,"data":"mailto:ekdzolotareva@gmail.com"},{"type":"handle","offset":1921,"length":12,"data":"devops_jobs"}],"date":"2020-04-07T11:52:55+00:00","link":"tg://resolve?domain=devops_jobs_feed&post=1885","tags":[{"name":"dotnet"},{"name":"docker"},{"name":"windows"},{"name":"powershell"},{"name":"jenkins"},{"name":"ansible"},{"name":"bash"},{"name":"python"},{"name":"groovy"},{"name":"rest"},{"name":"postgresql"},{"name":"mongodb"}],"cities":[{"code":"moscow"}],"allowsRemote":false}},{"node":{"__typename":"Job","id":"24242028544-1001075660570","title":"Php разработчик","text":"#php #developer #middle #senior #fulltime #удалённо #job #вакансия #remote #фуллтайм #fulltime #удаленно #удаленка #удалёнка #удаленно \n #москва \n✔️ Вакансия: PHP developer\nЗП: до 160k net\nФормат работы: полная/удаленно\nКомпания: МТС \n\nКрупная российская телекоммуникационная компания приглашает присоединиться PHP разработчика к проекту доработки приложения, позволяющее абонентам эффективно и комфортно управлять финансами абонентского счета.\n\n ✔️ Задачи:\n• Доработка CMS бэкенда проекта;\n• Доработка бэкенда проекта;\n• Интеграции решений с внешними системами;\n• Интеграция решения с мобильными приложениями;\n• Разработка веб-приложений с использованием PHP 5.3, 5.6, 7.3.\n\n✔️ Предлагаем: \n• Официальное трудоустройство;\n• Повышение квалификации;\n•  Удаленная работа из дома.\n\n✔️ Пожелания к Вашему опыту:\n• Знание отличий версий PHP 5.3, 5.6, 7.3;\n• Понимание принципов ООП, MVP;\n• Опыт работы с #Yii2, #Laravel;\n• Работа с БД: PL/SQL, MySQL, MS SQL;\n• Опыт работы с JavaScript, jQuery, Bootstrap, CSS, HTML;\n• Опыт работы с Yii2, Laravel;\n• Работа с БД: PL/SQL, MySQL, MS SQL;\n• Знание команд Unix/Windows;\n• Опыт разработки пользовательских интерфейсов;\n• Опыт работы с системами контроля версий: TFS/SVN/GIT.\n\nКонтактное лицо: @OlgaVzh","markup":[{"type":"hashtag","offset":0,"length":4,"data":"php"},{"type":"hashtag","offset":5,"length":10,"data":"developer"},{"type":"hashtag","offset":16,"length":7,"data":"middle"},{"type":"hashtag","offset":24,"length":7,"data":"senior"},{"type":"hashtag","offset":32,"length":9,"data":"fulltime"},{"type":"hashtag","offset":42,"length":9,"data":"удалённо"},{"type":"hashtag","offset":52,"length":4,"data":"job"},{"type":"hashtag","offset":57,"length":9,"data":"вакансия"},{"type":"hashtag","offset":67,"length":7,"data":"remote"},{"type":"hashtag","offset":75,"length":9,"data":"фуллтайм"},{"type":"hashtag","offset":85,"length":9,"data":"fulltime"},{"type":"hashtag","offset":95,"length":9,"data":"удаленно"},{"type":"hashtag","offset":105,"length":9,"data":"удаленка"},{"type":"hashtag","offset":115,"length":9,"data":"удалёнка"},{"type":"hashtag","offset":125,"length":9,"data":"удаленно"},{"type":"hashtag","offset":137,"length":7,"data":"москва"},{"type":"bold","offset":158,"length":15,"data":""},{"type":"bold","offset":204,"length":16,"data":""},{"type":"bold","offset":447,"length":11,"data":""},{"type":"bold","offset":676,"length":16,"data":""},{"type":"bold","offset":779,"length":29,"data":""},{"type":"hashtag","offset":899,"length":5,"data":"Yii2"},{"type":"hashtag","offset":906,"length":8,"data":"Laravel"},{"type":"handle","offset":1233,"length":8,"data":"OlgaVzh"}],"date":"2020-04-02T08:52:06+00:00","link":"tg://resolve?domain=php_jobs&post=23119","tags":[{"name":"php"},{"name":"dotnet"},{"name":"yii"},{"name":"laravel"},{"name":"sql"},{"name":"mysql"},{"name":"javascript"},{"name":"jquery"},{"name":"bootstrap"},{"name":"css"},{"name":"html"},{"name":"unix"},{"name":"windows"},{"name":"tfs"},{"name":"svn"},{"name":"git"}],"cities":[{"code":"moscow"}],"allowsRemote":true}},{"node":{"__typename":"Job","id":"1375731712-1001091028994","title":"Java разработчик","text":"#Москва #java #еса #senior #middle\nГород и адрес офиса: Москва, м. Тульская, Новоданиловская наб, д.10\nФормат работы: офис (хотя в связи с последними событиями может быть и удалённо :)\nЗанятость: фулл тайм\nЗарплатная вилка: 150к-300к (в зависимости от навыков и знаний)\n\nЕдиный сервис аутентификации - это система, которая принимает решение о допуске клиентов через различные каналы обслуживания (веб, мобильное приложение, банкомат) к сервисам экосистемы Сбербанка. Система является высоконагруженной, так как одновременно может обслуживать более 10к операций в секунду.\n\nЗадачи:\n • разработка back-end web-приложения; \n • участие разработки архитектуры продукта;\n • участие в code review. \n\nОбязательно:\n· Опыт работы с Java от 2ух лет (хорошее знание core, Collections, jdbc, IO, Exceptions)\n· Опыт работы с системами сборки: maven или gradle\n· Опыт работы с БД, знание языка запросов SQL\n· Знакомство с ORM Hibernate\n\nБудет плюсом:\n· понимание многопоточности в Java;\n· знакомство со Spring Framework\n\nБонусы: \n • гибкое начало дня, отсутствие микроменеджмента и дресс-кода\n • отличная атмосфера в команде, способность слышать мнение каждого\n • современное железо (можно выбрать ноут MacOS или Windows) \n • возможность сменить проект\n • ДМС, спортзал, корпоративные мероприятия\n\nКонтакт: @hralexandra 📲","markup":[{"type":"hashtag","offset":0,"length":7,"data":"Москва"},{"type":"hashtag","offset":8,"length":5,"data":"java"},{"type":"hashtag","offset":14,"length":4,"data":"еса"},{"type":"hashtag","offset":19,"length":7,"data":"senior"},{"type":"hashtag","offset":27,"length":7,"data":"middle"},{"type":"handle","offset":1292,"length":12,"data":"hralexandra"}],"date":"2020-03-24T07:57:32+00:00","link":"tg://resolve?domain=jvmjobs&post=1312","tags":[{"name":"java"},{"name":"jvm"},{"name":"web"},{"name":"jdbc"},{"name":"maven"},{"name":"gradle"},{"name":"sql"},{"name":"orm"},{"name":"hibernate"},{"name":"spring"},{"name":"macos"},{"name":"windows"}],"cities":[{"code":"moscow"}],"allowsRemote":true}},{"node":{"__typename":"Job","id":"1930428416-1001134745498","title":"Devops инженер","text":"#вакансия #Москва #офис #полная занятость\nБанк ВТБ (ПАО) ищет DevOps инженера в отдел внедрения\nФормат работы: #офис #полнаязанятость\n\nЗадачи: \n👉разработка скриптов автоматизированного развертывания ПО на контурах банка;\n👉автоматизации процессов администрирования;\n👉владение новых подходов разработки автоматизации. \n\nТребования:\n👉опыт работы DevOps инженером от 2х лет;\n👉опыт работы с Git, Bitbucket;\n👉выстраивание процессов CI/CD с помощью Jenkins, Gitlab CI и TeamCity;\n👉экспертные навыки написания скриптов bash, powershell, python;\n👉 администрирование linux/unix, windows;\n👉  владение Ansible и Groovy;\n👉  опыт работа с Rest API, SOAP;\n👉 опыт работы с MsSQL Oracle, PostrgeSQL;\n👉 наличие опыта автоматизации бизнес-процессов и рутинных операций;\n👉  знание инструментов микросервисной архитектуры.\n \nУсловия:\n👉офис м.Алексеевская;\n👉заработная плата от 180 000 до 240 000;\n👉ДМС, спортивная жизнь;\n👉проффесиональное обучение и развитие.\n\nБолее подробно о вакансиях можно узнать у меня. Мои контакты @Nchugreeva\n+7 9264549707\nChugreeva@vtb.ru\n\n—\n\n👉 Обсуждение вакансии в чате @devops_jobs","markup":[{"type":"hashtag","offset":0,"length":9,"data":"вакансия"},{"type":"hashtag","offset":10,"length":7,"data":"Москва"},{"type":"hashtag","offset":18,"length":5,"data":"офис"},{"type":"hashtag","offset":24,"length":7,"data":"полная"},{"type":"hashtag","offset":111,"length":5,"data":"офис"},{"type":"hashtag","offset":117,"length":16,"data":"полнаязанятость"},{"type":"handle","offset":1018,"length":11,"data":"Nchugreeva"},{"type":"link","offset":1030,"length":13,"data":"tel:+7 9264549707"},{"type":"link","offset":1044,"length":16,"data":"mailto:Chugreeva@vtb.ru"},{"type":"handle","offset":1095,"length":12,"data":"devops_jobs"}],"date":"2020-03-23T13:20:40+00:00","link":"tg://resolve?domain=devops_jobs_feed&post=1841","tags":[{"name":"git"},{"name":"jenkins"},{"name":"gitlab"},{"name":"bash"},{"name":"powershell"},{"name":"python"},{"name":"linux"},{"name":"unix"},{"name":"windows"},{"name":"ansible"},{"name":"groovy"},{"name":"rest"},{"name":"soap"},{"name":"sql-server"},{"name":"oracle"}],"cities":[{"code":"moscow"}],"allowsRemote":false}},{"node":{"__typename":"Job","id":"1926234112-1001134745498","title":"Devops инженер","text":"#вакансия #Москва #devops #полнаязанятость \n\nИщем DevOps в команду по разработке платежной системы\n\nЗп: до 150-200 т.р.(обсуждаемо)\nТребуемый опыт работы: 3–6 лет\nПолная занятость, полный день\n\nЕсли тебе интересны задачи по контейнерам и автоматизации, и для тебя такие аббревиатуры как DevOps, IaaC, SCM, PaaS, AWS, K8S, VCS, RegExp - не пустой звук, то тебе к нам!\n\nМы занимаемся разработкой платежной системы.\nМы совместили технические инновации и надежность классических финансовых институтов чтобы создавать удобные и полезные цифровые финансовые продукты для жизни, работы и бизнеса.\nМы создаем высокотехнологичные, надежные инструменты по управлению финансами, полностью регламентированы законами ЕС, а значит средства наших клиентов и персональные данные находятся в безопасности.\n\nС нами работают уже более 80-ти молодых, талантливых и амбициозных специалистов, которые каждый день создают передовые технологии вместе с нами!\n\nЗадачи:\n 1-Обеспечение бесперебойной работы серверов и приложений Компании (не менее 99.9% доступности);\n 2-Разработка и поддержка Docker-контейнеров приложений и оркестрация микросервисов с использованием Kubernetes;\n 3-CI/CD pipelining;\n 4-Развитие и поддержка мониторинга доступности сервисов Компании;\n 5-Автоматизация развертывания новых сервисов и управление конфигурациями;\n\nТочно нужно:\n 1-Знание Linux(Debian-based, RedHat-based) – мы ждем администраторов;\n 2-Nginx;\n 3-Docker– разработка образов контейнеров;\n 4-Bash,Python– написание скриптов автоматизации;\n 5-Teamcity(GitlabCI, Jenkins) – реализация CI/CDpipeline;\n 6-Git;\n 7-Puppet (Chef, Ansible, Salt) – разработка своих модулей, модификация существующих;\n\nДополнительным преимуществом будет:\n 1-Если Вы создавали кластеры на Kubernetes и настраивали в них сетевую подсистему;\n 2-Если Вы знакомы с Helm;\n 3-Работали с Prometheus;\n 4-Готовили vSphere (VCSA HA, advanced networking);\n 5-Слышали о Foreman;\n 6-Использовали регулярные выражения;\n 7-Использовали Hiera;\nУсловия:\n 1-Возможность выбрать время начала работы (с 8:00/9:00/10:00);\n 2-Современный, просторный офис;\n 3-Современный рабочий компьютер (16 GBRAM, SSD), удобное рабочее место;\n 4-Комфортная кухонная зона для кофе-брейков, зона отдыха, PS4 PRO +VR;\n 5-Возможность выбрать на чем работать: Windows/Linux\nА еще:\n 1-ДМС по окончанию испытательного срока;\n 2-Корпоративные курсы по изучению Английского языка;\n 3-Компенсация расходов на питание по картам Obed.ru;\n 4-Компенсация расходов на спорт, внутри БЦ World Trade Center;\n\nKA RedCode\nКонтакты: @dmitry_demyanov\n\n—\n\n👉 Обсуждение вакансии в чате @devops_jobs","markup":[{"type":"hashtag","offset":0,"length":9,"data":"вакансия"},{"type":"hashtag","offset":10,"length":7,"data":"Москва"},{"type":"hashtag","offset":18,"length":7,"data":"devops"},{"type":"hashtag","offset":26,"length":16,"data":"полнаязанятость"},{"type":"link","offset":2420,"length":7,"data":"http://Obed.ru"},{"type":"handle","offset":2515,"length":16,"data":"dmitry_demyanov"},{"type":"handle","offset":2566,"length":12,"data":"devops_jobs"}],"date":"2020-03-23T07:48:35+00:00","link":"tg://resolve?domain=devops_jobs_feed&post=1837","tags":[{"name":"amazon-web-services"},{"name":"docker"},{"name":"kubernetes"},{"name":"linux"},{"name":"debian"},{"name":"nginx"},{"name":"bash"},{"name":"python"},{"name":"jenkins"},{"name":"git"},{"name":"ansible"},{"name":"windows"}],"cities":[{"code":"moscow"}],"allowsRemote":false}},{"node":{"__typename":"Job","id":"1890582528-1001134745498","title":"Devops инженер","text":"#вакансия #москва #офис\nDevOps инженер\nВилка 200 - 230 т.р. на руки\nМосква, офис, полный рабочий день.\nКомпания занимается разработкой платежной системы.\nЗадачи:\n 1. Обеспечение бесперебойной работы серверов и приложений Компании (не менее 99.9% доступности);\n 2. Разработка и поддержка Docker-контейнеров приложений и оркестрация микросервисов с использованием Kubernetes;\n 3. CI/CD pipelining;\n 4. Развитие и поддержка мониторинга доступности сервисов Компании;\n 5. Автоматизация развертывания новых сервисов и управление конфигурациями;\nТребования:\n Linux(Debian-based, RedHat-based) – мы ждем администраторов;\n Nginx;\n Docker– разработка образов контейнеров;\n Bash,Python– написание скриптов автоматизации;\n Teamcity(GitlabCI, Jenkins) – реализация CI/CDpipeline;\n Git;\n Puppet (Chef, Ansible, Salt) – разработка своих модулей, модификация существующих;\n Kubernetes;\n Helm;\n Prometheus;\n vSphere (VCSA HA, advanced networking);\n Понимание Foreman;\n Использование регулярных выражений;\n Использование Hiera;\nУсловия:\n  Возможность выбрать время начала работы (с 8:00/9:00/10:00);\n Современный, просторный офис;\n Современный рабочий компьютер (16 GBRAM, SSD), удобное рабочее место;\n Комфортная кухонная зона для кофе-брейков, зона отдыха, PS4 PRO +VR;\n Возможность выбрать на чем работать: Windows/Linux\n ДМС по окончанию испытательного срока;\n Корпоративные курсы по изучению Английского языка;\n Компенсация расходов на питание по картам Obed.ru;\n Компенсация расходов на спорт, внутри БЦ World Trade Center\n\nКонтакты: @kristina_jobs\nКА RedCode\n\n—\n\n👉 Обсуждение вакансии в чате @devops_jobs","markup":[{"type":"hashtag","offset":0,"length":9,"data":"вакансия"},{"type":"hashtag","offset":10,"length":7,"data":"москва"},{"type":"hashtag","offset":18,"length":5,"data":"офис"},{"type":"link","offset":1442,"length":7,"data":"http://Obed.ru"},{"type":"handle","offset":1523,"length":14,"data":"kristina_jobs"},{"type":"handle","offset":1583,"length":12,"data":"devops_jobs"}],"date":"2020-03-12T13:17:33+00:00","link":"tg://resolve?domain=devops_jobs_feed&post=1803","tags":[{"name":"docker"},{"name":"kubernetes"},{"name":"linux"},{"name":"debian"},{"name":"nginx"},{"name":"bash"},{"name":"python"},{"name":"jenkins"},{"name":"git"},{"name":"ansible"},{"name":"windows"}],"cities":[{"code":"moscow"}],"allowsRemote":false}}]}}},"context":{}}