{"hash":"f5f6bf98bd95e769321482904cbbd488f77922fd","data":{"records":{"id":"react-redux","name":"react-redux","belongsTo":{"totalCount":42,"pageInfo":{"totalPages":5,"currentPage":3},"edges":[{"node":{"__typename":"Job","id":"17039360000-1001110946746","title":"Js разработчик","text":"#вакансия #react #redux #москва #офис #javascript\n\nГород: Москва (ст.м. Аэропорт).\n\nФормат работы: офис,на текущий период частично существует удалёнка.\n\nЗанятость: полная\n\nВилка: 100-250 т.р. на руки\nВ связи с увеличением проектов, Коммерческий Банк ищет в свою команду Frontend-разработчика.\nФункционал:\n\n• Разработка WEB приложений;\n\n• Рефакторинг Legacy кода;\n\n• Написание и поддержка сложных модулей, реализованных на стеке технологий React;\n\n• Участие в оценке сроков, трудоёмкости и проектирование приложений.\n\nПрофессиональные знания: знание JavaScript и его особенностей; знание React / Redux, Node.js, пакетных менеджеров (Yarn / npm); умение работать с Git; понимание стратегий оптимизации web-приложения.\n\nНазвание компании: Локо-Банк\nhttps://www.lockobank.ru//\nhttps://hh.ru/vacancy/37365811\n\nКонтакты: @hrlocko\n\n—\n\n👉 Обсуждение вакансии в чате @javascript_jobs","markup":[{"type":"hashtag","offset":0,"length":9,"data":"вакансия"},{"type":"hashtag","offset":10,"length":6,"data":"react"},{"type":"hashtag","offset":17,"length":6,"data":"redux"},{"type":"hashtag","offset":24,"length":7,"data":"москва"},{"type":"hashtag","offset":32,"length":5,"data":"офис"},{"type":"hashtag","offset":38,"length":11,"data":"javascript"},{"type":"link","offset":746,"length":26,"data":"https://www.lockobank.ru//"},{"type":"link","offset":773,"length":30,"data":"https://hh.ru/vacancy/37365811"},{"type":"handle","offset":815,"length":8,"data":"hrlocko"},{"type":"handle","offset":858,"length":16,"data":"javascript_jobs"}],"date":"2020-06-18T11:23:19+00:00","link":"tg://resolve?domain=javascript_jobs_feed&post=0","tags":[{"name":"javascript"},{"name":"reactjs"},{"name":"redux"},{"name":"web"},{"name":"nodejs"},{"name":"npm"},{"name":"git"},{"name":"react-redux"}],"cities":[{"code":"moscow"}],"allowsRemote":true}},{"node":{"__typename":"Job","id":"17029922816-1001110946746","title":"Js разработчик","text":"#вакансия #frontend #javascript #react  #senior #remote #удаленка\nКомпания: Maxiru\nЛокация: anywhere/fully remote\nФормат работы: удаленка\nЗанятость: Полная\nГрафик: гибкий (с захватом дня по NY time)\nЗ/п вилка: $2,400-$2,900\nКонтакт: @elenamat\n\nТребуется помощь со стороны React.js в нашем новом проекте - приложения для отдыхающих на круизном судне. \nКлиент: Virgin Voyages.\n\nЗагрузка Фул Тайм. Работа частично по дневному графику EST.\n\nНесколько фактов о вас:\n- вы прекрасно знаете JavaScript (5 лет опыта) и уже активно используете в своих проектах возможности ES6;\n- у вас есть хороший опыт работы с React или Vue. Вы уже знаете, когда следует использовать Redux, и знаете, когда его использованием лучше пренебречь;\n- будет плюсом, если имеете опыт работы с React native\n- у вас неплохой разговорный и письменный английский;\n- вы способны самостоятельно принимать архитектурные решения и работать без внешнего контроля;\n- вы достаточно дисциплинированы для эффективной удаленной работы.\n- вы не боитесь брать на себя ответственность за свою работу и работу своих младших коллег.\n\nНесколько фактов о нас:\n- мы небольшая IT компания, расположенная на юге США, работаем уже более 6 лет;\n-  нашим фокусом является cruise industry technology, apps ranging from IOT to Algorithms and 3D simulations;\n- среди наших клиентов есть как огромные корпорации вроде Virgin Voyages, так и небольшие стартапы;\n- сейчас наша команда состоит из 46 человек, проживающих в 39 разных городах мира;\n- наш основной технологический стек выглядит следующим образом: Python, React, Redux, ES6, Webpack, SASS, Jenkins, Docker, Kubernetes, Google Cloud, Unreal engine;\n- работы у нас имеется много, хватит на годы вперед.\n\nЕсли вас заинтересовала наша вакансия, заполните, пожалуйста, анкету: https://forms.gle/ssxr69BwJwEDQ89h6 и мы свяжемся в течении 24-48 часов.\n\n—\n\n👉 Обсуждение вакансии в чате @javascript_jobs","markup":[{"type":"hashtag","offset":0,"length":9,"data":"вакансия"},{"type":"hashtag","offset":10,"length":9,"data":"frontend"},{"type":"hashtag","offset":20,"length":11,"data":"javascript"},{"type":"hashtag","offset":32,"length":6,"data":"react"},{"type":"hashtag","offset":40,"length":7,"data":"senior"},{"type":"hashtag","offset":48,"length":7,"data":"remote"},{"type":"hashtag","offset":56,"length":9,"data":"удаленка"},{"type":"handle","offset":233,"length":9,"data":"elenamat"},{"type":"link","offset":1769,"length":35,"data":"https://forms.gle/ssxr69BwJwEDQ89h6"},{"type":"handle","offset":1876,"length":16,"data":"javascript_jobs"}],"date":"2020-06-17T21:23:01+00:00","link":"tg://resolve?domain=javascript_jobs_feed&post=0","tags":[{"name":"javascript"},{"name":"reactjs"},{"name":"vuejs"},{"name":"redux"},{"name":"python"},{"name":"webpack"},{"name":"sass"},{"name":"jenkins"},{"name":"docker"},{"name":"kubernetes"},{"name":"cloud"},{"name":"react-native"},{"name":"react-redux"},{"name":"google-cloud-platform"}],"cities":[],"allowsRemote":true}},{"node":{"__typename":"Job","id":"17025728512-1001110946746","title":"Javascript разработчик","text":"#вакансия #Москва #React #Redux #TypeScript\nFrontend-разработчик\nЛокация: Москва, Москва-Сити\nФормат работы: офис, после ИС возможна удаленка\nЗанятость: полная\nЗП: от 150 000 до 200 000 рублей на руки\n\nЗадача: Работа над ERP-системой, развитие и поддержка. \n\nТребования:\n•опыт коммерческой разработки от 3 лет\n•уверенное знание React, Redux, хуки, опыт оптимизации производительности\n•покрытие кода тестами\n•хорошее знание HTML и CSS\n•опыт работы с TypeScript больше года\n•знание git и webpack\n\nУсловия:\n•Уютный офис в Москва-Сити\n•Медицинская страховка, включая стоматологию\n•Дотация на питание\n•Оплата изучения иностранного языка\n• Макбук для работы (или любая другая конфигурация по желанию)\n•Оплата профильных конференций и семинаров\n\nНазвание компании: GetIT\nПроект: компания - часть международного инвестиционного фонда.\nРазработка внутренней корпоративной ERP-системы, включающей логистику, документооборот, финансовый учет.\n\nРезюме можно направить сюда:  @Rita_RS\nemail: m.sinelnikova@getit.agency\n\n—\n\n👉 Обсуждение вакансии в чате @javascript_jobs","markup":[{"type":"hashtag","offset":0,"length":9,"data":"вакансия"},{"type":"hashtag","offset":10,"length":7,"data":"Москва"},{"type":"hashtag","offset":18,"length":6,"data":"React"},{"type":"hashtag","offset":25,"length":6,"data":"Redux"},{"type":"hashtag","offset":32,"length":11,"data":"TypeScript"},{"type":"handle","offset":963,"length":8,"data":"Rita_RS"},{"type":"link","offset":979,"length":26,"data":"mailto:m.sinelnikova@getit.agency"},{"type":"handle","offset":1040,"length":16,"data":"javascript_jobs"}],"date":"2020-06-17T15:36:09+00:00","link":"tg://resolve?domain=javascript_jobs_feed&post=0","tags":[{"name":"javascript"},{"name":"reactjs"},{"name":"redux"},{"name":"typescript"},{"name":"html"},{"name":"css"},{"name":"git"},{"name":"webpack"},{"name":"react-redux"}],"cities":[{"code":"moscow"}],"allowsRemote":true}},{"node":{"__typename":"Job","id":"17022582784-1001110946746","title":"Js разработчик","text":"#вакансия #React #Питер #fulltime #frontend #middle  \n                                       \nГород: Санкт-Петербург\nФормат: в офисе\nЗанятость: полная\nЗарплатная вилка: 100-150К на руки\n\nОписание:\n\nМы — профессиональная площадка, которая освещает киберспортивные соревнования по Overwatch, Dota 2, CS:GO, League of Legends (LoL), Fortnite, FIFA и др. Ищем Front-end developer в наш перспективный проект киберспортивной индустрии!\n\nУсловия: \n\n- Оформление по ТК РФ;\n- \"белая\" зарплата 100 - 150к на руки\n- Режим работы 5/2;\n- Офис в историческом центре Петербурга, в 10 минутах от метро Чкаловская;\n- Печеньки, фрукты, чай и кофе;\n\nФункционал:\n\n- Проектирование, разработка и поддержка front-end части приложения с использованием фреймворка React/Redux\n- Разработка компонентов React/Redux\n- Интеграция с back-end, взаимодействие с командой back-end разработчиков\n- Кросс-браузерная оптимизация, рефакторинг полученных решений, оптимизация скорости загрузки страниц и интерактивных элементов\n\nНаш стэк:\n\n- React/Redux 16.8+ (hooks, context)\n- TypeScript\n- redux-observable, RxJs\n- GraphQL, WebSocket\n- Styled component\n\nПожелания к опыту:\n\nУверенное владение\n- React.js продвинутое знание, JS, CSS, Typescript\n- Опыт командной работы\n- Приветствуется опыт/понимание бэкенда\n    \nКомпания: ToBeHired                                    \nКонтакт: @Alex_Korm\n\n—\n\n👉 Обсуждение вакансии в чате @javascript_jobs","markup":[{"type":"hashtag","offset":0,"length":9,"data":"вакансия"},{"type":"hashtag","offset":10,"length":6,"data":"React"},{"type":"hashtag","offset":17,"length":6,"data":"Питер"},{"type":"hashtag","offset":24,"length":9,"data":"fulltime"},{"type":"hashtag","offset":34,"length":9,"data":"frontend"},{"type":"hashtag","offset":44,"length":7,"data":"middle"},{"type":"handle","offset":1343,"length":10,"data":"Alex_Korm"},{"type":"handle","offset":1388,"length":16,"data":"javascript_jobs"}],"date":"2020-06-17T15:31:04+00:00","link":"tg://resolve?domain=javascript_jobs_feed&post=0","tags":[{"name":"javascript"},{"name":"reactjs"},{"name":"redux"},{"name":"typescript"},{"name":"rxjs"},{"name":"graphql"},{"name":"websocket"},{"name":"css"},{"name":"react-redux"}],"cities":[],"allowsRemote":false}},{"node":{"__typename":"Job","id":"17019437056-1001110946746","title":"Javascript разработчик","text":"#вакансия #Иннополис #Казань #React #Javascript #офис #remote \nЛокация: Казань/ Иннополис\n(Есть хороший релокационный пакет)\nФормат работы: офис / удаленная работа\nЗанятость: полная, гибкое начало дня\nЗП: от 80 000 до 130 000 NET \n\n*к сожалению, у компании нет формальной возможности трудоустраивать иностранных граждан \n\n🔹 Ак Барс Цифровые Технологии — это лаборатория «АК БАРС» Банка, которая создает digital-продукты и инновационные решения в сфере fintech, чтобы сделать мир финансов простым и доступным каждому.\nРебята и правда инноваторы в своей сфере, которые горят своими делом и стремятся сделать жизнь людей проще и комфортнее. Команда нуждается в специалисте, который бы присоединился к работе над созданием ряда сложных интересных цифровых продуктов, которыми будут пользоваться.\nВакансия открыта в связи с глобальным расширением.\n\n🔹 Требуемый опыт:\n-Javascript (ES5, ES6+) - коммерческий опыт разработки от 2-ух лет;\n-React/Redux - коммерческий опыт разработки от 1-ого года;\n\n🔹Что интересного:\n- Рабочее пространство - один из самых привлекательных и “гибких” офисов в Казани;\n- Полное соблюдение норм ТК РФ;\n- Льготные условия кредитования;\n- Программа релокации для иногородних;\n- Конкурентоспособная белая заработная плата;\n-Профессиональное развитие и обучение (внутренние и внешние конференции, семинары);\n- Футбол, настольный теннис, скидки на занятия в фитнес-центре.\n\n🔹 Контакты:\ne-mail: daria@luckyhunter.io\ntelegram: @prudentdaria\nКА: luckyhunter\nПишите, буду рада ответить на все возможные вопросы здесь или по почте 😊\n\n—\n\n👉 Обсуждение вакансии в чате @javascript_jobs","markup":[{"type":"hashtag","offset":0,"length":9,"data":"вакансия"},{"type":"hashtag","offset":10,"length":10,"data":"Иннополис"},{"type":"hashtag","offset":21,"length":7,"data":"Казань"},{"type":"hashtag","offset":29,"length":6,"data":"React"},{"type":"hashtag","offset":36,"length":11,"data":"Javascript"},{"type":"hashtag","offset":48,"length":5,"data":"офис"},{"type":"hashtag","offset":54,"length":7,"data":"remote"},{"type":"link","offset":1414,"length":20,"data":"mailto:daria@luckyhunter.io"},{"type":"handle","offset":1445,"length":13,"data":"prudentdaria"},{"type":"handle","offset":1583,"length":16,"data":"javascript_jobs"}],"date":"2020-06-17T15:28:29+00:00","link":"tg://resolve?domain=javascript_jobs_feed&post=0","tags":[{"name":"javascript"},{"name":"reactjs"},{"name":"dotnet"},{"name":"redux"},{"name":"react-redux"}],"cities":[{"code":"kazan"}],"allowsRemote":true}},{"node":{"__typename":"Job","id":"17017339904-1001110946746","title":"Javascript разработчик","text":"#вакансия #екб #екатеринбург #react #frontend #middle\n\nПозиция: Разработчик React \nКомпания: SoftMediaLab \nЛокация: Екатеринбург \nФормат работы: #удаленка или  #офис\nЗанятость: #фултайм \nЗП 110 000 - 140 000 рублей на руки\n\nSoftMediaLab – была основана в 2015 году в городе Екатеринбурге. Основатели компании – разработчики, поэтому никакой бюрократии и странных решений, процессы максимально простые и понятные, среда дружественная. \nРазрабатываем в основном стартапы для России, Европы и Америки. \n\nЗадачи: \n- улучшать имеющийся функционал и разрабатывать новый \n- участвовать в принятии архитектурных решений \n\nСтек: react, redux, typescript, bootstrap, material-ui, JQuery, sass, less\n\nДля связи @Ekaterina_Mitroshkina  или @iamanastasie\n\n—\n\n👉 Обсуждение вакансии в чате @javascript_jobs","markup":[{"type":"hashtag","offset":0,"length":9,"data":"вакансия"},{"type":"hashtag","offset":10,"length":4,"data":"екб"},{"type":"hashtag","offset":15,"length":13,"data":"екатеринбург"},{"type":"hashtag","offset":29,"length":6,"data":"react"},{"type":"hashtag","offset":36,"length":9,"data":"frontend"},{"type":"hashtag","offset":46,"length":7,"data":"middle"},{"type":"hashtag","offset":145,"length":9,"data":"удаленка"},{"type":"hashtag","offset":160,"length":5,"data":"офис"},{"type":"hashtag","offset":177,"length":8,"data":"фултайм"},{"type":"handle","offset":700,"length":22,"data":"Ekaterina_Mitroshkina"},{"type":"handle","offset":728,"length":13,"data":"iamanastasie"},{"type":"handle","offset":776,"length":16,"data":"javascript_jobs"}],"date":"2020-06-17T15:26:32+00:00","link":"tg://resolve?domain=javascript_jobs_feed&post=0","tags":[{"name":"javascript"},{"name":"reactjs"},{"name":"redux"},{"name":"typescript"},{"name":"bootstrap"},{"name":"jquery"},{"name":"sass"},{"name":"react-redux"}],"cities":[],"allowsRemote":true}},{"node":{"__typename":"Job","id":"17001611264-1001110946746","title":"Js разработчик","text":"#вакансия #middle #спб #react #redux #emotion\n\nГород: Сантк-Петербург, ул. Рубинштейна (5 углов)\nФормат работы: офис или удаленка\nЗанятость: полная\nЗарплатная вилка: от 80к до 130к рублей (на руки, больше по согласованию)\nИспользуемый стек: react 16 (hooks), redux, emotion\n\nОписание вакансии:\n\nПривет всем, мы разрабатываем крутые проекты, связанные прежде всего с физическим здоровьем людей, которые тратят его, зарабатывая себе на хлеб. Эти люди работают на складах, перенося коробки с места на место, в сортировочных центрах, доставляя вам посылки, на стройках, и в остальных местах, где требуется ручной труд.\nНаши решения помогают компаниям за границей измерять и управлять (с помощью носимых устройств) рисками возникновения травмы для своих сотрудников (подробнее можете ознакомиться по ссылке: https://soteranalytics.com/ ). Я сооснователь проекта и нам в сентябре исполнится 4 года. С помощью этого канала мы уже нашли двух сотрудников, которые успешно у нас работают, но сейчас такие времена, что чем быстрее мы сможем разработать новые фичи в наших продуктах, тем больше рынка сможем захватить.\n\nЧто нужно делать: нужно разрабатывать дэшборды и прочие веб интерфейсы для наших клиентов, так и для наших внутренних нужд.\n\nЧто требуется от вас: мы ценим самоорганизованность и очень не любим микроменеджмент. Также мы любим когда наши сотрудники развиваются у нас на глазах и всячески стараемся этому помочь. У нас также сформирована команда из опытных сотрудников, которые имеют экспертизы почти в каждой теме.\nТакже мы ценим, когда человек умеет решать проблемы, а не создавать их другим.\n\nКонтакты: писать мне в личку @pavko_a. В сообщении пишите что вы уже сделали на reactjs, чем вы гордитесь в своей работе, а также пару строк о себе и чем вы занимались на последнем проекте.\n\nЗабыл упомянуть: в команде очень много общения на английском, так как коммерческая команда находится в Лондоне и являются носителями языка. #doyourhomework\n\n—\n\n👉 Обсуждение вакансии в чате @javascript_jobs","markup":[{"type":"hashtag","offset":0,"length":9,"data":"вакансия"},{"type":"hashtag","offset":10,"length":7,"data":"middle"},{"type":"hashtag","offset":18,"length":4,"data":"спб"},{"type":"hashtag","offset":23,"length":6,"data":"react"},{"type":"hashtag","offset":30,"length":6,"data":"redux"},{"type":"hashtag","offset":37,"length":8,"data":"emotion"},{"type":"link","offset":803,"length":27,"data":"https://soteranalytics.com/"},{"type":"handle","offset":1631,"length":8,"data":"pavko_a"},{"type":"hashtag","offset":1933,"length":15,"data":"doyourhomework"},{"type":"handle","offset":1983,"length":16,"data":"javascript_jobs"}],"date":"2020-06-17T15:12:15+00:00","link":"tg://resolve?domain=javascript_jobs_feed&post=0","tags":[{"name":"javascript"},{"name":"reactjs"},{"name":"redux"},{"name":"react-redux"}],"cities":[],"allowsRemote":true}},{"node":{"__typename":"Job","id":"16986931200-1001110946746","title":"Js разработчик","text":"#вакансия #berlin #remote #fulltime #react #english\n\n🔸 Город и адрес офиса: Берлин\n🔸 Формат работы: удалённо\n🔸 Занятость: полная\n🔸 Зарплатная вилка: от 2000$ до 3100$\n\n🔥 Описание вакансии:\nPaulCamper — marketplace для частных домов на колёсах (camper vans). Мы являемся крупнейшей camper-sharing платформой в Германии и активно выходим на другие рынки.\nhttps://paulcamper.com/\n\nМы ищем опытных разработчиков, готовых применять свои профессиональные навыки и развивать экспертизу в смежных областях. Вакансия открыта для нескольких команд, каждая из которых польностью отвечает за определенный этап на пути пользователя.\n\nFrontend stack: React, Redux, Saga, CSS Modules, cusom SSR for several NodeJS services including web, email and pdf renderers & React Native for the app. Подробнее https://stackshare.io/paulcamper/paulcamper\n\n🚀 Опыт:\nМинимум 3 года профессиональной программной разработки (из них 2+ на React стэке).\nЖелание работать над полным циклом решения в кросс-функциональной команде.\nАнглийский на уровне upper intermediate и выше для работы в интернациональном коллективе.\n\nКонтакты: https://paulcamper.orgos.io/frontend, @sergeizimakov\n\n—\n\n👉 Обсуждение вакансии в чате @javascript_jobs","markup":[{"type":"hashtag","offset":0,"length":9,"data":"вакансия"},{"type":"hashtag","offset":10,"length":7,"data":"berlin"},{"type":"hashtag","offset":18,"length":7,"data":"remote"},{"type":"hashtag","offset":26,"length":9,"data":"fulltime"},{"type":"hashtag","offset":36,"length":6,"data":"react"},{"type":"hashtag","offset":43,"length":8,"data":"english"},{"type":"link","offset":358,"length":23,"data":"https://paulcamper.com/"},{"type":"link","offset":790,"length":43,"data":"https://stackshare.io/paulcamper/paulcamper"},{"type":"link","offset":1103,"length":36,"data":"https://paulcamper.orgos.io/frontend"},{"type":"handle","offset":1141,"length":14,"data":"sergeizimakov"},{"type":"handle","offset":1190,"length":16,"data":"javascript_jobs"}],"date":"2020-06-16T19:29:26+00:00","link":"tg://resolve?domain=javascript_jobs_feed&post=0","tags":[{"name":"javascript"},{"name":"reactjs"},{"name":"redux"},{"name":"css"},{"name":"nodejs"},{"name":"web"},{"name":"react-redux"},{"name":"react-native"}],"cities":[{"code":"berlin"}],"allowsRemote":true}},{"node":{"__typename":"Job","id":"16985882624-1001110946746","title":"Js разработчик","text":"#вакансия  #frontend  #React #офис\n\nFrontend разработчик \n\nГде: Москва, Савеловский сити\nФормат работы: fulltime, офис\nКомпания: Mecruryo.io\nВилка: 180-200к на руки\nКонтакт: @sollesdi\n\nЗадачи:\n⇢ Развивать функционал и пользовательские интерфейсы имеющихся продуктов;\n⇢ Плотно работать в команде с другими разработчиками, тестировщиками и дизайнерами.\n\nТребования:\n⇢ Опыт промышленной разработки на ReactJS от 1,5 лет. Наши основные технологии: React, Redux, webpack, БЭМ, SCSS;\n⇢ Умение создавать адаптивную вёрстку один-в-один с макетом;\n⇢ Умение с нуля настроить webpack под любые требования;\n⇢ Плюсом будет знание TypeScript и умение писать тесты;\n⇢ Существенным плюсом будет, если вы покажете ваш код на React либо выполните небольшое тестовое задание.\n\nВозможности:\n⇢ Работать на острие технологий в команде с опытными специалистами. У нас нет устаревшего legacy кода и устаревших технологий;\n⇢ Работать в команде с выстроенными процессами разработки и тестирования;\n⇢ Погрузиться в инновационную технологическую сферу криптовалют.\n\nУсловия:\n⇢ Молодая, амбициозная, дружная команда;\n⇢ Конкурентная заработная плата;\n⇢ Корпоративный английский;\n⇢ Переговоры с крупными международными компаниями;\n⇢ Приветствуется инициатива, возможность реализовать свои идеи;\n⇢ Возможность участвовать в построении крупной компании международного уровня;\n⇢ Чай, кофе, плюшки в офисе.\n\nКадровое агентство RecruitIT\nКонтакт: @sollesdi\n\n—\n\n👉 Обсуждение вакансии в чате @javascript_jobs","markup":[{"type":"hashtag","offset":0,"length":9,"data":"вакансия"},{"type":"hashtag","offset":11,"length":9,"data":"frontend"},{"type":"hashtag","offset":22,"length":6,"data":"React"},{"type":"hashtag","offset":29,"length":5,"data":"офис"},{"type":"link","offset":129,"length":11,"data":"http://Mecruryo.io"},{"type":"handle","offset":174,"length":9,"data":"sollesdi"},{"type":"handle","offset":1411,"length":9,"data":"sollesdi"},{"type":"handle","offset":1455,"length":16,"data":"javascript_jobs"}],"date":"2020-06-16T19:28:07+00:00","link":"tg://resolve?domain=javascript_jobs_feed&post=0","tags":[{"name":"javascript"},{"name":"reactjs"},{"name":"redux"},{"name":"webpack"},{"name":"typescript"},{"name":"react-redux"}],"cities":[{"code":"moscow"}],"allowsRemote":false}},{"node":{"__typename":"Job","id":"16984834048-1001110946746","title":"Js разработчик","text":"#вакансия #офис #краснодар #krasnodar #fulltime #react #native\n\n✅Вакансия: React developer \n✅Город: Краснодар\n✅Занятость: полная, офис\n✅ЗП вилка: 40 000 - 100 000р. на руки\n✅Компания: WILIX\n\nПривет!\nМы создаём веб и мобильные приложения, помогаем большим и маленьким компаниям, разбросанным по всему Миру, создать надежные и быстрые программные решения.\nИщем React разработчика в свою команду!\n🙌Наши ожидания:\nJS, TypeScript,\nReact\nRedux (Redux-toolkit), \nReact Router (React Navigation), \nRedux Thunk, \nWebpack,\nHTML+CSS,\nBootstrap/material\n\nБудет плюсом:\nReact Native\nreselect, normalizr\nstyle-components, css-modules, css-in-js\n\n👍Что мы готовы предложить:\n- Работу в офисе (40 часов в неделю), возможна частичная удаленка \n- Комфортное рабочее место \n- Дружный и отзывчивый коллектив, выезды на природу и разного рода мероприятия \n- Mac или PC \n- Классика: Чай/Кофе/Печеньки/Тенис/XBox\n\nКонтакты: @Aleen_ku\n\n—\n\n👉 Обсуждение вакансии в чате @javascript_jobs","markup":[{"type":"hashtag","offset":0,"length":9,"data":"вакансия"},{"type":"hashtag","offset":10,"length":5,"data":"офис"},{"type":"hashtag","offset":16,"length":10,"data":"краснодар"},{"type":"hashtag","offset":27,"length":10,"data":"krasnodar"},{"type":"hashtag","offset":38,"length":9,"data":"fulltime"},{"type":"hashtag","offset":48,"length":6,"data":"react"},{"type":"hashtag","offset":55,"length":7,"data":"native"},{"type":"handle","offset":902,"length":9,"data":"Aleen_ku"},{"type":"handle","offset":946,"length":16,"data":"javascript_jobs"}],"date":"2020-06-16T14:24:18+00:00","link":"tg://resolve?domain=javascript_jobs_feed&post=0","tags":[{"name":"javascript"},{"name":"reactjs"},{"name":"typescript"},{"name":"redux"},{"name":"webpack"},{"name":"html"},{"name":"css"},{"name":"bootstrap"},{"name":"react-native"},{"name":"react-redux"},{"name":"react-router"}],"cities":[{"code":"krasnodar"}],"allowsRemote":true}}]}}},"context":{}}