{"hash":"f34fd2c444a074f4e0e67d525015a008ef8e766f","data":{"records":{"id":"redis","name":"redis","belongsTo":{"totalCount":66,"pageInfo":{"totalPages":7,"currentPage":1},"edges":[{"node":{"__typename":"Job","id":"85176877056-1001067529236","title":"Python разработчик","text":"Всем добрый день!\n#вакансия #senior #офис #спб #fulltime #python\n\nВакансия: Python developer\nГород: Санкт-Петербург\nЗарплатная вилка: 250.000-350.000 рублей net.\nФормат работы: офис, полная занятость, гибкое начало рабочего дня\nКомпания: White Code\n\n🚀 Компания White Code находится в поиске Python разработчика для усиления команды и реализации новых проектов.\nРебята очень крутые, они разрабатывают собственные продукты такие как приложения для мобильных устройств, расширения для браузеров, десктопные программы и прочие интерфейсы. \n\n✳ Вам предстоит работать над рядом новых крутых проектов без legacy, с нуля разрабатывая архитектуру, заниматься их поддержкой и оптимизацией. \n \n❕ Требования:  \n✅ отличные знания Python, \n✅ большой опыт с Postgresql, (также есть NoSQL, команда использует Redis), \n✅ опыт разработки высоконагруженных систем\n✅ опыт работы с RabbitMQ\n\n💰Условия:\n🔹 официальное трудоустройство, \nвысокую заработную плату и бонусную программу.\n🔹 релокационный пакет\n🔹 ДМС высокой категории в СК \"РЕСО-Гарантия\", включающая более 150 клиник, в том числе стоматологию, амбулаторное лечение, вызов скорой помощи, стационар), \n🔹 оплачиваемые обеды \n🔹 гибкий график работы, а также возможность выбора оборудования для работы ( на данный момент выбор большинства  iMac 2 )\n\n🌟Контакты:\nКА: Lucky hunter\ne-mail: maria.yurkanskaya@luckyhunter.io\ntelegram: @mashaselina \nПишите, буду рада ответить на все возможные вопросы здесь или по почте","markup":[{"type":"hashtag","offset":18,"length":9,"data":"вакансия"},{"type":"hashtag","offset":28,"length":7,"data":"senior"},{"type":"hashtag","offset":36,"length":5,"data":"офис"},{"type":"hashtag","offset":42,"length":4,"data":"спб"},{"type":"hashtag","offset":47,"length":9,"data":"fulltime"},{"type":"hashtag","offset":57,"length":7,"data":"python"},{"type":"link","offset":1328,"length":32,"data":"mailto:maria.yurkanskaya@luckyhunter.io"},{"type":"handle","offset":1371,"length":12,"data":"mashaselina"}],"date":"2020-04-10T13:02:38+00:00","link":"tg://resolve?domain=python_jobs&post=81231","tags":[{"name":"python"},{"name":"dotnet"},{"name":"postgresql"},{"name":"nosql"},{"name":"redis"},{"name":"rabbitmq"}],"cities":[],"allowsRemote":false}},{"node":{"__typename":"Job","id":"16260268032-1001110946746","title":"Javascript разработчик","text":"#вакансия #react #javascript #teamlead #москва #офис \n\n🔭 Ищем Team Lead (React) в финансовую компанию под задачи разработки с «нуля» платформы Web-решений. \n🎧 Все собеседования проводятся по скайпу из-за карантина. \nОфис: Москва, Лубянка\n🏠 Формат работы: в офисе после карантина (сейчас как у всех  удалёнка). В первый рабочий день оформляетесь и идете на удалёнку.\nЗанятость полная.\nГражданство: РФ\nПолный соцпакет.\n💰 Зарплата: оклад от 200К до 210К net (на руки) + квартальная премия 0,5 оклада. \nС премией средняя ЗП составит 245K рублей net \n\nTeam Lead (React)\n🚀Область ответственности:\n• Разработка фронт-офисных систем компании.\n• Руководство 1-2 разработчиками.\n💎 Требования:\n• Высшее образование;\n• Опыт коммерческой разработки UI 3-5 лет;\n• Необходимый стек: JavaScript, TypeScript, React (с использованием Redux/Mobx, Webpack, Babel), СУБД (PostgreSQL, MongoDB, Redis).\n• Кроссбраузерная и кроссплатформенная вёрстка.\n• Участие в высоконагруженных проектах.\n• Опыт управления распределённой командой.\n\nНазвание компании: КА Бизнес Крафт Консалт https://bcraft.ru/\n📪Контакты:\ntelegram: @oksanaalieva \nEmail: oksana@bcraft.ru \nБуду рада ответить на уточняющие вопросы. \nПодробности могу выслать в ЛС в ответ на присланное резюме.\n\n—\n\n👉 Обсуждение вакансии в чате @javascript_jobs","markup":[{"type":"hashtag","offset":0,"length":9,"data":"вакансия"},{"type":"hashtag","offset":10,"length":6,"data":"react"},{"type":"hashtag","offset":17,"length":11,"data":"javascript"},{"type":"hashtag","offset":29,"length":9,"data":"teamlead"},{"type":"hashtag","offset":39,"length":7,"data":"москва"},{"type":"hashtag","offset":47,"length":5,"data":"офис"},{"type":"link","offset":1061,"length":18,"data":"https://bcraft.ru/"},{"type":"handle","offset":1102,"length":13,"data":"oksanaalieva"},{"type":"link","offset":1124,"length":16,"data":"mailto:oksana@bcraft.ru"},{"type":"handle","offset":1279,"length":16,"data":"javascript_jobs"}],"date":"2020-04-10T12:00:27+00:00","link":"tg://resolve?domain=javascript_jobs_feed&post=15507","tags":[{"name":"javascript"},{"name":"reactjs"},{"name":"web"},{"name":"dotnet"},{"name":"typescript"},{"name":"redux"},{"name":"webpack"},{"name":"postgresql"},{"name":"mongodb"},{"name":"redis"}],"cities":[{"code":"moscow"}],"allowsRemote":true}},{"node":{"__typename":"Job","id":"24391974912-1001075660570","title":"Php разработчик","text":"#вакансия #удаленка#php #yii\n #штат #highload #ecommerce #официально\n\nРебята, наша компания Hidden Team расширяет штат и приглашает на работу backend-разработчиков уровня middle/middle+ c опытом работы на фреймворке Yii. Мы занимаемся разработкой highload проектов в сфере e-commerce и сложных ERP систем. Сотрудничаем с топовыми веб-студиями и digital-агентствами России.\n\nЧто бы мы хотели видеть у наших кандидатов?\n🔸Хорошие знания программирования (PHP, ООП).\n🔸Опыт работы на фреймворке Yii/Laravel/Symfony\n🔸Опыт работы с Git.\n🔸Опыт работы в консоли linux.\n🔸Базовые знания html, java script, css.\n🔸Понимание принципов построения RESTFul сервисов.\n🔸Желателен опыт работы с чем-либо RabbitMQ, Redis, ElasticSearch, PostgreSQL.\n🔸Английский на уровне чтения технической документации.\n\nЛичные качества: аккуратность, внимательность к мелочам, самостоятельность и организованность, умение работать в команде, быстро реагировать на запросы и изменение ситуации, желание обучаться и развиваться, стремление сделать работу максимально качественно.\n\nМы предлагаем:\n🔹только удаленная работа с отлаженным процессом менеджмента проектов (трекинг в Redmine, оценка задач разработчиками);\n🔹работа над сложными e-commerce проектами для крупнейших российских веб-студий (топ-10 рейтинга рунета);\n🔹многосерверная архитектура, высокие нагрузки (500К+ посетителей/месяц);\n🔹множество различных интеграций с большими объемами данных;\n🔹индивидуальные планы развития;\n🔹обучение и семинары внутри компании, собственная он-лайн школа на стадии запуска;\n🔹перспективы карьерного роста (повышения уровня разработчика до senior/team lead, возможность релокации);\n🔹 заработная плата 70К-120К+ по итогам собеседования (белая, на руки), открытая система грейдов;\n🔹 официальное оформление по ТК РФ, оплачиваемый отпуск, удобный график (начало работы 8-11), в выходные, праздники и по ночам не работаем☺️.\n\nКонтакты: Яна @yanaizosimova","markup":[{"type":"hashtag","offset":0,"length":9,"data":"вакансия"},{"type":"hashtag","offset":24,"length":4,"data":"yii"},{"type":"hashtag","offset":30,"length":5,"data":"штат"},{"type":"hashtag","offset":36,"length":9,"data":"highload"},{"type":"hashtag","offset":46,"length":10,"data":"ecommerce"},{"type":"hashtag","offset":57,"length":11,"data":"официально"},{"type":"handle","offset":1906,"length":14,"data":"yanaizosimova"}],"date":"2020-04-10T10:05:28+00:00","link":"tg://resolve?domain=php_jobs&post=23262","tags":[{"name":"php"},{"name":"yii"},{"name":"laravel"},{"name":"symfony"},{"name":"git"},{"name":"linux"},{"name":"html"},{"name":"java"},{"name":"css"},{"name":"rabbitmq"},{"name":"redis"},{"name":"elasticsearch"},{"name":"postgresql"}],"cities":[],"allowsRemote":true}},{"node":{"__typename":"Job","id":"24359469056-1001075660570","title":"Php разработчик","text":"Ищем!\nPHP-разработчик fullstack удаленно\n\n#вакансия #удаленка #штат #PHP #fullstack\n\nЗАДАЧИ:\n🔹 разработка графических интерфейсов к информационным системам и сервисам компании;\n🔹 разработка микросервисов обработки сообщений и сбор статистики в БД;\n🔹 участие в проектировании программных решений и обсуждении архитектурных решений;\n🔹 работы по интеграции и разработке API взаимодействия сервисов как внутри компании, так и с партнерами.\n\nТРЕБОВАНИЯ:\n 🔹 Самостоятельный разработчик с отличным знанием: PHP, js, Ajax, jQuery, HTML, CSS;\n 🔹 MySQL, PostgreSQL, ClickHouse, Redis, MongoDB;\n 🔹 Linux;\n 🔹XML, JSON, SOAP, RabbitMQ;\n 🔹Symfony, Yuii, Laravel, Zend;\n 🔹 Bootstrap;\n 🔹 Средства визуализации данных, например, d3.js.\n\nБыло бы неплохо: \n🔹знание Nodejs, Python, LUA.\n🔹 опыт разработки мобильных приложений Android, IOS\n\nУСЛОВИЯ:\n🔹 работа в штате компании (основной профиль – разработка высокотехнологичных маркетинговых рассылок и чат-ботов);\n🔹 удаленная работа 5/2 с 10 до 19 (MSK);\n🔹ЗП 70-90k (обсуждается с успешными кандидатами).\n\nПишите сюда: @abezpalova","markup":[{"type":"bold","offset":6,"length":36,"data":""},{"type":"hashtag","offset":42,"length":9,"data":"вакансия"},{"type":"hashtag","offset":52,"length":9,"data":"удаленка"},{"type":"hashtag","offset":62,"length":5,"data":"штат"},{"type":"hashtag","offset":68,"length":4,"data":"PHP"},{"type":"hashtag","offset":73,"length":10,"data":"fullstack"},{"type":"bold","offset":85,"length":8,"data":""},{"type":"bold","offset":441,"length":12,"data":""},{"type":"bold","offset":833,"length":9,"data":""},{"type":"handle","offset":1064,"length":11,"data":"abezpalova"}],"date":"2020-04-10T09:33:14+00:00","link":"tg://resolve?domain=php_jobs&post=23231","tags":[{"name":"php"},{"name":"ajax"},{"name":"jquery"},{"name":"html"},{"name":"css"},{"name":"mysql"},{"name":"postgresql"},{"name":"redis"},{"name":"mongodb"},{"name":"linux"},{"name":"xml"},{"name":"json"},{"name":"soap"},{"name":"rabbitmq"},{"name":"symfony"},{"name":"laravel"},{"name":"zend-framework"},{"name":"bootstrap"},{"name":"nodejs"},{"name":"python"},{"name":"lua"},{"name":"android"},{"name":"ios"}],"cities":[],"allowsRemote":true}},{"node":{"__typename":"Job","id":"1432354816-1001091028994","title":"Java разработчик","text":"Ищем Java-разработчика для создания высоконагруженных клиент-серверных приложений в компании Smartech IT Outsourcing.\n\n⚙️Который владеет большинством из:\n\n➖Java, J2EE, Spring/Spring Boot, Hibernate/JPA;\n➖JMS, Apache ActiveMQ, Tomcat;\n➖Web Services, REST, WebSocket;\n➖PostgreSQL/Oracle, Redis/MongoDB.\n➖Опыт от 2х лет \n\n💡Дают:\n\n💻 удаленная работа, ☕️гибкий график;\n\n💸 зарплата от 100 000 до 130 000 р. по результатам собеседования, регулярная индексация;\n\n📃 работа над разнообразными и интересными проектами в команде профессионалов с использованием современных технологий;\n\n🎓 возможность постоянного развития (повышение квалификации, участие в конференциях, сертификация);\n\n📱Надежда @coderhunt","markup":[{"type":"handle","offset":689,"length":10,"data":"coderhunt"}],"date":"2020-04-09T11:59:26+00:00","link":"tg://resolve?domain=jvmjobs&post=1366","tags":[{"name":"java"},{"name":"jvm"},{"name":"spring"},{"name":"hibernate"},{"name":"jpa"},{"name":"apache"},{"name":"tomcat"},{"name":"web"},{"name":"rest"},{"name":"websocket"},{"name":"postgresql"},{"name":"oracle"},{"name":"redis"},{"name":"mongodb"},{"name":"spring-boot"}],"cities":[],"allowsRemote":true}},{"node":{"__typename":"Job","id":"1431306240-1001091028994","title":"Java разработчик","text":"#scala #teamlead #senior #офис #удаленно #fulltime #Москва\n\nПриглашаем Scala-разработчика уровня senior-teamlead, 220-270 тыс. на руки.\n\nТребования:\nлидировать и развивать команду разработчиков\nразвивать backend приложение на Akka HTTP\nпрорабатывать интеграции для сервисов на Java (Spring Cloud)\nинтегрироваться со стеком Kafka, MQ, Redis, Orcale SQL, Postgres\nfrontend разработка (React, Redux, Typescript, собственная библиотека компонентов)\nработать с витринами на Spark, Hadoop\nразработать web-scraper на Akka Streams\nподдерживать процесс сборки и тестирования (git, Ansible, Jenkins, Docker, OpenShift)\n\nСбербанк, Москва, Кутузовская\n\nКонтакты: @MikeTurchenkov","markup":[{"type":"hashtag","offset":0,"length":6,"data":"scala"},{"type":"hashtag","offset":7,"length":9,"data":"teamlead"},{"type":"hashtag","offset":17,"length":7,"data":"senior"},{"type":"hashtag","offset":25,"length":5,"data":"офис"},{"type":"hashtag","offset":31,"length":9,"data":"удаленно"},{"type":"hashtag","offset":41,"length":9,"data":"fulltime"},{"type":"hashtag","offset":51,"length":7,"data":"Москва"},{"type":"handle","offset":651,"length":15,"data":"MikeTurchenkov"}],"date":"2020-04-09T11:58:52+00:00","link":"tg://resolve?domain=jvmjobs&post=1365","tags":[{"name":"java"},{"name":"jvm"},{"name":"scala"},{"name":"akka"},{"name":"spring"},{"name":"cloud"},{"name":"kafka"},{"name":"redis"},{"name":"sql"},{"name":"postgresql"},{"name":"reactjs"},{"name":"redux"},{"name":"typescript"},{"name":"hadoop"},{"name":"web"},{"name":"git"},{"name":"ansible"},{"name":"jenkins"},{"name":"docker"},{"name":"react-redux"}],"cities":[{"code":"moscow"}],"allowsRemote":true}},{"node":{"__typename":"Job","id":"1991245824-1001134745498","title":"Devops инженер","text":"#вакансия #devops #remote \nКомпания Imhio Ltd ищет инженера инфраструктуры, обладающего навыками конфигурирования и поддержки аппаратных и облачных платформ, организации работы отказоустойчивых систем, а также автоматизации доставки программного обеспечения. \nВ составе нашей инфраструктуры мы используем Digital Ocean и AWS, Oracle Linux, Νginx, Consul, RabbitMQ, ScyllaDB, Redis, PostgreSQL, GoLang, GoCD и Docker.\nАктуальная цель, которая стоит перед нами, переход к полностью автоматизированному конфигурированию и эксплуатации всех элементов нашей инфраструктуры.\n\nОбязанности:\n- автоматизация конфигурирования и обслуживания элементов инфраструктуры\n- участие в процессах CI/CD\n- мониторинг работоспособности\n- планирование использования ресурсов\n- оптимизация инфраструктуры\n- документирование инфраструктуры\n\nТребования:\n - Минимальный опыт работы по специальности от 3 лет.\n\nДля соответствия нашей команде, ваши личные качества должны включать:\n - коммуникабельность, умение находить точки соприкосновения\nцелеустремленность, ответственность, внимательность и аккуратность\n- умение и желание решать комплексные, нестандартные проблемы и задачи\n- понятное формулирование своих мыслей и идей\n- умение отстаивать свою позицию\n- понимание технической документации на английском языке\n- поддержка принципов DevOPS методологии\n\nДля соответствия нашим задачам, у вас должен быть опыт промышленной эксплуатации:\n- Linux \n- Digital Ocean или AWS\n- Terraform и Ansible\n- CI/CD инструментов\n- Docker или Kubernetes\n- Nginx, SQL, MQ, Redis, Consul\n- Prometheus и Grafana, Graylog или ELK\n- Python или Bash\nУ вас будет дополнительное преимущество при наличии\nопыта использования:\n- ScyllaDB или Cassandra\n- системы мониторинга DataDog\n- системы доставки GoCD\n- (микро)сервисов, разработанных с использованием Golang\n\nУсловия:\n- полностью удаленная работа\n- оплачиваемый отпуск и больничный\n- заработная плата в евро, определяется вашей компетенцией (1850-2900 Евро)\n- гибкий график и широкая автономия - мы оцениваем результаты работы\n- интересные задачи, способствующие профессиональному развитию\n- работа в команде профессионалов\n- отсутствие бюрократических процедур\nКонтакты: @yanalyakhova, jane@imhio.com\n\n—\n\n👉 Обсуждение вакансии в чате @devops_jobs","markup":[{"type":"hashtag","offset":0,"length":9,"data":"вакансия"},{"type":"hashtag","offset":10,"length":7,"data":"devops"},{"type":"hashtag","offset":18,"length":7,"data":"remote"},{"type":"handle","offset":2176,"length":13,"data":"yanalyakhova"},{"type":"link","offset":2191,"length":14,"data":"mailto:jane@imhio.com"},{"type":"handle","offset":2240,"length":12,"data":"devops_jobs"}],"date":"2020-04-09T11:57:04+00:00","link":"tg://resolve?domain=devops_jobs_feed&post=1899","tags":[{"name":"amazon-web-services"},{"name":"oracle"},{"name":"linux"},{"name":"rabbitmq"},{"name":"redis"},{"name":"postgresql"},{"name":"go"},{"name":"docker"},{"name":"ansible"},{"name":"kubernetes"},{"name":"nginx"},{"name":"sql"},{"name":"python"},{"name":"bash"},{"name":"cassandra"}],"cities":[],"allowsRemote":true}},{"node":{"__typename":"Job","id":"16235102208-1001110946746","title":"Js разработчик","text":"#вакансия #удаленка #nodejs #backend \n\nГород: Томск, Никитина 20\nФормат работы: удаленка\nЗанятость: полная/проектная\nЗарплатная вилка:  от 100 до 150k рублей на руки за месяц ИЛИ 800 руб/час\n\nОписание вакансии: \nМы ищем Backend разработчика со знанием Node.js\n\nТы нам подходишь, если у тебя есть..\n\n➖Опыт работы c Node.js от года;\n➖Знание SQL и MySQL или PostgreSQL;\n➖Знание GraphQL;\n➖Уверенное владение Git.\n\nБудет плюсом:\n➖Опыт работы с сервисами AWS и Serverless Framework;\n➖Опыт работы с NoSQL (Redis, DynamoDB).\n\nЧто мы предлагаем?\n➖Официальное трудоустройство\n➖Регулярное повышение зарплаты по результатам работы\n➖Премирование по итогам проектов\n\nНазвание компании: ООО ай-Линк \ni-link.pro\n\nКонтакты: \nhttps://t.me/ferret24","markup":[{"type":"hashtag","offset":0,"length":9,"data":"вакансия"},{"type":"hashtag","offset":10,"length":9,"data":"удаленка"},{"type":"hashtag","offset":20,"length":7,"data":"nodejs"},{"type":"hashtag","offset":28,"length":8,"data":"backend"},{"type":"link","offset":685,"length":10,"data":"http://i-link.pro"},{"type":"link","offset":708,"length":21,"data":"https://t.me/ferret24"}],"date":"2020-04-09T07:53:42+00:00","link":"tg://resolve?domain=javascript_jobs_feed&post=15483","tags":[{"name":"javascript"},{"name":"nodejs"},{"name":"sql"},{"name":"mysql"},{"name":"postgresql"},{"name":"graphql"},{"name":"git"},{"name":"amazon-web-services"},{"name":"nosql"},{"name":"redis"},{"name":"dynamodb"}],"cities":[{"code":"tomsk"}],"allowsRemote":true}},{"node":{"__typename":"Job","id":"16227762176-1001110946746","title":"Javascript developer","text":"#вакансия #react #javascript #москва #офис\n\n🔭 Под задачи разработки платформы Web-решений ищем Frontend Developer (React) в крупную финансовую компанию. \n🎧 Все собеседования проводятся по скайпу из-за карантина. \nОфис: Москва, Лубянка\n🏠 Формат работы: в офисе после карантина (сейчас как у всех  удалёнка). В первый рабочий день оформляетесь и идете на удалёнку.\nЗанятость полная.\nГражданство: РФ\nПолный соцпакет.\n💰 Зарплата: от 165К до 175К net + квартальная премия 0,5 оклада. \nС премией средняя ЗП составит 205K рублей net \n\nFrontend Developer (React)\n🚀Область ответственности:\n• Участие в разработке фронт-офисных систем компании.\n💎 Требования:\n• Высшее / неоконченное высшее образование;\n• Опыт коммерческой разработки UI от 2,5 лет;\n• Необходимый стек: JavaScript, TypeScript, React (с использованием Redux/Mobx, Webpack, Babel), СУБД (PostgreSQL, MongoDB, Redis).\n• Кроссбраузерная и кроссплатформенная вёрстка.\n• Участие в высоконагруженных проектах.\n\nНазвание компании: КА \"Бизнес Крафт Консалт\" https://bcraft.ru/\n📪Контакты:\ntelegram: @oksanaalieva \nEmail: oksana@bcraft.ru \nБуду рада ответить на уточняющие вопросы. \nПодробности могу выслать в ЛС в ответ на присланное резюме.","markup":[{"type":"hashtag","offset":0,"length":9,"data":"вакансия"},{"type":"hashtag","offset":10,"length":6,"data":"react"},{"type":"hashtag","offset":17,"length":11,"data":"javascript"},{"type":"hashtag","offset":29,"length":7,"data":"москва"},{"type":"hashtag","offset":37,"length":5,"data":"офис"},{"type":"link","offset":1011,"length":18,"data":"https://bcraft.ru/"},{"type":"handle","offset":1052,"length":13,"data":"oksanaalieva"},{"type":"link","offset":1074,"length":16,"data":"mailto:oksana@bcraft.ru"}],"date":"2020-04-09T06:40:13+00:00","link":"tg://resolve?domain=javascript_jobs_feed&post=15476","tags":[{"name":"javascript"},{"name":"reactjs"},{"name":"web"},{"name":"dotnet"},{"name":"typescript"},{"name":"redux"},{"name":"webpack"},{"name":"postgresql"},{"name":"mongodb"},{"name":"redis"}],"cities":[{"code":"moscow"}],"allowsRemote":true}},{"node":{"__typename":"Job","id":"16225665024-1001110946746","title":"Js разработчик","text":"#вакансия #nodejs #backend #remote #postgres #rabbitmq #redis #docker #linux #удаленно\n\nВакансия Node.JS разработчик\nФормат работы: удаленно\nЗанятость: полная\nЗарплатная вилка: \nMiddle 160000-190000₽, \nSenior 200000-230000₽\nКомпания: ЕasyPay\n\nПлатежная система для мгновенной оплаты по счетам за сотовый телефон, коммунальные услуги, услуги денежных переводов, игры и тд.\n\n🔹Наши продукты сейчас особенно актуальны и востребованы\n\n🔹Почти вся команда работает удалённо. Это молодые, веселые и целеустремлённые ребята. У нас очень дружная команда👍🏽\n\n🔹Компания постоянно увеличивает количество предоставляемых услуг, и сейчас нужны два разработчика, Senior и Middle\n\n♦️На проекте используем такие технологии: Postgres, Rabbitmq, Redis, Docker и все это работает на Linux \n\nИ это только 10% всей информации, пишите, буду рада рассказать подробнее о условиях работы, проекте и бонусах @Julia_Nikolova","markup":[{"type":"hashtag","offset":0,"length":9,"data":"вакансия"},{"type":"hashtag","offset":10,"length":7,"data":"nodejs"},{"type":"hashtag","offset":18,"length":8,"data":"backend"},{"type":"hashtag","offset":27,"length":7,"data":"remote"},{"type":"hashtag","offset":35,"length":9,"data":"postgres"},{"type":"hashtag","offset":45,"length":9,"data":"rabbitmq"},{"type":"hashtag","offset":55,"length":6,"data":"redis"},{"type":"hashtag","offset":62,"length":7,"data":"docker"},{"type":"hashtag","offset":70,"length":6,"data":"linux"},{"type":"hashtag","offset":77,"length":9,"data":"удаленно"},{"type":"handle","offset":884,"length":15,"data":"Julia_Nikolova"}],"date":"2020-04-09T06:38:38+00:00","link":"tg://resolve?domain=javascript_jobs_feed&post=15474","tags":[{"name":"javascript"},{"name":"nodejs"},{"name":"postgresql"},{"name":"rabbitmq"},{"name":"redis"},{"name":"docker"},{"name":"linux"}],"cities":[],"allowsRemote":true}}]}}},"context":{}}