{"hash":"f34fd2c444a074f4e0e67d525015a008ef8e766f","data":{"records":{"id":"symfony","name":"symfony","belongsTo":{"totalCount":15,"pageInfo":{"totalPages":2,"currentPage":1},"edges":[{"node":{"__typename":"Job","id":"24391974912-1001075660570","title":"Php разработчик","text":"#вакансия #удаленка#php #yii\n #штат #highload #ecommerce #официально\n\nРебята, наша компания Hidden Team расширяет штат и приглашает на работу backend-разработчиков уровня middle/middle+ c опытом работы на фреймворке Yii. Мы занимаемся разработкой highload проектов в сфере e-commerce и сложных ERP систем. Сотрудничаем с топовыми веб-студиями и digital-агентствами России.\n\nЧто бы мы хотели видеть у наших кандидатов?\n🔸Хорошие знания программирования (PHP, ООП).\n🔸Опыт работы на фреймворке Yii/Laravel/Symfony\n🔸Опыт работы с Git.\n🔸Опыт работы в консоли linux.\n🔸Базовые знания html, java script, css.\n🔸Понимание принципов построения RESTFul сервисов.\n🔸Желателен опыт работы с чем-либо RabbitMQ, Redis, ElasticSearch, PostgreSQL.\n🔸Английский на уровне чтения технической документации.\n\nЛичные качества: аккуратность, внимательность к мелочам, самостоятельность и организованность, умение работать в команде, быстро реагировать на запросы и изменение ситуации, желание обучаться и развиваться, стремление сделать работу максимально качественно.\n\nМы предлагаем:\n🔹только удаленная работа с отлаженным процессом менеджмента проектов (трекинг в Redmine, оценка задач разработчиками);\n🔹работа над сложными e-commerce проектами для крупнейших российских веб-студий (топ-10 рейтинга рунета);\n🔹многосерверная архитектура, высокие нагрузки (500К+ посетителей/месяц);\n🔹множество различных интеграций с большими объемами данных;\n🔹индивидуальные планы развития;\n🔹обучение и семинары внутри компании, собственная он-лайн школа на стадии запуска;\n🔹перспективы карьерного роста (повышения уровня разработчика до senior/team lead, возможность релокации);\n🔹 заработная плата 70К-120К+ по итогам собеседования (белая, на руки), открытая система грейдов;\n🔹 официальное оформление по ТК РФ, оплачиваемый отпуск, удобный график (начало работы 8-11), в выходные, праздники и по ночам не работаем☺️.\n\nКонтакты: Яна @yanaizosimova","markup":[{"type":"hashtag","offset":0,"length":9,"data":"вакансия"},{"type":"hashtag","offset":24,"length":4,"data":"yii"},{"type":"hashtag","offset":30,"length":5,"data":"штат"},{"type":"hashtag","offset":36,"length":9,"data":"highload"},{"type":"hashtag","offset":46,"length":10,"data":"ecommerce"},{"type":"hashtag","offset":57,"length":11,"data":"официально"},{"type":"handle","offset":1906,"length":14,"data":"yanaizosimova"}],"date":"2020-04-10T10:05:28+00:00","link":"tg://resolve?domain=php_jobs&post=23262","tags":[{"name":"php"},{"name":"yii"},{"name":"laravel"},{"name":"symfony"},{"name":"git"},{"name":"linux"},{"name":"html"},{"name":"java"},{"name":"css"},{"name":"rabbitmq"},{"name":"redis"},{"name":"elasticsearch"},{"name":"postgresql"}],"cities":[],"allowsRemote":true}},{"node":{"__typename":"Job","id":"24359469056-1001075660570","title":"Php разработчик","text":"Ищем!\nPHP-разработчик fullstack удаленно\n\n#вакансия #удаленка #штат #PHP #fullstack\n\nЗАДАЧИ:\n🔹 разработка графических интерфейсов к информационным системам и сервисам компании;\n🔹 разработка микросервисов обработки сообщений и сбор статистики в БД;\n🔹 участие в проектировании программных решений и обсуждении архитектурных решений;\n🔹 работы по интеграции и разработке API взаимодействия сервисов как внутри компании, так и с партнерами.\n\nТРЕБОВАНИЯ:\n 🔹 Самостоятельный разработчик с отличным знанием: PHP, js, Ajax, jQuery, HTML, CSS;\n 🔹 MySQL, PostgreSQL, ClickHouse, Redis, MongoDB;\n 🔹 Linux;\n 🔹XML, JSON, SOAP, RabbitMQ;\n 🔹Symfony, Yuii, Laravel, Zend;\n 🔹 Bootstrap;\n 🔹 Средства визуализации данных, например, d3.js.\n\nБыло бы неплохо: \n🔹знание Nodejs, Python, LUA.\n🔹 опыт разработки мобильных приложений Android, IOS\n\nУСЛОВИЯ:\n🔹 работа в штате компании (основной профиль – разработка высокотехнологичных маркетинговых рассылок и чат-ботов);\n🔹 удаленная работа 5/2 с 10 до 19 (MSK);\n🔹ЗП 70-90k (обсуждается с успешными кандидатами).\n\nПишите сюда: @abezpalova","markup":[{"type":"bold","offset":6,"length":36,"data":""},{"type":"hashtag","offset":42,"length":9,"data":"вакансия"},{"type":"hashtag","offset":52,"length":9,"data":"удаленка"},{"type":"hashtag","offset":62,"length":5,"data":"штат"},{"type":"hashtag","offset":68,"length":4,"data":"PHP"},{"type":"hashtag","offset":73,"length":10,"data":"fullstack"},{"type":"bold","offset":85,"length":8,"data":""},{"type":"bold","offset":441,"length":12,"data":""},{"type":"bold","offset":833,"length":9,"data":""},{"type":"handle","offset":1064,"length":11,"data":"abezpalova"}],"date":"2020-04-10T09:33:14+00:00","link":"tg://resolve?domain=php_jobs&post=23231","tags":[{"name":"php"},{"name":"ajax"},{"name":"jquery"},{"name":"html"},{"name":"css"},{"name":"mysql"},{"name":"postgresql"},{"name":"redis"},{"name":"mongodb"},{"name":"linux"},{"name":"xml"},{"name":"json"},{"name":"soap"},{"name":"rabbitmq"},{"name":"symfony"},{"name":"laravel"},{"name":"zend-framework"},{"name":"bootstrap"},{"name":"nodejs"},{"name":"python"},{"name":"lua"},{"name":"android"},{"name":"ios"}],"cities":[],"allowsRemote":true}},{"node":{"__typename":"Job","id":"24351080448-1001075660570","title":"Php разработчик","text":"#вакансия #middle #backend #symfony\nКомпания: AODM (aodm.ru)\nГород и адрес офиса: Санкт-Петербург, м. Чернышевская\nФормат работы: #fulltime #гибкий\nЗанятость: #полная\nЗарплатная вилка: 80-120к (на руки)\n\nЧто мы ожидаем:\n\n- Уверенное знание PHP7\n- REST API\n- Уверенное знание одной из популярных СУБД (MySQL/Postgres)\n- Умение писать Unit и функциональные тесты\n- Опыт работы с одним из современных фреймворков: Laravel, Symfony, Zend (мы используем Symfony)\n- Кэширование\n- Умение пользоваться системами контроля версий (git)\n- Владение английским языком на уровне чтения документации\n\nО проектах, над которыми предстоит работать:\nНативное приложение в сфере красоты с обучающим контентом\nCRM-системы холдинга-арендодателя \nС радостью отвечу на любые вопросы: @selyely","markup":[{"type":"hashtag","offset":0,"length":9,"data":"вакансия"},{"type":"hashtag","offset":10,"length":7,"data":"middle"},{"type":"hashtag","offset":18,"length":8,"data":"backend"},{"type":"hashtag","offset":27,"length":8,"data":"symfony"},{"type":"link","offset":52,"length":7,"data":"http://aodm.ru"},{"type":"hashtag","offset":130,"length":9,"data":"fulltime"},{"type":"hashtag","offset":140,"length":7,"data":"гибкий"},{"type":"hashtag","offset":159,"length":7,"data":"полная"},{"type":"handle","offset":760,"length":8,"data":"selyely"}],"date":"2020-04-09T15:37:56+00:00","link":"tg://resolve?domain=php_jobs&post=23223","tags":[{"name":"php"},{"name":"symfony"},{"name":"rest"},{"name":"mysql"},{"name":"postgresql"},{"name":"laravel"},{"name":"zend-framework"},{"name":"git"}],"cities":[],"allowsRemote":false}},{"node":{"__typename":"Job","id":"16208887808-1001110946746","title":"Js разработчик","text":"Город:  Москва, м. Киевская\nФормат работы: офис, а также возможность работать удаленно\nЗанятость: полная\nЗарплатная вилка: 100 000-150 000 руб.\n\nРазыскиваем Фронтенд-разработчика (JS, React, SPA)\n#Москва #вакансия  #JavaScript #JS #React #удаленка #fulltime #фронтенд\n\nИщем коллегу в сформировавшуюся команду разработки крупных и технологически сложных сайтов. Наши проекты начинаются с идеи и заканчиваются эксплуатацией, поддержкой. Действительно полезные сервисы с приличной посещаемостью. \n\nМЫ ПРЕДЛАГАЕМ:\n-Работу в небольшом сплоченном коллективе, высокую скорость коммуникации, минимум бюрократии;\n-Оформление в соответствии с ТК РФ или договор с ИП;\n-Программу профессионального роста сотрудников, компенсацию курсов, семинаров;\n-Офис м. Киевская, а также возможность работать удаленно или частично удаленно.\n-Рабочий ноутбук, мобильный телефон, комфортное рабочее место;\nБОНУСЫ: \nГибкий график работы.\nВозможность быть причастным к крупным интересным проектам, которые не стыдно показать в портфолио и хороший опыт работы в команде.\n\nОЖИДАЕМ ОТ ВАС:\n-Отличное знание и опыт разработки на JavaScript;\n-Хорошее знание React (или других похожих фреймворков)\n-Опыт работы с инструментами командной разработки: Git, таск-трекер (используем YouTrack);\n-Понимание клиент-серверного взаимодействия, архитектуры REST;\n-Умение слышать коллег, находить лучшие решения задач;\n-Умение адекватно оценивать сложность задач, соблюдать сроки;\n-Понимание методологии БЭМ, знание HTML и CSS, разумеется;\nБУДЕТ ПЛЮСОМ\nОпыт работы с API картографических сервисов;\nОпыт разработки Single Page Application;\nЗнакомство с шаблонизатором Twig, опыт разработки фронтенда под Symfony-приложения;\n\nНазвание компании: KR Digital https://kr.digital/about/ \nКонтакты: Елена @HRechubakina","markup":[{"type":"hashtag","offset":196,"length":7,"data":"Москва"},{"type":"hashtag","offset":204,"length":9,"data":"вакансия"},{"type":"hashtag","offset":215,"length":11,"data":"JavaScript"},{"type":"hashtag","offset":227,"length":3,"data":"JS"},{"type":"hashtag","offset":231,"length":6,"data":"React"},{"type":"hashtag","offset":238,"length":9,"data":"удаленка"},{"type":"hashtag","offset":248,"length":9,"data":"fulltime"},{"type":"hashtag","offset":258,"length":9,"data":"фронтенд"},{"type":"link","offset":1707,"length":25,"data":"https://kr.digital/about/"},{"type":"handle","offset":1750,"length":13,"data":"HRechubakina"}],"date":"2020-04-07T18:36:35+00:00","link":"tg://resolve?domain=javascript_jobs_feed&post=15458","tags":[{"name":"javascript"},{"name":"reactjs"},{"name":"git"},{"name":"rest"},{"name":"html"},{"name":"css"},{"name":"twig"},{"name":"symfony"}],"cities":[{"code":"moscow"},{"code":"kiev"}],"allowsRemote":true}},{"node":{"__typename":"Job","id":"24325914624-1001075660570","title":"Php разработчик","text":"#вакансия #удаленка #php #yii\n #штат #highload #ecommerce #официально\n\nРебята, наша компания Hidden Team расширяет штат и приглашает на работу backend-разработчиков уровня middle/middle+. Мы занимаемся разработкой highload проектов в сфере e-commerce и сложных ERP систем. Сотрудничаем с топовыми веб-студиями и digital-агентствами России, любим Битрикс и возможность решать нестандартные проблемы из любой точки страны!\n\nЧто бы мы хотели видеть у наших кандидатов?\n🔸Хорошие знания программирования (PHP, ООП).\n🔸Опыт работы на фреймворке Yii/Symfony/Laravel\n🔸Опыт работы с Git.\n🔸Опыт работы в консоли linux.\n🔸Базовые знания html, java script, css.\n🔸Понимание принципов построения RESTFul сервисов.\n🔸Желателен опыт работы с чем-либо RabbitMQ, Redis, ElasticSearch, PostgreSQL.\n🔸Английский на уровне чтения технической документации.\n\nЛичные качества: аккуратность, внимательность к мелочам, самостоятельность и организованность, умение работать в команде, быстро реагировать на запросы и изменение ситуации, желание обучаться и развиваться, стремление сделать работу максимально качественно.\n\nМы предлагаем:\n🔹только удаленная работа с отлаженным процессом менеджмента проектов (трекинг в Redmine, оценка задач разработчиками);\n🔹работа над сложными e-commerce проектами для крупнейших российских веб-студий (топ-10 рейтинга рунета);\n🔹многосерверная архитектура, высокие нагрузки (500К+ посетителей/месяц);\n🔹множество различных интеграций с большими объемами данных;\n🔹индивидуальные планы развития;\n🔹обучение и семинары внутри компании, собственная он-лайн школа на стадии запуска;\n🔹перспективы карьерного роста (повышения уровня разработчика до senior/team lead, возможность релокации);\n🔹 заработная плата 70К-120К+ по итогам собеседования (белая, на руки), открытая система грейдов;\n🔹 официальное оформление по ТК РФ, оплачиваемый отпуск, удобный график (начало работы 8-11), в выходные, праздники и по ночам не работаем☺️.\n\nКонтакты: Яна @yanaizosimova","markup":[{"type":"hashtag","offset":0,"length":9,"data":"вакансия"},{"type":"hashtag","offset":10,"length":9,"data":"удаленка"},{"type":"hashtag","offset":20,"length":4,"data":"php"},{"type":"hashtag","offset":25,"length":4,"data":"yii"},{"type":"hashtag","offset":31,"length":5,"data":"штат"},{"type":"hashtag","offset":37,"length":9,"data":"highload"},{"type":"hashtag","offset":47,"length":10,"data":"ecommerce"},{"type":"hashtag","offset":58,"length":11,"data":"официально"},{"type":"handle","offset":1954,"length":14,"data":"yanaizosimova"}],"date":"2020-04-07T08:24:30+00:00","link":"tg://resolve?domain=php_jobs&post=23199","tags":[{"name":"php"},{"name":"yii"},{"name":"symfony"},{"name":"laravel"},{"name":"git"},{"name":"linux"},{"name":"html"},{"name":"java"},{"name":"css"},{"name":"rabbitmq"},{"name":"redis"},{"name":"elasticsearch"},{"name":"postgresql"}],"cities":[],"allowsRemote":true}},{"node":{"__typename":"Job","id":"24324866048-1001075660570","title":"Php разработчик","text":"#вакансия #php #backend #senior #developer #удалённо #фуллтайм\n\n📌Vigrom – международная компания-разработчик. Более 9 лет мы создаём решения и продукты для онлайн-игр.\nСегодня в компании работает более 150 сотрудников из России, Латвии, Кипра.\n\n📍Мы ищем Senior PHP developer в сложный и масштабный проект.\n\nСтек наших технологий: PHP 7.4, PostgreSQL 12, Memcache, компоненты Symfony, PHPUnit, Docker, Gitlab CI.\n\nВам предстоит:\n\n🔹 Работа над новым функционалом, непрерывные улучшения и оптимизации текущего;\n🔹Активное участие во всём процессе разработки, начиная с проектирования и заканчивая запуском и поддержкой;\n🔹Коммуникация с командами мобильной разработки и разработки игр. Поиски оптимальных вариантов реализации (архитектура, API, сервисы);\n🔹 Unit- и API-тестирование;\n🔹Проведение Code review;\n🔹Участие в технологическом развитии проекта (выбор новых технологий и подходов к разработке);\n🔹Обеспечение качества кода на всех этапах разработки.\n\nЧто нужно знать/уметь/иметь:\n\n🔹Опыт разработки веб-приложений и сервисов от 3х лет;\n🔹Уверенное владение PHP (сильные и слабые стороны языка);\n🔹 Опыт проектирования реляционных баз данных, уверенное владение SQL;\n🔹 Опыт разработки веб-приложений под существенную нагрузку;\n🔹 Понимание ООП и принципов SOLID;\n🔹 Применение модульного тестирования;\n🔹Быть открытым к диалогу и вести аргументированные споры.\n\nПлюсом будет:\n\n🔹Опыт работы в долгосрочных проектах;\n🔹Опыт работы с PostgreSQL;\n🔹 Знание дополнительных языков - JS, Python.\n\nМы предлагаем:\n\n🔹Высокую заработную плату  + бонусы за результат;\n🔹Возможность карьерного роста;\n🔹Посещение профильных конференций и митапов;\n🔹Сильную команду разработчиков, где можно серьезно прокачать свои скиллы;\n🔹Корпоративные мероприятия, открытое общение с коллегами как в сети, так и в реальном мире. \n\n📝Пиши: @ladychekman, Наталья","markup":[{"type":"hashtag","offset":0,"length":9,"data":"вакансия"},{"type":"hashtag","offset":10,"length":4,"data":"php"},{"type":"hashtag","offset":15,"length":8,"data":"backend"},{"type":"hashtag","offset":24,"length":7,"data":"senior"},{"type":"hashtag","offset":32,"length":10,"data":"developer"},{"type":"hashtag","offset":43,"length":9,"data":"удалённо"},{"type":"hashtag","offset":53,"length":9,"data":"фуллтайм"},{"type":"handle","offset":1824,"length":12,"data":"ladychekman"}],"date":"2020-04-07T07:40:30+00:00","link":"tg://resolve?domain=php_jobs&post=23198","tags":[{"name":"php"},{"name":"postgresql"},{"name":"symfony"},{"name":"phpunit"},{"name":"docker"},{"name":"gitlab"},{"name":"sql"},{"name":"python"}],"cities":[],"allowsRemote":true}},{"node":{"__typename":"Job","id":"24236785664-1001075660570","title":"Php разработчик","text":"#вакансия #fulltime #symfony #middle #senior\nГород и адрес офиса: Санкт-Петербург, м. Московская\nФормат работы: #офис\nЗанятость: полная\nНазвание компании: Paydek, paydek.com\nЗарплатная вилка: от 160 000 до 240 000 рублей на руки\n\nНаш продукт — это удобная система для оплаты фрилансеров и удалённых сотрудников по всему миру.\n\nПроект существует 10 лет, у него 50 000 корпоративных клиентов и порядка 500 000 частных.\n\nПроект высоконагруженный, мы расширяем команду для его рефакторинга, сейчас в команде backend'а 6 человек.\n\nНаши основные ожидания:\n— умение качественно и эффективно программировать на PHP (5.3-7.2)\n— хорошее знание какого-либо популярного фреймворка (Symfony/ Laravel)\n— знание ООП, паттернов и принципов (SOLID, DRY, KISS) и умение это знание применять на практике\n— умение строить REST API\n— уверенное владение SQL \n\nБудет плюсом: \n— опыт работы с большими объёмами данных и высоко нагруженными системами (репликация, шардинг, балансировка запросов)\n— опыт перехода на микросервисную архитектуру/облачные технологии\n\nГрафик работы гибкий — приход в офис до 13:00.\n\nКонтакт для связи: @recruiter","markup":[{"type":"hashtag","offset":0,"length":9,"data":"вакансия"},{"type":"hashtag","offset":10,"length":9,"data":"fulltime"},{"type":"hashtag","offset":20,"length":8,"data":"symfony"},{"type":"hashtag","offset":29,"length":7,"data":"middle"},{"type":"hashtag","offset":37,"length":7,"data":"senior"},{"type":"hashtag","offset":112,"length":5,"data":"офис"},{"type":"bold","offset":155,"length":6,"data":""},{"type":"link","offset":163,"length":10,"data":"http://paydek.com"},{"type":"bold","offset":526,"length":24,"data":""},{"type":"bold","offset":838,"length":12,"data":""},{"type":"handle","offset":1105,"length":10,"data":"recruiter"}],"date":"2020-04-01T17:09:23+00:00","link":"tg://resolve?domain=php_jobs&post=23114","tags":[{"name":"php"},{"name":"symfony"},{"name":"laravel"},{"name":"rest"},{"name":"sql"}],"cities":[],"allowsRemote":false}},{"node":{"__typename":"Job","id":"24184356864-1001075660570","title":"Php разработчик","text":"#вакансия #удаленно #php #symfony #junior\nРасположение: Санкт-Петербург\nФормат работы: удаленно\nЗанятость: полная\nЗп: от 20 до 50 т.р. на руки\n\nО компании: Мы питерская компания LandPro занимаемся помощью бизнесу в организации и ведении дел, ищем в команду 2 начинающих разработчиков, на полностью удаленную работу. \n\nНаш стек: php 7+, symfony 4.4, CSS/Js, jQuery\n\nТребования: \n- Наличие коммерческого опыта желательно но не обязательно\n- Железная сила воли (так как вы работает на удаленке)\n- Уверенное знание php \n- Понимание/Опыт работы с одним из фреймворков symfony/laravel/yii\n- Понимание/опыт работы с MySQL бд \n\nДля связи писать сюда: @elcorporation","markup":[{"type":"hashtag","offset":0,"length":9,"data":"вакансия"},{"type":"hashtag","offset":10,"length":9,"data":"удаленно"},{"type":"hashtag","offset":20,"length":4,"data":"php"},{"type":"hashtag","offset":25,"length":8,"data":"symfony"},{"type":"hashtag","offset":34,"length":7,"data":"junior"},{"type":"handle","offset":643,"length":14,"data":"elcorporation"}],"date":"2020-03-31T14:05:15+00:00","link":"tg://resolve?domain=php_jobs&post=23064","tags":[{"name":"php"},{"name":"symfony"},{"name":"css"},{"name":"jquery"},{"name":"laravel"},{"name":"yii"},{"name":"mysql"}],"cities":[],"allowsRemote":true}},{"node":{"__typename":"Job","id":"24183308288-1001075660570","title":"Php разработчик","text":"#вакансия #fullstack #PHP #Javascript #middle #fulltime #офис #спб\nРасположение: Санкт-Петербург, м. Балтийская \nФормат работы, занятость: офис, полная, гибкое начало дня\nЗП: до 150 000 руб.\n\nО компании: Мы - фабрика мебели «THE IDEA» (www.theidea.ru), с 2014 года занимаемся производством и продажей уникальных предметов домашнего интерьера, радующих своих обладателей каждый день. Сейчас мы в поиске своего fullstack разработчика, который вместе с нашей командой поможет выполнить множество интересных задач, первостепенные из которых: поддержание и развитие нашего сайта, написание тестов, совершенствование системы разработки.\n\nНаш стек: PHP 5.6/7.0, MySQL, HTML/CSS/JavaScript, jQuery, Lodash, Scss, Autoprefixer, PostCSS, Bootstrap 4, Webpack/Gulp. \n\nПомимо этого, наш сайт создан на PrestaShop, что позволит Вам получить/прокачать навыки работы с  фреймворком Symfony.\nВ свою очередь наш CTO готов вкладыватрься в сотрудников и обеспечивать им профессиональный и карьерный рост :)\n\nТребования:\n- Опыт разработки на PHP от 2-х лет c одни из фреймворков: Laravel/Yii2, Symfony;\n- Знание MySQL;\n- Опыт работы с jQuery.\n\nУсловия:\n- Официальное трудоустройство;\n- Работа напрямую с собственником бизнеса, возможность реализации собственных идей; \n- Дружественная рабочая среда с возможностью карьерного и профессионального роста;\n\nКонтакты:\ne-mail: the.idea.hr@gmail.com\ntelegram: @marina_ilmanova\nПишите, если интересно, буду рада ответить на все вопросы 😊","markup":[{"type":"hashtag","offset":0,"length":9,"data":"вакансия"},{"type":"hashtag","offset":10,"length":10,"data":"fullstack"},{"type":"hashtag","offset":21,"length":4,"data":"PHP"},{"type":"hashtag","offset":26,"length":11,"data":"Javascript"},{"type":"hashtag","offset":38,"length":7,"data":"middle"},{"type":"hashtag","offset":46,"length":9,"data":"fulltime"},{"type":"hashtag","offset":56,"length":5,"data":"офис"},{"type":"hashtag","offset":62,"length":4,"data":"спб"},{"type":"link","offset":236,"length":14,"data":"http://www.theidea.ru"},{"type":"link","offset":1351,"length":21,"data":"mailto:the.idea.hr@gmail.com"},{"type":"handle","offset":1383,"length":16,"data":"marina_ilmanova"}],"date":"2020-03-31T13:43:56+00:00","link":"tg://resolve?domain=php_jobs&post=23063","tags":[{"name":"php"},{"name":"javascript"},{"name":"mysql"},{"name":"html"},{"name":"css"},{"name":"jquery"},{"name":"bootstrap"},{"name":"webpack"},{"name":"gulp"},{"name":"symfony"},{"name":"laravel"},{"name":"yii"}],"cities":[],"allowsRemote":false}},{"node":{"__typename":"Job","id":"24181211136-1001075660570","title":"Php разработчик","text":"#вакансия #senior #php #symfony #воронеж \n\nSenior PHP разработчик\nКомпания: СберЛогистика\nЛокация:  г. Воронеж, ул. Кропоткина, офис, полная занятость\nЗ/п:  от 110.000 net\nКонтакт: @yagodaalena или @wander_wom \n\nСберЛогистика – это логистический оператор федерального масштаба, развивающий собственную складскую инфраструктуру, курьерскую доставку и сеть пунктов выдачи заказов во всех регионах России. \n\nЗадачи:\n• Разработка прикладного кода\n• Проведение тестирования собственного кода, написание unit-тестов и автотестов на функциональность\n• Разработка интеграционной функциональности. Диагностирование ошибок и сбоев, исправление причин\n• Сопровождение внедрения продуктов\n• Проведение code review\n\nОт Вас мы ожидаем:\n• Опыт работы с Symfony\n• Уверенная работа с реляционными СУБД (предпочтительно PostgreSQL)\n• Уверенная работа с Git\n• Уверенный пользователь Linux\n• Работа с API: OpenApi, REST, JsonRPC\n• CI/CD (Jenkins, GitLab CI/CD, etc)\n• KeyValue: Redis\n• Опыт работы с брокерами сообщений: Kafka\n• Английский язык на уровне чтения и понимания технической документации\n\nРабота у нас это:\n• Возможность работать над новыми амбициозными проектами в области логистики в дружной команде профессионалов\n• Полное соблюдение ТК РФ\n• Конкурентное вознаграждение, обсуждаем с финальным кандидатом\n• ДМС\n\nНапиши мне, если интересно. 😉","markup":[{"type":"hashtag","offset":0,"length":9,"data":"вакансия"},{"type":"hashtag","offset":10,"length":7,"data":"senior"},{"type":"hashtag","offset":18,"length":4,"data":"php"},{"type":"hashtag","offset":23,"length":8,"data":"symfony"},{"type":"hashtag","offset":32,"length":8,"data":"воронеж"},{"type":"handle","offset":181,"length":12,"data":"yagodaalena"},{"type":"handle","offset":198,"length":11,"data":"wander_wom"}],"date":"2020-03-31T08:25:15+00:00","link":"tg://resolve?domain=php_jobs&post=23061","tags":[{"name":"php"},{"name":"symfony"},{"name":"dotnet"},{"name":"postgresql"},{"name":"git"},{"name":"linux"},{"name":"rest"},{"name":"jenkins"},{"name":"gitlab"},{"name":"redis"},{"name":"kafka"}],"cities":[{"code":"voronezh"}],"allowsRemote":false}}]}}},"context":{}}