{"hash":"f5f6bf98bd95e769321482904cbbd488f77922fd","data":{"records":{"id":"android","name":"android","belongsTo":{"totalCount":165,"pageInfo":{"totalPages":17,"currentPage":17},"edges":[{"node":{"__typename":"Job","id":"71216136192-1001054966032","title":"Android разработчик","text":"#вакансия #android #relocate #germany\n\nAndroid Developer  \n\nРелокация:🇩🇪 Германия, Дюссельдорф\nФормат работы: офис\nЗанятость: полная\nЗ/п: брутто - от 36000€  до 50000€ в год\nнетто - от 1800€ в месяц - (в среднем 40% налогов для неженатого человека) \n\nВ общем:👌 Компания troido ищет Android разработчиков в свою команду, помогает с релокацией (трудоустройство по голубой карте), предоставляет идеальные условия для развития и работы (4 рабочих дня + 1 день для обучения), а также конкурентную, постоянно возрастающую заработную плату (компания оплачивает сертификаты - вы их получаете - зарплата возрастает). Важны хорошие знания английского и android-разработки.\n\nМы ждём от будущего сотрудника:🙃\n • От 2-х лет опыта работы с Android SDK и Java\n • Хорошее знание Kotlin и Git\n • Способность писать чистый и тестируемый код\n • Хорошее знание английского языка (Upper intermediate и выше)\n • Бонус: знание популярных фреймворков RxJava, Dagger2\n • Бонус: знание архитектурных паттернов  (MVC, MVP, or MVVM)\n • Наличие высшего образование (это условие для предоставления голубой карты)\n  \nКомпания предлагает:👍\n • Конкурентyую заработную плату и бонусы\n • 4-х дневную рабочую неделю \n • План персонального развития\n • Современное оборудование\n • Бесплатные книги\n • Конференции\n • Курсы немецкого языка для ассимиляции в немецком обществе\n • Общепринятые плюшки в мире айти (снэки, барбeкю, тимбилдинг и всё такое)\n\nЧем занимаемся:🥳\nКомпания является синергией аутсорсинговой компании, которая предоставляет разработчиков другим компаниям и продуктовой компании(имеются свои проекты над которыми также идет работа)\n\nПолезные видеоматериалы:🎬\n • О компании\n • О Дюссельдорфе\n • О Развитии в компании\n • О Тимбилдинге\n\nНе теряй свой шанс пиши сюда: @Giorgi_qvark","markup":[{"type":"hashtag","offset":0,"length":9,"data":"вакансия"},{"type":"hashtag","offset":10,"length":8,"data":"android"},{"type":"hashtag","offset":19,"length":9,"data":"relocate"},{"type":"hashtag","offset":29,"length":8,"data":"germany"},{"type":"bold","offset":39,"length":18,"data":""},{"type":"bold","offset":60,"length":10,"data":""},{"type":"bold","offset":97,"length":14,"data":""},{"type":"bold","offset":117,"length":9,"data":""},{"type":"bold","offset":135,"length":4,"data":""},{"type":"italic","offset":140,"length":60,"data":""},{"type":"bold","offset":253,"length":7,"data":""},{"type":"link","offset":273,"length":6,"data":"https://www.troido.de/en/"},{"type":"italic","offset":346,"length":32,"data":""},{"type":"italic","offset":436,"length":35,"data":""},{"type":"italic","offset":536,"length":72,"data":""},{"type":"bold","offset":632,"length":11,"data":""},{"type":"bold","offset":646,"length":51,"data":""},{"type":"italic","offset":864,"length":25,"data":""},{"type":"italic","offset":1041,"length":44,"data":""},{"type":"bold","offset":1090,"length":19,"data":""},{"type":"bold","offset":1418,"length":14,"data":""},{"type":"bold","offset":1619,"length":24,"data":""},{"type":"link","offset":1649,"length":11,"data":"https://1180390772.rsc.cdn77.org/troidorecruiting.m4v"},{"type":"link","offset":1663,"length":15,"data":"https://1180390772.rsc.cdn77.org/duesseldorf.mp4"},{"type":"link","offset":1681,"length":22,"data":"https://1180390772.rsc.cdn77.org/persdev.mp4"},{"type":"link","offset":1706,"length":15,"data":"https://1180390772.rsc.cdn77.org/teambuilding.mp4"},{"type":"handle","offset":1751,"length":13,"data":"Giorgi_qvark"}],"date":"2020-06-13T12:26:32+00:00","link":"tg://resolve?domain=mobile_jobs&post=0","tags":[{"name":"mobile"},{"name":"android"},{"name":"java"},{"name":"kotlin"},{"name":"git"},{"name":"mvvm"}],"cities":[],"allowsRemote":false}},{"node":{"__typename":"Job","id":"71194116096-1001054966032","title":"Android developer","text":"#вакансия #Android #Java #middle #офис #Москва\n📣Разыскиваем Middle Android developer в новый проект от Сбербанка.\n\n💵Уровень ЗП: 220К-310К net (в зависимости от типа оформления).\n\n📝Оформление: ИП или штат компании партнера.\n\n📍Локация: офис в г.Москва, Кутузовский проспект.\n\n🧑‍💻О проекте: Разработка чата и видеозвонка с целью реализовать единое рабочее место оператора для дополнительного канала обслуживания. С помощью чатов клиент сможет переписываться со своим дистанционным клиентским менеджером по премиальному каналу в МП СБОЛ, с возможностью передачи файлов. Видеозвонок позволит установить визуальный контакт клиентом со своим менеджером с возможностью показа презентаций. На базе удаленных каналов обслуживания планируется реализовать возможность удаленного предоставления клиенту всего спектра продуктов банка.\n\n🎯Наш стек: Java, ООП, потоки и синхронизация, SOLID, clean architecture, LinkedList и ArrayList, recyclerView, виды Layout, паттерны MVP, MMVM,unit tests, коллекции, жизненному циклу активити и фрагмента.\n\nЖду Ваши резюме и буду рада ответить на все вопросы☺️\nКонтакты для связи: telegram @anisimovaane4ka","markup":[{"type":"hashtag","offset":0,"length":9,"data":"вакансия"},{"type":"hashtag","offset":10,"length":8,"data":"Android"},{"type":"hashtag","offset":19,"length":5,"data":"Java"},{"type":"hashtag","offset":25,"length":7,"data":"middle"},{"type":"hashtag","offset":33,"length":5,"data":"офис"},{"type":"hashtag","offset":39,"length":7,"data":"Москва"},{"type":"handle","offset":1118,"length":16,"data":"anisimovaane4ka"}],"date":"2020-06-12T21:20:16+00:00","link":"tg://resolve?domain=mobile_jobs&post=0","tags":[{"name":"mobile"},{"name":"android"},{"name":"java"},{"name":"dotnet"}],"cities":[{"code":"moscow"}],"allowsRemote":true}},{"node":{"__typename":"Job","id":"71178387456-1001054966032","title":"Android разработчик","text":"#remote #вакансия #android #kotlin #java #fulltime #новосибирск #екатеринбург #нижний #новгород #нижнийновгород #пермь #уфа #ульяновск\nПозиция: Android Разработчик (удаленно)\nФормат работы: #удаленка\nЗанятость: полная\nЗарплатная вилка: от 80 000 руб. до 130 000 руб.\n\nОписание вакансии:\nМы ищем Android разработчика с опытом создания Android приложений от прототипа заказчика и до непосредственной публикации в Google Play.\n\nДанная позиция предполагает полную занятость (минимум 30 часовая рабочая неделя).\n\nРассматриваем Senior и Middle кандидатов.\n\nТребования:\n* опыт разработки Android приложений (ожидается, что кандидат продемонстрирует хотя бы 1 приложение в App Store, разработанного с его/ее участием)\n* знание Kotlin или Java\n* знание стандартных фреймворков и SDK\n* самое важное – умение и желание получать новые знания необходимые для работы\n\nБудет плюсом:\n* опыт работы с видео/фото\n* опыт работы с OpenGL\n* опыт работы с машинным обучением\n* опыт работы с C++\n* опыт работы с RESTful API\n* опыт контрибуции в Open Source (приложите ссылку на github, если есть на что посмотреть)\n\nНазвание компании: 4spaces\n\nКонтакты:\nВакансия – https://hh.ru/vacancy/37448182\nEmail – abalchunas@4spaces.company\nSkype – alexey.balchunas\nTelegram – https://t.me/AlexeyBalchunas","markup":[{"type":"hashtag","offset":0,"length":7,"data":"remote"},{"type":"hashtag","offset":8,"length":9,"data":"вакансия"},{"type":"hashtag","offset":18,"length":8,"data":"android"},{"type":"hashtag","offset":27,"length":7,"data":"kotlin"},{"type":"hashtag","offset":35,"length":5,"data":"java"},{"type":"hashtag","offset":41,"length":9,"data":"fulltime"},{"type":"hashtag","offset":51,"length":12,"data":"новосибирск"},{"type":"hashtag","offset":64,"length":13,"data":"екатеринбург"},{"type":"hashtag","offset":78,"length":7,"data":"нижний"},{"type":"hashtag","offset":86,"length":9,"data":"новгород"},{"type":"hashtag","offset":96,"length":15,"data":"нижнийновгород"},{"type":"hashtag","offset":112,"length":6,"data":"пермь"},{"type":"hashtag","offset":119,"length":4,"data":"уфа"},{"type":"hashtag","offset":124,"length":10,"data":"ульяновск"},{"type":"hashtag","offset":190,"length":9,"data":"удаленка"},{"type":"link","offset":1142,"length":30,"data":"https://hh.ru/vacancy/37448182"},{"type":"link","offset":1181,"length":26,"data":"http://abalchunas@4spaces.company"},{"type":"link","offset":1244,"length":28,"data":"https://t.me/AlexeyBalchunas"}],"date":"2020-06-12T13:32:37+00:00","link":"tg://resolve?domain=mobile_jobs&post=0","tags":[{"name":"mobile"},{"name":"android"},{"name":"kotlin"},{"name":"java"},{"name":"playframework"},{"name":"opengl"},{"name":"github"}],"cities":[{"code":"novosibirsk"},{"code":"perm"},{"code":"ufa"},{"code":"ulyanovsk"},{"code":"nizhny-novgorod"}],"allowsRemote":true}},{"node":{"__typename":"Job","id":"71168950272-1001054966032","title":"Android разработчик","text":"#вакансия #android #java #kotlin #middle #senior #удаленка #remote #fulltime\n\nAndroid-разработчик удаленно от 200 тыс. руб.\n\nГород: Москва\nФормат работы: удаленно\nЗанятость: полная\nЗарплатная вилка: от 200 000 руб. до 250 000 руб. после налогообложения\nКомпания: CORE https://core.company\n\nМы команда разработчиков мобильных приложений и сейчас мы ищем Android-разработчика для одного из наших финтех-проектов.\n\nОсновные требования:\n— Опыт работы от 2-х лет;\n— Знание Java и Kotlin;\n— Опыт работы с Rx;\n— Знание шаблонов проектирования и умение их применять;\n— Понимание принципов SOLID;\n— Знание основных алгоритмов и структур данных;\n— Умение писать поддерживаемый и тестируемый код.\n\nУсловия:\n— Полный день, гибкий график;\n— Оформление по договору ГПХ.\n\nПрисылайте ваше резюме на @tv_corecompany","markup":[{"type":"hashtag","offset":0,"length":9,"data":"вакансия"},{"type":"hashtag","offset":10,"length":8,"data":"android"},{"type":"hashtag","offset":19,"length":5,"data":"java"},{"type":"hashtag","offset":25,"length":7,"data":"kotlin"},{"type":"hashtag","offset":33,"length":7,"data":"middle"},{"type":"hashtag","offset":41,"length":7,"data":"senior"},{"type":"hashtag","offset":49,"length":9,"data":"удаленка"},{"type":"hashtag","offset":59,"length":7,"data":"remote"},{"type":"hashtag","offset":67,"length":9,"data":"fulltime"},{"type":"link","offset":268,"length":20,"data":"https://core.company"},{"type":"handle","offset":783,"length":15,"data":"tv_corecompany"}],"date":"2020-06-12T11:36:40+00:00","link":"tg://resolve?domain=mobile_jobs&post=0","tags":[{"name":"mobile"},{"name":"android"},{"name":"java"},{"name":"kotlin"}],"cities":[{"code":"moscow"}],"allowsRemote":true}},{"node":{"__typename":"Job","id":"71165804544-1001054966032","title":"Android разработчик","text":"#вакансия #android #relocate\nГород: Франкфурт-на-Майне, Германия\nФормат работы: офис \nЗанятость: полная, официально \nЗарплатная вилка: около 2600 евро нетт (50000 евро в год гросс)\nкалькулятор: https://www.brutto-netto-rechner.info/gehalt/gross_net_calculator_germany.php\n\nОписание вакансии: \nОсновные сферы деятельности компании: Finance & Telecommunication. Компания работает с клиентами на месте в их офисах и интегрируется с командами. Кроме этого у них партнерский договор со вторым по величине частным банком Германии. Вместе с некоторыми отделами банка Excelsior реализует разного рода проекты. Многие из которых ведет полностью самостоятельно, начиная с идеи, дизайна, разработки, релиза и менеджмента и заканчивая тех обслуживанием.\nСейчас они ищут человека на новый проект - мобильное приложение для банка.\nНа нем будет работать 8 человек, 4 из них разработчика.\nДетальней: https://skillers.tech/jobs/android-engineer\nТребования:\nСтепень бакалавра/магистра (Computer Science)\n3+ года опыта Java\n1+ год с Kotlin\nХороший разговорный английский (В2)\nНазвание компании: Excelsior https://www.excelsior-solutions.de/en/\n\nКонтакты: @whoismcflurykkkkk","markup":[{"type":"hashtag","offset":0,"length":9,"data":"вакансия"},{"type":"hashtag","offset":10,"length":8,"data":"android"},{"type":"hashtag","offset":19,"length":9,"data":"relocate"},{"type":"link","offset":194,"length":77,"data":"https://www.brutto-netto-rechner.info/gehalt/gross_net_calculator_germany.php"},{"type":"link","offset":884,"length":43,"data":"https://skillers.tech/jobs/android-engineer"},{"type":"link","offset":1086,"length":38,"data":"https://www.excelsior-solutions.de/en/"},{"type":"handle","offset":1136,"length":18,"data":"whoismcflurykkkkk"}],"date":"2020-06-12T10:56:39+00:00","link":"tg://resolve?domain=mobile_jobs&post=0","tags":[{"name":"mobile"},{"name":"android"},{"name":"dotnet"},{"name":"php"},{"name":"java"},{"name":"kotlin"}],"cities":[],"allowsRemote":false}}]}}},"context":{}}