{"hash":"f5f6bf98bd95e769321482904cbbd488f77922fd","data":{"records":{"id":"qa","name":"qa","belongsTo":{"totalCount":208,"pageInfo":{"totalPages":21,"currentPage":19},"edges":[{"node":{"__typename":"Job","id":"102942900224-1001089317451","title":"Qa инженер","text":"#вакансия #Моcква #Россия #офис #удаленка #тест-менеджер \n\nДолжность: Ведущий тестировщик\\Тест-менеджер\nГород: Москва (Парк Культуры) и не только\nФормат работы: возможна удаленка\nЗанятость: полная\nЗП: 160 – 180 net (в зависимости от опыта), + квартальные бонусы\nОформление ТК РФ\nСоцпакет – ДМС, обучение, корп скидки и т.д.\n\nКто мы:\nДирекция BigData  в X5 Retail\nРазрабатываем продукты работающие с большими данными в ритэйле.\n\nЧто нужно делать:\nРабота  в продуктовой команде \nРазвитие процесса тестирования продукта с 0 до выхода на автоматизацию  в будущем\nРазработка тестовой модели\nРабота с документацией\nПодготовка тестовых данных\nПланирование и проведение тестирования – регресс, интеграционное, тестирование нового функционала и исправлений дефектов\nОрганизация автоматизированного и нагрузочного тестирования\nАнализ причин появления дефектов\nРабота с баг-трекинговой системой (Jira) и TMS (Allure Enterprise) системами\n\nНаш кандидат:\n🔎Опыт тестирования web-приложений от 4 лет\n🔎Опыт организации тестирования сложных интеграционных продуктов\n🔎Уверенные знания гибких методологий тестирования \n🔎Умение аргументированно отстаивать свою точку зрения \n\n🔎Опыт работы с баг-трекинговыми системами\n🔎Знание SQL на уровне написания составных запросов\n🔎Способность быстро адаптироваться к изменениям приоритетов в работе\n🔎Аналитическое мышление, системный подход к решению задач, умение работать в команде, склонность к самообразованию, усидчивость, внимательность, инициативность\n🔎Желание развиваться\n🔎Дополнительный плюсы\n – знание основ автоматизации (Python) и нагрузочного тестирования\n - Базовые знания работы с Docker, k8s\n - Опты работы в Scrum командах \n\n\nРезюме и вопросы в личные сообщения denis_d_u либо по телефону + 7 985 2986708","markup":[{"type":"hashtag","offset":0,"length":9,"data":"вакансия"},{"type":"hashtag","offset":10,"length":7,"data":"Моcква"},{"type":"hashtag","offset":18,"length":7,"data":"Россия"},{"type":"hashtag","offset":26,"length":5,"data":"офис"},{"type":"hashtag","offset":32,"length":9,"data":"удаленка"},{"type":"hashtag","offset":42,"length":5,"data":"тест"},{"type":"link","offset":1735,"length":15,"data":"tel:+ 7 985 2986708"}],"date":"2020-06-16T09:28:29+00:00","link":"tg://resolve?domain=qa_jobs&post=0","tags":[{"name":"qa"},{"name":"dotnet"},{"name":"web"},{"name":"sql"},{"name":"python"},{"name":"docker"}],"cities":[{"code":"moscow"}],"allowsRemote":true}},{"node":{"__typename":"Job","id":"102940803072-1001089317451","title":"Qa инженер","text":"#QAинженервакансия #QAjava #автотестыjava #QAМосква #вакансияМосква #middle \nДобрый день! В настоящий момент нахожусь в поисках QА-инженера для международной аутсорсинговой компании на проект банковской сферы.\nМестоположение: Москва, м. Кутузовская, либо Нагатинская\nОплата труда: 130-160.000 рублей\nФункциональные задачи;\n•  Анализ требований\n•  Разработка автотестов на Java + Selenium\n•  Актуализация автотестов\n•  Анализ ошибок\n•  Формирование отчетов\nТребования:\n•  Опыт разработки на Java + Selenium от 2-х лет\n•  Знание инструмента Maven\n•  Знание Junit и Allure\n•  Знание XML\n•  Знание SQL (MS SQL, Oracle)\n•  Опыт работы с Git, JenkinS\n•  Опыт работы с Bug Tracking Systems (Jira, Redmine)\n•  Опыт работы с линейкой HP ALM\n•  Знание BDD (Cucumber)\nУсловия:\n•  Конкурентная заработная плата\n•  Оформление в соответствии с ТК РФ, соц. пакет\n•  Работа в команде профессионалов\n•  Обучение, наставничество в процессе работы\nБуду рада ответить на Ваши вопросы: @LyKatrin, ekaterina706712@mail.ru\n\n•","markup":[{"type":"hashtag","offset":0,"length":18,"data":"QAинженервакансия"},{"type":"hashtag","offset":19,"length":7,"data":"QAjava"},{"type":"hashtag","offset":27,"length":14,"data":"автотестыjava"},{"type":"hashtag","offset":42,"length":9,"data":"QAМосква"},{"type":"hashtag","offset":52,"length":15,"data":"вакансияМосква"},{"type":"hashtag","offset":68,"length":7,"data":"middle"},{"type":"handle","offset":965,"length":9,"data":"LyKatrin"},{"type":"link","offset":976,"length":23,"data":"mailto:ekaterina706712@mail.ru"}],"date":"2020-06-16T09:14:53+00:00","link":"tg://resolve?domain=qa_jobs&post=0","tags":[{"name":"qa"},{"name":"java"},{"name":"selenium"},{"name":"maven"},{"name":"junit"},{"name":"xml"},{"name":"sql"},{"name":"oracle"},{"name":"git"},{"name":"jenkins"},{"name":"cucumber"}],"cities":[{"code":"moscow"}],"allowsRemote":false}},{"node":{"__typename":"Job","id":"102939754496-1001089317451","title":"Qa инженер","text":"#вакансия #Моcква #Россия #офис #удаленка #автоматизация #Python #тестировщик\n\nДолжность: Тестировщик ПО (функциональное + автоматизированное тестирование)\nГород: Москва (Парк Культуры) и не только\nФормат работы: возможна удаленка\nЗанятость: полная\nЗП: 130 – 180 net (в зависимости от опыта), + квартальные бонусы\nОформление ТК РФ\nСоцпакет – ДМС, обучение, корп скидки и т.д.\n\nКто мы:\nДирекция BigData  в X5 Retail\nРазрабатываем продукты работающие с большими данными в ритэйле.\n\nЧто нужно делать:\nРазработка ручных и авто тестов\nПодготовка тестовых данных\nПроведение тестирования – регресс, интеграционное, тестирование нового функционала и исправлений дефектов\nАнализ причин появления дефектов\nРабота с баг-трекинговой системой (Jira) – регистрация дефектов, отслеживание статусов, проверка исправлений, закрытие дефектов\nРазвитие процесса тестирования продукта\nВозможна работа как в продуктовой команде так и в стриме автоматизации тестирования – в зависимости от опыта и пожеланий.\n\nНаш кандидат:\n🔎Опыт тестирования web-приложений от 3 лет\n🔎Опыт автоматизации тестирования с Python, Pytest от 1 года\n🔎Базовые знания работы с Docker, k8s\n🔎Опыт работы с баг-трекинговыми системами\n🔎Знание SQL на уровне написания составных запросов\n🔎Способность быстро адаптироваться к изменениям приоритетов в работе\n🔎Аналитическое мышление, системный подход к решению задач, умение работать в команде, склонность к самообразованию, усидчивость, внимательность, инициативность\n🔎Желание развиваться\n🔎Дополнительный плюс – опыт работы с продуктами ритэйла.\n\nРезюме и вопросы в личные сообщения denis_d_u или по телефону +7 985 2986708","markup":[{"type":"hashtag","offset":0,"length":9,"data":"вакансия"},{"type":"hashtag","offset":10,"length":7,"data":"Моcква"},{"type":"hashtag","offset":18,"length":7,"data":"Россия"},{"type":"hashtag","offset":26,"length":5,"data":"офис"},{"type":"hashtag","offset":32,"length":9,"data":"удаленка"},{"type":"hashtag","offset":42,"length":14,"data":"автоматизация"},{"type":"hashtag","offset":57,"length":7,"data":"Python"},{"type":"hashtag","offset":65,"length":12,"data":"тестировщик"},{"type":"link","offset":1613,"length":14,"data":"tel:+7 985 2986708"}],"date":"2020-06-16T09:09:17+00:00","link":"tg://resolve?domain=qa_jobs&post=0","tags":[{"name":"qa"},{"name":"python"},{"name":"dotnet"},{"name":"web"},{"name":"docker"},{"name":"sql"}],"cities":[{"code":"moscow"}],"allowsRemote":true}},{"node":{"__typename":"Job","id":"102938705920-1001089317451","title":"Qa инженер","text":"#вакансия #москва #fulltime #middle #automation\n\n🏢Город: Москва, м. Ленинский проспект\n💻Формат: Офис\n💰З/п: до 170k на руки\n\n✌️Ищем тестировщика в команду сопровождения и развития облачной платформы собственной разработки на базе open source продуктов.\n«Лоялти энд Медиа Групп»- это современная облачная платформа - продуктовый маркетплейс и процессинг лояльности одновременно, заточенная под обработку больших массивов данных и создание продуктов и сервисов карточной лояльности для банков и мерчантов. Компания выступает как enabler и для тех, и для других, для чего реализовано большое количество интеграций с партнерами и клиентами, несколько white-label вебприложений для клиентов и набор API для онлайн-взаимодействия с приложениями клиентов и партнёров. Стратегический партнёр ЛМГ – Visa International.  \n\n📌Задачи: \n • Вам предстоит построить процесс тестирования в компании, фактически с нуля. \n • Участие в разработке правил и стандартов тестирования, поддержание высокого уровня культуры тестирования. \n • Создание и поддержка автоматизированных тестов\n • Ведение проекта – постоянная готовность предоставить полный и ясный отчет о состоянии проекта, анализ рисков, своевременное реагирование на проблемы. \n • Координация взаимодействия с другими участниками команды. \n • Выполнение всех работ, связанных с тестированием — сбор и анализ требований, разработка тестовой документации всех уровней, планирование, выдача оценок, подготовка тестовых сред и тестовых окружений, проведение циклов тестирования. \n  \n📌Требования: \n • Ясное понимание проектного подхода к работе, знакомство с различными методологиями управления проектами. \n • Опыт работы в тестировании от 2х лет. \n • Опыт использования ЯП в автоматизации тестирования  \n • Уверенные знания теории тестирования. \n • Умение составлять тестовую документацию всех уровней. \n • Английский язык на уровне чтения и написания технической документации. \n • Самостоятельность, высокий уровень личной дисциплины \n  \n📌Желательно: \n • Опыт работы с БД (PostgreSQL, PGBouncer, Redis, ElasticSearch, OpenLDAP) \n • Знание техник тестдизайна \n  \n📌Мы предлагаем: \n • Дружную команду и рабочую атмосферу с хорошим балансом творчества и задач. \n • Гибкий график. Возможна удаленная работа из дома по договоренности с командой. \n • Оплачиваемый отпуск и больничный. По предварительной договоренности у вас могут быть выходные дни для особых случаев. \n • Растущий коллектив – на данный момент около 20 человек, из которых половина – разработчики, devops и аналитики. \n • Адекватное руководство. \n • Полное отсутствие бюрократии. \n • Достойный уровень зарплаты. \n • Перспективы профессионального и карьерного роста. Мы убеждены, что компания должна инвестировать в развитие своих сотрудников и поэтому приветствуем посещение конференций, митапов, профессиональные курсы (некоторые из них возможно организовать за счет компании). \n • Офис в Москве, 7 минут от м. «Ленинский Проспект».\n\n✉️Почта: mkoneva@youhired.ru \n❗️Telegram: @nunquam2008\n📞 Телефон: +79210614118","markup":[{"type":"hashtag","offset":0,"length":9,"data":"вакансия"},{"type":"hashtag","offset":10,"length":7,"data":"москва"},{"type":"hashtag","offset":18,"length":9,"data":"fulltime"},{"type":"hashtag","offset":28,"length":7,"data":"middle"},{"type":"hashtag","offset":36,"length":11,"data":"automation"},{"type":"link","offset":2946,"length":19,"data":"mailto:mkoneva@youhired.ru"},{"type":"handle","offset":2979,"length":12,"data":"nunquam2008"},{"type":"link","offset":3004,"length":12,"data":"tel:+79210614118"}],"date":"2020-06-16T08:17:36+00:00","link":"tg://resolve?domain=qa_jobs&post=0","tags":[{"name":"qa"},{"name":"postgresql"},{"name":"redis"},{"name":"elasticsearch"}],"cities":[{"code":"moscow"}],"allowsRemote":true}},{"node":{"__typename":"Job","id":"102937657344-1001089317451","title":"Qa engineer","text":"#вакансия #Москва #fulltime #офис #qa #mobile\nКомпания: FunCorp\nВакансия:  QA mobile engineer\nОпыт работы: от 2-х лет\nЗарплата: 100 000 - 130 000 р. на руки\nМесторасположение: Москва, м. Белорусская\nЗанятость: fulltime, офис.\nNB! Удаленный вариант работы после выхода из карантина, к сожалению, не рассматриваем\nКонтактные данные: @chrschredinger или kristina@fun.co\n\nТребования\n- опыт тестирования мобильных приложений (iOS, Android) от года\n- опыт использования сниффера (Charles или Fiddler / Wireshark / Mitmproxy)\n- опыт работы с Android Studio / XCode\n- опыт работы с Firebase\n\nОбязанности\n- ручное тестирование (функциональное / регрессионное / исследовательское)\n- написание тестовых сценариев\n- тесная работа с менеджерами и разработчиками проекта\n\nУсловия\n- ДМС, включая стоматологию\n- бонусная система\n- обеды и ужины в офисе\n- бюджет на обучение и на фитнес\n- оплата участия в российских и зарубежных конференциях\n- отличный офис на м. Белорусская (БЦ «Белая площадь)","markup":[{"type":"hashtag","offset":0,"length":9,"data":"вакансия"},{"type":"hashtag","offset":10,"length":7,"data":"Москва"},{"type":"hashtag","offset":18,"length":9,"data":"fulltime"},{"type":"hashtag","offset":28,"length":5,"data":"офис"},{"type":"hashtag","offset":34,"length":3,"data":"qa"},{"type":"hashtag","offset":38,"length":7,"data":"mobile"},{"type":"bold","offset":46,"length":10,"data":""},{"type":"bold","offset":64,"length":10,"data":""},{"type":"bold","offset":94,"length":13,"data":""},{"type":"bold","offset":118,"length":10,"data":""},{"type":"bold","offset":157,"length":19,"data":""},{"type":"bold","offset":199,"length":10,"data":""},{"type":"underline","offset":226,"length":86,"data":""},{"type":"bold","offset":312,"length":19,"data":""},{"type":"handle","offset":331,"length":15,"data":"chrschredinger"},{"type":"link","offset":351,"length":15,"data":"mailto:kristina@fun.co"},{"type":"bold","offset":368,"length":11,"data":""},{"type":"bold","offset":584,"length":12,"data":""},{"type":"bold","offset":758,"length":8,"data":""}],"date":"2020-06-16T08:08:44+00:00","link":"tg://resolve?domain=qa_jobs&post=0","tags":[{"name":"qa"},{"name":"mobile"},{"name":"ios"},{"name":"android"},{"name":"xcode"},{"name":"firebase"},{"name":"android-studio"}],"cities":[{"code":"moscow"}],"allowsRemote":false}},{"node":{"__typename":"Job","id":"102932414464-1001089317451","title":"Qa инженер","text":"#вакансия #remote #office #fulltime #senior #middle #junior #qa #новосибирск\n \nКомпания: Бюро судебного взыскания\nЛокация: remote или офис в Новосибирске\nЗанятость: full-time\nЗП до 55 000\nКонтакты: @AntoshaStark \n \nКомпания Бюро судебного взыскания помогает избавить всех участников финансовой системы от проблем с долгами. Мы решаем финансовые проблемы людей и крупных компаний. И сейчас мы в поиске QA-инженера.\n\nЧем нужно будет заниматься:\n\n▪️детализация требований к программе;\n▪️анализ и расчет времени нужного на создание ▪️приложения или исправление бага;\n▪️разработка сценариев тестирования;\n▪️внесение обнаруженных недочетов в трекинговую систему;\n▪️обсуждение исправлений с всеми участниками разработки;\n▪️доработка сценариев тестирования;\n▪️анализ процесса командной разработки;\n▪️оптимизация процессов разработки для избежания повторного появления обнаруженных ошибок;\n▪️ведение документации по тестам.\n\nЧто мы ждем от кандидатов:\n\n▫️Опыт работы в должности от года;\n▫️Знания теории и видов тестирования;\n▫️Знания SQL;\n▫️Опыт написания тест-кейсов;\n▫️Опыт написания документации.\n▫️Желателен опыт в написании автотестов.\n\nЧто мы предлагаем:\n\n🔸Официальное трудоустройство с первого дня работы (в том числе на удалёнке).\n🔸Возможность профессионального и карьерного развития в компании.\n🔸Сильная команда из 25+ профессионалов своего дела. И мы ещё растём :)\n🔸Работа возможна в офисе и на удалёнке.","markup":[{"type":"hashtag","offset":0,"length":9,"data":"вакансия"},{"type":"hashtag","offset":10,"length":7,"data":"remote"},{"type":"hashtag","offset":18,"length":7,"data":"office"},{"type":"hashtag","offset":26,"length":9,"data":"fulltime"},{"type":"hashtag","offset":36,"length":7,"data":"senior"},{"type":"hashtag","offset":44,"length":7,"data":"middle"},{"type":"hashtag","offset":52,"length":7,"data":"junior"},{"type":"hashtag","offset":60,"length":3,"data":"qa"},{"type":"hashtag","offset":64,"length":12,"data":"новосибирск"},{"type":"handle","offset":198,"length":13,"data":"AntoshaStark"},{"type":"bold","offset":224,"length":24,"data":""},{"type":"bold","offset":401,"length":11,"data":""},{"type":"bold","offset":415,"length":29,"data":""},{"type":"bold","offset":916,"length":28,"data":""},{"type":"bold","offset":1134,"length":20,"data":""}],"date":"2020-06-16T07:31:57+00:00","link":"tg://resolve?domain=qa_jobs&post=0","tags":[{"name":"qa"},{"name":"sql"}],"cities":[{"code":"novosibirsk"}],"allowsRemote":true}},{"node":{"__typename":"Job","id":"102911442944-1001089317451","title":"Qa engineer","text":"#Москва #вакансия #QA #fulltime #test #office\n\n💻Компания: СберТех.\n🧰Вакансия: QA Engineer.\n🏢Офис: Москва, м. Нагатинская/м. Тульская/ м. Верхние Котлы.\n💰ЗП: от 150 000 Net.\n\n📂Проект: Разработка платформы для управления бизнес-процессами Банка и Цифровой Платформы Sber.\n\n🗓Задачи:\n• Работа в роли тестировщика в scrum команде.\n• Написание, актуализация тестовых сценариев и их прохождение (API, UI).\n• Проведение функционального, регрессионного, интеграционного и других видов тестирования.\n• Регистрация, отслеживание и верификация дефектов.\n• Участие в развитии команды и процессов тестирования.\n\n📌Требования: \n• Опыт написания тестовых сценариев, чек-листов, составления сложных интеграционных сценариев.\n• Знание теории тестирования, понимание видов тестирования и необходимости их применения на различных этапах реализации проекта.\n• Опыт анализа и тестирования требований.\n• Опыт тестирования rest/soap сервисов.\n• Опыт работы с BPM системами, понимание нотации BPMN 2.0.\n\n📎Cтек: REST, XML, XSD, JSON, SQL, BPMN 2.0, Docker, Kubernetes, Openshift, Kafka.\n\n🔰Условия:\n• Оформление ТК РФ.\n• ДМС для сотрудников и скидки на медицинскую страховку для родственников;\n• Высокая белая заработная плата (оклад + годовая премия).\n• Возможность обучения за счет компании, посещения IT-конференций.\n• Бесплатный тренажерный зал на территории офиса.\n• Корпоративная жизнь и спортивные мероприятия.\n\n📩Готов ответить на интересующие вопросы - @Dmiryy","markup":[{"type":"hashtag","offset":0,"length":7,"data":"Москва"},{"type":"hashtag","offset":8,"length":9,"data":"вакансия"},{"type":"hashtag","offset":18,"length":3,"data":"QA"},{"type":"hashtag","offset":22,"length":9,"data":"fulltime"},{"type":"hashtag","offset":32,"length":5,"data":"test"},{"type":"hashtag","offset":38,"length":7,"data":"office"},{"type":"handle","offset":1443,"length":7,"data":"Dmiryy"}],"date":"2020-06-15T19:05:56+00:00","link":"tg://resolve?domain=qa_jobs&post=0","tags":[{"name":"qa"},{"name":"dotnet"},{"name":"rest"},{"name":"soap"},{"name":"xml"},{"name":"xsd"},{"name":"json"},{"name":"sql"},{"name":"docker"},{"name":"kubernetes"},{"name":"kafka"}],"cities":[{"code":"moscow"}],"allowsRemote":false}},{"node":{"__typename":"Job","id":"102902005760-1001089317451","title":"Qa инженер","text":"#вакансия #работа #СанктПетербург #QA #Manual #Mobile #API #fulltime #офис\nГород: Санкт-Петербург, м. Чкаловская\nФорма работы: офис\nЗанятость: полная\nЗарплатная вилка: от 100 000 net (обсуждается по результатам собеседования).\nВсем привет!\nМы – Cardsmobile, петербургская IT-компания, разработчик мобильного приложения «Кошелёк». \n«Кошелёк» заменяет бумажник и избавляет от необходимости носить с собой пластик: пользователи хранят в нем дисконтные и банковские карты. Чтобы получить скидку, достаточно показать на кассе карту с экрана смартфона, а чтобы оплатить покупку – приложить NFC-смартфон к терминалу оплаты.\nВ связи с расширением функционала приложения и выходом на зарубежные рынки мы усиляем нашу команду и ищем QA инженера с опытом тестирования мобильных и веб продуктов.\n🔹Что нужно будет делать:\n•  тестировать работу «Кошелька» на Android и iOS;\n•  проводить функциональное и регрессионное тестирование клиентской части приложения, функциональное и нагрузочное тестирование серверной;\n•  организовывать процесс тестирования: устанавливать и настраивать тестовое окружение, разрабатывать тестовые сценарии, писать тестовую документацию.\n🔹Ожидаем, что у Вас есть:\n•  опыт тестирования мобильных приложений от 1,5 лет;\n•  понимание принципов клиент-серверного взаимодействия;\n•  навыки работы с базами данных (Postgresql, MongoDB и др.);\n•  навыки работы с инструментами для тестирования серверного API (Postman, SoapUI и т.д.).\n🔹Будет плюсом:\n•  Опыт разработки автотестов для web (Selenium), mobile (Espresso, XCTest) или желание его приобрести.\n🔹Мы предлагаем:\n•  Участие в развитии полезного и популярного приложения, возможность сделать мир лучше;\n•  Оформление по ТК РФ с первого дня работы. ДМС после прохождения испытательного срока;\n•  Оплату мобильной связи, частичную компенсацию питания;\n•  Гибкий график и высокий уровень самостоятельности;\n•  Командные мероприятия и приятные коллеги;\n•  Комфортный офис в центре города (2 минуты от станции метро Чкаловская).\n\nИнформацию о компании можно найти по ссылке: https://spb.hh.ru/employer/2032205\n\nTelegram: katerinaziryukova","markup":[{"type":"hashtag","offset":0,"length":9,"data":"вакансия"},{"type":"hashtag","offset":10,"length":7,"data":"работа"},{"type":"hashtag","offset":18,"length":15,"data":"СанктПетербург"},{"type":"hashtag","offset":34,"length":3,"data":"QA"},{"type":"hashtag","offset":38,"length":7,"data":"Manual"},{"type":"hashtag","offset":46,"length":7,"data":"Mobile"},{"type":"hashtag","offset":54,"length":4,"data":"API"},{"type":"hashtag","offset":59,"length":9,"data":"fulltime"},{"type":"hashtag","offset":69,"length":5,"data":"офис"},{"type":"link","offset":2035,"length":34,"data":"https://spb.hh.ru/employer/2032205"}],"date":"2020-06-15T15:55:16+00:00","link":"tg://resolve?domain=qa_jobs&post=0","tags":[{"name":"qa"},{"name":"mobile"},{"name":"dotnet"},{"name":"android"},{"name":"ios"},{"name":"postgresql"},{"name":"mongodb"},{"name":"web"},{"name":"selenium"}],"cities":[],"allowsRemote":false}},{"node":{"__typename":"Job","id":"102896762880-1001089317451","title":"Qa инженер","text":"#вакансия #Москва #работаQA #Выставочная #офис/удаленная\nЗаработная плата от 70 000 - 90 000 с налогами в зависимости от опыта кандидата\nКомпания https://agregatoreat.ru/  \nЗанятость: полная (50/50 офис и удаленно) \nКонтакт: @OlesyaE \nОбязанности:\n•  Тестирование высоконагруженного web-сервиса (в том числе, во время его обновления в нерабочее время - 2 раза в месяц);\n•  Ручное тестирование ПО (функциональное, нагрузочное, интеграционное и др.);\n•  Разработка тестовой документации;\n•  написание Unit тестов\n•  Оценка времени на проверку задач;\n•  Создание баг-репортов;\n•  Взаимодействие с разработчиками, аналитиками, службой технической поддержки;\nТребования:\n•  Опыт работы в области тестирования ПО от 1 года;\n•  Знание жизненного цикла ПО, тест-кейсов, багов и т.д.\n•  Знание различных методов тестирования;\n•  Опыт разработки тестовой документации;\n•  Базовые знания языка SQL;\n•  Приветствуется опыт работы с файлами *.xml, *.json;\n•  Опыт работы с баг-трекинговыми системами (Jira, TFS и т.д.);\n•  Внимательность, ответственность, умение работать в команде;\n•  Самостоятельность, стремление к профессиональному и карьерному росту.","markup":[{"type":"hashtag","offset":0,"length":9,"data":"вакансия"},{"type":"hashtag","offset":10,"length":7,"data":"Москва"},{"type":"hashtag","offset":18,"length":9,"data":"работаQA"},{"type":"hashtag","offset":28,"length":12,"data":"Выставочная"},{"type":"hashtag","offset":41,"length":5,"data":"офис"},{"type":"link","offset":77,"length":15,"data":"tel:70 000 - 90 000"},{"type":"link","offset":146,"length":24,"data":"https://agregatoreat.ru/"},{"type":"handle","offset":225,"length":8,"data":"OlesyaE"}],"date":"2020-06-15T15:21:59+00:00","link":"tg://resolve?domain=qa_jobs&post=0","tags":[{"name":"qa"},{"name":"web"},{"name":"sql"},{"name":"xml"},{"name":"json"},{"name":"tfs"}],"cities":[{"code":"moscow"}],"allowsRemote":true}},{"node":{"__typename":"Job","id":"102894665728-1001089317451","title":"Qa engineer","text":"#вакансия #удаленка\n\nДолжность : Senior QA Engineer\nКомпания : https://www.bitorb.com/\nФормат работы: удаленная, на полный рабочий день\nЗарплата: 4-5k USD\n\nКто мы?\nBitOrb - биржа на азиатском рынке на стадии бета-тестирования.\n\nЧто делать?\n- Взять на себя тестирование и QA;\n- Написание тестовых сценариев;\n- Самостоятельно выбирать, как их тестировать - автоматизировать или покрывать ручным тестирование;\n- Вместе с командой разработчиков искать возможные проблемы/риски;     \n- Желательно: перфоманс-тестирование;\n- Желательно: security testing.\n\nПочему это может быть интересно? \n- Свобода в выборе пути достижения результата;\n- Удаленная работа и гибкий график;\n- Сложная система, требовательная к перфомансу, корректности;\n- Можно брать задачи и развиваться в соседних областях;\n- Дружная и многонациональная команда;\n- Опыт работы в международной компании;\n- С течением времени - возможность стать тим лидом команды QA.\n\nПросьба присылать резюме только на английском.\nСветлана - писать в телеграмм или на почту svet04ka17@mail.ru.","markup":[{"type":"hashtag","offset":0,"length":9,"data":"вакансия"},{"type":"hashtag","offset":10,"length":9,"data":"удаленка"},{"type":"link","offset":63,"length":23,"data":"https://www.bitorb.com/"},{"type":"link","offset":1018,"length":18,"data":"mailto:svet04ka17@mail.ru"}],"date":"2020-06-15T15:16:57+00:00","link":"tg://resolve?domain=qa_jobs&post=0","tags":[{"name":"qa"}],"cities":[],"allowsRemote":true}}]}}},"context":{}}