{"hash":"f34fd2c444a074f4e0e67d525015a008ef8e766f","data":{"records":{"totalCount":178,"pageInfo":{"totalPages":18,"currentPage":5},"edges":[{"node":{"id":"16236150784-1001110946746","title":"Js developer","text":"#вакансия #удаленно #remote \n#frontend #react #js #ukraine\n \nИщу Middle Frontend Developer (React)\n\nЛокация: Украина, г. Днепр, ул. Ломаная (центр города)\nФормат работы: Полная удаленка или удаленка на время карантина, потом офис\nЗанятость: полная #fulltime \nЗарплатная вилка: от 1000$ до 2500$ на руки (готовы рассмотреть ваши предложения)\nОписание вакансии: \n— 2+ years of experience in building Front End solutions;\n— 2+ years of experience JavaScript, ES6;\n— Good understanding of state-of-the-art JavaScript libraries and frameworks, such as ReactJS, Redux;\n— Proficient understanding of web markup, including HTML5, CSS3;\n— Understanding of server-side CSS pre-processing platforms, such as LESS and SASS;\n— Proficient understanding of client-side scripting and JavaScript frameworks;\n— Understanding of asynchronous request handling, partial page updates, and AJAX;\n— Understanding of cross-browser compatibility issues and ways to work around them;\n— Experience in writing semantic, valid, cross-browser code;\n— Experience with Git;\n— Knowledge of BEM principles, progressive enhancement, graceful degradation.\n— Good written and spoken English level\nболее детальнее по сссылке - https://jobs.dou.ua/companies/dinarys/vacancies/110429/\nНазвание компании: Dinarys - https://dinarys.com/\nКонтакты: @oleynikusss - телеграм/скайп","markup":[{"type":"hashtag","offset":0,"length":9,"data":"вакансия"},{"type":"hashtag","offset":10,"length":9,"data":"удаленно"},{"type":"hashtag","offset":20,"length":7,"data":"remote"},{"type":"hashtag","offset":29,"length":9,"data":"frontend"},{"type":"hashtag","offset":39,"length":6,"data":"react"},{"type":"hashtag","offset":46,"length":3,"data":"js"},{"type":"hashtag","offset":50,"length":8,"data":"ukraine"},{"type":"hashtag","offset":248,"length":9,"data":"fulltime"},{"type":"link","offset":1188,"length":55,"data":"https://jobs.dou.ua/companies/dinarys/vacancies/110429/"},{"type":"link","offset":1273,"length":20,"data":"https://dinarys.com/"},{"type":"handle","offset":1304,"length":12,"data":"oleynikusss"}],"date":"2020-04-09T08:18:45+00:00","link":"tg://resolve?domain=javascript_jobs_feed&post=15484","tags":[{"name":"javascript"},{"name":"reactjs"},{"name":"redux"},{"name":"web"},{"name":"html"},{"name":"css"},{"name":"sass"},{"name":"ajax"},{"name":"git"},{"name":"cross-browser"}],"cities":[],"allowsRemote":true}},{"node":{"id":"1430257664-1001091028994","title":"Java разработчик","text":"#вакансия #fullstack #fullstackdeveloper #java  #javascript #jquery #remote #fulltime #удаленно\n\nFullstack Developer\nКомпания: Fplay\nЛокация: remote\nЗанятость: fulltime\nЗ/п: 130-140К net\nКонтакты: @observer69\n\nНаша команда состоит из криптотрейдеров с большим опытом торговли. Деятельность проекта - трейдинг на криптобиржах посредством использования торгового робота. На данный момент уже создан и используется прибыльный торговый робот. В планах проекта расширение возможностей робота путем подключения бОльшего количества криптобирж. Для реализации этих целей мы расширяем штат, ищем разработчика. Мы не создаем продукт для продажи, только для собственного использования.\n\nУсловия\n● Удаленная работа, полная занятость. Территориальные границы часовых поясов: от UTC+2 до UTC+6.\n● Работа в небольшом коллективе криптоэнтузиастов. На данный момент команда состоит из 4-х человек. Все работают на удаленке.\n● Режим работы 8 часов в день + 1 час перерыв на обед. Все выходные и праздничные дни, отпуска предоставляются и оплачиваются в соответствии с трудовым законодательством страны проживания.\n● Выплата заработной платы 2 раза в месяц.\n\nТребования\n● Java 8+, Spring, JavaScript, jQuery;\n● Опыт Java от 3-х лет, опыт JavaScript от 1 года;\n● Опыт разработки многопоточных систем;\n● Знание баз данных PostgreSQL либо MariaDB;\n● Опыт самостоятельной работы (удаленка на дому или ко-воркинг, другие формы работы не по найму).\n \nПриветствуется\n● Опыт работы с API классических или криптобирж;\n● Опыт работы с REST API, WebSocket API.\n● Опыт разработки систем реального времени;\n● Опыт в создании архитектур программ;\n● DevOps навыки;\n● Хорошее знание английского языка.\n● Приверженность open source идеологии.\n\nЗадачи\n1. Сопровождение и улучшение имеющегося торгового робота;\n2. Разработка архитектуры универсального ядра, к которому будут подключаться новые криптобиржи;\n3. Разработка серверной и интерфейсной частей торгового робота;\n4. Реализация автоматического тестирования серверной части;\n5. Администрирование серверной части в Debian/Ubuntu server OS","markup":[{"type":"hashtag","offset":0,"length":9,"data":"вакансия"},{"type":"hashtag","offset":10,"length":10,"data":"fullstack"},{"type":"hashtag","offset":21,"length":19,"data":"fullstackdeveloper"},{"type":"hashtag","offset":41,"length":5,"data":"java"},{"type":"hashtag","offset":48,"length":11,"data":"javascript"},{"type":"hashtag","offset":60,"length":7,"data":"jquery"},{"type":"hashtag","offset":68,"length":7,"data":"remote"},{"type":"hashtag","offset":76,"length":9,"data":"fulltime"},{"type":"hashtag","offset":86,"length":9,"data":"удаленно"},{"type":"bold","offset":97,"length":29,"data":""},{"type":"bold","offset":133,"length":8,"data":""},{"type":"bold","offset":149,"length":10,"data":""},{"type":"bold","offset":169,"length":4,"data":""},{"type":"bold","offset":187,"length":9,"data":""},{"type":"handle","offset":197,"length":11,"data":"observer69"},{"type":"bold","offset":676,"length":8,"data":""},{"type":"bold","offset":722,"length":59,"data":""},{"type":"bold","offset":1140,"length":11,"data":""},{"type":"bold","offset":1426,"length":15,"data":""},{"type":"bold","offset":1708,"length":9,"data":""},{"type":"bold","offset":1773,"length":2,"data":""},{"type":"bold","offset":1869,"length":2,"data":""},{"type":"bold","offset":1933,"length":2,"data":""},{"type":"bold","offset":1993,"length":2,"data":""}],"date":"2020-04-09T08:01:38+00:00","link":"tg://resolve?domain=jvmjobs&post=1364","tags":[{"name":"java"},{"name":"jvm"},{"name":"javascript"},{"name":"jquery"},{"name":"dotnet"},{"name":"spring"},{"name":"postgresql"},{"name":"mariadb"},{"name":"rest"},{"name":"websocket"},{"name":"debian"},{"name":"ubuntu"}],"cities":[],"allowsRemote":true}},{"node":{"id":"16235102208-1001110946746","title":"Js разработчик","text":"#вакансия #удаленка #nodejs #backend \n\nГород: Томск, Никитина 20\nФормат работы: удаленка\nЗанятость: полная/проектная\nЗарплатная вилка:  от 100 до 150k рублей на руки за месяц ИЛИ 800 руб/час\n\nОписание вакансии: \nМы ищем Backend разработчика со знанием Node.js\n\nТы нам подходишь, если у тебя есть..\n\n➖Опыт работы c Node.js от года;\n➖Знание SQL и MySQL или PostgreSQL;\n➖Знание GraphQL;\n➖Уверенное владение Git.\n\nБудет плюсом:\n➖Опыт работы с сервисами AWS и Serverless Framework;\n➖Опыт работы с NoSQL (Redis, DynamoDB).\n\nЧто мы предлагаем?\n➖Официальное трудоустройство\n➖Регулярное повышение зарплаты по результатам работы\n➖Премирование по итогам проектов\n\nНазвание компании: ООО ай-Линк \ni-link.pro\n\nКонтакты: \nhttps://t.me/ferret24","markup":[{"type":"hashtag","offset":0,"length":9,"data":"вакансия"},{"type":"hashtag","offset":10,"length":9,"data":"удаленка"},{"type":"hashtag","offset":20,"length":7,"data":"nodejs"},{"type":"hashtag","offset":28,"length":8,"data":"backend"},{"type":"link","offset":685,"length":10,"data":"http://i-link.pro"},{"type":"link","offset":708,"length":21,"data":"https://t.me/ferret24"}],"date":"2020-04-09T07:53:42+00:00","link":"tg://resolve?domain=javascript_jobs_feed&post=15483","tags":[{"name":"javascript"},{"name":"nodejs"},{"name":"sql"},{"name":"mysql"},{"name":"postgresql"},{"name":"graphql"},{"name":"git"},{"name":"amazon-web-services"},{"name":"nosql"},{"name":"redis"},{"name":"dynamodb"}],"cities":[{"code":"tomsk"}],"allowsRemote":true}},{"node":{"id":"98262056960-1001089317451","title":"Qa engineer","text":"#вакансия #СПБ #fulltime #office\n\nГород: Санкт-Петербург\nПозиция: Senior QA Engineer\nКомпания: Antal Russia\nФормат работы: офис, полная занятость \nЗарплатная вилка: до 150k gross + ежемесячные и квартальные бонусы (З/П обсуждаем индивидуально)\n\nО проекте:\nРабота в команде разрабатывающей интерфейсы сервиса обновления, сервиса метаданных и VOD-контента (video-on-demand).\nНа проекте используется микросервисная архитектура.\n \nОсновной стек проекта:\nJIRA, Confluence, Python, JavaScript, Selenium, Linux, docker, kubernetes.\n\n\nКого мы ищем?\n- Опыт тестирования от 3-х лет;\n- Опыт тестирования веб сервисов (UI+backend);\n- Знание реляционных СУБД (Postgres);\n- Умение работать с ОС Linux в консоли;\n- Знание Python, JavaScript, опыт программирования приветствуется;\n- Опыт автоматизации Selenium;\n- Опыт наставничества/управления небольшой командой.\n\nМы предлагаем:\n- Современный офис в Петербурге\n- Иногда можно работать удалённо;\n- ДМС и врач в офисе;\n- Оплата спорта и проф. курсов;\n- Помощь с переездом семьи из любого региона России.\n\nКонтакты куда слать СV резюме: kristina.shaburova@antalrussia.com\ntelegram @hello_intelligence","markup":[{"type":"hashtag","offset":0,"length":9,"data":"вакансия"},{"type":"hashtag","offset":10,"length":4,"data":"СПБ"},{"type":"hashtag","offset":15,"length":9,"data":"fulltime"},{"type":"hashtag","offset":25,"length":7,"data":"office"},{"type":"italic","offset":34,"length":6,"data":""},{"type":"italic","offset":57,"length":8,"data":""},{"type":"bold","offset":66,"length":19,"data":""},{"type":"italic","offset":85,"length":9,"data":""},{"type":"italic","offset":108,"length":14,"data":""},{"type":"italic","offset":147,"length":17,"data":""},{"type":"bold","offset":245,"length":11,"data":""},{"type":"bold","offset":427,"length":23,"data":""},{"type":"bold","offset":527,"length":14,"data":""},{"type":"bold","offset":850,"length":15,"data":""},{"type":"bold","offset":1070,"length":63,"data":""},{"type":"link","offset":1070,"length":34,"data":"mailto:kristina.shaburova@antalrussia.com"},{"type":"handle","offset":1114,"length":19,"data":"hello_intelligence"}],"date":"2020-04-09T06:57:36+00:00","link":"tg://resolve?domain=qa_jobs&post=93710","tags":[{"name":"qa"},{"name":"python"},{"name":"javascript"},{"name":"selenium"},{"name":"linux"},{"name":"docker"},{"name":"kubernetes"},{"name":"postgresql"}],"cities":[],"allowsRemote":true}},{"node":{"id":"16231956480-1001110946746","title":"Js разработчик","text":"Greenatom.ru\n#вакансия #Москва #javascript #React #Typescript #Node.js #Middle #Senior #удаленка\n\n👨🏼‍💻 Middle/Senior Frontend Developer, Middle/Senior Backend Developer\nГород и адрес офиса: #Москва, 1-й Нагатинский проезд, 10с1, метро Нагатинская\n\nФормат работы: офис или частичная удаленка на выбор\n\n💻Занятость: полная, гибкое начало трудового дня.\n\nЗарплатная вилка: от 170 000 до 230 000 руб. на руки.\n\n🏢Компания: АО Гринатом\n\nПривет! Мы растём и активно развиваем ряд внутренних проектов: например, корпоративный портал, горячая линия. Мы формируем несколько команд и ищем классных:\n\n✅фронтенд разработчиков;\n\n✅бэкенд разработчиков. \n\nПроекты в стадии разработки пилота и у тебя есть возможность повлиять на дальнейшее развитие продукта. Если у тебя есть крутые идеи - ты сможешь их здесь реализовать! Откликайся сам и зови друзей! Вирус пройдёт, работа останется!\n\n✅Требуемые знания и навыки:\n- Опыт разработки от двух лет\n- Хорошее знание чистого JS\n- Опыт работы с TypeScript\n- React, MobX, Less/Sass\n- Опыт написания юнит-тестов с помощью Jest, Enzymе очень приветствуется\n\n💡Наш стек:\n      React, TypeScript, Node.js, MobX, Docker\n\nМы работаем по Scrum.\n\n✅Условия:\n- Официальное оформление по ТК, белая зп;\n- Возможности профессионального и карьерного роста;\n- Дополнительные 3 дня к отпуску;\n- Плавающее начало дня;\n- Удаленка после прохождения испытательного срока (3 месяца)\n- ДМС со стоматологией\n\n☎️Контакты:\nЮлия - YAnZueva@Greenatom.ru","markup":[{"type":"link","offset":0,"length":12,"data":"http://Greenatom.ru"},{"type":"hashtag","offset":13,"length":9,"data":"вакансия"},{"type":"hashtag","offset":23,"length":7,"data":"Москва"},{"type":"hashtag","offset":31,"length":11,"data":"javascript"},{"type":"hashtag","offset":43,"length":6,"data":"React"},{"type":"hashtag","offset":50,"length":11,"data":"Typescript"},{"type":"hashtag","offset":62,"length":5,"data":"Node"},{"type":"hashtag","offset":71,"length":7,"data":"Middle"},{"type":"hashtag","offset":79,"length":7,"data":"Senior"},{"type":"hashtag","offset":87,"length":9,"data":"удаленка"},{"type":"hashtag","offset":193,"length":7,"data":"Москва"},{"type":"link","offset":1436,"length":21,"data":"mailto:YAnZueva@Greenatom.ru"}],"date":"2020-04-09T06:41:15+00:00","link":"tg://resolve?domain=javascript_jobs_feed&post=15480","tags":[{"name":"javascript"},{"name":"reactjs"},{"name":"typescript"},{"name":"nodejs"},{"name":"sass"},{"name":"docker"}],"cities":[{"code":"moscow"}],"allowsRemote":true}},{"node":{"id":"16230907904-1001110946746","title":"Js разработчик","text":"#вакансия\nГород и адрес офиса: Санкт-Петербург\nФормат работы: удалёнка\nЗанятость: проектная\nЗарплатная вилка: $500-700/мес ($20/ч)\nОписание вакансии:\nИщем JS разработчика с опытом в рекламной сфере для написания библиотеки, которая могла бы проверять окружение, подгружать рекламу как async js тегами, так и внутри iframe. Подгружать трекинг пиксели Автообновлять по таймеру и т.п. (Пр. библиотеки https://bit.ly/38jNDa3) Понимание тонкостей последних браузерных обновлений как https://bit.ly/31JlgPW. Помощь с видео\\аудио форматами рекламы.\nНазвание компании: Adwheel.co\nКонтакты: tg: @alexqem","markup":[{"type":"hashtag","offset":0,"length":9,"data":"вакансия"},{"type":"link","offset":398,"length":22,"data":"https://bit.ly/38jNDa3"},{"type":"link","offset":478,"length":22,"data":"https://bit.ly/31JlgPW"},{"type":"link","offset":561,"length":10,"data":"http://Adwheel.co"},{"type":"handle","offset":586,"length":8,"data":"alexqem"}],"date":"2020-04-09T06:41:06+00:00","link":"tg://resolve?domain=javascript_jobs_feed&post=15479","tags":[{"name":"javascript"}],"cities":[],"allowsRemote":true}},{"node":{"id":"16229859328-1001110946746","title":"Js разработчик","text":"#вакансия #удаленка #frontend #vuejs #javascript #junior #intern\nГород и адрес офиса: Украина, Винница\nНазвание компании: Web Dev Evo\nФормат работы: удаленка\nЗанятость: проектная\nЗарплатная вилка: от 300$ до 1500$\nОписание вакансии: В аутсорс компанию ищем молодого разработчика, с минимальным опытом работы. Работа в сфере ecommerce. Обязанности: разработка frontend части приложения с использованием Vue.js.\nКонтакты: @CrazyHorseGambino","markup":[{"type":"hashtag","offset":0,"length":9,"data":"вакансия"},{"type":"hashtag","offset":10,"length":9,"data":"удаленка"},{"type":"hashtag","offset":20,"length":9,"data":"frontend"},{"type":"hashtag","offset":30,"length":6,"data":"vuejs"},{"type":"hashtag","offset":37,"length":11,"data":"javascript"},{"type":"hashtag","offset":49,"length":7,"data":"junior"},{"type":"hashtag","offset":57,"length":7,"data":"intern"},{"type":"handle","offset":420,"length":18,"data":"CrazyHorseGambino"}],"date":"2020-04-09T06:40:49+00:00","link":"tg://resolve?domain=javascript_jobs_feed&post=15478","tags":[{"name":"javascript"},{"name":"vuejs"},{"name":"web"}],"cities":[{"code":"vinnytsia"}],"allowsRemote":true}},{"node":{"id":"16227762176-1001110946746","title":"Javascript developer","text":"#вакансия #react #javascript #москва #офис\n\n🔭 Под задачи разработки платформы Web-решений ищем Frontend Developer (React) в крупную финансовую компанию. \n🎧 Все собеседования проводятся по скайпу из-за карантина. \nОфис: Москва, Лубянка\n🏠 Формат работы: в офисе после карантина (сейчас как у всех  удалёнка). В первый рабочий день оформляетесь и идете на удалёнку.\nЗанятость полная.\nГражданство: РФ\nПолный соцпакет.\n💰 Зарплата: от 165К до 175К net + квартальная премия 0,5 оклада. \nС премией средняя ЗП составит 205K рублей net \n\nFrontend Developer (React)\n🚀Область ответственности:\n• Участие в разработке фронт-офисных систем компании.\n💎 Требования:\n• Высшее / неоконченное высшее образование;\n• Опыт коммерческой разработки UI от 2,5 лет;\n• Необходимый стек: JavaScript, TypeScript, React (с использованием Redux/Mobx, Webpack, Babel), СУБД (PostgreSQL, MongoDB, Redis).\n• Кроссбраузерная и кроссплатформенная вёрстка.\n• Участие в высоконагруженных проектах.\n\nНазвание компании: КА \"Бизнес Крафт Консалт\" https://bcraft.ru/\n📪Контакты:\ntelegram: @oksanaalieva \nEmail: oksana@bcraft.ru \nБуду рада ответить на уточняющие вопросы. \nПодробности могу выслать в ЛС в ответ на присланное резюме.","markup":[{"type":"hashtag","offset":0,"length":9,"data":"вакансия"},{"type":"hashtag","offset":10,"length":6,"data":"react"},{"type":"hashtag","offset":17,"length":11,"data":"javascript"},{"type":"hashtag","offset":29,"length":7,"data":"москва"},{"type":"hashtag","offset":37,"length":5,"data":"офис"},{"type":"link","offset":1011,"length":18,"data":"https://bcraft.ru/"},{"type":"handle","offset":1052,"length":13,"data":"oksanaalieva"},{"type":"link","offset":1074,"length":16,"data":"mailto:oksana@bcraft.ru"}],"date":"2020-04-09T06:40:13+00:00","link":"tg://resolve?domain=javascript_jobs_feed&post=15476","tags":[{"name":"javascript"},{"name":"reactjs"},{"name":"web"},{"name":"dotnet"},{"name":"typescript"},{"name":"redux"},{"name":"webpack"},{"name":"postgresql"},{"name":"mongodb"},{"name":"redis"}],"cities":[{"code":"moscow"}],"allowsRemote":true}},{"node":{"id":"16226713600-1001110946746","title":"Js программист","text":"#вакансия #js #angular\n\nНазвание компании: Froot Middle Asia (ФрутМидл Эйжа)\nhttps://thefroot.com\nВилка: от 350 до 750 тысяч тенге (1 - 2К $)\nТребуемый опыт работы: 1–3 года\nГород: Алматы, Казахстан\n\nФормат: Полная занятость, полный день, можно удаленно\n\nО компании\nСегодня Froot - это 650 000 товаров в собственном маркетплейсе, 15 магазинов в Алматы, договора франшизы на 100 магазинов по всему Казахстану и успешные переговоры по экспансии на рынки Турции, Филиппин, Узбекистана, Таджикистана и Кыргызстана.\nВ 2020 году мы откроем 200 магазинов по всему Казахстану и доведём ассортимент нашего онлайн маркетплейса до 3 000 000!\n\nМы ожидаем, что программист умеет работать в команде и готов оперативно погрузится в существующий продукт. Он пишет код не «для себя» или «чтобы работало», а хорошо, аккуратно и понятно, чтобы любой член команды смог продолжить работу. Мы используем несколько серверов (тестовый, продакшен, rnd), gitflow, разветвление микросервисов.\n\nКого мы ищем?\nСамостоятельного Frontend Developer'а, сильного командного игрока, свято уважающего дедлайны и эффективную коммуникацию. Важно уметь предлагать свои идеи, делиться своим видением какие технологии могут давать результат.\n\nЧто делать:\n\nПоддерживать проекты;\nРазрабатывать новые модули и спецпроекты в существующих проектах;\nПредлагать технические решения для упрощения бизнес-процессов\nЗапускаем мобильную разработку на js\n\nТребования:\n\nЗнание современных стандартов и методов разработки веб-приложений\nОтличное знание HTML5/CSS3, JavaScript ES5/ES6\nAngular 2+\nУмение обращаться с системами сборки Grunt/Gulp/Webpack\nЗнание CSS/HTML препроцессоров (Sass/Less/Stylus/Pug)\nЗнание Git\nВнимательность к мелочам;\nУмение создавать адаптивную верстку;\nПлюсом будет:\n\nОпыт работы с Node.js\nPWA\nNativeScript\nМы предлагаем:\n· Молодой коллектив с крутой командой разработки, в которой можно быстро расти и развиваться;\n· Интересные рабочие задачи;\n· Офис на Кунаева с панорамным видом на город;\n· Стабильная заработная плата, официальное трудоустройство.\n\nКонтакты: @sanzhikee, sanzhar.sarsenbi@gmail.com, +7 702 97 65 999","markup":[{"type":"hashtag","offset":0,"length":9,"data":"вакансия"},{"type":"hashtag","offset":10,"length":3,"data":"js"},{"type":"hashtag","offset":14,"length":8,"data":"angular"},{"type":"link","offset":77,"length":20,"data":"https://thefroot.com"},{"type":"handle","offset":2034,"length":10,"data":"sanzhikee"},{"type":"link","offset":2046,"length":26,"data":"mailto:sanzhar.sarsenbi@gmail.com"},{"type":"link","offset":2074,"length":16,"data":"tel:+7 702 97 65 999"}],"date":"2020-04-09T06:39:00+00:00","link":"tg://resolve?domain=javascript_jobs_feed&post=15475","tags":[{"name":"javascript"},{"name":"angularjs"},{"name":"html"},{"name":"css"},{"name":"gruntjs"},{"name":"gulp"},{"name":"webpack"},{"name":"sass"},{"name":"git"},{"name":"nodejs"}],"cities":[{"code":"almaty"}],"allowsRemote":true}},{"node":{"id":"16225665024-1001110946746","title":"Js разработчик","text":"#вакансия #nodejs #backend #remote #postgres #rabbitmq #redis #docker #linux #удаленно\n\nВакансия Node.JS разработчик\nФормат работы: удаленно\nЗанятость: полная\nЗарплатная вилка: \nMiddle 160000-190000₽, \nSenior 200000-230000₽\nКомпания: ЕasyPay\n\nПлатежная система для мгновенной оплаты по счетам за сотовый телефон, коммунальные услуги, услуги денежных переводов, игры и тд.\n\n🔹Наши продукты сейчас особенно актуальны и востребованы\n\n🔹Почти вся команда работает удалённо. Это молодые, веселые и целеустремлённые ребята. У нас очень дружная команда👍🏽\n\n🔹Компания постоянно увеличивает количество предоставляемых услуг, и сейчас нужны два разработчика, Senior и Middle\n\n♦️На проекте используем такие технологии: Postgres, Rabbitmq, Redis, Docker и все это работает на Linux \n\nИ это только 10% всей информации, пишите, буду рада рассказать подробнее о условиях работы, проекте и бонусах @Julia_Nikolova","markup":[{"type":"hashtag","offset":0,"length":9,"data":"вакансия"},{"type":"hashtag","offset":10,"length":7,"data":"nodejs"},{"type":"hashtag","offset":18,"length":8,"data":"backend"},{"type":"hashtag","offset":27,"length":7,"data":"remote"},{"type":"hashtag","offset":35,"length":9,"data":"postgres"},{"type":"hashtag","offset":45,"length":9,"data":"rabbitmq"},{"type":"hashtag","offset":55,"length":6,"data":"redis"},{"type":"hashtag","offset":62,"length":7,"data":"docker"},{"type":"hashtag","offset":70,"length":6,"data":"linux"},{"type":"hashtag","offset":77,"length":9,"data":"удаленно"},{"type":"handle","offset":884,"length":15,"data":"Julia_Nikolova"}],"date":"2020-04-09T06:38:38+00:00","link":"tg://resolve?domain=javascript_jobs_feed&post=15474","tags":[{"name":"javascript"},{"name":"nodejs"},{"name":"postgresql"},{"name":"rabbitmq"},{"name":"redis"},{"name":"docker"},{"name":"linux"}],"cities":[],"allowsRemote":true}}]}},"context":{}}