{"hash":"f5f6bf98bd95e769321482904cbbd488f77922fd","data":{"records":{"id":"russia/moscow","country":{"code":"russia","ruName":"Россия","enName":"Russia"},"city":{"code":"moscow","ruName":"Москва","enName":"Moscow"},"belongsTo":{"totalCount":476,"pageInfo":{"totalPages":48,"currentPage":30},"edges":[{"node":{"__typename":"Job","id":"17098080256-1001110946746","title":"Js developer","text":"#вакансия #JavaScript #middle #senior #FrontEnd #удаленно #офиc #Москва #СПБ #Екатеринбург #Ростов-на Дону\n📣Приглашаем middle/senior JavaScript FrontEnd Developer в новый проект от Сбербанка.\n\n💸Уровень ЗП: от 170 000 до 280 000 руб. net. (обсуждается!).\n\n✍🏻Оформление: штат компании партнера или ИП. Занятость: полная.\n\n📍Локация: офис (Москва Кутузовский пр-т 32/1). Или удалено с возможностью посещать офис: СПБ, Екатеринбург, Ростов-на Дону.\n\n🏢О проекте: В рамках стратегической программы «Создание платформы поддержки развития бизнеса» наша команда разрабатывает линейку продуктов Cash Management. Продукта корпоративного блока, предоставляющий функции управления финансовыми потоками для предприятий и корпораций с развитой филиальной сетью. Линейка продуктов содержит порядка 10 продуктов, направленных на управление всеми счетами холдинга единым казначейством. Основная задача – перевод линейки продуктов из Legacy АС на целевые платформы банка и перевод управления продуктами в удаленные каналы обслуживания.\n\n🎯Ваши будущие задачи :\n- проектирование решения, в том числе разработка детальной внутренней архитектуры сервиса, включая интеграционные сценарии;\n- детальное проектирование интеграции со смежными сервисами (в том числе API);\n- разработка программного продукта, внесение изменений в код;\n- разработка автоматических модульных тестов, автоматических скриптов и тестов развертывания.\n\n🤝Мы ожидаем от вас:\n• опыт от 2х лет разработки высоко-нагруженных и отказоустойчивых фронтальных систем;\n• прекрасное знание JavaScript, React;\n• экспертное знание HTML, HTML5, SASS/LESS/CSS;\n• опыт работы с js-фреймоврками (например, Backbone, Angular, React, Reflux), REST-сервисами, Webpack, Bootstrap, Ionic, Foundation;\n• понятие о принципах разработки ПО, ООП, паттернах проектирования;\n• умение разрабатывать прототипы UI с помощью, например, Axure, Pixate, Invision, Proto.io и т.д.\n\nЖду Ваши резюме и буду рада ответить на все вопросы. Прекрасного дня!☺️\nКонтакты для связи: telegram @anisimovaane4ka\n\n—\n\n👉 Обсуждение вакансии в чате @javascript_jobs","markup":[{"type":"hashtag","offset":0,"length":9,"data":"вакансия"},{"type":"hashtag","offset":10,"length":11,"data":"JavaScript"},{"type":"hashtag","offset":22,"length":7,"data":"middle"},{"type":"hashtag","offset":30,"length":7,"data":"senior"},{"type":"hashtag","offset":38,"length":9,"data":"FrontEnd"},{"type":"hashtag","offset":48,"length":9,"data":"удаленно"},{"type":"hashtag","offset":58,"length":5,"data":"офиc"},{"type":"hashtag","offset":64,"length":7,"data":"Москва"},{"type":"hashtag","offset":72,"length":4,"data":"СПБ"},{"type":"hashtag","offset":77,"length":13,"data":"Екатеринбург"},{"type":"hashtag","offset":91,"length":7,"data":"Ростов"},{"type":"link","offset":1883,"length":8,"data":"http://Proto.io"},{"type":"handle","offset":2001,"length":16,"data":"anisimovaane4ka"},{"type":"handle","offset":2052,"length":16,"data":"javascript_jobs"}],"date":"2020-06-21T15:22:14+00:00","link":"tg://resolve?domain=javascript_jobs_feed&post=16306","tags":[{"name":"javascript"},{"name":"dotnet"},{"name":"reactjs"},{"name":"html"},{"name":"sass"},{"name":"css"},{"name":"backbonejs"},{"name":"angularjs"},{"name":"rest"},{"name":"webpack"},{"name":"bootstrap"}],"cities":[{"code":"moscow"},{"code":"rostov"}],"allowsRemote":true}},{"node":{"__typename":"Job","id":"103362330624-1001089317451","title":"Qa инженер","text":"#вакансия #qa #офис #москва #вднх\n\nВакансия: Middle/Senior QA для автоматизированного и ручного тестирования web-приложения (сначала 50/50, затем автоматизация 70+%), ,\nКомпания: Webinar.ru\nЗП: до 180 000 руб. на руки\nФормат работы: офис, гибкое начало дня\nЗанятость: полная\n\nЗадачи: Ручное и автоматизированное тестирование нового функционала web-приложения, регрессионное, ui/ux, тестирование требований. Улучшение процесса тестирования. \nАвтоматизация на java+selenide\n\nЧто ожидаем:\n- Понимаешь, как устроены веб-сервисы, имеешь опыт их ручного и автоматизированного тестирования не менее одного года\n- Есть понимание клиент-серверной архитектуры;\n-Умеешь развернуто описывать шаги, приведшие к обнаруженной проблеме\n- Понимаешь принципы SCRUM’a;\n- Хочешь прокачаться в автоматизированном тестировании и научиться программировать (если уже умеешь - ещё круче)- \n-Есть понимание значений слов: HTTP, REST API, JSON, Git, SQL, HTML/CSS\n\nЧто предлагаем:\n- Официально оформим, з/п белая,\n- Гибкий график (чаще всего работаем с 10/11);\n- Отлаженные процессы без бюрократии;\n- Работа в современном лофтовом офисе в шаговой доступности от м. ВДНХ со своей парковкой;\n- Комфортное рабочее место, удобное кресло, все необходимое для работы оборудование и ПО (ноутбук DELL, 2 монитора);\n- 50% компенсация ДМС после испытательного срока, обучение за счёт компании;\n- Вкусные бесплатные завтраки, кофе-поинты;\nЕсли нужна помощь в релокации в Москву, расходы берем на себя ;)\n\nОтклики, вопросы, рекомендации: @dariavvk (telegram, FB) или на d.vovk@webinar.ru","markup":[{"type":"hashtag","offset":0,"length":9,"data":"вакансия"},{"type":"hashtag","offset":10,"length":3,"data":"qa"},{"type":"hashtag","offset":14,"length":5,"data":"офис"},{"type":"hashtag","offset":20,"length":7,"data":"москва"},{"type":"hashtag","offset":28,"length":5,"data":"вднх"},{"type":"link","offset":179,"length":10,"data":"http://Webinar.ru"},{"type":"handle","offset":1499,"length":9,"data":"dariavvk"},{"type":"link","offset":1531,"length":17,"data":"mailto:d.vovk@webinar.ru"}],"date":"2020-06-21T12:04:32+00:00","link":"tg://resolve?domain=qa_jobs&post=98574","tags":[{"name":"qa"},{"name":"web"},{"name":"java"},{"name":"rest"},{"name":"json"},{"name":"git"},{"name":"sql"},{"name":"html"},{"name":"css"}],"cities":[{"code":"moscow"}],"allowsRemote":false}},{"node":{"__typename":"Job","id":"71726792704-1001054966032","title":"Ios разработчик","text":"#вакансия #Москва #fulltime #swift #middle \nКомпания: Trinity Monsters\nПозиция: middle iOS developer\nЛокация: Россия, Москва, офис в самом центре, у метро Охотный Ряд\nЗанятость: полная \n\nЗП: от 150.000 до 200.000 руб. на руки\n\nНа новый проект (с нуля), нужен разработчик в команду. Мы занимаемся разработкой с 2013 года и входим в ТОП-10 лучших разработчиков Москвы. У нас небольшой коллектив, с которым мы реализуем амбициозные проекты (Nespresso, Азбука Вкуса, Газпром-Нефть, ВТБ, несколько внутренних проектов-стартапов).\n\nИщем разработчиков уровня middle и выше.  \n\nПочему мы:\n⁃ гибкий график\n⁃ отлаженный менеджмент\n⁃ большие проекты \n⁃ работа с разнообразными интересными и амбициозными проектами\n⁃ сложные технические задачи, возможность развития и роста\n⁃ просторный комфортный офис в 2-х минутах от метро Охотный ряд с кухней, чаем, кофе и т.д.\n⁃ возможность влиять на продукт и вносить свои идеи\n⁃ оформление по ТК РФ\n\nДля связи @vicemik","markup":[{"type":"hashtag","offset":0,"length":9,"data":"вакансия"},{"type":"hashtag","offset":10,"length":7,"data":"Москва"},{"type":"hashtag","offset":18,"length":9,"data":"fulltime"},{"type":"hashtag","offset":28,"length":6,"data":"swift"},{"type":"hashtag","offset":35,"length":7,"data":"middle"},{"type":"handle","offset":939,"length":8,"data":"vicemik"}],"date":"2020-06-21T09:05:49+00:00","link":"tg://resolve?domain=mobile_jobs&post=0","tags":[{"name":"mobile"},{"name":"ios"},{"name":"swift"}],"cities":[{"code":"moscow"}],"allowsRemote":false}},{"node":{"__typename":"Job","id":"17093885952-1001110946746","title":"Js разработчик","text":"#вакансия #работа #удаленка #backend #node #nodejs #remote\nГород и адрес офиса: Москва, Савеловская\nФормат работы: удаленка\nЗанятость: полная || проектная\nЗарплатная вилка: 100-160 т.р.\n\nОписание вакансии: \nИщем опытного backend-разработчика node.js для разработки высоконадежных транзакционных сервисов интеграции с различными системами\n\nТребования:\n• Опыт работы с унаследованными системами\n• Знание PHP на уровне понимания и чтения кода будет плюсом\n• Знание и понимание работы сетевых протоколов TCP/IP, HTTP, SMTP, IMAP\n• Знание и понимание языка JavaScript и связанных с ним технологий и фреймворков\n• Опыт разработки серверных приложений\n• Понимание основных процессов разработки, умение работать в команде\n• Понимание принципов ООП, подходов в программировании и требований к транзакционным системам\n\nЗадачи:\n• Разработка высоконадежных транзакционных сервисов интеграции с различными системами\n• Поддержка и модернизация существующих систем\n\nНазвание компании: TechPlatforms (https://techpl.net)\nКонтакты:@desych79\n\n—\n\n👉 Обсуждение вакансии в чате @javascript_jobs","markup":[{"type":"hashtag","offset":0,"length":9,"data":"вакансия"},{"type":"hashtag","offset":10,"length":7,"data":"работа"},{"type":"hashtag","offset":18,"length":9,"data":"удаленка"},{"type":"hashtag","offset":28,"length":8,"data":"backend"},{"type":"hashtag","offset":37,"length":5,"data":"node"},{"type":"hashtag","offset":43,"length":7,"data":"nodejs"},{"type":"hashtag","offset":51,"length":7,"data":"remote"},{"type":"link","offset":985,"length":18,"data":"https://techpl.net"},{"type":"handle","offset":1014,"length":9,"data":"desych79"},{"type":"handle","offset":1058,"length":16,"data":"javascript_jobs"}],"date":"2020-06-21T08:02:39+00:00","link":"tg://resolve?domain=javascript_jobs_feed&post=16302","tags":[{"name":"javascript"},{"name":"nodejs"},{"name":"php"},{"name":"smtp"},{"name":"dotnet"}],"cities":[{"code":"moscow"}],"allowsRemote":true}},{"node":{"__typename":"Job","id":"103347650560-1001089317451","title":"Qa инженер","text":"Всем привет! \n\nТребуется Middle QA или Senior QA\nдля ручного тестирования мобильных приложений.\n\nРабота удаленно. \nОплата – часовая ставка с занятостью ~6-8 часов в день, от 500\\час. \nЗанятость по московскому времени, в рабочие часы. \n\nТребования к соискателю:\n1. Опыт ручного тестирование мобильных приложений от 1 года;\n2. Знание особенностей версий OS;\n3. Знание инструментов разработчика под Android;\n4. Понимание различий тестирования веб \\ мобайл;\n5. Опыт тестирования api;\n6. Опыт работы с БД;\n7. Высокий уровень самоорганизации и коммуникативных навыков.\n\nВ процессе работы возможно обучение автоматизации тестирования. \n\nЖду резюме и информацию о себе – личным сообщением, с пометкой «mobile qa». \nКаждому из соискателей я отвечу до 22 июня. \n\n\n🎱QA\n🎱Devquality\n🎱Тестирование бэкенда, фронта, автоматизация\n🎱 Часовой рейт, удаленное сотрудничество. #россия #москва #подмосковье #удаленное #вакансия #работавит #работаврегионах\n\nЕще одна вакансия ниже.\n\n***\n\nТребуется Middle QA для ручного тестирования банковского ПО.\nРабота удаленно. \nОплата – часовая ставка с занятостью ~6-8 часов в день, от 500\\час. \nЗанятость по московскому времени, в рабочие часы. \n\nТребования к соискателю:\n1. Опыт ручного тестирования от года;\n2. Опыт тестирования UI;\n3. Опыт интеграционного тестирования;\n4. Знание SQL;\n5. Опыт работы по Agile;\n6. Высокий уровень самоорганизации и коммуникативных навыков;\n7. Опыт написания тест-кейсов.\n\nЖду резюме и информацию о себе – личным сообщением, с пометкой «Банковское ПО». Каждому из соискателей я отвечу до 22 июня. \n\n\n🎱QA\n🎱Devquality\n🎱Тестирование бэкенда, фронта, автоматизация\n🎱 Часовой рейт, удаленное сотрудничество. #россия #москва #подмосковье #удаленное #вакансия #работавит #работаврегионах\n\nБлагодарю.","markup":[{"type":"hashtag","offset":861,"length":7,"data":"россия"},{"type":"hashtag","offset":869,"length":7,"data":"москва"},{"type":"hashtag","offset":877,"length":12,"data":"подмосковье"},{"type":"hashtag","offset":890,"length":10,"data":"удаленное"},{"type":"hashtag","offset":901,"length":9,"data":"вакансия"},{"type":"hashtag","offset":911,"length":10,"data":"работавит"},{"type":"hashtag","offset":922,"length":16,"data":"работаврегионах"},{"type":"bold","offset":963,"length":5,"data":""},{"type":"hashtag","offset":1664,"length":7,"data":"россия"},{"type":"hashtag","offset":1672,"length":7,"data":"москва"},{"type":"hashtag","offset":1680,"length":12,"data":"подмосковье"},{"type":"hashtag","offset":1693,"length":10,"data":"удаленное"},{"type":"hashtag","offset":1704,"length":9,"data":"вакансия"},{"type":"hashtag","offset":1714,"length":10,"data":"работавит"},{"type":"hashtag","offset":1725,"length":16,"data":"работаврегионах"}],"date":"2020-06-20T15:58:13+00:00","link":"tg://resolve?domain=qa_jobs&post=0","tags":[{"name":"qa"},{"name":"android"},{"name":"mobile"},{"name":"sql"}],"cities":[{"code":"moscow"}],"allowsRemote":true}},{"node":{"__typename":"Job","id":"71696384000-1001054966032","title":"Ios разработчик","text":"#вакансия #iOS #москва\n\nНа проект от крупного российского банка требуется Middle iOS разработчик\n\nФормат: офис\n\nВилка ЗП: 160-200К\n\nЛокация: Москва\n\nТребования:\n- Гражданство РФ\n- Опыт разработки под IOS (Objective-C или Swift) от 2 лет\n- Уверенное знание iOS SDK, Xcode\n- Опыт использования одной из архитектур: MVP, MVVM, VIPER\n- Знание особенностей: Collections, Optionals, Protocol Oriented, Generics\n- Понимание, как происходит управление памятью в iOS\n- Понимание принципов проектирования SOLID и желание придерживаться их\n- Наличие опыта работы с REST API, HTTP, JSON, APNs\n- Опыт работы с Git, знание git flow\n\nБудет плюсом:\n\n- Умение писать UI тесты\n- Опыт работы в команде\n\nКонтакт: @mxm_at","markup":[{"type":"hashtag","offset":0,"length":9,"data":"вакансия"},{"type":"hashtag","offset":10,"length":4,"data":"iOS"},{"type":"hashtag","offset":15,"length":7,"data":"москва"},{"type":"bold","offset":73,"length":23,"data":""},{"type":"bold","offset":98,"length":7,"data":""},{"type":"bold","offset":112,"length":9,"data":""},{"type":"bold","offset":132,"length":8,"data":""},{"type":"bold","offset":149,"length":11,"data":""},{"type":"bold","offset":619,"length":13,"data":""},{"type":"bold","offset":684,"length":8,"data":""},{"type":"handle","offset":693,"length":7,"data":"mxm_at"}],"date":"2020-06-20T13:14:08+00:00","link":"tg://resolve?domain=mobile_jobs&post=0","tags":[{"name":"mobile"},{"name":"ios"},{"name":"objective-c"},{"name":"swift"},{"name":"xcode"},{"name":"mvvm"},{"name":"rest"},{"name":"json"},{"name":"git"}],"cities":[{"code":"moscow"}],"allowsRemote":false}},{"node":{"__typename":"Job","id":"17087594496-1001110946746","title":"Js разработчик","text":"#вакансия #работа #удаленка #backend #node #nodejs #remote\nГород и адрес офиса: Москва, Савеловская\nФормат работы: удаленка\nЗанятость: полная || проектная\nЗарплатная вилка: 100-160 т.р.\n\nОписание вакансии: \nИщем опытного backend-разработчика node.js для разработки высоконадежных транзакционных сервисов интеграции с различными системами\n\nТребования:\n• Опыт работы с унаследованными системами\n• Знание PHP на уровне понимания и чтения кода будет плюсом\n• Знание и понимание работы сетевых протоколов TCP/IP, HTTP, SMTP, IMAP\n• Знание и понимание языка JavaScript и связанных с ним технологий и фреймворков\n• Опыт разработки серверных приложений\n• Понимание основных процессов разработки, умение работать в команде\n• Понимание принципов ООП, подходов в программировании и требований к транзакционным системам\n\nЗадачи:\n• Разработка высоконадежных транзакционных сервисов интеграции с различными системами\n• Поддержка и модернизация существующих систем\n\nНазвание компании: TechPlatforms (https://techpl.net)\nКонтакты:@desych79\n\n—\n\n👉 Обсуждение вакансии в чате @javascript_jobs","markup":[{"type":"hashtag","offset":0,"length":9,"data":"вакансия"},{"type":"hashtag","offset":10,"length":7,"data":"работа"},{"type":"hashtag","offset":18,"length":9,"data":"удаленка"},{"type":"hashtag","offset":28,"length":8,"data":"backend"},{"type":"hashtag","offset":37,"length":5,"data":"node"},{"type":"hashtag","offset":43,"length":7,"data":"nodejs"},{"type":"hashtag","offset":51,"length":7,"data":"remote"},{"type":"link","offset":985,"length":18,"data":"https://techpl.net"},{"type":"handle","offset":1014,"length":9,"data":"desych79"},{"type":"handle","offset":1058,"length":16,"data":"javascript_jobs"}],"date":"2020-06-20T10:35:03+00:00","link":"tg://resolve?domain=javascript_jobs_feed&post=16296","tags":[{"name":"javascript"},{"name":"nodejs"},{"name":"php"},{"name":"smtp"},{"name":"dotnet"}],"cities":[{"code":"moscow"}],"allowsRemote":true}},{"node":{"__typename":"Job","id":"71682752512-1001054966032","title":"Android разработчик","text":"#вакансия #iOS #android #developer #remote #InStat \n\nГород и адрес офиса: Москва, ст.м. Автозаводская\nФормат работы: удаленка\nЗанятость: полная/проектная\nЗарплатная вилка: от 80 до 130 net\nОписание вакансии:\n\nВсем привет. Ищем разработчиков приложений для Apple TV и Android TV(Box). Мы занимаемся сложными задачами, а также хотим разработать с нуля приложения, а у вас есть возможность поработать в спортивном стартапе и сделать лучшее приложение на рынке.\nЧто главное:\nОпыт разработки приложений Apple TV/Android box обязательно;\nОпыт по созданию продукта для просмотра видео-контента\nЗадачи:\nРазработка OTT приложения для Apple TV/Android box, анализ и оценка задач;\nпроведение code review, участие в SCRUM активностях\nТребования:\nзнание основных паттернов проектирования, REST API; SOLID, GCD, MVP/MVVM, опыт разработки по Apple TV/Android TV, box, знание Android Studio \nМы предлагаем:\nофициальное трудоустройство, полный соц. пакет;удаленное сотрудничество\nПодробнее о вакансиях тут: \nhttps://hh.ru/vacancy/37544424\nhttps://hh.ru/vacancy/37520710\n\nНазвание компании: InStat (https://instatsport.com/)\n\nКонтакты: yana.gurinovich@instatsport.com\n @Yana_Gurinovich","markup":[{"type":"hashtag","offset":0,"length":9,"data":"вакансия"},{"type":"hashtag","offset":10,"length":4,"data":"iOS"},{"type":"hashtag","offset":15,"length":8,"data":"android"},{"type":"hashtag","offset":24,"length":10,"data":"developer"},{"type":"hashtag","offset":35,"length":7,"data":"remote"},{"type":"hashtag","offset":43,"length":7,"data":"InStat"},{"type":"link","offset":991,"length":30,"data":"https://hh.ru/vacancy/37544424"},{"type":"link","offset":1022,"length":30,"data":"https://hh.ru/vacancy/37520710"},{"type":"link","offset":1081,"length":24,"data":"https://instatsport.com/"},{"type":"link","offset":1118,"length":31,"data":"mailto:yana.gurinovich@instatsport.com"},{"type":"handle","offset":1151,"length":16,"data":"Yana_Gurinovich"}],"date":"2020-06-20T04:32:51+00:00","link":"tg://resolve?domain=mobile_jobs&post=0","tags":[{"name":"mobile"},{"name":"android"},{"name":"ios"},{"name":"dotnet"},{"name":"rest"},{"name":"mvvm"},{"name":"android-studio"}],"cities":[{"code":"moscow"}],"allowsRemote":true}},{"node":{"__typename":"Job","id":"17082351616-1001110946746","title":"Javascript разработчик","text":"#вакансия #front #react #typescript #москва #генетика #javascript #геномэксперт #барсгруп\n\nГород и адрес офиса: Москва, ст.м.Павелецкая\nФормат работы: Офис\nЗанятость: полная.\nЗарплатная вилка: от 200.000 до 300.000 рублей на руки. \nНазвание компании: Барс Груп\nhttps://bars.group/\nПроект Геном.Эксперт  - https://genome.expert/ \n\nТребуется senior/middle front-end разработчик в крупный медицинский проект.\n\nПредметная область: Генетика. \nТекущее состояние проекта: \nПроект запущен с прошлого года, сейчас добираем команду по потребностям проекта и новым направлениям, есть уникальная возможность принять участие в создании единого пространства для врачей-генетиков, лабораторных генетиков и биоинформатиков.\n\n✅Чем придется заниматься:\n\n- Писать микроприложения и компоненты на React (В данный момент есть большое приложение, его разбиваем на небольшие)\n- Пилить компоненты для ui-kit\n- Менять legacy components(polymer) на react components\n\n\n✔️Требования:\n\n-Front-end: React(Vue), typescript, Redux/Mobx/Vuex;\n-Межсервисное взаимодействие и API: REST/GraphQL/gRPC. \n\n✔️Инструменты для работы: \n\nGit, bitbucket, JIRA, docker, docker-compose. \n\n✔️Условия:\n\n-Оформление по ТК РФ;\n-Работа в офисе в пешей доступности от ст.м.Павелецкая (на данный момент удаленка);\n-График 5/2, гибкое начало рабочего дня ;\n-Белая зарплата, повышающаяся по системе аттестаций несколько раз в год;\n-ДМС;\n-Перспективы карьерного роста;\n-Корпоративное обучение (тренинги, мастер-классы);\n-Корпоративная библиотека;\n-Мы рассматриваем кандидатов с возможностью переезда в Москву;\n-Возможность предоставления бесплатного жилья на первый месяц. \n\nКонтакты для связи: \n\nemail: a.starchenko@bars.group \nTelegram: @alinavelcheva \n\nbars.group\nАО «БАРС Груп» - официальный сайт компании\nАО «БАРС Груп» - российский производитель ИТ-решений и экспертный центр в сфере государственной и корпоративной информатизации.\n\n—\n\n👉 Обсуждение вакансии в чате @javascript_jobs","markup":[{"type":"hashtag","offset":0,"length":9,"data":"вакансия"},{"type":"hashtag","offset":10,"length":6,"data":"front"},{"type":"hashtag","offset":17,"length":6,"data":"react"},{"type":"hashtag","offset":24,"length":11,"data":"typescript"},{"type":"hashtag","offset":36,"length":7,"data":"москва"},{"type":"hashtag","offset":44,"length":9,"data":"генетика"},{"type":"hashtag","offset":54,"length":11,"data":"javascript"},{"type":"hashtag","offset":66,"length":13,"data":"геномэксперт"},{"type":"hashtag","offset":80,"length":9,"data":"барсгруп"},{"type":"link","offset":261,"length":19,"data":"https://bars.group/"},{"type":"link","offset":305,"length":22,"data":"https://genome.expert/"},{"type":"link","offset":1648,"length":23,"data":"mailto:a.starchenko@bars.group"},{"type":"handle","offset":1683,"length":14,"data":"alinavelcheva"},{"type":"link","offset":1700,"length":10,"data":"http://bars.group"},{"type":"handle","offset":1916,"length":16,"data":"javascript_jobs"}],"date":"2020-06-19T18:52:18+00:00","link":"tg://resolve?domain=javascript_jobs_feed&post=16291","tags":[{"name":"javascript"},{"name":"reactjs"},{"name":"typescript"},{"name":"polymerjs"},{"name":"vuejs"},{"name":"redux"},{"name":"rest"},{"name":"graphql"},{"name":"git"},{"name":"docker"},{"name":"docker-compose"}],"cities":[{"code":"moscow"}],"allowsRemote":true}},{"node":{"__typename":"Job","id":"1713373184-1001091028994","title":"Java разработчик","text":"#Москва #вакансия #java #spring #fulltime #backend #office #middle #senior \n\nКомпания: СберТех.\n\nОфис: Москва, м. Нагатинская/м. Тульская/ м. Верхние Котлы.\n\nЗП: от 180-290 Net.\n\n📂Проект: Разработка платформы для управления бизнес-процессами Банка и  Цифровой Платформы Sber.\n\n🗓Задачи:\n• Участие в разработке высоконагруженного сервиса исполнения бизнес процессов на языке BPMN2.\n• Участие в RnD и прототипировании open source движков для сервиса.\n• Покрытие своего кода тестами.\n\n📎Cтек: Java8+, Spring Framework, Spring Boot, ORM, Apache Kafka.\n\n🔰Условия:\n• Оформление ТК РФ.\n• ДМС для сотрудников и скидки на медицинскую страховку для родственников;\n• Высокая белая заработная плата (оклад + годовая премия).\n• Возможность обучения за счет компании, посещения IT-конференций.\n• Бесплатный тренажерный зал на территории офиса.\n• Корпоративная жизнь и спортивные мероприятия.\n\n📩Готов ответить на интересующие вопросы - @Dmiryy","markup":[{"type":"hashtag","offset":0,"length":7,"data":"Москва"},{"type":"hashtag","offset":8,"length":9,"data":"вакансия"},{"type":"hashtag","offset":18,"length":5,"data":"java"},{"type":"hashtag","offset":24,"length":7,"data":"spring"},{"type":"hashtag","offset":32,"length":9,"data":"fulltime"},{"type":"hashtag","offset":42,"length":8,"data":"backend"},{"type":"hashtag","offset":51,"length":7,"data":"office"},{"type":"hashtag","offset":59,"length":7,"data":"middle"},{"type":"hashtag","offset":67,"length":7,"data":"senior"},{"type":"handle","offset":924,"length":7,"data":"Dmiryy"}],"date":"2020-06-19T18:13:29+00:00","link":"tg://resolve?domain=jvmjobs&post=1634","tags":[{"name":"java"},{"name":"jvm"},{"name":"spring"},{"name":"dotnet"},{"name":"orm"},{"name":"apache"},{"name":"kafka"},{"name":"spring-boot"}],"cities":[{"code":"moscow"}],"allowsRemote":false}}]}}},"context":{}}