{"hash":"f34fd2c444a074f4e0e67d525015a008ef8e766f","data":{"records":{"id":"json","name":"json","belongsTo":{"totalCount":22,"pageInfo":{"totalPages":3,"currentPage":2},"edges":[{"node":{"__typename":"Job","id":"1387266048-1001091028994","title":"Java разработчик","text":"Вакансия: #java #developer #senior #seniorjavadeveloper #офис\nКомпания: Fisgroup\nЛокация: #новосибирск #новосиб\nЗанятость: гибкий график\nЗ/п: 150 - 200К net\nКонтакты: @observer69\n\nCase Platform.\nОсновные продукты - кредитный фронт, управление рисками, системы по работе с просроченной задолженностью, системы принятия решений по кредитам, CRM-системы.\n\nЧем интересна наша вакансия:\n- достойный уровень заработной платы, обсудим ваши пожелания;\n- рост заработной платы вместе с ростом квалификации;\n- офис в Академпарке;\n- корпоративный транспорт\n- профессиональное развитие;\n- гибкий график;\n- доброжелательный коллектив;\n- веселые корпоративы в кругу коллег;\n\nВам предстоит:\n- анализ и уточнение требований к реализуемым задачам.\n- участие в разработке технических решений.\n- разработка и тестирование java-кода системы.\n- участие в документировании разработанной функциональности\n- анализ нетривиальных проблем возникающих у пользователей системы.\n- взаимодействие с другими участниками команды( java- и веб- разработчиками, тестировщиками) для обеспечения согласованности и качества разработки.\n- учет собственного рабочего времени.\n\nТребования: \n- понимание основ computer science (алгоритмы и структуры данных, вычислительная сложность, производительность, надежность...).\n- знание и умение применять шаблоны проектирования.\n- понимание принципов объектно-ориентированного программирования и дизайна.\n- понимание проблем параллельного программирования и способов их решения.\n- понимание основ криптографии и обеспечения безопасности данных.\n- умение диагностировать и решать проблемы производительности.\n- системное мышление.\n- знание платформы Java EE 6 и выше, опыт программирования на языке Java.\n- опыт работы с XML, JSON, ORM (JPA, Hibernate).\n- знание SQL (Oracle, PostgreSQL или любой другой диалект).\n- опыт командной работы.\n- опыт работы с системами контроля версий и автоматизации процесса разработки.\n\nБудет плюсом:\n-участие в разработке архитектуры систем;\n- профильное образование;\n- опыт участия в разработке сложных разнородных систем;\n- знание теории формальных языков и принципов построения трансляторов;\n- использование программных продуктов и инструментов для построения распределенных систем (кластеризация, микросервисы)\nПрофильное образование;\nОпыт участия в разработке сложных разнородных систем;\nЗнание теории формальных языков и принципов построения трансляторов;\nИспользование программных продуктов и инструментов для построения распределенных систем (кластеризация, микросервисы)","markup":[{"type":"bold","offset":0,"length":8,"data":""},{"type":"hashtag","offset":10,"length":5,"data":"java"},{"type":"hashtag","offset":16,"length":10,"data":"developer"},{"type":"hashtag","offset":27,"length":7,"data":"senior"},{"type":"hashtag","offset":35,"length":20,"data":"seniorjavadeveloper"},{"type":"hashtag","offset":56,"length":5,"data":"офис"},{"type":"bold","offset":62,"length":9,"data":""},{"type":"bold","offset":81,"length":8,"data":""},{"type":"hashtag","offset":90,"length":12,"data":"новосибирск"},{"type":"hashtag","offset":103,"length":8,"data":"новосиб"},{"type":"bold","offset":112,"length":9,"data":""},{"type":"bold","offset":157,"length":9,"data":""},{"type":"handle","offset":167,"length":11,"data":"observer69"},{"type":"bold","offset":353,"length":29,"data":""},{"type":"bold","offset":661,"length":15,"data":""},{"type":"bold","offset":1137,"length":13,"data":""},{"type":"bold","offset":1919,"length":14,"data":""}],"date":"2020-03-26T09:02:32+00:00","link":"tg://resolve?domain=jvmjobs&post=1323","tags":[{"name":"java"},{"name":"jvm"},{"name":"dotnet"},{"name":"xml"},{"name":"json"},{"name":"orm"},{"name":"jpa"},{"name":"hibernate"},{"name":"sql"},{"name":"oracle"},{"name":"postgresql"}],"cities":[{"code":"novosibirsk"}],"allowsRemote":false}},{"node":{"__typename":"Job","id":"23929552896-1001075660570","title":"Php developer","text":"#вакансия #Moscow #php #laravel #fulltime #office \n\n📌Вакансия: #PHP Middle developer\n📌Город: #Москва (м. Ботанический сад)\n📌ЗП: 150К net (готовы рассмотреть ваши ожидания)\n📌Занятость: полная / офис \n📌Компания: АСНА (https://www.asna.ru/)\n\n✅АСНА - крупнейшее объединение аптечных сетей в России и странах СНГ. Это экосистема сервисов и продуктов, нацеленная на улучшение и развитие фармацевтического рынка России.\n\n👆Задачи:\n• создание и развитие b2c и b2b web-проектов компании;\n• участие в командной работе по разработке крупных\n• создание новых проектов компании с нуля;\n• оптимизация существующего PHP-кода и SQL-запросов.\n\n👍Что мы готовы предложить:\n• официальная (белая) заработная плата и мы соблюдаем ТК РФ.\n• переход на удаленку через 6 месяцев работы в компании; \n• мы обеспечим Вам комфортное рабочее место, мощное железо и два монитора J.\n• у нас нет бюрократии, плюс Вы сможете сами выбрать удобное время начала дня.\n• мы профессионально развиваем наших сотрудников – отправляем на курсы и профильные конференции.\n• мы следим за питанием наших сотрудников и компенсируем обеды.\n• мы даем возможность вносить свои идеи!\n• до нашего офиса можно дойти пешком от м. «Ботанический сад».\n\n🔥Наши ожидания:\n• опыт разработки на PHP от 1 года;\n• обязательно знание фреймворка Laravel;\n• опыт создания интеграционных решений с обменом информацией (JSON, XML, SOAP);\n• опыт проектирования БД и оптимизации SQL-запросов;\n• написание кода с комментариями в стиле phpDoc;\n• написание Unit тестов;\n• умение писать отказоустойчивые надежные автоматизированные системы;\n• навыки работы с *nix-системами;\n• опыт командной разработки с использованием системы контроля версий Git или Mercurial.\n\nКонтакты:\n@prynik95 \npatokova.nastya95@mail.ru","markup":[{"type":"hashtag","offset":0,"length":9,"data":"вакансия"},{"type":"hashtag","offset":10,"length":7,"data":"Moscow"},{"type":"hashtag","offset":18,"length":4,"data":"php"},{"type":"hashtag","offset":23,"length":8,"data":"laravel"},{"type":"hashtag","offset":32,"length":9,"data":"fulltime"},{"type":"hashtag","offset":42,"length":7,"data":"office"},{"type":"hashtag","offset":64,"length":4,"data":"PHP"},{"type":"hashtag","offset":95,"length":7,"data":"Москва"},{"type":"link","offset":221,"length":20,"data":"https://www.asna.ru/"},{"type":"handle","offset":1705,"length":9,"data":"prynik95"},{"type":"link","offset":1716,"length":25,"data":"mailto:patokova.nastya95@mail.ru"}],"date":"2020-03-25T07:00:53+00:00","link":"tg://resolve?domain=php_jobs&post=22821","tags":[{"name":"php"},{"name":"laravel"},{"name":"dotnet"},{"name":"web"},{"name":"sql"},{"name":"json"},{"name":"xml"},{"name":"soap"},{"name":"git"},{"name":"mercurial"}],"cities":[{"code":"moscow"}],"allowsRemote":false}},{"node":{"__typename":"Job","id":"23911727104-1001075660570","title":"Php developer","text":"#вакансия #Moscow #php #laravel #fulltime #office \n\n📌Вакансия: #PHP Middle developer\n📌Город: #Москва (м. Ботанический сад)\n📌ЗП: 150К net (готовы рассмотреть ваши ожидания)\n📌Занятость: полная/ офис \n📌Компания: АСНА (https://www.asna.ru/)\n\n✅АСНА - крупнейшее объединение аптечных сетей в России и странах СНГ. Это экосистема сервисов и продуктов, нацеленная на улучшение и развитие фармацевтического рынка России.\n\n👆Задачи:\n• создание и развитие b2c и b2b web-проектов компании;\n• участие в командной работе по разработке крупных\n• создание новых проектов компании с нуля;\n• оптимизация существующего PHP-кода и SQL-запросов.\n\n👍Что мы готовы предложить:\n• официальная («белая») заработная плата и мы соблюдаем ТК РФ.\n• переход на удаленку через 6 месяцев работы в компании; \n• мы обеспечим Вам комфортное рабочее место, мощное железо и два монитора J.\n• у нас нет бюрократии, плюс Вы сможете сами выбрать удобное время начала дня.\n• мы профессионально развиваем наших сотрудников – отправляем на курсы и профильные конференции.\n• мы следим за питанием наших сотрудников и компенсируем обеды.\n• мы даем возможность вносить свои идеи!\n• до нашего офиса можно дойти пешком от м. «Ботанический сад».\n\n🔥Наши ожидания:\n• опыт разработки на PHP от 1 года;\n• обязательно знание фреймворка Laravel;\n• опыт создания интеграционных решений с обменом информацией (JSON, XML, SOAP);\n• опыт проектирования БД и оптимизации SQL-запросов;\n• написание кода с комментариями в стиле phpDoc;\n• написание Unit тестов;\n• умение писать отказоустойчивые надежные автоматизированные системы;\n• навыки работы с *nix-системами;\n• опыт командной разработки с использованием системы контроля версий Git или Mercurial.\n\n🤝Контакты: @Kate_Guseva","markup":[{"type":"hashtag","offset":0,"length":9,"data":"вакансия"},{"type":"hashtag","offset":10,"length":7,"data":"Moscow"},{"type":"hashtag","offset":18,"length":4,"data":"php"},{"type":"hashtag","offset":23,"length":8,"data":"laravel"},{"type":"hashtag","offset":32,"length":9,"data":"fulltime"},{"type":"hashtag","offset":42,"length":7,"data":"office"},{"type":"hashtag","offset":64,"length":4,"data":"PHP"},{"type":"hashtag","offset":95,"length":7,"data":"Москва"},{"type":"link","offset":220,"length":20,"data":"https://www.asna.ru/"},{"type":"handle","offset":1708,"length":12,"data":"Kate_Guseva"}],"date":"2020-03-24T10:16:52+00:00","link":"tg://resolve?domain=php_jobs&post=22804","tags":[{"name":"php"},{"name":"laravel"},{"name":"dotnet"},{"name":"web"},{"name":"sql"},{"name":"json"},{"name":"xml"},{"name":"soap"},{"name":"git"},{"name":"mercurial"}],"cities":[{"code":"moscow"}],"allowsRemote":false}},{"node":{"__typename":"Job","id":"1377828864-1001091028994","title":"Java разработчик","text":"Вакансия: #java #spring #hibernate \nКонцепция: #IoT\nКомпания: #MTS\nЛокация: #Москва #Комсомольская #Красныеворота\nФормат работы: #работавофисе + иногда возможно удаленно работать\nЗП: 150-200 net (в замисимости от знаний и опыта)\nКонтакт: @alina_katkova почта: avkatko2@mts.ru\n\nВ команду IoT, трайба отраслевых решений требуется java-разработчик. Трайб отраслевых решений – направление внутри МТС, которое осуществляет разработку полного цикла инновационных продуктов в B2B и B2C сегментах. Основное направление – инновационные продукты в сфере интернета вещей, медицины, видео аналитики.\n\nЧто нужно делать: \n-участвовать в командной работе над решениями;\n-принимать участие в code-review;\n-участвовать в принятии архитектурных и технических решений;\n-писать качественный код;\nНаш стек:\n-Java1.8+;\n-Spring: Spring Security, Spring Data, Spring Boot и т.д.;\n-Реляционные базы (в основном Postgres) и NoSQL (InfluxDB, Mongo);\n-Restful-сервисы, JSON, клиент-серверное взаимодействие;\n-ORM Hibernate;\n-MQ: RabbitMQ.\nУсловия:\n-штат, все по ТК РФ\n-премия 20% от годового оклада сверху\n-соц.пакет\n-удаленка на время карантина :)","markup":[{"type":"hashtag","offset":10,"length":5,"data":"java"},{"type":"hashtag","offset":16,"length":7,"data":"spring"},{"type":"hashtag","offset":24,"length":10,"data":"hibernate"},{"type":"hashtag","offset":47,"length":4,"data":"IoT"},{"type":"hashtag","offset":62,"length":4,"data":"MTS"},{"type":"hashtag","offset":76,"length":7,"data":"Москва"},{"type":"hashtag","offset":84,"length":14,"data":"Комсомольская"},{"type":"hashtag","offset":99,"length":14,"data":"Красныеворота"},{"type":"hashtag","offset":129,"length":13,"data":"работавофисе"},{"type":"handle","offset":238,"length":14,"data":"alina_katkova"},{"type":"link","offset":260,"length":15,"data":"mailto:avkatko2@mts.ru"},{"type":"bold","offset":589,"length":18,"data":""},{"type":"bold","offset":776,"length":9,"data":""},{"type":"bold","offset":1011,"length":8,"data":""}],"date":"2020-03-24T09:58:43+00:00","link":"tg://resolve?domain=jvmjobs&post=1314","tags":[{"name":"java"},{"name":"jvm"},{"name":"spring"},{"name":"hibernate"},{"name":"dotnet"},{"name":"postgresql"},{"name":"nosql"},{"name":"json"},{"name":"orm"},{"name":"rabbitmq"},{"name":"spring-security"},{"name":"spring-data"},{"name":"spring-boot"}],"cities":[{"code":"moscow"}],"allowsRemote":true}},{"node":{"__typename":"Job","id":"1374683136-1001091028994","title":"Java разработчик","text":"#fulltime #офис\n#backend #Москва\n#высоконагруженные_сервисы\n#вакансия\n#Middle_Java_dev\nвилка для middle от 180 net (и выше зависит от уровня)\n\nпозиция Middle Java dev\nО проекте:\n•Высоконагруженные сервисы\n•Разработка виртуальной мобильной связи\nЗадачи:\nРазработка нового backend функционала;\nСтек:\n • Java Core (Collection, NIO, Multithreading)  \n • Java SE (Spring), Java EE; Java 8 (Concurrency, NIO, Spring);\n • JDBC БД (Oracle);\n • Опыт работы JSON, XML, RESTful API, HTTP, SOAP, MQ; \n • Linux\nМЫ ПРЕДЛАГАЕМ:\n •  Сильная команда разработчиков\n •  Официальное оформление (ДМС, английский, спорт)\n •  Офис в центре Москвы\n •  Профессиональное развитие и участие в разработке серьезного продукта.\n\n\nКонтакты: @BetterCallOl","markup":[{"type":"hashtag","offset":0,"length":9,"data":"fulltime"},{"type":"hashtag","offset":10,"length":5,"data":"офис"},{"type":"hashtag","offset":16,"length":8,"data":"backend"},{"type":"hashtag","offset":25,"length":7,"data":"Москва"},{"type":"hashtag","offset":33,"length":26,"data":"высоконагруженные_сервисы"},{"type":"hashtag","offset":60,"length":9,"data":"вакансия"},{"type":"hashtag","offset":70,"length":16,"data":"Middle_Java_dev"},{"type":"bold","offset":167,"length":10,"data":""},{"type":"bold","offset":245,"length":7,"data":""},{"type":"bold","offset":292,"length":6,"data":""},{"type":"bold","offset":498,"length":14,"data":""},{"type":"handle","offset":710,"length":13,"data":"BetterCallOl"}],"date":"2020-03-24T07:51:42+00:00","link":"tg://resolve?domain=jvmjobs&post=1311","tags":[{"name":"java"},{"name":"jvm"},{"name":"dotnet"},{"name":"spring"},{"name":"jdbc"},{"name":"oracle"},{"name":"json"},{"name":"xml"},{"name":"soap"},{"name":"linux"}],"cities":[{"code":"moscow"}],"allowsRemote":false}},{"node":{"__typename":"Job","id":"1917845504-1001134745498","title":"Devops инженер","text":"#вакансия #devOps #Москва #офис \n\nГород: Москва \\ м. Кутузовская \nЗанятость: полная \nФормат работы: офис \nЗарплатная вилка: от 230 000 до 260000 рублей на руки \n\nОписание: Команда «Интеллектуальной системы управления» Сбербанка ищет Dev.Ops-инженера. Ты поможешь нам в разработке системы, которая анализирует бизнес-показатели и формирует задания для менеджеров по развитию подчиненных.\n\nЗадачи:\nразработка инструментов сборки и развертывания ПО\n\nЧто нужно:\n∙ опыт работы с Jenkins(Groovy), liquibase, Ansible, Docker, Kubernetes, OpenShift\n∙ знание форматов JSON, Yaml, XML\n∙ общее понимание стека протоколов TCP/IP, HTTP, HTTPS, REST, SOAP\n∙ опыт использования системы управления задачами, например в Atlassian Jira\n\nНазвание компании: Сбербанк \nКонтакты : @vsevkosmo\n\n—\n\n👉 Обсуждение вакансии в чате @devops_jobs","markup":[{"type":"hashtag","offset":0,"length":9,"data":"вакансия"},{"type":"hashtag","offset":10,"length":7,"data":"devOps"},{"type":"hashtag","offset":18,"length":7,"data":"Москва"},{"type":"hashtag","offset":26,"length":5,"data":"офис"},{"type":"handle","offset":759,"length":10,"data":"vsevkosmo"},{"type":"handle","offset":804,"length":12,"data":"devops_jobs"}],"date":"2020-03-19T06:43:45+00:00","link":"tg://resolve?domain=devops_jobs_feed&post=1829","tags":[{"name":"jenkins"},{"name":"groovy"},{"name":"ansible"},{"name":"docker"},{"name":"kubernetes"},{"name":"json"},{"name":"yaml"},{"name":"xml"},{"name":"rest"},{"name":"soap"}],"cities":[{"code":"moscow"}],"allowsRemote":false}},{"node":{"__typename":"Job","id":"654311424-1001089319619","title":"Ruby разработчик","text":"О компании:\n#вакансия #СПБ #офис #фуллтайм #ruby #middle #sinior #HighLoad #Umbrellio #работа #rubydeveloper\nКомпания Umbrellio. Специализируемся на создании собственных IT продуктов (CRM-системы, платежные шлюзы, маркетинговые инструменты). Ищем сильного спеца для усиления одной из команд. У нас большая туса Ruby разработчиков, скучно точно не будет 🙂\n\nЗарплатная вилка\nВилка: 110 - 180 т.р.\n\nТип работы\nПолный рабочий день\n\nТип занятости\nОфис\n\nОписание вакансии:\nМы делаем свою работу качественно и увлеченно. В свою команду мы хотим пригласить такого же увлеченного человека, который считает разработку своим призванием.\n\nТребования по позиции:\n- Глубокое знание фреймворка Ruby on Rails и ORM-фреймворков (Sequel, ActiveRecord);\n- Опыт решения сложных задач и оптимизаций запросов в PostgreSQL;\n- Опыт использования RabbitMQ;\n- Непонимание как жить без Git;\n- Непонимание разработки без тестов (RSpec);\n- Опыт работы с nix-системами;\n- Опыт написания JSON-API-приложений\n\nУсловия работы:\n- Работу в комфортабельном, современном офисе Санкт-Петербурга, в десяти минутах ходьбы от ст. м. \"Комендантский проспект\".\n- Выделенную зону отдыха, где есть вкусный кофе с печеньем, фрукты, пицца и возможность играть в кикер, настольные игры, PS4, а так же гитара и огромная терраса;\n- График работы 5\\2 с гибким началом рабочего дня;\n- Оформление по ТК РФ с первого рабочего дня;\n- Оплачиваемые больничные и отпуск;\n- Компенсация фитнеса 50%, после испытательного срока;\n- ДМС после полугода работы в компании;\n- Возможность не только посещения конференций и курсов, но и выступать в качестве спикера, мы проводим открытые митапы у нас в офисе;\n- Выездные корпоративные праздники и мероприятия;\n- Иногородним кандидатам окажем помощь в релокации;\n    Предоставим все необходимое для работы и поддержим все здравые начинания!\n\nКонтакты:\n@kseniya_larionova","markup":[{"type":"bold","offset":0,"length":11,"data":""},{"type":"hashtag","offset":12,"length":9,"data":"вакансия"},{"type":"hashtag","offset":22,"length":4,"data":"СПБ"},{"type":"hashtag","offset":27,"length":5,"data":"офис"},{"type":"hashtag","offset":33,"length":9,"data":"фуллтайм"},{"type":"hashtag","offset":43,"length":5,"data":"ruby"},{"type":"hashtag","offset":49,"length":7,"data":"middle"},{"type":"hashtag","offset":57,"length":7,"data":"sinior"},{"type":"hashtag","offset":65,"length":9,"data":"HighLoad"},{"type":"hashtag","offset":75,"length":10,"data":"Umbrellio"},{"type":"hashtag","offset":86,"length":7,"data":"работа"},{"type":"hashtag","offset":94,"length":14,"data":"rubydeveloper"},{"type":"bold","offset":357,"length":16,"data":""},{"type":"bold","offset":397,"length":10,"data":""},{"type":"bold","offset":429,"length":13,"data":""},{"type":"bold","offset":449,"length":18,"data":""},{"type":"bold","offset":628,"length":22,"data":""},{"type":"bold","offset":979,"length":15,"data":""},{"type":"bold","offset":1824,"length":9,"data":""},{"type":"handle","offset":1834,"length":18,"data":"kseniya_larionova"}],"date":"2020-02-25T13:20:34+00:00","link":"tg://resolve?domain=rubyjob&post=624","tags":[{"name":"ruby"},{"name":"ruby-on-rails"},{"name":"orm"},{"name":"activerecord"},{"name":"postgresql"},{"name":"rabbitmq"},{"name":"git"},{"name":"json"}],"cities":[],"allowsRemote":false}},{"node":{"__typename":"Job","id":"637534208-1001089319619","title":"Ruby разработчик","text":"#вакансия #бэкенд #офис #RoR #Ruby #Rails #Москва #фултайм\n\nВакансия: Middle Ruby on Rails backend developer\nКомпания: Revo.ru\nЛокация: Москва, м. Тульская\nФормат работы: офис\nЗанятость: полная, иногда можно работать из дома\nЗарплатная вилка: 170 000 - 190 000 руб net по ТК РФ + оплата конференций и ивентов\n\nРево — финтех компания, на рынке РФ сервис работает с 2012 года, с 2018 запустились в Польше. Поначалу разработку для нас вели команды ДжетРокетса и Эврона, а с выходом в окупаемость мы начали собирать внутреннюю разработку. И за последние несколько лет собрали крутую команду внутренней разработки.\n\nИщу 2-х Middle RoR-разработчиков: \n1 - на разработку&тимлидство B2C-командой (без опыта в тимлидстве, вакансия для тех, кто хочет прокачаться в лида);\n2 - на разработку в B2C-команду.\n\nЧто предлагаем:\n• ЗП до 190 000 руб net, оформление по ТК РФ;\n• место в CoreTeam команды B2C-разработки (4 млн B2C пользователей);\n• оплачиваемые конференции и ивенты;\n• иногородним оказываем помощь с переездом;\n• «железо» на выбор;\n• гибкое начало рабочего дня (8.00-11.00), возможность иногда работать удаленно;\n• турники, «шведская стенка» в 10 метрах от офиса;\n• офис в стиле Loft в Даниловской Мануфактуре, рядом метро Тульская;\n• возможность быстрого роста в тимлида команды B2C-разработки (текущий лид переходит в B2B-\nкоманду);\n• чай, кофе, печенье, снеки, фрукты, оборудованная комфортабельная кухня;\n• тусовки каждую последнюю пятницу месяца;\n\nКоманда B2C-разработки: 2 RoR-разработчика, 3 React-разработчика, 5 mobile-разработчиков, qa. \nСмежники: DevOps, qa, продуктологи, финансисты, рисковики, команда интеграции.\n\nЗадачи:\n• возможность работать и учиться на живом крупном международном проекте;\n• в составе продуктовой Scrum-команды участвовать в полном цикле разработки новых фич для конечных пользователей;\n• разработка новых и поддержка работоспособности существующих облачных сервисов;\n• участие в проектировании и разработке архитектур веб приложений;\n• разработка структур баз данных, хранимых процедур, представлений;\n• декомпозиция и оценка задач, выполнение планов 2-х недельных спринтов;\n• соблюдать баланс между скоростью разработки и перфекционизмом;\n• учиться новому и делиться знаниями с коллегами;\n\nТехнологический стек:\n• Ruby on Rails от 5.2 до 6;\n• PostgreSQL/MySQL;\n• Git, Sidekiq/DelayedJob, Airbrake, ActiveAdmin, Devise, Rspec, FactoryGirl;\n• Обмен между бэком (микросервисы) и фронтом по JSON API (на фронте React + Redux);\n • Nice to have (понимание, как работает): Docker, Kubernetes. \n\nНаши ожидания от кандидата:\n• понимание ООП, MVC, шаблонов проектирования;\n• коммерческий опыт разработки от 3-х лет;\n• понимание принципов RESTful API;\n• умение различать business critical и MVP участки проекта;\n• умение оценивать и выдерживать сроки разработки;\n• опыт работы с PostgreSQL, умение составлять сложные запросы, оптимизировать существующие на уровне чистого SQL;\n• опыт работы с системами кеширования;\n• следование стандартам разработки: стайлгайды, тесты, code review;\n\nДополнительным плюсом будет:\n• опыт работы в финтехе или продуктовой разработке;\n• опыт смены языка разработки и/или предметной области;\n• опыт разработки на функциональных языках.\n\nКонтакты: @akssld","markup":[{"type":"hashtag","offset":0,"length":9,"data":"вакансия"},{"type":"hashtag","offset":10,"length":7,"data":"бэкенд"},{"type":"hashtag","offset":18,"length":5,"data":"офис"},{"type":"hashtag","offset":24,"length":4,"data":"RoR"},{"type":"hashtag","offset":29,"length":5,"data":"Ruby"},{"type":"hashtag","offset":35,"length":6,"data":"Rails"},{"type":"hashtag","offset":42,"length":7,"data":"Москва"},{"type":"hashtag","offset":50,"length":8,"data":"фултайм"},{"type":"bold","offset":60,"length":9,"data":""},{"type":"bold","offset":109,"length":9,"data":""},{"type":"link","offset":119,"length":7,"data":"http://Revo.ru"},{"type":"bold","offset":127,"length":9,"data":""},{"type":"bold","offset":156,"length":14,"data":""},{"type":"bold","offset":176,"length":10,"data":""},{"type":"bold","offset":225,"length":17,"data":""},{"type":"bold","offset":310,"length":4,"data":""},{"type":"bold","offset":611,"length":35,"data":""},{"type":"bold","offset":796,"length":16,"data":""},{"type":"bold","offset":1450,"length":23,"data":""},{"type":"bold","offset":1545,"length":9,"data":""},{"type":"bold","offset":1625,"length":8,"data":""},{"type":"bold","offset":2225,"length":22,"data":""},{"type":"bold","offset":2523,"length":28,"data":""},{"type":"bold","offset":3009,"length":29,"data":""},{"type":"bold","offset":3191,"length":9,"data":""},{"type":"handle","offset":3201,"length":7,"data":"akssld"}],"date":"2020-02-04T13:31:23+00:00","link":"tg://resolve?domain=rubyjob&post=608","tags":[{"name":"ruby"},{"name":"ruby-on-rails"},{"name":"dotnet"},{"name":"reactjs"},{"name":"mobile"},{"name":"postgresql"},{"name":"mysql"},{"name":"git"},{"name":"devise"},{"name":"json"},{"name":"redux"},{"name":"docker"},{"name":"kubernetes"},{"name":"sql"},{"name":"react-redux"}],"cities":[{"code":"moscow"},{"code":"lida"},{"code":"nice"}],"allowsRemote":true}},{"node":{"__typename":"Job","id":"84934656-1001375797688","title":".net разработчик","text":"#вакансия #НижнийНовгород #офис #.net core #Middle#Senior\n\nГород: Нижний Новгород\nФормат работы: в офисе\nЗанятость: полная\nЗарплатная вилка: от 70 000 до 120 000 руб. на руки\nНазвание компании: Сезон\n\nСезон – это площадка с элементами социальной сети для продажи своей одежды и аксессуаров от известных брендов премиум-класса.\n\nЧто хотят:\n- Уверенное владение C#, .NET Framework, ASP.NET Core;\n- Знания и понимание принципов ООП, шаблонов проектирования;\n- Опыт работы и понимание асинхронного кода, блокировок и дедлоков;\n- Опыт работы с базами данных MS SQL и ORM;\n- Опыт разработки REST сервисов, работа с JSON и XML;\n- Опыт работы с Git\n\nЧто дают:\n- Современный офис в Нижнем Новгороде;\n- Официальное трудоустройство;\n- Частичная оплата личных образовательных мероприятий;\n- Любая профессиональная литература по заказу;\n- Гибкий график;\n- Дружный молодой коллектив;\n- Интересные неповторяющиеся задачи, никакой рутины.\n\nВопросы в любом  мессенджере +79297474161","markup":[{"type":"hashtag","offset":0,"length":9,"data":"вакансия"},{"type":"hashtag","offset":10,"length":15,"data":"НижнийНовгород"},{"type":"hashtag","offset":26,"length":5,"data":"офис"},{"type":"link","offset":380,"length":7,"data":"http://ASP.NET"},{"type":"link","offset":953,"length":12,"data":"tel:+79297474161"}],"date":"2020-01-31T15:41:51+00:00","link":"tg://resolve?domain=DotNetRuJobsFeed&post=81","tags":[{"name":"dotnet"},{"name":"csharp"},{"name":"sql"},{"name":"orm"},{"name":"rest"},{"name":"json"},{"name":"xml"},{"name":"git"},{"name":"net-core"},{"name":"asp-net"},{"name":"asp-net-core"}],"cities":[{"code":"nizhny-novgorod"}],"allowsRemote":false}},{"node":{"__typename":"Job","id":"80740352-1001375797688","title":".net разработчик","text":"#вакансия #НижнийНовгород #офис #.net core #Middle#Senior\n\nГород: Нижний Новгород\nФормат работы: в офисе\nЗанятость: полная\nЗарплатная вилка: от 70 000 до 120 000 руб. на руки\nНазвание компании: Сезон\n\nСезон – это площадка с элементами социальной сети для продажи своей одежды и аксессуаров от известных брендов премиум-класса.\n\nЧто хотят:\n- Уверенное владение C#, .NET Framework, ASP.NET Core;\n- Знания и понимание принципов ООП, шаблонов проектирования;\n- Опыт работы и понимание асинхронного кода, блокировок и дедлоков;\n- Опыт работы с базами данных MS SQL и ORM;\n- Опыт разработки REST сервисов, работа с JSON и XML;\n- Опыт работы с Git\n\nЧто дают:\n- Современный офис в Нижнем Новгороде;\n- Официальное трудоустройство;\n- Частичная оплата личных образовательных мероприятий;\n- Любая профессиональная литература по заказу;\n- Гибкий график;\n- Дружный молодой коллектив;\n- Интересные неповторяющиеся задачи, никакой рутины.\n\nВопросы в любом  мессенджере +79297474161","markup":[{"type":"hashtag","offset":0,"length":9,"data":"вакансия"},{"type":"hashtag","offset":10,"length":15,"data":"НижнийНовгород"},{"type":"hashtag","offset":26,"length":5,"data":"офис"},{"type":"link","offset":380,"length":7,"data":"http://ASP.NET"},{"type":"link","offset":953,"length":12,"data":"tel:+79297474161"}],"date":"2020-01-29T15:40:11+00:00","link":"tg://resolve?domain=DotNetRuJobsFeed&post=77","tags":[{"name":"dotnet"},{"name":"csharp"},{"name":"sql"},{"name":"orm"},{"name":"rest"},{"name":"json"},{"name":"xml"},{"name":"git"},{"name":"net-core"},{"name":"asp-net"},{"name":"asp-net-core"}],"cities":[{"code":"nizhny-novgorod"}],"allowsRemote":false}}]}}},"context":{}}