{"hash":"f5f6bf98bd95e769321482904cbbd488f77922fd","data":{"records":{"id":"russia/moscow","country":{"code":"russia","ruName":"Россия","enName":"Russia"},"city":{"code":"moscow","ruName":"Москва","enName":"Moscow"},"belongsTo":{"totalCount":476,"pageInfo":{"totalPages":48,"currentPage":37},"edges":[{"node":{"__typename":"Job","id":"17005805568-1001110946746","title":"Js разработчик","text":"#вакансия #удаленка #frontend #react\n\nПривет, мы ищем в команду опытного фронта, уровня middle, middle+, senior.\n\nГород и адрес офиса: Москва, Парк Культуры, Кропоткинская\n\nФормат работы: офис, удаленка\n\nЗанятость: полная\n\nЗарплатная вилка:  от 100к до 170к руб на руки\n\nОписание вакансии: \n\nМы занимаемся разработкой внутреннего продукта компании - платформой информационного оператора. Платформа состоит из разных модулей, среди которых есть картографический сервис, конструктор аналитики, личный кабинет и многие другие. Некоторые из них еще находятся на этапе проектирования. Пользователь получает продукт, собранный из модулей, как конструктор.\n\nПишем мы на React, в некоторых модулях используем дизайн систему Ant. Стараемся следить за кодом, делаем код-ревью, но иногда можем оставить технический долг “на потом” ради ускорения процесса.\n\nДля нас очень важным качеством является самостоятельность. Зачастую для нетривиальных задач нужно проводить анализ, делать ресерч. В большинстве случаев перед интеграцией с серверной частью мы делаем прототипы интерфейса без дизайна, основываясь на существующих компонентах и решениях.\n\nМы хотим, чтобы ты:\n- участвовал в принятии архитектурных решений и активно занимался разработкой проекта;\n- знал плюсы и минусы выбранного решения и был бы готов их обосновывать;\n- умел разбираться в чужом коде;\n- не пугался отсутствия подробного ТЗ или дизайна;\n\nНавыки, которые пригодятся:\n- уверенное владение JavaScript (es5, es6+);\n- хороший опыт работы с React (Hooks, Context API, etc);\n- опыт работы с библиотеками для управления состоянием приложения (redux/mobx);\n- понимание принципов REST;\n- понимание асинхронности;\n\nБудем плюсом, если ты:\n- строил карты на фронте (Openlayers, Mapbox, etc);\n- сам настраивал Webpack;\n- делал архитектуру приложений с нуля;\n- писал тесты (интеграционные, юнит);\n- писал на Node JS;\n\nНам не важно где ты находишься, если у тебя нормальный интернет и ты готов быть на связи в установленное время. Как правило, разброс активности ребят в команде с 10 утра до 8 вечера по Москве. Мы также можем предоставить тебе рабочее место в офисе в центре Москвы, возле Парка Культуры.\n\nОформляем по ТК, белая ЗП, ДМС по истечению испытательного срока, если нет препятствий к оформлению в России. Можем заключить договор ГПХ.\n\nПостарайся к отклику, помимо резюме, прикрепить проект, компонент или библиотеку, которыми ты гордишься, чтобы мы посмотрели на твой код.\n\nОдним из этапов собеседования может быть тестовое задание.\n\nНазвание компании: Центр 2М\n\nКонтакты: @fedorm\n\n—\n\n👉 Обсуждение вакансии в чате @javascript_jobs","markup":[{"type":"hashtag","offset":0,"length":9,"data":"вакансия"},{"type":"hashtag","offset":10,"length":9,"data":"удаленка"},{"type":"hashtag","offset":20,"length":9,"data":"frontend"},{"type":"hashtag","offset":30,"length":6,"data":"react"},{"type":"handle","offset":2529,"length":7,"data":"fedorm"},{"type":"handle","offset":2571,"length":16,"data":"javascript_jobs"}],"date":"2020-06-17T15:17:00+00:00","link":"tg://resolve?domain=javascript_jobs_feed&post=0","tags":[{"name":"javascript"},{"name":"reactjs"},{"name":"ant"},{"name":"redux"},{"name":"rest"},{"name":"webpack"},{"name":"nodejs"}],"cities":[{"code":"moscow"}],"allowsRemote":true}},{"node":{"__typename":"Job","id":"17004756992-1001110946746","title":"Js разработчик","text":"MIDDLE FRONTEND DEVELOPER\n#вакансия #Москва #Vue.js #javascript #vanilla.js #frontend\nКомпания-резидент Сколково в поиске FRONTEND DEVELOPER (Middle). \nMedpoint24 (https://medpoint24.ru/#about) - бурно развивающаяся компания, предоставляющая программное обеспечение и оборудование для автоматизированного проведения медицинских осмотров водителей. \nОфис в г. Москва, 7 мин от м. Марьина Роща/м. Савёловская \nФормат: фулл-тайм (гибкое начало рабочего дня), в офисе, оформление полностью по ТК. \nЗ/П - от 130 000net - 160 000net \nКоманда из 20 человек: разработчики (фронт, бэк, фуллстак), техлид, тестировщики, системный аналитик, DevOps инженер. \nЧТО ДЕЛАТЬ: \n-Разработка клиентской части web-приложений\n-Поддержка и рефакторинг существующего front-end\n-Участие в разработке архитектуры web-приложений\n-Принятие участия в тестировании web-приложений\nТРЕБОВАНИЯ: \n- Опыт от 1,5-2 года по направлению Frontend\n-Знание Vanilla.js, Vue.js 2.0, html 5, css 3, Javascript ES6 и выше\n-Понимание принципов Клиент-серверной архитектуры, REST, СКВ (git), *NIX систем\nПишите смело по всем вопросам: \nТелега:@hr_orlik\nПочта: v.orlik@medpoint24.ru\n\n—\n\n👉 Обсуждение вакансии в чате @javascript_jobs","markup":[{"type":"hashtag","offset":26,"length":9,"data":"вакансия"},{"type":"hashtag","offset":36,"length":7,"data":"Москва"},{"type":"hashtag","offset":44,"length":4,"data":"Vue"},{"type":"hashtag","offset":52,"length":11,"data":"javascript"},{"type":"hashtag","offset":64,"length":8,"data":"vanilla"},{"type":"hashtag","offset":76,"length":9,"data":"frontend"},{"type":"link","offset":164,"length":28,"data":"https://medpoint24.ru/#about"},{"type":"handle","offset":1096,"length":9,"data":"hr_orlik"},{"type":"link","offset":1113,"length":21,"data":"mailto:v.orlik@medpoint24.ru"},{"type":"handle","offset":1169,"length":16,"data":"javascript_jobs"}],"date":"2020-06-17T15:15:44+00:00","link":"tg://resolve?domain=javascript_jobs_feed&post=0","tags":[{"name":"javascript"},{"name":"vuejs"},{"name":"dotnet"},{"name":"web"},{"name":"html"},{"name":"css"},{"name":"rest"},{"name":"git"}],"cities":[{"code":"moscow"}],"allowsRemote":false}},{"node":{"__typename":"Job","id":"17000562688-1001110946746","title":"Js разработчик","text":"#вакансия #frontend #teamlead #Москва #офис #JS #fulltime\n\nГород и адрес офиса: Москва, м. Новокузнецкая/Павелецкая\nФормат работы: #офис\nЗанятость: #полная\nЗП: от 200к до 350к руб. нетт\n\nSports.ru – провайдер развлечений для любителей спорта.\nЕсть спорт. Есть болельщики. Мы заполняем среду между ними, оживляем ее, наполняем общением и другими развлечениями. Мы делаем не «сайты» или «приложения», а мультиплатформенные продукты, с учетом актуальной технологической парадигмы.\n\nСейчас нашему флагманскому проекту Sports.ru нужен Frontend Team Lead. Это – главное медиа о спорте на русском языке с аудиторией 18 млн пользователей в месяц. Highload-проект с десятками тысяч RPS, состоящий из самых разных продуктов – сайтов, мобильных приложений, email-рассылок, чат-ботов и многого другого.\n\nПроекту уже более 20-ти лет, но двадцатилетнего кода вы тут не увидите, хотя со старым наследием [handlebars на сервере + js-компоненты на самописном фреймворке на клиенте] все же придется столкнуться. Все новые фичи мы делаем на Vue.js + SSR.\n\nО задачах:\nМы ищем человека, который будет не только заниматься руководством и развитием frontend-команды и участвовать в распределении задач и планировании. [Сейчас в команде 5 разработчиков +/- middle уровня.]\n\nМы рассчитываем, что наш team lead будет самостоятельно разрабатывать сложные фичи, будет ответственным за принятие архитектурных решений на проекте и будет лидировать процесс переезда на новый стек.\n\nО наших ожиданиях:\nМы ожидаем, что вы в качестве team lead’a имеете успешный опыт управления командой frontend-разработки: умеете выстраивать процессы, нанимать, увольнять и растить людей.\nВ качестве разработчика умеете работать с git, понимаете принципы работы сборщиков (webpack, rollup), имеете опыт работы с одним из современных js-фреймворков (Vue, React), умеете и любите писать тесты.\n\nОб условиях:\nПросторный стильный офис возле м. Новокузнецкая/Третьяковская.\n“Белая” заработная плата.\nБесплатная медстраховка со стоматологией после испытательного срока.\nГибкий график работы с возможностью день-два в неделю работать удаленно.\nФрукты, снеки, чай, кофе, какао 24/7.\nКорпоративная скидка в спортзал и на занятия английским языком.\nКорпоративный футбол с тренером.\nФинансовая помощь при переезде из другого города.\nВозможности для профессионального развития (сложные задачи, новые технологии, оплата обучающих курсов и конференций, помощь в развитии персонального бренда (участие в конференциях, написание статей).\n\nНазвание компании: Sports.ru (Tribuna Digital)\nКому интересно, пишите в личку (@pbuyatova), рада буду поделиться подробностями :)\n\n—\n\n👉 Обсуждение вакансии в чате @javascript_jobs","markup":[{"type":"hashtag","offset":0,"length":9,"data":"вакансия"},{"type":"hashtag","offset":10,"length":9,"data":"frontend"},{"type":"hashtag","offset":20,"length":9,"data":"teamlead"},{"type":"hashtag","offset":30,"length":7,"data":"Москва"},{"type":"hashtag","offset":38,"length":5,"data":"офис"},{"type":"hashtag","offset":44,"length":3,"data":"JS"},{"type":"hashtag","offset":48,"length":9,"data":"fulltime"},{"type":"hashtag","offset":131,"length":5,"data":"офис"},{"type":"hashtag","offset":148,"length":7,"data":"полная"},{"type":"link","offset":187,"length":9,"data":"http://Sports.ru"},{"type":"link","offset":514,"length":9,"data":"http://Sports.ru"},{"type":"link","offset":2493,"length":9,"data":"http://Sports.ru"},{"type":"handle","offset":2553,"length":10,"data":"pbuyatova"},{"type":"handle","offset":2638,"length":16,"data":"javascript_jobs"}],"date":"2020-06-17T15:09:55+00:00","link":"tg://resolve?domain=javascript_jobs_feed&post=0","tags":[{"name":"javascript"},{"name":"vuejs"},{"name":"git"},{"name":"webpack"},{"name":"reactjs"}],"cities":[{"code":"moscow"}],"allowsRemote":true}},{"node":{"__typename":"Job","id":"71490863104-1001054966032","title":"Android разработчик","text":"#вакансия #developer #android #москва #бауманская\nAndroid Developer\nГород: Москва\nФормат работы: офис\nЗанятость: полная\nЗарплатная вилка: от 100.000 до 250.000 тыс. руб. фикс\n\nИщем middle/senior разработчика в digital-агентство WakeApp для разработки приложений-утилит (forecast, vpn, safe kids etc) + приложение мотивированного траффика.\n\nСтек: Kotlin, RxJava2/RxAndroid, Dagger2, Android Architecture Components (LiveData, ViewModel, Room, Navigation);\n\nС Вас:\n🔸опыт разработки от 2-ух лет;\n🔸хорошие знания стека;\n🔸знание ООП, MVP, MVVM;\n🔸ориентирование в Android SDK, гайдлайнах, best practices;\n\nС нас:\n🔹достойный уровень заработной платы;\n🔹сложные и интересные задачи;\n🔹комфортный офис в пешей доступности от метро (кухня с запасом фруктов, йогуртов, мороженого);\n🔹технологическая свобода;\n🔹отличный коллектив и пятничные посиделки;\n\nКонтакты: @natereaver","markup":[{"type":"hashtag","offset":0,"length":9,"data":"вакансия"},{"type":"hashtag","offset":10,"length":10,"data":"developer"},{"type":"hashtag","offset":21,"length":8,"data":"android"},{"type":"hashtag","offset":30,"length":7,"data":"москва"},{"type":"hashtag","offset":38,"length":11,"data":"бауманская"},{"type":"bold","offset":50,"length":17,"data":""},{"type":"bold","offset":75,"length":6,"data":""},{"type":"bold","offset":97,"length":4,"data":""},{"type":"bold","offset":113,"length":6,"data":""},{"type":"bold","offset":138,"length":15,"data":""},{"type":"bold","offset":154,"length":20,"data":""},{"type":"bold","offset":228,"length":7,"data":""},{"type":"handle","offset":858,"length":11,"data":"natereaver"}],"date":"2020-06-17T14:30:49+00:00","link":"tg://resolve?domain=mobile_jobs&post=0","tags":[{"name":"mobile"},{"name":"android"},{"name":"kotlin"},{"name":"mvvm"}],"cities":[{"code":"moscow"}],"allowsRemote":false}},{"node":{"__typename":"Job","id":"91048902656-1001067529236","title":"Python разработчик","text":"#вакансия #python #django #middle #senior #фултайм #москва #remote\n\nКомпания: РБК\nГород: Москва\nУсловия: фуллтайм удаленка/офис, м. Калужская\nдо 200000 руб.+ДМС, скидки на англ.яз. и фитнес\n\nВ команду медиахолдинга РБК  ищем Python-разработчика в проект «РБК Pro»: платформа с платным бизнес-контентом по подписке и миллионной аудиторией.\n\nПри работе над продуктом предстоит решать множество интересных технических и архитектурных задач: обеспечивать устойчивость системы к высоким нагрузкам, полностью персонализировать представление данных для каждого пользователя, реализовывать гибкую модель тарификации и подписок.\n\nВ работе используем следующие инструменты: Python3, Django REST Framework (DRF), Aiohttp, кластеры Postgresql, Elasticsearch. Деплоим в кластер Kubernetes \n\nНаши пожелания:\n- опыт разработки приложений на Python3 от 2-х лет\n- уверенное знание фреймворка Django\n- опыт разработки на aiohttp;\n\nДетали можно посмотреть тут \ncall/text me: @marie_clair","markup":[{"type":"hashtag","offset":0,"length":9,"data":"вакансия"},{"type":"hashtag","offset":10,"length":7,"data":"python"},{"type":"hashtag","offset":18,"length":7,"data":"django"},{"type":"hashtag","offset":26,"length":7,"data":"middle"},{"type":"hashtag","offset":34,"length":7,"data":"senior"},{"type":"hashtag","offset":42,"length":8,"data":"фултайм"},{"type":"hashtag","offset":51,"length":7,"data":"москва"},{"type":"hashtag","offset":59,"length":7,"data":"remote"},{"type":"link","offset":937,"length":3,"data":"https://hh.ru/vacancy/36806782"},{"type":"handle","offset":956,"length":12,"data":"marie_clair"}],"date":"2020-06-17T14:00:30+00:00","link":"tg://resolve?domain=python_jobs&post=0","tags":[{"name":"python"},{"name":"django"},{"name":"rest"},{"name":"postgresql"},{"name":"elasticsearch"},{"name":"kubernetes"}],"cities":[{"code":"moscow"}],"allowsRemote":true}},{"node":{"__typename":"Job","id":"71485620224-1001054966032","title":"Ios разработчик","text":"#вакансия #Москва #fulltime #swift #middle \nКомпания: Trinity Monsters\nПозиция: middle iOS developer\nЛокация: Россия, Москва, офис в самом центре, у метро Охотный Ряд\nЗанятость: полная \n\nЗП: от 150.000 до 200.000 руб. на руки\n\nНа новый проект (с нуля), нужен разработчик в команду. Мы занимаемся разработкой с 2013 года и входим в ТОП-10 лучших разработчиков Москвы. У нас небольшой коллектив, с которым мы реализуем амбициозные проекты (Nespresso, Азбука Вкуса, Газпром-Нефть, ВТБ, несколько внутренних проектов-стартапов).\n\nИщем разработчиков уровня middle и выше.  \n\nПочему мы:\n⁃ гибкий график\n⁃ отлаженный менеджмент\n⁃ большие проекты \n⁃ работа с разнообразными интересными и амбициозными проектами\n⁃ сложные технические задачи, возможность развития и роста\n⁃ просторный комфортный офис в 2-х минутах от метро Охотный ряд с кухней, чаем, кофе и т.д.\n⁃ возможность влиять на продукт и вносить свои идеи\n⁃ оформление по ТК РФ\n\nДля связи @vicemik","markup":[{"type":"hashtag","offset":0,"length":9,"data":"вакансия"},{"type":"hashtag","offset":10,"length":7,"data":"Москва"},{"type":"hashtag","offset":18,"length":9,"data":"fulltime"},{"type":"hashtag","offset":28,"length":6,"data":"swift"},{"type":"hashtag","offset":35,"length":7,"data":"middle"},{"type":"handle","offset":939,"length":8,"data":"vicemik"}],"date":"2020-06-17T13:54:47+00:00","link":"tg://resolve?domain=mobile_jobs&post=0","tags":[{"name":"mobile"},{"name":"ios"},{"name":"swift"}],"cities":[{"code":"moscow"}],"allowsRemote":false}},{"node":{"__typename":"Job","id":"71484571648-1001054966032","title":"Android разработчик","text":"#вакансия #iOS #android #developer #remote #InStat \n\nГород и адрес офиса: Москва, ст.м. Автозаводская\nФормат работы: удаленка\nЗанятость: полная/проектная\nЗарплатная вилка (обязательно): от 80 до 130 net\nОписание вакансии:\n\nВсем привет. Ищем разработчиков приложений для Apple TV и Android Box. Мы занимаемся сложными задачами, а также хотим разработать с нуля приложения, а у вас есть возможность поработать в спортивном стартапе и сделать лучшее приложение на рынке.\nЧто главное:\nОпыт разработки приложений Apple TV/Android box обязательно;\nОпыт по созданию продукта для просмотра видео-контента\nЗадачи:\nРазработка OTT приложения для Apple TV/Android box, анализ и оценка задач;\nпроведение code review, участие в SCRUM активностях\nТребования:\nXcode;опыт разработки нативных приложений на платформе iOS (swift) не менее 2-х лет, работа с GIT, Unit-test; знание основных паттернов проектирования, REST API; SOLID, GCD, MVP/MVVM, опыт разработки по Apple TV/Android box, знание Android Studio \nМы предлагаем:\nофициальное трудоустройство, полный соц. пакет;удаленное сотрудничество\nПодробнее о вакансиях тут: \nhttps://hh.ru/vacancy/37544424\nhttps://hh.ru/vacancy/37520710\n\nНазвание компании: InStat (https://instatsport.com/)\n\nКонтакты: yana.gurinovich@instatsport.com\n @Yana_Gurinovich","markup":[{"type":"hashtag","offset":0,"length":9,"data":"вакансия"},{"type":"hashtag","offset":10,"length":4,"data":"iOS"},{"type":"hashtag","offset":15,"length":8,"data":"android"},{"type":"hashtag","offset":24,"length":10,"data":"developer"},{"type":"hashtag","offset":35,"length":7,"data":"remote"},{"type":"hashtag","offset":43,"length":7,"data":"InStat"},{"type":"link","offset":1107,"length":30,"data":"https://hh.ru/vacancy/37544424"},{"type":"link","offset":1138,"length":30,"data":"https://hh.ru/vacancy/37520710"},{"type":"link","offset":1197,"length":24,"data":"https://instatsport.com/"},{"type":"link","offset":1234,"length":31,"data":"mailto:yana.gurinovich@instatsport.com"},{"type":"handle","offset":1267,"length":16,"data":"Yana_Gurinovich"}],"date":"2020-06-17T13:46:14+00:00","link":"tg://resolve?domain=mobile_jobs&post=0","tags":[{"name":"mobile"},{"name":"android"},{"name":"ios"},{"name":"dotnet"},{"name":"xcode"},{"name":"swift"},{"name":"git"},{"name":"rest"},{"name":"mvvm"},{"name":"android-studio"}],"cities":[{"code":"moscow"}],"allowsRemote":true}},{"node":{"__typename":"Job","id":"103060340736-1001089317451","title":"Qa инженер","text":"#вакансия #ВТБ #нагрузочное_тестирование #Москва#HP_ LoadRunner \n\nДолжность: Тест-менеджер по нагрузочному тестированию Город: Москва \nФормат работы: офис \nЗанятость: полная занятость. \nЗарплата: от 170 000 \n\n📍 Чем предстоит заниматься:   \n• управлять и участвовать в процессе нагрузочного тестирования; \n• анализировать требования и сопутствующей проектной документации; \n• отвечать за успешное прохождение нагрузочного тестирование ПО; \n• планировать и организовывать работу по нагрузочному ПО (HP LoadRunner); \n• взаимодействовать с заказчиками, аналитиками и разработчиками; \n• совершенствовать процессы тестирования будущих этапов проекта. \n\n📍 Ищем человека, который имеет: \n• опыт в нагрузочном тестирование от 2х лет; \n• опыт работы с HP LoadRunner; \n• понимание принципов построения тестовых сред; \n• знания серверного оборудования, систем хранилищ данных, сетей, серверных операционных систем и систем виртуализации; \n• опыт подготовки и анализа документации. \n\nРада буду ответить на вопросы, контакты: \n📲  tg: @NChugreeva \n📧 chugreeva@vtb.ru","markup":[{"type":"hashtag","offset":0,"length":9,"data":"вакансия"},{"type":"hashtag","offset":10,"length":4,"data":"ВТБ"},{"type":"hashtag","offset":15,"length":25,"data":"нагрузочное_тестирование"},{"type":"handle","offset":1023,"length":11,"data":"NChugreeva"},{"type":"link","offset":1039,"length":16,"data":"mailto:chugreeva@vtb.ru"}],"date":"2020-06-17T13:27:29+00:00","link":"tg://resolve?domain=qa_jobs&post=0","tags":[{"name":"qa"}],"cities":[{"code":"moscow"}],"allowsRemote":false}},{"node":{"__typename":"Job","id":"2218786816-1001134745498","title":"Devops инженер","text":"#вакансия #DevOps\n\nDevOps Engineer \nГород и адрес офиса: Москва, Сочи, Новосибирск \n\nФормат работы: удаленка\n\nЗанятость: полная\n\nЗарплатная вилка: от 40000 до 60000 USD в год \n\nКрупная международная компания по разработке игр ищет в свою команду DevOps инженера. \n\nТребования: \nDevOps/SRE, ключевые слова:\nTypeScrypt, Node.js, SRE, SDN, PoP, VPN, динамическая маршрутизация, инкапсуляция трафика, Kubernetes, Helm и что-нибудь из стораджа типа Lustre, CEPH и про Apache Spark, Hadoop и особенно HDFS\n\nБудет плюсом: \n• Опыт удаленной работы.\n\nP.S. Ищем супер ниндзю, который творит чудеса;) \n\nКонтакт для связи: @nastya_stret\n\n—\n\n👉 Обсуждение вакансии в чате @devops_jobs","markup":[{"type":"hashtag","offset":0,"length":9,"data":"вакансия"},{"type":"hashtag","offset":10,"length":7,"data":"DevOps"},{"type":"handle","offset":611,"length":13,"data":"nastya_stret"},{"type":"handle","offset":659,"length":12,"data":"devops_jobs"}],"date":"2020-06-17T11:52:49+00:00","link":"tg://resolve?domain=devops_jobs_feed&post=2116","tags":[{"name":"nodejs"},{"name":"kubernetes"},{"name":"apache"},{"name":"hadoop"},{"name":"hdfs"},{"name":"apache-spark"}],"cities":[{"code":"moscow"},{"code":"sochi"},{"code":"novosibirsk"}],"allowsRemote":true}},{"node":{"__typename":"Job","id":"346030080-1001352129329","title":"Golang разработчик","text":"#вакансия #go #golang #офис #fulltime\nГород: Москва. Формат работы: офис \n♦️О компании:Marksman ищет golang разработчика. \nРоссийская продуктовая команда, отвечает на запрос от сегментов B2B и B2G. \n\n♦️Проект: Развитие инфраструктурного облачного решения. Highload.\n♦️Задачи: Проектирование архитектуры, разработка микросервисов на языке Go, code review. Мы активно работаем над созданием условий для развития программной экосистемы. Совершенствуется набор средств разработки (SDK) и интерфейс прикладного программирования (API).  ♦️Уровень позиции: несколько вакансий от Middle до уверенного Senior. \n\n♦️Требования: опыт коммерческой разработки  не менее 3-х лет; Golang - от 1,5 лет; опыт многопоточного программирования; опыт разработки высоконагруженных серверов или веб-приложений.\n♦️ Условия работы: Пока карантин удаленка, потом возвращение в офис. Гибкий рабочий график 5/2 (возможность выбрать время начала рабочего дня), ДМС + стоматология, отсутствие дресс-кода, возможность обучения и участия в международных конференциях за счёт компании.  По зп - зависит от уровня (смотрим от middle до senior): 140.000-240.000.\n\n♦️ За деталями - @dariaveresh","markup":[{"type":"hashtag","offset":0,"length":9,"data":"вакансия"},{"type":"hashtag","offset":10,"length":3,"data":"go"},{"type":"hashtag","offset":14,"length":7,"data":"golang"},{"type":"hashtag","offset":22,"length":5,"data":"офис"},{"type":"hashtag","offset":28,"length":9,"data":"fulltime"},{"type":"handle","offset":1145,"length":12,"data":"dariaveresh"}],"date":"2020-06-17T11:50:23+00:00","link":"tg://resolve?domain=gogetajobfeed&post=330","tags":[{"name":"go"}],"cities":[{"code":"moscow"}],"allowsRemote":true}}]}}},"context":{}}