{"hash":"f5f6bf98bd95e769321482904cbbd488f77922fd","data":{"records":{"id":"maven","name":"maven","belongsTo":{"totalCount":26,"pageInfo":{"totalPages":3,"currentPage":3},"edges":[{"node":{"__typename":"Job","id":"1700790272-1001091028994","title":"Java разработчик","text":"Вакансия: #java #senior\nКомпания: #сбертех\nЛокация: Москва, м. Тульская, Новоданиловская наб, д.10\nФормат работы: офис (сейчас удаленка)\nЗарплатная вилка: 170-270к\n\nЕдиный сервис аутентификации - это система, которая принимает решение о допуске клиентов через различные каналы обслуживания (веб, мобильное приложение, банкомат) к сервисам экосистемы Сбербанка. Система является высоконагруженной, так как одновременно может обслуживать более 10к операций в секунду.\n\nЗадачи:\n • разработка back-end web-приложения; \n • участие разработки архитектуры продукта;\n • участие в code review. \n\nОбязательно:\n· Опыт работы с Java от 2ух лет (хорошее знание core, Collections, jdbc, IO, Exceptions)\n· Опыт работы с системами сборки: maven или gradle\n· Опыт работы с БД, знание языка запросов SQL\n· Знакомство с ORM Hibernate\n\nБудет плюсом:\n· понимание многопоточности в Java;\n· знакомство со Spring Framework\n\nБонусы: \n • гибкое начало дня, отсутствие микроменеджмента и дресс-кода\n • отличная атмосфера в команде, способность слышать мнение каждого\n • современное железо (можно выбрать ноут MacOS или Windows) \n • возможность сменить проект\n • ДМС, спортзал, корпоративные мероприятия\n\nКонтакт: @hralexandra 📲","markup":[{"type":"hashtag","offset":10,"length":5,"data":"java"},{"type":"hashtag","offset":16,"length":7,"data":"senior"},{"type":"hashtag","offset":34,"length":8,"data":"сбертех"},{"type":"handle","offset":1186,"length":12,"data":"hralexandra"}],"date":"2020-06-16T15:48:40+00:00","link":"tg://resolve?domain=jvmjobs&post=1622","tags":[{"name":"java"},{"name":"jvm"},{"name":"web"},{"name":"jdbc"},{"name":"maven"},{"name":"gradle"},{"name":"sql"},{"name":"orm"},{"name":"hibernate"},{"name":"spring"},{"name":"macos"},{"name":"windows"}],"cities":[{"code":"moscow"}],"allowsRemote":true}},{"node":{"__typename":"Job","id":"1696595968-1001091028994","title":"Java разработчик","text":"#вакансия  #офис #удаленка #регионы #Москва #Java #Spring #senior #middle #backend\nЛокация: #регион #Москва\nФормат работы: #офис #fulltime #удаленка\nЗ/п: 150-250 NET\nКомпания: МД-IT\nВедущий разработчик/Разработчик JAVA  \nВсем привет!\n\n✅Нужны классные разработчики Java уровня Middle, Senior, Lead\n\n👉Немного о нас: \nЦентр разработки МД-IT реализует проекты федерального масштаба под ключ. Наши специалисты работают с крупнейшими системными интеграторами, выполняя задачи по проектированию, разработке, тестированию, сопровождению и эксплуатации внедренных решений. \nНаши офисы расположены в Москве, Ростове-на –Дону, Нижнем Новгороде. \n\n👉Что ждем от Вас:\n* Уверенные знания java 8+, spring boot, будет плюсом знание Kotlin. \n Глубокие знания и практический опыт использования Java в нагруженных многопоточных приложениях Hibernate, Spring, Maven3, ХML\n\n* Опыт проектирования версионнированных REST-API, знание grpc будет плюсом\n\n* Понимание принципов асинхронного программирования, знание одного из: netty, nio, r2dbc\n\n* Желателен опыт использования библиотек реактивного программирования (rxjava, reactor) или опыт работы с vert.x, ratpack или http4\n\n*Приветствуется опыт работы с современными архитектурами, Apache Ignite, Apache Kafka\n\n👉Что мы можем предложить Вам:\n\n* Работа: удаленка\n\n*График работы 5/2, команда работает с 9(10) до 18(19) ч. по МСК\n\n*Заработную плату белую, конкурентоспособную (рассмотрим ваши предложения).\n\n* Работа в команде сообразительных, открытых, стремящихся к развитию единомышленников.\n\n* Крупные и долгосрочные проекты, увеличивающие профессиональный кругозор и опыт работы. \n* Плюшки к чаю и кофе, оплачиваемая мобильная связь, оплачиваемые тренинги и курсы для повышения квалификации. \n\n🖍 Вопросы, резюме прошу писать в личку Елене @Elenazlh","markup":[{"type":"hashtag","offset":0,"length":9,"data":"вакансия"},{"type":"hashtag","offset":11,"length":5,"data":"офис"},{"type":"hashtag","offset":17,"length":9,"data":"удаленка"},{"type":"hashtag","offset":27,"length":8,"data":"регионы"},{"type":"hashtag","offset":36,"length":7,"data":"Москва"},{"type":"hashtag","offset":44,"length":5,"data":"Java"},{"type":"hashtag","offset":50,"length":7,"data":"Spring"},{"type":"hashtag","offset":58,"length":7,"data":"senior"},{"type":"hashtag","offset":66,"length":7,"data":"middle"},{"type":"hashtag","offset":74,"length":8,"data":"backend"},{"type":"hashtag","offset":92,"length":7,"data":"регион"},{"type":"hashtag","offset":100,"length":7,"data":"Москва"},{"type":"hashtag","offset":123,"length":5,"data":"офис"},{"type":"hashtag","offset":129,"length":9,"data":"fulltime"},{"type":"hashtag","offset":139,"length":9,"data":"удаленка"},{"type":"handle","offset":1772,"length":9,"data":"Elenazlh"}],"date":"2020-06-16T11:17:46+00:00","link":"tg://resolve?domain=jvmjobs&post=1618","tags":[{"name":"java"},{"name":"jvm"},{"name":"spring"},{"name":"dotnet"},{"name":"kotlin"},{"name":"hibernate"},{"name":"maven"},{"name":"rest"},{"name":"apache"},{"name":"kafka"},{"name":"spring-boot"}],"cities":[{"code":"moscow"}],"allowsRemote":true}},{"node":{"__typename":"Job","id":"102940803072-1001089317451","title":"Qa инженер","text":"#QAинженервакансия #QAjava #автотестыjava #QAМосква #вакансияМосква #middle \nДобрый день! В настоящий момент нахожусь в поисках QА-инженера для международной аутсорсинговой компании на проект банковской сферы.\nМестоположение: Москва, м. Кутузовская, либо Нагатинская\nОплата труда: 130-160.000 рублей\nФункциональные задачи;\n•  Анализ требований\n•  Разработка автотестов на Java + Selenium\n•  Актуализация автотестов\n•  Анализ ошибок\n•  Формирование отчетов\nТребования:\n•  Опыт разработки на Java + Selenium от 2-х лет\n•  Знание инструмента Maven\n•  Знание Junit и Allure\n•  Знание XML\n•  Знание SQL (MS SQL, Oracle)\n•  Опыт работы с Git, JenkinS\n•  Опыт работы с Bug Tracking Systems (Jira, Redmine)\n•  Опыт работы с линейкой HP ALM\n•  Знание BDD (Cucumber)\nУсловия:\n•  Конкурентная заработная плата\n•  Оформление в соответствии с ТК РФ, соц. пакет\n•  Работа в команде профессионалов\n•  Обучение, наставничество в процессе работы\nБуду рада ответить на Ваши вопросы: @LyKatrin, ekaterina706712@mail.ru\n\n•","markup":[{"type":"hashtag","offset":0,"length":18,"data":"QAинженервакансия"},{"type":"hashtag","offset":19,"length":7,"data":"QAjava"},{"type":"hashtag","offset":27,"length":14,"data":"автотестыjava"},{"type":"hashtag","offset":42,"length":9,"data":"QAМосква"},{"type":"hashtag","offset":52,"length":15,"data":"вакансияМосква"},{"type":"hashtag","offset":68,"length":7,"data":"middle"},{"type":"handle","offset":965,"length":9,"data":"LyKatrin"},{"type":"link","offset":976,"length":23,"data":"mailto:ekaterina706712@mail.ru"}],"date":"2020-06-16T09:14:53+00:00","link":"tg://resolve?domain=qa_jobs&post=0","tags":[{"name":"qa"},{"name":"java"},{"name":"selenium"},{"name":"maven"},{"name":"junit"},{"name":"xml"},{"name":"sql"},{"name":"oracle"},{"name":"git"},{"name":"jenkins"},{"name":"cucumber"}],"cities":[{"code":"moscow"}],"allowsRemote":false}},{"node":{"__typename":"Job","id":"1688207360-1001091028994","title":"Java разработчик","text":"#вакансия #офис #Самара #Java\n\nДобрый день!\n🧐 Очень срочно разыскивается Senior или прошаренный Middle Java developer в компанию Open Code.\n\n👨‍👩‍👧‍👦В компании 200 разработчиков, штат постоянно растет.\n\n👩🏻‍🏫Каждый год стартуют новые проекты, под проекты обновляют стек, используют новые технологии.\n\n👫Команды внутри собирают по 5-8, максимум 12 человек, к разработчикам присоединяются тестировщики и аналитики, команды участвуют в совещаниях и формировании ТЗ\n\n👓У компании есть свой учебный центр. http://open-distance.ru/\nOpen Code является партнером Санкт-Петербургского университета ИТМО. На базе компании открыта  кафедра магистратуры этого ВУЗа. \nСотрудники имеют возможность получить на бюджетной основе образование степени магистра, обучаясь в офисе компании и на основе своих рабочих проектов. \nВыдаются дипломы гос. образца Санкт-Петербургского университета ИТМО об окончании магистратуры.\n\n🤝Тебе скажут уверенное \"да\", протянут руку и пригласят в команду если:\n- ты больше 3-х лет восхищен Java 8+, особенно любишь Spring;\n- тебе нравится, как звучит слово Hibernate;\n- знаешь, что в кишочках одной из СУБД: PostgreSQL, Oracle, MS SQL Server;\n- Git. Ну, ты понимаешь, что надо =) ;\n- ActiveMQ, Hadoop, Lucene, Elasticsearch, Gradle, Maven - вот это вот все.\n\n🧑🏻‍💻Чем заняться вместо работы:\n- Разрабатывать новый функционал серверной части\n- Участвовать в проектировании отдельных модулей системы\n- Разработывать интеграцию с внешними системами\n- Рефакторить поддерживать существующий код\n- Покрывать код юнит-тестами\n\n🧁А теперь о плюшках, кроме обучения в ИТМО:\n- ЗП 150-170 в руки\n- Занятия английским языком в офисе компании\n- Бассейн, фитнес-центр\n- Футбол/волейбол\n- Дружная команда\n- Посещение культурных мероприятий за счет компании\n- Перспектива карьерного роста\n- И другие заслуженные ништяки от компании\n\n\n🏄🏻Отличая возможность научиться чему-то новому с комфортом!\n\nЗаинтересовало?\n\n📲Пиши мне. @reanimatsiya","markup":[{"type":"hashtag","offset":0,"length":9,"data":"вакансия"},{"type":"hashtag","offset":10,"length":5,"data":"офис"},{"type":"hashtag","offset":16,"length":7,"data":"Самара"},{"type":"hashtag","offset":24,"length":5,"data":"Java"},{"type":"bold","offset":103,"length":15,"data":""},{"type":"bold","offset":130,"length":9,"data":""},{"type":"link","offset":507,"length":24,"data":"http://open-distance.ru/"},{"type":"bold","offset":911,"length":70,"data":""},{"type":"bold","offset":1286,"length":28,"data":""},{"type":"bold","offset":1544,"length":43,"data":""},{"type":"bold","offset":1844,"length":59,"data":""},{"type":"handle","offset":1932,"length":13,"data":"reanimatsiya"}],"date":"2020-06-16T08:52:54+00:00","link":"tg://resolve?domain=jvmjobs&post=1610","tags":[{"name":"java"},{"name":"jvm"},{"name":"spring"},{"name":"hibernate"},{"name":"postgresql"},{"name":"oracle"},{"name":"sql"},{"name":"git"},{"name":"hadoop"},{"name":"lucene"},{"name":"elasticsearch"},{"name":"gradle"},{"name":"maven"},{"name":"sql-server"}],"cities":[{"code":"samara"}],"allowsRemote":false}},{"node":{"__typename":"Job","id":"1686110208-1001091028994","title":"Java разработчик","text":"#вакансия #java #senior #middle \nЛокация: Саратов, Самара, Кемерово \nЗП: 80.000-170.000 на руки\nИщем в команду Java dev  уровня middle/senior в связи с большим количеством интересных проектов и расширения команды.\nКратко по стеку: \n[ Java 11+, Maven, Spring Boot 2+, Hibernate 5+, PostgreSQL 12, RabbitMQ ]\nТребования:\n - Java SE 8 и выше \n- Spring / Spring Boot \n- Hibernate или MyBatis\n- SQL (PostgreSQL) \n- Apache Tomcat или Eclipse Jetty или другой app server\n- Принципы ООП\n- Web сервисы (REST или SOAP).\n Будет плюсом: опыт работы с одним из актуальных frontend фреймворков - Angular, React, Vue; понимание принципов работы протоколов HTTP, HTTPS; работа с очередями (ActiveMQ, RabbitMQ) и опыт работы с Docker.\nЧто предлагаем:\n- белая з/п и оформление в штат;\n- интересные проекты и адекватное руководство; \n- возможность профессионального и карьерного роста;\n- формат интервью 1 этап по Skype или Zoom\nДля связи и резюме @KaterinaHR","markup":[{"type":"hashtag","offset":0,"length":9,"data":"вакансия"},{"type":"hashtag","offset":10,"length":5,"data":"java"},{"type":"hashtag","offset":16,"length":7,"data":"senior"},{"type":"hashtag","offset":24,"length":7,"data":"middle"},{"type":"handle","offset":929,"length":11,"data":"KaterinaHR"}],"date":"2020-06-16T07:55:35+00:00","link":"tg://resolve?domain=jvmjobs&post=1608","tags":[{"name":"java"},{"name":"jvm"},{"name":"maven"},{"name":"spring"},{"name":"hibernate"},{"name":"postgresql"},{"name":"rabbitmq"},{"name":"sql"},{"name":"apache"},{"name":"tomcat"},{"name":"eclipse"},{"name":"jetty"},{"name":"web"},{"name":"rest"},{"name":"soap"},{"name":"angularjs"},{"name":"reactjs"},{"name":"vuejs"},{"name":"docker"},{"name":"spring-boot"}],"cities":[{"code":"saratov"},{"code":"samara"},{"code":"kemerovo"}],"allowsRemote":false}},{"node":{"__typename":"Job","id":"1678770176-1001091028994","title":"Java разработчик","text":"#вакансия #java #senior #middle\nКомпания: #сбербанктехнологии #сбертех\nЛокация: #москва\nЗП: 180-270 + премии\nКонтакты: @okashchenko, kashchenko.o.bor@sberbank.ru\n\nМы - современная инженерная компания, продолжаем расти и развиваться. Активно ищем Java разработчиков уровня middle и senior в связи с расширением команды для Образовательной платформы - SaaS решения для автоматизации обучения в средних школах. Разработка началась марте 2019, сейчас дорабатываем функционал и создаём фичи.\n\n  Требования:\n· Знание Java 8+ (хорошее знание core, collections), Spring IoC 4-5, от 2х лет\n· Системы сборки maven или gradle\n· Опыт использования jUnit/TestNG\n· БД: jdbc, SQL(лучше PostgresQL) на уровне написания средних запросов\n· VCS: опыт работы с git в команде\n· Опыт командной разработки\n\n  Очень желательно:\n· Умение работать с linux command line, писать минимальные bash-скрипты.\n· Понимание оптимизации SQL-запросов\n· Опыт разработки промышленных микросервисных приложений\n· Опыт работы со SpringBoot, MongoDB, Docker/Kubernetes\n\n  Наши условия:\n· Конкурентная «белая» заработная плата (оклад + премии)\n· Профессиональный и зарплатный рост\n· Интересные, сложные, амбициозные задачи, молодая и сильная команда профессионалов\n· Обучение за счет компании в Корпоративном университете\n· Льготная ипотека от Сбербанка, ДМС\n· Страхование от несчастных случаев\n· Тренажерный зал\n\nБуду рада обсудить вакансию и ответить на ваши вопросы!","markup":[{"type":"hashtag","offset":0,"length":9,"data":"вакансия"},{"type":"hashtag","offset":10,"length":5,"data":"java"},{"type":"hashtag","offset":16,"length":7,"data":"senior"},{"type":"hashtag","offset":24,"length":7,"data":"middle"},{"type":"hashtag","offset":42,"length":19,"data":"сбербанктехнологии"},{"type":"hashtag","offset":62,"length":8,"data":"сбертех"},{"type":"hashtag","offset":80,"length":7,"data":"москва"},{"type":"handle","offset":119,"length":12,"data":"okashchenko"},{"type":"link","offset":133,"length":28,"data":"mailto:kashchenko.o.bor@sberbank.ru"}],"date":"2020-06-15T07:12:16+00:00","link":"tg://resolve?domain=jvmjobs&post=1601","tags":[{"name":"java"},{"name":"jvm"},{"name":"spring"},{"name":"maven"},{"name":"gradle"},{"name":"junit"},{"name":"jdbc"},{"name":"sql"},{"name":"postgresql"},{"name":"git"},{"name":"linux"},{"name":"bash"},{"name":"mongodb"},{"name":"docker"},{"name":"kubernetes"}],"cities":[{"code":"moscow"}],"allowsRemote":false}}]}}},"context":{}}