{"hash":"f5f6bf98bd95e769321482904cbbd488f77922fd","data":{"records":{"id":"rest","name":"rest","belongsTo":{"totalCount":192,"pageInfo":{"totalPages":20,"currentPage":10},"edges":[{"node":{"__typename":"Job","id":"2249195520-1001134745498","title":"Devops engineer","text":"#вакансия #devops #azure #remote #спб #fulltime #релокация \n\nSenior DevOps Remote Engineer (Azure)\n\nCity: Saint-Petersburg, metro Mayakovskaya | Chernyshevskaya \nFormat: office or remote (both are possible)\nSalary: ₽220-300k\n\nProject: We are BeKitzur and now we are looking for a Senior DevOps Engineer to support and drive innovative collaboration software products used by dozens of thousands of clients across the world. \nThe platform is an Azure-hosted solution and offers you a great opportunity in driving state-of-the-art CI/CD, security, monitoring and DB management. This is a great position for an energetic and ambitious professional to get to the next career step and become a member of a stable and growing international company.\n\nResponsibilities:\n🔹Set up the best monitoring ever - unified, transparent and flexible\n🔹Improve our CI/CD process and automation to deliver faster, more frequent and reliable releases\n🔹Migrate databases to more secure and powerful clusters\n🔹Migrate applications to Kubernetes\n🔹Increase High-Availability and Reliability of applications and DB clusters\n🔹Optimize Azure costs and design more cost-effective DevOps solutions\n🔹Improve the existing DevOps processes and technologies, such as CI/CD, monitoring, logs aggregation, and security\n🔹Participate in all DevOps decisions together with Senior engineers and Tech leads\n🔹Define and implement the security architecture to ensure data security at rest and in transit, application security, key management, identity management, authentication, and authorization with OIDC and OAuth2, infrastructure security with Azure VNets, NSGs, UDR, etc.\n\nRequired Skills and Experience:\n🔹5 years of experience in IT with good knowledge in Linux\n🔹Experience in maintaining a production data processing system\n🔹Hands-on experience with git, Jenkins, Docker, and MySQL\n🔹Azure Networking - Azure Virtual Networks, ExpressRoute, NSG, App Service Environment\n🔹Azure PAAS Services Security and Provisioning\n🔹Cloud Security - Azure Key Vault, HSTS, SSL/TLS Ingress Control\n🔹Cloud monitoring - Experience with Azure Log Analytics, Azure Monitor, DataDog\n🔹Experience with any configuration management tool (Ansible, Saltstack, Chef, Puppet, etc), Ansible preferred\n🔹Hands-on experience with cloud technologies (Azure in our case)\n🔹Bash and Python scripting skills\n🔹Good written and spoken English\n\nBenefits:\n🔹Extremely interesting complex products\n🔹The most modern technology stack\n🔹Wonderful result-oriented team of senior professionals\n🔹Support for all your Cloud studies and certificates (you will have access and we will pay for exams)\n🔹Friendly atmosphere\n🔹Competitive salary\n🔹Medical insurance, sport, English classes in the office\n🔹Business trips to the US (Silicon Valley)\n🔹Relocation package to St.Petersburg\n🔹Opportunity to build a career in a growing branch of the stable US company\n🔹Professional growth in the international business environment\n\n📩\nОткликнуться: @Khabibulin_it\n\n—\n\n👉 Обсуждение вакансии в чате @devops_jobs","markup":[{"type":"hashtag","offset":0,"length":9,"data":"вакансия"},{"type":"hashtag","offset":10,"length":7,"data":"devops"},{"type":"hashtag","offset":18,"length":6,"data":"azure"},{"type":"hashtag","offset":25,"length":7,"data":"remote"},{"type":"hashtag","offset":33,"length":4,"data":"спб"},{"type":"hashtag","offset":38,"length":9,"data":"fulltime"},{"type":"hashtag","offset":48,"length":10,"data":"релокация"},{"type":"handle","offset":2975,"length":14,"data":"Khabibulin_it"},{"type":"handle","offset":3024,"length":12,"data":"devops_jobs"}],"date":"2020-06-23T16:22:03+00:00","link":"tg://resolve?domain=devops_jobs_feed&post=2145","tags":[{"name":"azure"},{"name":"kubernetes"},{"name":"rest"},{"name":"oauth"},{"name":"linux"},{"name":"git"},{"name":"jenkins"},{"name":"docker"},{"name":"mysql"},{"name":"cloud"},{"name":"ssl"},{"name":"ansible"},{"name":"bash"},{"name":"python"},{"name":"ms-access"}],"cities":[],"allowsRemote":true}},{"node":{"__typename":"Job","id":"92012544000-1001067529236","title":"Python разработчик","text":"#вакансия #удалёнка #python #django #middle #djangorestframework\n\nФормат работы: #удалёнка\nЗанятость: частичная\nРейт: 20$/час\nОписание вакансии: Требуется Middle Python/Django разработчик\n\nКомпания:\nМеждународный стартап (интеграции в 11 странах) на стабильном финансировании, готовящийся выйти из stealth-mode.\n\nОбязанности:\n- Разработка API-сервисов для мобильных приложений\n- Интеграция с сервисами партнёров и клиентов\n- Отладка и оптимизация сервисов\n\nТребования:\n- знание Python (Python3)\n- знание Django\n- знание Django Rest Framework 3\n\nБудет плюсом:\n- опыт работы с AWS\n\nКонтакты и вопросы:\n@eugenebolotin","markup":[{"type":"hashtag","offset":0,"length":9,"data":"вакансия"},{"type":"hashtag","offset":10,"length":9,"data":"удалёнка"},{"type":"hashtag","offset":20,"length":7,"data":"python"},{"type":"hashtag","offset":28,"length":7,"data":"django"},{"type":"hashtag","offset":36,"length":7,"data":"middle"},{"type":"hashtag","offset":44,"length":20,"data":"djangorestframework"},{"type":"hashtag","offset":81,"length":9,"data":"удалёнка"},{"type":"handle","offset":600,"length":14,"data":"eugenebolotin"}],"date":"2020-06-23T14:10:14+00:00","link":"tg://resolve?domain=python_jobs&post=87750","tags":[{"name":"python"},{"name":"django"},{"name":"rest"},{"name":"amazon-web-services"}],"cities":[],"allowsRemote":true}},{"node":{"__typename":"Job","id":"71875690496-1001054966032","title":"Ios разработчик","text":"❗️Вакансия IOS разработчик❗️\n#вакансия     #IOS   #офис\n\nГород: Санкт-Петербург\nФормат работы: офис\nЗанятость: полная\n💰ЗП: от 180 до 210\nКомпания: ООО Липтсофт\n\nОбязанности:\n✔️Разработка нативных iOS приложений (МБ для физ.лиц)\n✔️Обсуждение функционала и требований с разработчиками, дизайнерами, менеджерами проектов\n\nОпыт и навыки:\n- Swift от 1 года коммерческой разработки\n- REST, TCP, HTTPS(handshake, certificate, MITM understanding)\n- IB, Autolayout, Верстка из кода, SwiftUI + Combine\n- MVC, MVVM\n- ООП, SOLID, Design Patterns.\n- Multithreading (GCD, NSOperationQueue)\n- Git\n\nНаше предложение:\n✅белая заработная плата, премии и индексации;\n✅ДМС (включая стоматологию)\n✅компенсация занятий спортом;\n✅корпоративный английский в офисе;\n✅оплата курсов и участия в конференциях;\n✅гибкое начало рабочего дня с 9.00 до 11.00;\n✅комфортный офис в БЦ \"Санкт-Петербург Плаза\", м. Новочеркасская\";\n✅отсутствие дресс-кода;\n✅теннисный стол, снеки в офисе\n\nРезюме и любые вопросы присылайте @e_zharova или на почту e.zharova@lipt-soft.ru","markup":[{"type":"hashtag","offset":29,"length":9,"data":"вакансия"},{"type":"hashtag","offset":43,"length":4,"data":"IOS"},{"type":"hashtag","offset":50,"length":5,"data":"офис"},{"type":"handle","offset":984,"length":10,"data":"e_zharova"},{"type":"link","offset":1008,"length":22,"data":"mailto:e.zharova@lipt-soft.ru"}],"date":"2020-06-23T13:29:40+00:00","link":"tg://resolve?domain=mobile_jobs&post=68546","tags":[{"name":"mobile"},{"name":"ios"},{"name":"swift"},{"name":"rest"},{"name":"mvvm"},{"name":"git"}],"cities":[],"allowsRemote":false}},{"node":{"__typename":"Job","id":"1727004672-1001091028994","title":"Java разработчик","text":"#java \n\nКомпания #Специалист - крупнейший в России центр компьютерного обучения\n#Москва\nФормат работы #офис\nВилка: 1100р-2200р за ак.ч на руки\nКонтакт для связи: @smtanya93\n\nУчебный центр Специалист при МГТУ имени Баумана ищет преподавателя курсов “Java Enterprise Edition”\n\n📌 Задачи: \nПроведение обучения по утверждённой программе\nРазвитие читаемого курса, поддержание его актуальности \n\n📌 Требования: \nЗнание Java SE 8 и Java SE 12 Уверенное знание Java EE технологий: EJB, JMS, JAX-RPC, EE Concurerrency.\nЗнание TCP/IP, HTTP, REST API, понимание микросервисной архитектуры \n\n📌 Мы предлагаем: \nРаботу в крупнейшем в России центре компьютерного обучения \nЛичный PR \nУдобное расположение учебных комплексов \nГибкий график работы: будние дни или выходные с 10-17","markup":[{"type":"hashtag","offset":0,"length":5,"data":"java"},{"type":"hashtag","offset":17,"length":11,"data":"Специалист"},{"type":"hashtag","offset":80,"length":7,"data":"Москва"},{"type":"hashtag","offset":102,"length":5,"data":"офис"},{"type":"handle","offset":162,"length":10,"data":"smtanya93"}],"date":"2020-06-23T13:26:19+00:00","link":"tg://resolve?domain=jvmjobs&post=1647","tags":[{"name":"java"},{"name":"jvm"},{"name":"rest"}],"cities":[{"code":"moscow"}],"allowsRemote":false}},{"node":{"__typename":"Job","id":"1724907520-1001091028994","title":"Java разработчик","text":"#вакансия #java #Spring #middle #senior #офиc #backend #Москва #СПБ, #Екатеринбург #Ростов-на Дону #удаленно\n👋Приглашаем middle/senior Java Developer в новый проект от Сбербанка.\n\n💸Уровень ЗП: от 220 000 до 280 000 руб. net. (обсуждается!).\n\n✍🏻Оформление: штат компании партнера или ИП.\n\n📍Локация: офис (Москва Кутузовский пр-т 32/1). Или удалено с возможностью посещать офис: СПБ, Екатеринбург, Ростов-на Дону.\n\n🏢О проекте: В рамках стратегической программы «Создание платформы поддержки развития бизнеса» наша команда разрабатывает линейку продуктов Cash Management. Продукта корпоративного блока, предоставляющий функции управления финансовыми потоками для предприятий и корпораций с развитой филиальной сетью. Линейка продуктов содержит порядка 10 продуктов, направленных на управление всеми счетами холдинга единым казначейством. Основная задача – перевод линейки продуктов из Legacy АС на целевые платформы банка и перевод управления продуктами в удаленные каналы обслуживания.\n\n🎯Ваши будущие задачи :\n- проектирование решения, в том числе разработка детальной внутренней архитектуры сервиса, включая интеграционные сценарии;\n- детальное проектирование интеграции со смежными сервисами (в том числе API);\n- разработка программного продукта, внесение изменений в код;\n- разработка автоматических модульных тестов, автоматических скриптов и тестов развертывания.\n\n🤝Мы ожидаем от вас:\n• знание принципов ООП, методологий разработки, шаблонов проектирования;\n• уверенное владение Java 7+, Spring;\n• опыт работы с СУБД, опыт проектирования модели данных;\n• проактивная позиция, хорошие коммуникативные навыки;\n• умение работать с чужим кодом.\n• желательно опыт работы с react-js, Java Script.\n\nЖду Ваши резюме и буду рада ответить на все вопросы. Прекрасного дня!☺️\nКонтакты для связи: telegram @anisimovaane4ka\n\n#вакансия #java #Spring #middle #офиc #backend #Москва #удаленно\n📣Приглашаем Middle Java Developer в новый проект от Сбербанка.\n\n💸Уровень ЗП: от 180 000 до 270 000 руб. net. (обсуждается!).\n\n✍🏻Оформление: штат компании партнера или ИП.\n\n📌Локация: Удаленно или офис (Москва Кутузовский пр-т 32/1).\n\n🏢О проекте: Транзакционные кредитные продукты. Наша команда состоит из профессионалов и создает лучшие Кредитные карты на рынке. На платформе ППРБ мы разрабатываем принципиально новую back-office систему, которая позволит запускать продукты и сервисы с минимальным time-to-market. Технологический стек позволяет поддерживать высокую производительность, надежность и безопасность работы пользователей. Хранение данных в БД Oracle. Критичность системы – 24/7, обеспечение которой также заслуга раздельной кластеризации решений на всех уровнях: хранение данных, очереди сообщений, кластеры прикладных модулей.\n\n🎯Задачи разработчика:\n- разработка backend продукта процессинга кредитных карт (функционал кредитного продукта);\n- разработка обновлений, миграций данных и решение других backend задача.\n\n✅Наш стек:∙ Java 1.8; Spring 5 (Core, Boot, JMS, MVC, JdbcTemplate, REST); Hibernate; JUnit (Mockito); MQ (IM WS MQ, Kafka + ZooKeeper); Linux (RedHat); Application Server - Wildfly; Git, Bitbucket, Nexus, Jira, Confluence; CI: Maven, Jenkins, SonarQube, CheckMarx; IntelliJ IDEA.\n\n🤝Мы ожидаем от вас:\n- глубокие знания JavaSE 1.8;\n- понимание принципов OOP, принципов проектирования классов, шаблонов проектирования;\n- понимание принципов разработки REST сервисов;\n- желательно знания SQL и опыт работы с Oracle DB 12.2.\n\nЖду Ваши резюме и буду рада ответить на все вопросы. Прекрасного дня!☺️\nКонтакты для связи: telegram @anisimovaane4ka","markup":[{"type":"hashtag","offset":0,"length":9,"data":"вакансия"},{"type":"hashtag","offset":10,"length":5,"data":"java"},{"type":"hashtag","offset":16,"length":7,"data":"Spring"},{"type":"hashtag","offset":24,"length":7,"data":"middle"},{"type":"hashtag","offset":32,"length":7,"data":"senior"},{"type":"hashtag","offset":40,"length":5,"data":"офиc"},{"type":"hashtag","offset":46,"length":8,"data":"backend"},{"type":"hashtag","offset":55,"length":7,"data":"Москва"},{"type":"hashtag","offset":63,"length":4,"data":"СПБ"},{"type":"hashtag","offset":69,"length":13,"data":"Екатеринбург"},{"type":"hashtag","offset":83,"length":7,"data":"Ростов"},{"type":"hashtag","offset":99,"length":9,"data":"удаленно"},{"type":"handle","offset":1803,"length":16,"data":"anisimovaane4ka"},{"type":"hashtag","offset":1821,"length":9,"data":"вакансия"},{"type":"hashtag","offset":1831,"length":5,"data":"java"},{"type":"hashtag","offset":1837,"length":7,"data":"Spring"},{"type":"hashtag","offset":1845,"length":7,"data":"middle"},{"type":"hashtag","offset":1853,"length":5,"data":"офиc"},{"type":"hashtag","offset":1859,"length":8,"data":"backend"},{"type":"hashtag","offset":1868,"length":7,"data":"Москва"},{"type":"hashtag","offset":1876,"length":9,"data":"удаленно"},{"type":"handle","offset":3546,"length":16,"data":"anisimovaane4ka"}],"date":"2020-06-23T13:23:27+00:00","link":"tg://resolve?domain=jvmjobs&post=1645","tags":[{"name":"java"},{"name":"jvm"},{"name":"spring"},{"name":"dotnet"},{"name":"reactjs"},{"name":"oracle"},{"name":"rest"},{"name":"hibernate"},{"name":"junit"},{"name":"kafka"},{"name":"linux"},{"name":"git"},{"name":"maven"},{"name":"jenkins"},{"name":"sonarqube"},{"name":"sql"},{"name":"intellij-idea"}],"cities":[{"code":"moscow"},{"code":"rostov"}],"allowsRemote":true}},{"node":{"__typename":"Job","id":"352321536-1001352129329","title":"Golang разработчик","text":"#hr #вакансия #Москва #backend #командасобранасамимбоженькой\n\n🔴 Xena Exchange - профессиональная торговая платформа для профессиональных трейдеров и институциональных инвесторов. \n🔍 Хотим позвать в нашу дружную команду ЕЩЕ Backend Go Engineer \n\n✔️ Типичные задачи/режим работы: \n- В плоской SCRUM-команде из 4-8 человек // мы не любим бюрократию, только то, что эффективно ведёт к цели\n- Брать из бэклога задачи, получать знания от Product Owner // задач много, а нас - не очень, всегда обсуждаем что-как сделать, но инициатива и ответственность за конкретные задачи на каждом из нас\n- Проектировать архитектуру, от небольших кусочков до целых сервисов, такую чтобы очень быстро и надёжно // бъёмся за миллисекунды, а даже eventual consistency мало где можем себе позволить\n- Писать код на Golang, попутно используя PostgreSQL, RabbitMQ, Redis, gRPC, Websocket, REST, Docker, Kubernetes + всё что угодно, обоснованно подходящее для решения конкретной задачи // качественный код, его потом нам же и поддерживать\n- Иногда возвращаться к созданному ранее, чтобы пофиксить баги, добавить новых фич или сделать ещё быстрее и надёжнее // стараемся растить продукт гармонично по всем направлениям, балансируем сложность и time-to-market\n\n✔️ Требования: \n- опыт backend-разработки от 2 года на го\n- знание базовых структур данных, алгоритмов, их сложности\n- понимание принципов построения и масштабирования backend, параллелизма, шардинга\n- работа в команде \n\n✔️ Условия:\n- покупаем всю технику которая нужна вам для продуктивной работы; \n- у нас сплоченный коллектив профессионалов с серьезным бэкраундом\nгибкий график, время не трекаем, главное - результат\n- Интересные задачи, возможность применить и прокачать скилы в создании высоконагруженных сервисов\n\n✔️ Доп. информация: \nзарплатная вилка обсуждаема, от 180к до 260к 💸 (в зависимости от уровня)\n\nЗа подробной инфой го в личку @anastaysha163 или @anastaysha164","markup":[{"type":"hashtag","offset":0,"length":3,"data":"hr"},{"type":"hashtag","offset":4,"length":9,"data":"вакансия"},{"type":"hashtag","offset":14,"length":7,"data":"Москва"},{"type":"hashtag","offset":22,"length":8,"data":"backend"},{"type":"hashtag","offset":31,"length":29,"data":"командасобранасамимбоженькой"},{"type":"handle","offset":1879,"length":14,"data":"anastaysha163"},{"type":"handle","offset":1898,"length":14,"data":"anastaysha164"}],"date":"2020-06-23T11:36:45+00:00","link":"tg://resolve?domain=gogetajobfeed&post=336","tags":[{"name":"go"},{"name":"postgresql"},{"name":"rabbitmq"},{"name":"redis"},{"name":"websocket"},{"name":"rest"},{"name":"docker"},{"name":"kubernetes"}],"cities":[{"code":"moscow"}],"allowsRemote":false}},{"node":{"__typename":"Job","id":"71856816128-1001054966032","title":"Android разработчик","text":"‼️Вакансия Senior Android⁢ Developer‼️\n#android #developer #вакансия #удаленка\nВ команде Mycelium Wallet (mycelium.com) открыта #вакансия Senior Android⁢ Developer.\n💵З/П 3000-4000 USD по итогам собеседования.\nРабота удаленная 💻\n\nМы предлагаем:\n🔸Получить навыки и компетенции в одном из самых передовых и перспективных направлений финтех индустрии - blockchain;\n🔸Принять участие в разработке одного из самых популярных биткоин-кошельков в Google Play Store;\n🔸Работать в международной команде бок о бок с ведущими специалистами в индустрии;\n🔸Возможность профессионального карьерного роста и участия в разнообразных проектах компании.\n\nЧем предстоит заниматься:\n🔹Разрабатывать новые и развивать существующие мобильные сервисы компании на платформе Android;\n🔹Проектировать и разрабатывать большие функциональные части приложения с привлечением других программистов;\n🔹Использовать cutting edge технологии, а также проверенные временем решения.\n\nТребования:\n✔️Как минимум 3 года опыта разработки на Android;\n✔️Знание Java/Kotlin на уровне ведущего разработчика;\n✔️Знание шаблонов проектирования, опыт использования MVP и других архитектурных подходов;\n✔️Опыт параллельного и многопоточного программирования;\n✔️Понимание циклов работы Android-приложения и управления памятью;\n✔️Опыт разработки пользовательских интерфейсов на платформе Android. \n✔️Знание Android Design Principles;\n✔️Знание и умение использовать различные механизмы взаимодействий между приложениями, предоставляемые в рамках Android SDK;\n✔️Понимание принципов работы REST API, WS, RPC и клиент-серверных приложений;\n✔️Знание английского языка на уровне чтения документации и умения общаться в корпоративном чате.\n\nПлюсом будет:\n➕Умение и понимание необходимости написания Unit tests;\n➕Знание основ криптографии;\n➕Опыт работы с bitcoin/etherium blockchain stack;\n➕Наличие своих проектов на Github, в Google Play и т.д.\n\n📲Контакт: @valeritata","markup":[{"type":"hashtag","offset":39,"length":8,"data":"android"},{"type":"hashtag","offset":48,"length":10,"data":"developer"},{"type":"hashtag","offset":59,"length":9,"data":"вакансия"},{"type":"hashtag","offset":69,"length":9,"data":"удаленка"},{"type":"link","offset":106,"length":12,"data":"http://mycelium.com"},{"type":"hashtag","offset":128,"length":9,"data":"вакансия"},{"type":"handle","offset":1900,"length":11,"data":"valeritata"}],"date":"2020-06-23T11:07:04+00:00","link":"tg://resolve?domain=mobile_jobs&post=68528","tags":[{"name":"mobile"},{"name":"android"},{"name":"playframework"},{"name":"java"},{"name":"kotlin"},{"name":"rest"},{"name":"github"}],"cities":[],"allowsRemote":true}},{"node":{"__typename":"Job","id":"351272960-1001352129329","title":"Golang разработчик","text":"#вакансия #golang #go\n\nВакансия: Golang разработчик\nФормат работы: удаленная работа\nКомпания: Спутник\nВилка заработной платы: 100 000 - 170 000\n\nНемного о нас\nСпутник – это IT компания, прочно занявшая лидирующие позиции в своей отрасли. Мы являемся одним из самых титулованных проектов и работаем на рынках России, Европы и СНГ. Компания является резидентом Сколково и резидентом особой экономической зоны Иннополис.\n\nЧем мы отличаемся?\nМы проходим все этапы с нашим продуктом совместно - начиная от проектирования железа, заканчивая технической поддержкой непосредственно пользователей.\n\nТакже мы избавились от иерархии, строгих рабочих обязанностей и централизации власти, отдавая предпочтение свободному принятию решений командой.\n\nКого мы ждем?\nМы находимся в поисках двух разработчиков, которые:\n• имеют коммерческий опыт работы с GoLang (от 1 года);\n• владеют знанием любого другого языка программирования;\n• имеют опыт работы с Linux, терминалом;\n• как преимущество - имеют опыт серверного программирования (Web, облака);\n• будет плюсом, если ты знаешь С - в одном из проектов мы активно используем CGO.\n\nС каких задач начнём?\n\n❗Мы переписываем наше REST API платформы по управлению домофонами на GraphQL API. По данному проекту на практике можно будет поработать с GraphQL, изучить концепцию цифровых двойников, обработать большое количество запросов с API, работа с контейнерами, микросервисным взаимодействием.\n\nЕсли этот проект тебе не интересен, возможно, тебя заинтересует следующий проект:\n\n❗Мы хотим усилить команду по проекту real-time взаимодействия домофонов с платформой. Будут задачи по VoIP, обработке звука(в том числе при помощи методов машинного обучения), обработке огромного количества данных, микросервисного взаимодействия, работы в k8s.\n\nКонтактное лицо\nЛиля Афанасьева\ne-mail: lily@sputnik.direct\ntelegram: lilia_afanaseva","markup":[{"type":"hashtag","offset":0,"length":9,"data":"вакансия"},{"type":"hashtag","offset":10,"length":7,"data":"golang"},{"type":"hashtag","offset":18,"length":3,"data":"go"},{"type":"link","offset":1808,"length":19,"data":"mailto:lily@sputnik.direct"}],"date":"2020-06-23T10:36:25+00:00","link":"tg://resolve?domain=gogetajobfeed&post=335","tags":[{"name":"go"},{"name":"linux"},{"name":"web"},{"name":"rest"},{"name":"graphql"}],"cities":[],"allowsRemote":true}},{"node":{"__typename":"Job","id":"71852621824-1001054966032","title":"Android разработчик","text":"#вакансия #fulltime #freelance #middle #IOS #Swift #СПБ \nВсем привет! \nВ поисках двух IOS разработчиков. Рассматриваем full-time в офис/на удаленку.\nЛокация: Санкт-Петербург\n \nГрафик: 5/2 с гибким началом рабочего дня. \n💶 Зарплатная вилка: от 120 до 180 на руки\n\n🧰Мы: 4xxi.com (разработка разных сложных  технологических проектов-стартапов (веб, мобильные истории IOS/Android)). 90% проектов приходится на зарубежный рынок (США, Англия).\n\n🍩 Плюшки: \n✔️оформление по ТК РФ (мы белые полностью);\n✔️уроки английского языка;\n✔️ДМС;\n✔️спортивные мероприятия;\n✔️обучение и развитие;\n✔️офис в центре города в стиле лофт, м.Горьковская;\n✔️кухня, забитая вкусняхами;\n\nНаши ожидания: \n☑️с опытом работы от 2 лет;\n☑️уверенное знание Swift;\n☑️с опытом использования CoreData и знанием принципов работы баз данных;\n☑️с пониманием жизненного цикла приложения;\n☑️с опытом использования REST, WebSocket, Reactive kit;\n☑️с умением работать с потоками;\n\n\nБудет отлично, если:\n\n☑️у вас опыт больше 2х лет.\n☑️отлично понимаете и можете обосновать применение различных паттернов проектирования;\n☑️есть успешные п1риложения в App Store;\n☑️есть open source проекты на github;\n\n\nПишите и присылайте свои резюме:  vyangurskaya@4xxi.com, @vyangurskaya","markup":[{"type":"hashtag","offset":0,"length":9,"data":"вакансия"},{"type":"hashtag","offset":10,"length":9,"data":"fulltime"},{"type":"hashtag","offset":20,"length":10,"data":"freelance"},{"type":"hashtag","offset":31,"length":7,"data":"middle"},{"type":"hashtag","offset":39,"length":4,"data":"IOS"},{"type":"hashtag","offset":44,"length":6,"data":"Swift"},{"type":"hashtag","offset":51,"length":4,"data":"СПБ"},{"type":"link","offset":270,"length":8,"data":"http://4xxi.com"},{"type":"link","offset":1192,"length":21,"data":"mailto:vyangurskaya@4xxi.com"},{"type":"handle","offset":1215,"length":13,"data":"vyangurskaya"}],"date":"2020-06-23T09:45:18+00:00","link":"tg://resolve?domain=mobile_jobs&post=68524","tags":[{"name":"mobile"},{"name":"android"},{"name":"ios"},{"name":"swift"},{"name":"rest"},{"name":"websocket"},{"name":"github"}],"cities":[],"allowsRemote":false}},{"node":{"__typename":"Job","id":"71850524672-1001054966032","title":"Ios developer","text":"#вакансия #Москва #офис #релокация #ios #swift\n\n\nВакансия: iOS Developer (Junior/Middle/Senior) в компанию Mafin\n\nО компании: Mafin.ru - это онлайн-платформа персональных страховых сервисов. Insurtech старап компании \"АбсолютТех\", получивний инвестирование в размере $50 млн.\nГео: Москва\nФормат: Офис\nВилка: 60 000 - 240 000 Р/мес\n\nТребования: \n● Опыт разработки приложений под iOS от 1 года\n● Отличное знание Objective-C или Swift\n● Проектирование интерфейса без Xib и StoryBoard\n● Опыт разработки клиент-серверных приложений\n● Опыт разработки многопоточных приложений\n● Опыт работы с Core Data - инструмент для БД\n● Умение работать с CocoaPods (библиотеки для реализации задач)\n● Знание Git\n● Знание HTTP/S, REST API, JSON\n\nДополнительные навыки:\n● Понимание принципов UX/UI и Human Interface Guidelines\n● Опыт работы с Figma\n\nБудет плюсом:\n● Опыт C/С++/Python\n● Наличие приложений, опубликованных в AppStore\n● Опыт написания тестов\n\nУсловия: \n● НС с первого рабочего дня, ДМС по истечении испытательного срока (3 месяца);\n● Skyeng скидка 50% (в том числе занятия с носителями языка);\n● Новый красивый офис в тренде современных IT компаний с капсулами для сна и уютной кухней;\n● Бесплатное обучение; доступ к онлайн-библиотеке;\n● Работа по методологии Agile, scrum\n● Огромное количество корпоративных мероприятий\n● Гибкое начало рабочего дня до 11-00\n● Есть релокационный пакет\n● График работы 5\\2, офис 2 дня в неделю на время ограничительных мер \n\nДля оперативной связи пишите: @rudenko_telegram","markup":[{"type":"hashtag","offset":0,"length":9,"data":"вакансия"},{"type":"hashtag","offset":10,"length":7,"data":"Москва"},{"type":"hashtag","offset":18,"length":5,"data":"офис"},{"type":"hashtag","offset":24,"length":10,"data":"релокация"},{"type":"hashtag","offset":35,"length":4,"data":"ios"},{"type":"hashtag","offset":40,"length":6,"data":"swift"},{"type":"bold","offset":49,"length":9,"data":""},{"type":"bold","offset":114,"length":12,"data":""},{"type":"link","offset":126,"length":8,"data":"http://Mafin.ru"},{"type":"bold","offset":276,"length":4,"data":""},{"type":"bold","offset":288,"length":8,"data":""},{"type":"bold","offset":301,"length":7,"data":""},{"type":"bold","offset":332,"length":13,"data":""},{"type":"bold","offset":726,"length":23,"data":""},{"type":"bold","offset":829,"length":14,"data":""},{"type":"bold","offset":936,"length":7,"data":""},{"type":"handle","offset":1482,"length":17,"data":"rudenko_telegram"}],"date":"2020-06-23T09:25:42+00:00","link":"tg://resolve?domain=mobile_jobs&post=68522","tags":[{"name":"mobile"},{"name":"ios"},{"name":"swift"},{"name":"objective-c"},{"name":"cocoapods"},{"name":"git"},{"name":"rest"},{"name":"json"},{"name":"python"},{"name":"core-data"}],"cities":[{"code":"moscow"}],"allowsRemote":false}}]}}},"context":{}}