{"hash":"f34fd2c444a074f4e0e67d525015a008ef8e766f","data":{"records":{"id":"mobile","name":"mobile","belongsTo":{"totalCount":48,"pageInfo":{"totalPages":5,"currentPage":3},"edges":[{"node":{"__typename":"Job","id":"66352840704-1001054966032","title":"Mobile разработчик","text":"#вакансия #работа #СанктПетербург #Android #CICD #Kotlin #Java #fulltime #офис\nГород: Санкт-Петербург, м. Чкаловская\nФорма работы: офис\nЗанятость: полная\nЗарплатная вилка: от 120 000 до 270 000 net.\nВсем привет!\nМы петербургская IT-компания, разработчик мобильного приложения «Кошелёк». \n«Кошелёк» заменяет бумажник и избавляет от необходимости носить с собой пластик: пользователи хранят в нем дисконтные и банковские карты. Чтобы получить скидку, достаточно показать на кассе карту с экрана смартфона, а, чтобы оплатить покупку – приложить NFC-смартфон к терминалу оплаты.\nВ сфере платежей мы сотрудничаем с банками (ВТБ, Альфа Банк, Почта Банк, Райффайзенбанк, Открытие и другие) и международными платежными системами Mastercard и Visa.\nНаши результаты:\n9 млн + зарегистрированных пользователей,\n180 млн + оцифрованных карт.\n\nМы ищем мобильного инженера в инфраструктурную часть core команды. Данная позиция подходит для специалиста с опытом в мобильном девопсе. Основная часть работы будет связана с тем, чтобы помогать остальной мобильной команде повышать автоматизацию, для ускорения скорости создания и тестирования новых фич. Дополнительно в работу будет входить всё что связано с мониторингом, автоматическими проверками и автоматизацией в целом. Ищем изначально любознательного человека, который на определенном этапе сможет помогать в сборе бэклога для инфраструктурной команды и активно предлагать идеи.\n\n🔸Чем предстоит заниматься:\n•  На первых этапах есть описанный бэклог требований, что необходимо реализовать для развития инфраструктуры - CI/CD, интеграций с JIRA/Slack, и т.д. В дальнейшем предстоит помогать формировать данный бэклог, помогая остальной команде и решая их запросы;\n•  Создавать автоматические проверки и подключать системы мониторинга;\n•  Создавать CI/CD и отвечать за инфраструктуру;\n•  Улучшать время сборки и стабильность билдов;\n•  Администрировать Google Developer Console + Firebase;\n•  Автоматизировать ручные задачи.\n\n🔸 Требования:\n•  Опыт работы Android разработчиком;\n•  Опыт работы с Gradle;\n•  Опыт работы с CI/CD такими как Jenkins/TeamCity/Bitrise/Gitlab;\n•  Опыт работы с Fastlane;\n•  Опыт работы и интеграции с системами контроля версий (у нас Gitlab);\n•  Опыт публикации приложений. Опыт администрирования Google Developer Console + Firebase.\n 🔸 Будет плюсом:\n•  Опыт работы с Upsource - используется для code review;\n•  Опыт работы с Docker;\n•  Опыт интеграции таких тулзов как SonarQube;\n•  Опыт работы над платформенными задачами или в core команде;\n•  Опыт работы с UI тестами;\n•  Опыт работы с *nix консолью использования и скриптовых языков.\n\n🔸Мы предлагаем:\n•  Гибкий график и высокую степень самостоятельности;\n•  Оплату мобильной связи, компенсацию оплаты питания;\n•  Оформление по ТК РФ с первого дня, ДМС после испытательного срока.\nИнформацию о компании можно найти по ссылке: https://cardsmobile.ru/ \n\nКонтакты: katerinaziryukova\nПочта: e.ziryukova@cardsmobile.ru","markup":[{"type":"hashtag","offset":0,"length":9,"data":"вакансия"},{"type":"hashtag","offset":10,"length":7,"data":"работа"},{"type":"hashtag","offset":18,"length":15,"data":"СанктПетербург"},{"type":"hashtag","offset":34,"length":8,"data":"Android"},{"type":"hashtag","offset":43,"length":5,"data":"CICD"},{"type":"hashtag","offset":49,"length":7,"data":"Kotlin"},{"type":"hashtag","offset":57,"length":5,"data":"Java"},{"type":"hashtag","offset":63,"length":9,"data":"fulltime"},{"type":"hashtag","offset":73,"length":5,"data":"офис"},{"type":"link","offset":2844,"length":23,"data":"https://cardsmobile.ru/"},{"type":"link","offset":2905,"length":26,"data":"mailto:e.ziryukova@cardsmobile.ru"}],"date":"2020-04-09T12:52:54+00:00","link":"tg://resolve?domain=mobile_jobs&post=63279","tags":[{"name":"mobile"},{"name":"android"},{"name":"kotlin"},{"name":"java"},{"name":"dotnet"},{"name":"firebase"},{"name":"gradle"},{"name":"jenkins"},{"name":"gitlab"},{"name":"docker"},{"name":"sonarqube"}],"cities":[],"allowsRemote":false}},{"node":{"__typename":"Job","id":"66342354944-1001054966032","title":"Ios разработчик","text":"#вакансия #москва #офис #senior #ios #developer #gamedev #swift \nГород и адрес офиса: Москва, м.Автозаводская \nФормат работы: офис \nЗанятость: полная \nЗарплатная вилка: от 250 000 до 300 000 на руки \n\n\n✅ Senior Developer (iOS/Swift) \n\nОписание вакансии: \n\nМы - успешная команда из 100 человек, которая занимается: \n• разработкой собственных мобильных игр и приложений \n• паблишингом мобильных игр \n• рекламой и маркетингом мобильных приложений (реклама на Facebook, Google и т.д.) \nЗа последние 3 года мы привлекли более 100 млн пользователей в наши собственные мобильные приложения и приложения наших клиентов и партнеров, потратив на это более $80 млн. \nУ нас есть все составляющие чтобы делать готовые продукты известными и популярными. Мы ищем сильного и талантливого разработчика для усиления нашей текущей слаженно работающей команды и выведения нашего Fitness & Health iOS приложения Fitingo на лидирующие позиции в мире (уже сейчас приложение занимало позиции ТОП 13 в США и ТОП 6 в Великобритании с более чем 400,000 установок и более чем 45,000 совершенных покупок).\n\n✅Задачи: \n\n•  Разрабатывать новый функционал\n•  Рефакторить и оптимизировать код\n•  Писать код. Больше логики, меньше UI. Например - хранить историю и прогресс; сделать leaderboard по странам; добавить чат, аналитику и a/b тесты; Apple Health, Watch, Music и TV\n•  Участвовать в Code Review\nТекущий стек: Swift 5.1, MVPC, AVFoundation, UserNotifications, Realm, StoreKit, Firebase, PushWoosh, Facebook, Python.\n\n✅Требования: \n\n•  Опыт работы разработчиком iOS приложений от 3х лет\n•  Отличное знание Swift\n•  Уверенное знание SOLID и паттернов проектирования\n•  Умение профилировать приложение (Батарейка, утечки и вот это все)\n•  Опыт работы с системой контроля версий\n•  Наличие выпущенных проектов на Swift\n•  Желание делать красивые, интересные и популярные приложения\n\n✅Будет плюсом: \n\n•  Умение/желание писать небольшие серверные скрипты (например на Python)\n•  Умение автоматизировать рутинные процессы\n•  Умение рефакторить код итеративно\n•  Адекватный перфекционизм\n\n\n✅Для вас: \n\n•  Конкурентная заработная плата, выплачивается 2 раза в месяц\n•  Необходимое оборудование для работы\n•  Возможность набрать команду и выстроить всю работу под себя в краткосрочной перспективе\n•  Оформление по ТК РФ, оплачиваемые больничные, 28 дней оплачиваемого отпуска в год\n•  Возможны регулярные бонусы по результатам работы проектов\n•  Собеседование с лицом принимающим решение\n•  Возможность коммуницировать с людьми, которые принимают продуктовые решения\n\n✅О нас: \n\n•  Просторный офис 600 метров на м. Автозаводская (3 минуты от метро и от ТТК на машине) с ультра современным дизайном и кучей ништяков (кухня с вкусняшками, кальяны каждый вечер в дружной кампании, PS4 Pro + 4K TV, аркадные автоматы с Pac-Man, Metal Slug и другими хитами геймдизайна, просторная зона отдыха, 5 переговорных комнат и т д)\n•  Команда из 100 человек занимающаяся паблишингом и маркетингом, готовая сделать продукт успешным после его готовности\n•  Возможность обучаться английскому языку с носителями каждый будний день по утрам\n•  Менторы и инвесторы, создавшие большое количество успешных IT компаний (оборот в 2018 году более 140 млн долларов)\n\nНазвание компании: AppQuantum \n\nКонтакты: \ne-mail: bm@adquantum.com\ntelegram: @MishaBarinov","markup":[{"type":"hashtag","offset":0,"length":9,"data":"вакансия"},{"type":"hashtag","offset":10,"length":7,"data":"москва"},{"type":"hashtag","offset":18,"length":5,"data":"офис"},{"type":"hashtag","offset":24,"length":7,"data":"senior"},{"type":"hashtag","offset":32,"length":4,"data":"ios"},{"type":"hashtag","offset":37,"length":10,"data":"developer"},{"type":"hashtag","offset":48,"length":8,"data":"gamedev"},{"type":"hashtag","offset":57,"length":6,"data":"swift"},{"type":"link","offset":3254,"length":16,"data":"mailto:bm@adquantum.com"},{"type":"handle","offset":3281,"length":13,"data":"MishaBarinov"}],"date":"2020-04-09T11:04:48+00:00","link":"tg://resolve?domain=mobile_jobs&post=63269","tags":[{"name":"mobile"},{"name":"ios"},{"name":"swift"},{"name":"realm"},{"name":"firebase"},{"name":"python"}],"cities":[{"code":"moscow"}],"allowsRemote":false}},{"node":{"__typename":"Job","id":"66338160640-1001054966032","title":"Android разработчик","text":"#вакансия #fulltime  #vacancy  #remote #ремоут  #Flutterdeveloper #Flutter \n\n💻 Flutter Developer\n🕐 Fulltime remote\n👩🏻‍💻1-1,5 year of commercial development on Flutter\n💰from 10 $/hour to 12 $/hour\n\nВсем привет!🙋🏻‍♀️\nAMS ищет разработчиков на долгосрочное сотрудничество на ремоут. Мы занимаемся разработкой мобильных приложений под Android и IOS.\n\nУсловия:\n-проектная занятость;\n-доступность в неделю 40 часов.\n\nТребования :\n-коммерческий опыт разработки от 1-1,5 года;\n-английский B1+.\n\n📝 За подробностями по вакансиям и по всем вопросам  пишите:\ndarya.matsyas@ams-apps.com\nDarya \nLinkedIn","markup":[{"type":"hashtag","offset":0,"length":9,"data":"вакансия"},{"type":"hashtag","offset":10,"length":9,"data":"fulltime"},{"type":"hashtag","offset":21,"length":8,"data":"vacancy"},{"type":"hashtag","offset":31,"length":7,"data":"remote"},{"type":"hashtag","offset":39,"length":7,"data":"ремоут"},{"type":"hashtag","offset":48,"length":17,"data":"Flutterdeveloper"},{"type":"hashtag","offset":66,"length":8,"data":"Flutter"},{"type":"link","offset":495,"length":2,"data":"http://darya.matsyas@ams-apps.com/"},{"type":"link","offset":556,"length":27,"data":"http://darya.matsyas@ams-apps.com/"},{"type":"link","offset":590,"length":8,"data":"https://www.linkedin.com/in/darya-matyas-12ba33158/"}],"date":"2020-04-09T10:39:22+00:00","link":"tg://resolve?domain=mobile_jobs&post=63265","tags":[{"name":"mobile"},{"name":"android"},{"name":"ios"},{"name":"flutter"}],"cities":[],"allowsRemote":true}},{"node":{"__typename":"Job","id":"66336063488-1001054966032","title":"Android разработчик","text":"‼️Вакансия Senior Android⁢ Developer‼️\n#android #developer #vacancy\nВ команде Mycelium Wallet (mycelium.com) открыта #вакансия Senior Android⁢ Developer.\n💵З/П 3500-4000 USD по итогам собеседования.\nРабота удаленная 💻\n\nМы предлагаем:\n🔸Получить навыки и компетенции в одном из самых передовых и перспективных направлений финтех индустрии - blockchain;\n🔸Принять участие в разработке одного из самых популярных биткоин-кошельков в Google Play Store;\n🔸Работать в международной команде бок о бок с ведущими специалистами в индустрии;\n🔸Возможность профессионального карьерного роста и участия в разнообразных проектах компании.\n\nЧем предстоит заниматься:\n🔹Разрабатывать новые и развивать существующие мобильные сервисы компании на платформе Android;\n🔹Проектировать и разрабатывать большие функциональные части приложения с привлечением других программистов;\n🔹Использовать cutting edge технологии, а также проверенные временем решения.\n\nТребования:\n✔️Как минимум 3 года опыта разработки на Android;\n✔️Знание Java/Kotlin на уровне ведущего разработчика;\n✔️Знание шаблонов проектирования, опыт использования MVP и других архитектурных подходов;\n✔️Опыт параллельного и многопоточного программирования;\n✔️Понимание циклов работы Android-приложения и управления памятью;\n✔️Опыт разработки пользовательских интерфейсов на платформе Android. \n✔️Знание Android Design Principles;\n✔️Знание и умение использовать различные механизмы взаимодействий между приложениями, предоставляемые в рамках Android SDK;\n✔️Понимание принципов работы REST API, WS, RPC и клиент-серверных приложений;\n✔️Знание английского языка на уровне чтения документации и умения общаться в корпоративном чате.\n\nПлюсом будет:\n➕Умение и понимание необходимости написания Unit tests;\n➕Знание основ криптографии;\n➕Опыт работы с bitcoin/etherium blockchain stack;\n➕Наличие своих проектов на Github, в Google Play и т.д.\n\n📲Контакт: @valeritata","markup":[{"type":"hashtag","offset":39,"length":8,"data":"android"},{"type":"hashtag","offset":48,"length":10,"data":"developer"},{"type":"hashtag","offset":59,"length":8,"data":"vacancy"},{"type":"link","offset":95,"length":12,"data":"http://mycelium.com"},{"type":"hashtag","offset":117,"length":9,"data":"вакансия"},{"type":"handle","offset":1889,"length":11,"data":"valeritata"}],"date":"2020-04-09T10:22:55+00:00","link":"tg://resolve?domain=mobile_jobs&post=63263","tags":[{"name":"mobile"},{"name":"android"},{"name":"playframework"},{"name":"java"},{"name":"kotlin"},{"name":"rest"},{"name":"github"}],"cities":[],"allowsRemote":true}},{"node":{"__typename":"Job","id":"98273591296-1001089317451","title":"Qa инженер","text":"#вакансия #мтс #стартап #manual #automate #москва #офис #мск #mobile\n🏢Компания: MTC\n🏙Город: Москва, м. Комсомольская\n💰Зп: от 90к (обсуждается по результатам собеседования)\n\nМы отдельный проект новой стриминговой платформы в МТС - WASD.tv. Мы разрабатываем инновационную платформу для стриминга и монетизации для стримеров на территории СНГ, и в скором времени планируем покорять другие страны Европы, Азии и Америки!\nРаботаем преимущественно c REST API, пишем на js и go, полноценные стенды (stage, qa, dev) в kubernetes. Активно внедряем BDD. Команда QA развивает свой инновационный фреймворк автотестирования на Java для всех платформ проекта! На данный момент, нужен в мобильную команду QA Automation/ QA Mobile.\n\nОбязанности\n✔️ проведение ручного тестирования мобильных приложений (iOS, Android);\n✔️ локализация и документирование найденных дефектов;\n✔️написание и поддержка имеющейся документации;\n✔️взаимодействие с разработчиками;\n✔️поддержание и развитие мобильного фреймворка;\n✔️разработка BDD сценариев и их автоматизация.\n\nТребования:\n✔️опыт ручного тестирования мобильных приложений от 2 лет;\n✔️опыт автоматизированного тестирования на Java (Appium+Сucumber) от 1 года;\n✔️знание методологий тестирования;\n✔️опыт работы с системами CI (Jenkins, Teamcity);\n✔️опыт работы с  Charles, Appium, Postman, Chrome DevTools, Kibana.\n\nУсловия:\n✅ работа из офиса 5/2;\n✅ гибкое начало рабочего дня;\n✅ различные спец. предложения для сотрудников МТС;\n✅ полугодовые премии;\n✅ все белое, оформление по ТК РФ.\n\n📲Контакты: daordynt@mts.ru или в лс (в телеге)","markup":[{"type":"hashtag","offset":0,"length":9,"data":"вакансия"},{"type":"hashtag","offset":10,"length":4,"data":"мтс"},{"type":"hashtag","offset":15,"length":8,"data":"стартап"},{"type":"hashtag","offset":24,"length":7,"data":"manual"},{"type":"hashtag","offset":32,"length":9,"data":"automate"},{"type":"hashtag","offset":42,"length":7,"data":"москва"},{"type":"hashtag","offset":50,"length":5,"data":"офис"},{"type":"hashtag","offset":56,"length":4,"data":"мск"},{"type":"hashtag","offset":61,"length":7,"data":"mobile"},{"type":"link","offset":233,"length":7,"data":"http://wasd.tv/"},{"type":"bold","offset":720,"length":12,"data":""},{"type":"bold","offset":1037,"length":12,"data":""},{"type":"bold","offset":1339,"length":9,"data":""},{"type":"link","offset":1521,"length":15,"data":"mailto:daordynt@mts.ru"}],"date":"2020-04-09T09:47:35+00:00","link":"tg://resolve?domain=qa_jobs&post=93721","tags":[{"name":"qa"},{"name":"mobile"},{"name":"rest"},{"name":"kubernetes"},{"name":"java"},{"name":"ios"},{"name":"android"},{"name":"jenkins"}],"cities":[{"code":"moscow"}],"allowsRemote":false}},{"node":{"__typename":"Job","id":"66332917760-1001054966032","title":"Android разработчик","text":"#вакансия #android #москва #офис #fulltime\n\nИщем еще одного Android разработчика, Middle или Middle+\n\nКомпания: \"Доктор на работе\" - социальная сеть для врачей.  Фарма+Digital=стабильность в текущее время.\nМесто работы:  сейчас удалёнка, потом Москва, м. Новослободская, 3 минуты от метро\nЗП: 180-220тр., белая\n\n🤟Особенности: новый проект, без легаси. Технологии: Kotlin, Dagger 2, Rx, Retrofit 2\n\n🔥Задача: создание новой Ленты врача с нуля, доработка существующего мессенджера для наших пользователей.\n\n\n🔥 Условия:\n* зп от 180к до 220к рублей на руки, белая;\n* сейчас работаем из дома, потом в офисе, ст. м. Новослободская, 3 м. от метро. \n\n👉Вакансию можно посмотреть здесь: https://dev.doktornarabote.ru/andr\n\n👉Отклики: hr@doktornarabote.ru или\nTelegram @KseniaRyakhovskaya","markup":[{"type":"hashtag","offset":0,"length":9,"data":"вакансия"},{"type":"hashtag","offset":10,"length":8,"data":"android"},{"type":"hashtag","offset":19,"length":7,"data":"москва"},{"type":"hashtag","offset":27,"length":5,"data":"офис"},{"type":"hashtag","offset":33,"length":9,"data":"fulltime"},{"type":"bold","offset":60,"length":28,"data":""},{"type":"bold","offset":93,"length":9,"data":""},{"type":"bold","offset":521,"length":40,"data":""},{"type":"link","offset":680,"length":34,"data":"https://dev.doktornarabote.ru/andr"},{"type":"link","offset":727,"length":20,"data":"mailto:hr@doktornarabote.ru"},{"type":"handle","offset":761,"length":19,"data":"KseniaRyakhovskaya"}],"date":"2020-04-09T08:59:25+00:00","link":"tg://resolve?domain=mobile_jobs&post=63260","tags":[{"name":"mobile"},{"name":"android"},{"name":"kotlin"}],"cities":[{"code":"moscow"}],"allowsRemote":true}},{"node":{"__typename":"Job","id":"66329772032-1001054966032","title":"Ios разработчик","text":"#вакансия #iOS #middle #swift #спб #фуллтайм\n\nКомпания: РБК\nФормат работы: офис, гибкое начало дня, фуллтайм\nУсловия: 140000 – 170000 руб. net. + ДМС, скидки на англ.яз., фитнес \n📍Санкт-Петербург (м.Чернышевская)\n\nВ команду мобильной разработки ищем iOS-разработчика. Мы разрабатываем приложения РБК Главное, РБК Лента новостей и конвертер валют + запускаем ряд новых проектов.\n\nЧем предстоит заниматься: разработкой новых приложений для деловых и бизнес проектов РБК, рефакторингом и усовершенствованием функционала существующих. \nНаш стек: swift 5\nВ работе используем MVC + Clean\n\nПодробности можно посмотреть тут \ncall/text me: @marie_clair","markup":[{"type":"hashtag","offset":0,"length":9,"data":"вакансия"},{"type":"hashtag","offset":10,"length":4,"data":"iOS"},{"type":"hashtag","offset":15,"length":7,"data":"middle"},{"type":"hashtag","offset":23,"length":6,"data":"swift"},{"type":"hashtag","offset":30,"length":4,"data":"спб"},{"type":"hashtag","offset":35,"length":9,"data":"фуллтайм"},{"type":"link","offset":613,"length":3,"data":"https://hh.ru/vacancy/35591392"},{"type":"handle","offset":632,"length":12,"data":"marie_clair"}],"date":"2020-04-09T08:33:16+00:00","link":"tg://resolve?domain=mobile_jobs&post=63257","tags":[{"name":"mobile"},{"name":"ios"},{"name":"swift"},{"name":"dotnet"}],"cities":[],"allowsRemote":false}},{"node":{"__typename":"Job","id":"66326626304-1001054966032","title":"Mobile разработчик","text":"#вакансия #москва #офис #senior #unity #developer #gamedev #csharp\n\nГород и адрес офиса: Москва, м.Автозаводская \nФормат работы: офис \nЗанятость: полная \nЗарплатная вилка: от 200 000 до 250 000 на руки \n\n📣 Senior Unity 3D Developer (mobile game)\n\n\n✅ Описание вакансии: \n\nМы - успешная команда из 100 человек, которая занимается: \n• разработкой собственных мобильных игр и приложений \n• паблишингом мобильных игр \n• рекламой и маркетингом мобильных приложений (реклама на Facebook, Google и т.д.) \nЗа последние 3 года мы привлекли более 100 млн пользователей в наши собственные мобильные приложения и приложения наших клиентов и партнеров, потратив на это более $80 млн. \nУ нас есть все составляющие чтобы делать готовые продукты известными и популярными. Мы ищем сильного Unity разработчика уровня Senior, для работы над нашим главным тайтлом Dragon Champions (крупным хардкорным проектом в жанре Фэнтези, с тактической боевой системой).\n\n\n✅ Задачи: \n\n-Разработка клиентской части игры\n-Разработка клиент-серверного взаимодействия и общей игровой логики\n-Вёрстка UI по макетам от художников\n-Интеграция различных сторонних SDK\n\n\n✅ Требования: \n\n-Опыт работы на Unity3D (С#) от 3х лет\n-Отличное знание Unity и всех её подсистем\n-Отличное знание C#, умение писать чёткий, понятный, структурированный код\n-Отличное знание паттернов проектирования\n-Умение отлаживать и оптимизировать проекты под мобильные платформы iOS/Android\n-Умение верстать адаптивные интерфесы в uGUI\n-Умение разбираться в чужом коде, проводить рефакторинг\n-Уверенные знания по работе с системой контроля версий git\n-Дисциплинированность и ответственность\n\n\n✅ Плюсом будет:\n\n-Участие в разработке выпущенных игр под мобильные платформы на аналогичной должности\n-Умение работать с шейдерами\n-Опыт работы с нативными плагинами (In-Apps, PUSH notifications, аналитика, реклама, социальное взаимодействие)\n-Умение разрабатывать и поддерживать стабильную архитектуру\n-Коммуникабельность, умение чётко доносить свою точку зрения и принимать точку зрения остальных участников команды\n\n\n✅ Для вас: \n\n•  Конкурентная заработная плата, выплачивается 2 раза в месяц\n•  Необходимое оборудование для работы\n•  Бонусы по итогам выполнения KPI и запуска проектов\n•  Коллектив творческих и позитивных людей\n\n\n✅ О нас: \n\n• Просторный офис 600 метров на м. Автозаводская (3 минуты от метро и от ТТК на машине) с ультра современным дизайном и кучей ништяков (кухня с вкусняшками, кальяны каждый вечер в дружной кампании, PS4 Pro + 4K TV, аркадные автоматы с Pac-Man, Metal Slug и другими хитами геймдизайна, просторная зона отдыха, 5 переговорных комнат и т д) \n• Команда из 80 человек занимающаяся паблишингом и маркетингом, готовая сделать продукт успешным после его готовности \n• Возможность обучаться английскому языку с носителями каждый будний день по утрам \n• Менторы и инвесторы, создавшие большое количество успешных IT компаний \nПрисоединяйтесь к нашей команде уже сегодня! \n\nНазвание компании: AppQuantum \n\nКонтакты: \ne-mail: bm@adquantum.com\ntelegram: @MishaBarinov","markup":[{"type":"hashtag","offset":0,"length":9,"data":"вакансия"},{"type":"hashtag","offset":10,"length":7,"data":"москва"},{"type":"hashtag","offset":18,"length":5,"data":"офис"},{"type":"hashtag","offset":24,"length":7,"data":"senior"},{"type":"hashtag","offset":32,"length":6,"data":"unity"},{"type":"hashtag","offset":39,"length":10,"data":"developer"},{"type":"hashtag","offset":50,"length":8,"data":"gamedev"},{"type":"hashtag","offset":59,"length":7,"data":"csharp"},{"type":"link","offset":2987,"length":16,"data":"mailto:bm@adquantum.com"},{"type":"handle","offset":3014,"length":13,"data":"MishaBarinov"}],"date":"2020-04-09T08:25:48+00:00","link":"tg://resolve?domain=mobile_jobs&post=63254","tags":[{"name":"mobile"},{"name":"android"},{"name":"ios"},{"name":"unity3d"},{"name":"csharp"},{"name":"git"}],"cities":[{"code":"moscow"}],"allowsRemote":false}},{"node":{"__typename":"Job","id":"66293071872-1001054966032","title":"Android разработчик","text":"#вакансия #senior #middle #Сбербанк #android #kotlin #fulltime #офис #agile\nКомпания: ПАО «Сбербанк»\nЛокация: Москва, м. Кутузовская (Agile home)\nЗ/п: от 180-280К на руки (в зависимости от уровня) + достойные годовые премии\nКонтакты: @tdurnicina TVlDurnitsyna@sberbank.ru\n\nДрузья! Мы в поисках Android разработчиков уровня middle и senior в новое небанковское приложение для клиента. Это уникальная возможность присоединиться к разработке серьёзного продукта в командах с атмосферой стартапа🙂 Вас ждут интересные задачи, свежий стек: Kotlin, Mvvm, RxJava, многомодульность и никакого легаси🔥 \n!Также готовы рассмотреть кандидатов уровня junior при наличии опыта коммерческой разработки.\n\nНаш Agile home это: пин понг, пул, кикер, библиотека, кофемашины на этажах, бесплатный спорт зал и подземный паркинг.\nЕсть отличный корпоративный университет, программы обучения в т.ч. за рубежом, конференции, митапы.\n🔥 Льготная ипотека и ДМС. \n\nРассмотрим кандидатов из других городов и стран. И конечно гибкое начало рабочего дня, куда без него.","markup":[{"type":"hashtag","offset":0,"length":9,"data":"вакансия"},{"type":"hashtag","offset":10,"length":7,"data":"senior"},{"type":"hashtag","offset":18,"length":7,"data":"middle"},{"type":"hashtag","offset":26,"length":9,"data":"Сбербанк"},{"type":"hashtag","offset":36,"length":8,"data":"android"},{"type":"hashtag","offset":45,"length":7,"data":"kotlin"},{"type":"hashtag","offset":53,"length":9,"data":"fulltime"},{"type":"hashtag","offset":63,"length":5,"data":"офис"},{"type":"hashtag","offset":69,"length":6,"data":"agile"},{"type":"handle","offset":234,"length":11,"data":"tdurnicina"},{"type":"link","offset":246,"length":25,"data":"mailto:TVlDurnitsyna@sberbank.ru"}],"date":"2020-04-08T19:01:58+00:00","link":"tg://resolve?domain=mobile_jobs&post=0","tags":[{"name":"mobile"},{"name":"android"},{"name":"kotlin"},{"name":"mvvm"}],"cities":[{"code":"moscow"}],"allowsRemote":false}},{"node":{"__typename":"Job","id":"66285731840-1001054966032","title":"Ios разработчик","text":"#вакансия #ios #swift #офис #СПб\n\nГород, адрес:  Санкт-Петербург, Гельсингфорсская ул, 2A\nФормат: офис\nЗанятость: Полная\nЗП вилка: 140000-180000 р \n\nО компании: АвтоТрансИнфо  \nhttps://ati.su/  \n – удобная площадка для сотрудничества и поиска клиентов.Мы создаём инновационные ИТ-решения для работы на логистическом рынке. На сайте ATI.SU грузоотправители и перевозчики быстро находят друг друга. Также наши сервисы и инструменты помогают сделать грузоперевозки выгодными и безопасными для всех пользователей. Мы постоянно развиваемся, поэтому ATI.SU уже 20 лет остается крупнейшей биржей грузоперевозок в России и СНГ.\n\nЗадачи. Вашей основной задачей будет - создание приложений компании для IOS.\nА также:\n- Участие в развитии текущего проекта;\n- Оценка задач; \n- Обсуждение и решение архитектурных, технических вопросов; \n- Взаимодействие с другими командами разработки.\n\nУсловия:\nОфициальное трудоустр по ТК РФ \nПолис ДМС со стоматологией;\nГибкий рабочий график: начало рабочего дня до 12:00\nОплачиваемые обеды, компенсация спорта, обучения ин.языкам, фрукты и сладости в офисе;\nПостоянно пополняющаяся библиотека с проф.литературой;\nКомнаты отдыха с PlayStation, мини спорт.зал с душем, настольный теннис, киккер, корпоративные сборные по разным видам спорта, йога;\nПрофессиональное обучение за счёт компании (конференции, тренинги, семинары).\n\nТребования: \n- Знание Swift;\n- Знание основных структур данных;\n- Понимание REST API/Soket;\n- Понимание SOLID/DRY/KISS;\n- Понимание архитектурных паттернов MVC, MVVM, VIPER, Clean Swift (VIP);\n- Знание и опыт работы с Core Data/Realm;\n- Понимание iOS Human Interface Guidelines.\nВашим преимуществом будет:\n- Fastlane, CI/CD, опыт взаимодействия с App Store Review.\n\nОтклики и вопросы жду с нетерпением! @KseniyaAG_HR","markup":[{"type":"hashtag","offset":0,"length":9,"data":"вакансия"},{"type":"hashtag","offset":10,"length":4,"data":"ios"},{"type":"hashtag","offset":15,"length":6,"data":"swift"},{"type":"hashtag","offset":22,"length":5,"data":"офис"},{"type":"hashtag","offset":28,"length":4,"data":"СПб"},{"type":"link","offset":177,"length":15,"data":"https://ati.su/"},{"type":"link","offset":332,"length":6,"data":"http://ATI.SU"},{"type":"link","offset":544,"length":6,"data":"http://ATI.SU"},{"type":"bold","offset":621,"length":6,"data":""},{"type":"bold","offset":874,"length":9,"data":""},{"type":"bold","offset":1349,"length":13,"data":""},{"type":"bold","offset":1628,"length":27,"data":""},{"type":"handle","offset":1752,"length":13,"data":"KseniyaAG_HR"}],"date":"2020-04-08T16:48:29+00:00","link":"tg://resolve?domain=mobile_jobs&post=0","tags":[{"name":"mobile"},{"name":"ios"},{"name":"swift"},{"name":"rest"},{"name":"mvvm"},{"name":"realm"},{"name":"core-data"}],"cities":[],"allowsRemote":false}}]}}},"context":{}}