{"hash":"f5f6bf98bd95e769321482904cbbd488f77922fd","data":{"records":{"id":"ubuntu","name":"ubuntu","belongsTo":{"totalCount":12,"pageInfo":{"totalPages":2,"currentPage":1},"edges":[{"node":{"__typename":"Job","id":"2280652800-1001134745498","title":"Devops инженер","text":"#вакансия #DevOps\n\nЛокация: Москва, м. Савёловская\nФормат работы: до середины июля удаленка, затем офис с возможной частичной удаленкой после испытательного срока\nЗанятость: полная\nЗарплатная вилка: от 180.000 до 300.000 на руки\n\nМедицинская компания, которая разрабатывает технологичные страховые и сервисные продукты для людей и для бизнеса ищет себе крутого DevOps инженера.\n\nЕще пару лет назад у них не было процесса CI/CD, инфраструктуры, боевой код разворачивался через git pull на продакшне, все было на одной виртуалке и т.д. и т.п.\nНа сегодняшний день есть CI, Infrastructure-as-a-Code, мониторинг и алертинг, а также докеризация.\nБизнес и команда очень сильно выросли: в 2,5 раза за 2018 год. Сейчас компания занимает 2ое место по количеству пациентов среди insurtech компаний в Европе.\nВ планах поднимать новые сервисы, масштабироваться вертикально и горизонтально, ускорять CI, внедрять CD и новые инструменты в инфраструктуру.\n\nЧтобы осуществить все задуманное, ребятам нужен человек, который сможет развивать культуру DevOps в команде.\n\nСтек технологий:\n\n➖Backend: Python 3.7, Django, Flask, aiohttp;\n➖Frontend: TypeScript, React;\n➖Mobile: React Native;\n➖Ubuntu 18.04, PostgreSQL (9.6), Redis, ElasticSearch;\n➖Nginx, Docker, Ansible;\n➖Kibana (ELK), Sentrу, Prometheus, Grafana;\n➖GitLab + GitLab CI, Selectel, servers.ru.\n\nЧто нужно будет делать:\n\n➖Ускорить CI, сборку, деплой и улучшить его инструменты;\n➖Сделать сервисы быстрее и надёжнее;\n➖Поддерживать существующую инфраструктуру;\n➖Мониторить ошибки в бою и исправлять их;\n➖Разрабатывать инструменты автоматизации для команд.\n\nОт кандидата:\n\n➖Знание Docker;\n➖Отличное знание Linux и окружения;\n➖Опыт работы с системами управления конфигурацией Chef, Puppet, Ansible или Salt (мы используем Ansible);\n➖Знание bash/Python;\n➖Опыт работы с Django приложениями будет плюсом;\n➖Опыт работы с ELK будет плюсом.\n\nПочему будет круто:\n\n➖Работаем по гибкому графику, для нас главное — результат;\n➖Отправляем на конференции и митапы, даже международные;\n➖Мы меняем рынок медицинского страхования, и у нас это отлично получается;\n➖Мы собрали команду очень талантливых и мотивированных людей;\n➖У вас будет необходимое для работы железо;\n➖Вы получите медицинское обслуживание через нашу систему. И это в разы лучше, чем стандартный ДМС :)\n➖Вы будете работать в крутом лофте у метро Савеловская. До середины июля удаленно;\n➖Cкидки на занятия английским языком, фитнес и путешествия.\n\nНазвание компании: GMS Services (ссылка на сайт — https://bit.ly/2BY7kc7)\n\nКонтакты: @diana_gms\n\n—\n\n👉 Обсуждение вакансии в чате @devops_jobs","markup":[{"type":"hashtag","offset":0,"length":9,"data":"вакансия"},{"type":"hashtag","offset":10,"length":7,"data":"DevOps"},{"type":"link","offset":1324,"length":10,"data":"http://servers.ru"},{"type":"link","offset":2485,"length":22,"data":"https://bit.ly/2BY7kc7"},{"type":"handle","offset":2520,"length":10,"data":"diana_gms"},{"type":"handle","offset":2565,"length":12,"data":"devops_jobs"}],"date":"2020-07-02T18:19:38+00:00","link":"tg://resolve?domain=devops_jobs_feed&post=2175","tags":[{"name":"git"},{"name":"python"},{"name":"django"},{"name":"flask"},{"name":"typescript"},{"name":"reactjs"},{"name":"mobile"},{"name":"ubuntu"},{"name":"postgresql"},{"name":"redis"},{"name":"elasticsearch"},{"name":"nginx"},{"name":"docker"},{"name":"ansible"},{"name":"gitlab"},{"name":"linux"},{"name":"bash"},{"name":"react-native"}],"cities":[{"code":"moscow"}],"allowsRemote":true}},{"node":{"__typename":"Job","id":"2278555648-1001134745498","title":"Devops инженер","text":"#вакансия #devops #docker #kubernetes\nВакансия: Devops\nГород: Москва, м. Марьина Роща\nФормат работы: офис\nЗанятость: полная\nЗарплатная вилка: от 150 до 200к\n\nTalentTech — это IT-холдинг, быстрорастущий стартап. \nТебе предстоит присоединиться к команде разработки EdTech продуктов, которая будет выводить Foxford.ru в общеобразовательные школы, и помогать детям учиться и развиваться.\n\nЧем тебе предстоит заниматься:\n🔸поддержание текущей серверной инфраструктуры\n🔸настройка и деплой web-приложений\n🔸автоматизация настройки и управления серверами\n🔸мониторинг серверов и приложений\n\nЧто мы ждем от тебя:\n🔹опыт администрирования Linux (Ubuntu)\n🔹опыт написания скриптов на bash\n🔹опыт администрирования open source приложений (веб-серверы, базы данных, и т.д.)\n🔹опыт работы с реляционными базами данных (обновление, восстановление данных)\n🔹умение составлять и вести документацию\n\nПлюсом будет:\n▪️знание скриптовых языков (shell, python или ruby)\n▪️опыт установки, настройки, мониторинга основных сетевых сервисов (почта, DNS, NAT, firewall, VPN)\n▪️опыт настройки окружения и деплоя rails-приложений (capistrano, nginx+unicorn)\n▪️опыт работы с Docker и Kubernetes\n▪️навыки в сфере автоматизации процессов настройки и управления серверами (puppet, ansible, chef)\n\nЧто предлагаем?\n🟣ДМС, комфортный рабочий график, бонусы от компании\n\nНазвание компании: TalentTech \n\nКонтакты: @yulianka_95\n\n—\n\n👉 Обсуждение вакансии в чате @devops_jobs","markup":[{"type":"hashtag","offset":0,"length":9,"data":"вакансия"},{"type":"hashtag","offset":10,"length":7,"data":"devops"},{"type":"hashtag","offset":18,"length":7,"data":"docker"},{"type":"hashtag","offset":26,"length":11,"data":"kubernetes"},{"type":"link","offset":304,"length":10,"data":"http://Foxford.ru"},{"type":"handle","offset":1377,"length":12,"data":"yulianka_95"},{"type":"handle","offset":1424,"length":12,"data":"devops_jobs"}],"date":"2020-07-02T18:12:38+00:00","link":"tg://resolve?domain=devops_jobs_feed&post=2173","tags":[{"name":"docker"},{"name":"kubernetes"},{"name":"web"},{"name":"linux"},{"name":"ubuntu"},{"name":"bash"},{"name":"shell"},{"name":"python"},{"name":"ruby"},{"name":"dns"},{"name":"ruby-on-rails"},{"name":"nginx"},{"name":"ansible"}],"cities":[{"code":"moscow"}],"allowsRemote":false}},{"node":{"__typename":"Job","id":"2277507072-1001134745498","title":"Devops инженер","text":"#вакансия #удаленно #devops \nВакансия: DevOps/Разработчик бандлов\nЛокация: удаленно\nЗаработная плата: от 180 до 260 тыс. руб. гросс (готовы обсуждать)\n\nArenadata – корпоративная платформа сбора и обработки больших данных на базе open-source проектов https://arenadata.tech/ Является контрибьютором open-source проектов Kafka, Clickhouse, Hadoop, Greenplum и других. Компания входит в ODPi (Linux Foundation).\n\nЧем предстоит заниматься:\n• Активно участвовать в разработке, развитии и поддержке системы управления развертыванием Big Data сервисов (Hadoop, Clickhouse, Greenplum);\n• Cозданием инфраструктурных обвязок для опенсорс проектов для автоматизации их разверток;\n• Работать c системой отслеживания ошибок (Jira);\n• Участвовать в разработке сценариев тестирования;\n• Принимать решения по выбору инструментов;\n• Участвовать в третьей линии поддержки заказчиков сервиса.\n\nЧто ожидаем:\n• Опыт автоматизации работы с помощью Ansible, опыт написания с нуля Ansible playbook;\n• Знание Linux (RHEL, CentOS, Ubuntu) на уровне администратора;\n• Опыт написания bash-скриптов;\n• Опыт работы с Git; \n• Опыт работы со стеком Hadoop.\n\nДополнительным плюсом будет:\n• Опыт работы с системами виртуализации (KVM, VMware, OpenStack);\n• Опыт работы с контейнерами: Docker, OpenShift, Kubernetes;\n• Опыт работы со Clickhouse;\n• Опыт работы со Greenplum;\n• Опыт сопровождения IT-инфраструктуры;\n• Знание Python.\n\nУ нас Вы сможете получить:\n• Работа в молодом, дружном коллективе в атмосфере стартапа, но с бонусами большой устоявшейся компании;\n• Сильная техническая экспертиза в команде;\n• Проекты внедрения в крупнейших компаниях России;\n• Возможность гибкого графика;\n• Участие в крупнейших российских и международных ИТ-конференциях и выставках;\n• Конкурентная заработная плата по результатам собеседования, ежегодный ее пересмотр по итогам аттестации\n\n✉️ Контакты: opankina@ibs.ru @pankina_hr\n\n—\n\n👉 Обсуждение вакансии в чате @devops_jobs","markup":[{"type":"hashtag","offset":0,"length":9,"data":"вакансия"},{"type":"hashtag","offset":10,"length":9,"data":"удаленно"},{"type":"hashtag","offset":20,"length":7,"data":"devops"},{"type":"link","offset":250,"length":23,"data":"https://arenadata.tech/"},{"type":"link","offset":1854,"length":15,"data":"mailto:opankina@ibs.ru"},{"type":"handle","offset":1870,"length":11,"data":"pankina_hr"},{"type":"handle","offset":1916,"length":12,"data":"devops_jobs"}],"date":"2020-07-02T18:11:10+00:00","link":"tg://resolve?domain=devops_jobs_feed&post=2172","tags":[{"name":"kafka"},{"name":"hadoop"},{"name":"linux"},{"name":"ansible"},{"name":"centos"},{"name":"ubuntu"},{"name":"bash"},{"name":"git"},{"name":"docker"},{"name":"kubernetes"},{"name":"python"}],"cities":[],"allowsRemote":true}},{"node":{"__typename":"Job","id":"26957840384-1001075660570","title":"Php developer","text":"#вакансия #php #senior #middle #laravel #москва #fulltime \nКомпания skillbox.ru ищет в команду Middle/Senior PHP Developer (Laravel).\n\nЧем предстоит заниматься:\n •  Нужно будет продолжать развивать сервис авторизации;\n •  Поддерживать текущие проекты на Laravel + Vue;\n •  Участвовать в Code Review;\n •  Писать Unit-тесты;\n •  Ведение документации своего кода;\n •  Принимать активное участие в проектировании микросервисов и БД.\n\nЧто мы ждем от вас:\n •  Уверенные знания PHP7, MySQL, Laravel;\n •  Умение разбираться в Legacy code;\n •  Опыт работы с Redis, WebSockets;\n •  Опыт работы с системами контроля версий – git;\n •  Опыт интеграции с внешними системами по API;\n •  Хорошее знание системы Linux (Ubuntu);\n •  Ответственность и инициативность;\n •  Умение внятно выражать свои мысли устно и письменно;\n •  Умение адекватно оценивать сроки на реализацию той или иной задачи.\n\nМы предлагаем отличные условия:\n •  Белую зарплату от 150.000 net (оклад обсудим индивидуально)\n •  Возможность прохождения любых дистанционных курсов Skillbox бесплатно, а еще корпоративную скидку на изучение английского языка в Skyeng и фитнес.\n •  Рост внутри компании не ограничен, всегда найдется то, что будет интересно тебе;\n •  Корпоративные активности (волейбол, футбол, квесты, квизы, шахматы, Skillbox.fm и др.);\n •  Наша команда творит в новом и стильном офисе на м.Октябрьская;\n •  Гибкий график работы (время прихода на работу в интервале с 8 до 12) и отсутствие дресс-кода;\n\nКонтакты: mariya.reshetova@skillbox.ru      @marieresh","markup":[{"type":"hashtag","offset":0,"length":9,"data":"вакансия"},{"type":"hashtag","offset":10,"length":4,"data":"php"},{"type":"hashtag","offset":15,"length":7,"data":"senior"},{"type":"hashtag","offset":23,"length":7,"data":"middle"},{"type":"hashtag","offset":31,"length":8,"data":"laravel"},{"type":"hashtag","offset":40,"length":7,"data":"москва"},{"type":"hashtag","offset":48,"length":9,"data":"fulltime"},{"type":"link","offset":68,"length":11,"data":"http://skillbox.ru"},{"type":"bold","offset":95,"length":38,"data":""},{"type":"bold","offset":135,"length":25,"data":""},{"type":"bold","offset":430,"length":19,"data":""},{"type":"bold","offset":879,"length":31,"data":""},{"type":"link","offset":1283,"length":11,"data":"http://Skillbox.fm"},{"type":"link","offset":1479,"length":28,"data":"mailto:mariya.reshetova@skillbox.ru"},{"type":"handle","offset":1513,"length":10,"data":"marieresh"}],"date":"2020-07-02T09:30:52+00:00","link":"tg://resolve?domain=php_jobs&post=25709","tags":[{"name":"php"},{"name":"laravel"},{"name":"vuejs"},{"name":"mysql"},{"name":"redis"},{"name":"git"},{"name":"linux"},{"name":"ubuntu"},{"name":"dotnet"}],"cities":[{"code":"moscow"}],"allowsRemote":false}},{"node":{"__typename":"Job","id":"26927431680-1001075660570","title":"Php разработчик","text":"#php #вакансия #удалёнка \n\nPHP Engineer\nФормат работы: #fulltime #remote\nЗарплата: $ 40 000 - 50 000 в год\nГород: удаленно\n\nНебольшая, но быстро растущая студия разработки из Лондона ищет PHP-ниндзю. На нашем счету много успешных проектов, большая часть которых — британские. \n\nТребования:\n— Опыт в разработке не менее 3 лет;\n— Знание PHP как родного,\n— Знание SQL, особенно MySQL или PostgreSQL \n— Понимание HTML/CSS;\n— Быть знакомым с PHP MVC Framework, JavaScript (and jQuery);\n— Опыт в Version Control (Git);\n— Опыт с Bash and Unix (обычно мы используем Ubuntu 16.04) \n— Уровень английского С2;\n— Опыт с алгоритмами приветствуется;\n— Большим плюсом будет знание Laravel (или хотя бы Symfony), фреймворки CakePHP, Zend, CodeIgniter тоже ок, но все равно потребуется освоить Laravel.\n\nЧтобы откликнуться, необходимо пройти короткий отбор по ссылке https://6nomads.com/ (обязательное условие найма🤷‍♀️)\n\nКонтакт для связи @temnik_sofya","markup":[{"type":"hashtag","offset":0,"length":4,"data":"php"},{"type":"hashtag","offset":5,"length":9,"data":"вакансия"},{"type":"hashtag","offset":15,"length":9,"data":"удалёнка"},{"type":"hashtag","offset":55,"length":9,"data":"fulltime"},{"type":"hashtag","offset":65,"length":7,"data":"remote"},{"type":"link","offset":85,"length":15,"data":"tel:40 000 - 50 000"},{"type":"link","offset":850,"length":20,"data":"https://6nomads.com/"},{"type":"handle","offset":924,"length":13,"data":"temnik_sofya"}],"date":"2020-07-01T17:36:31+00:00","link":"tg://resolve?domain=php_jobs&post=25680","tags":[{"name":"php"},{"name":"sql"},{"name":"mysql"},{"name":"postgresql"},{"name":"html"},{"name":"css"},{"name":"javascript"},{"name":"jquery"},{"name":"git"},{"name":"bash"},{"name":"unix"},{"name":"ubuntu"},{"name":"laravel"},{"name":"symfony"},{"name":"cakephp"},{"name":"zend-framework"},{"name":"codeigniter"}],"cities":[],"allowsRemote":true}},{"node":{"__typename":"Job","id":"2256535552-1001134745498","title":"Devops инженер","text":"#вакансия #devops #docker #kubernetes\n\nВакансия: DevOps\nКомпания: Potok.io\nГород и адрес офиса: Москва, м. Марьина Роща, м. Савёловская\nФормат работы: удаленно на время пандемии, далее офис\nЗанятость: полная\nЗарплатная вилка: от 120 до 200к (net)\n\nМы - SaaS-решение по автоматизации бизнес-процессов в рамках подбора. Ищем человека, который возьмет на себя построение нашей инфраструктуры и CI/CD. Сейчас делаем всё силами команды разработки, а задач уже набралось на полноценного специалиста\nНаш стэк - ubuntu, ruby, postgres, elasticsearch, redis.\n\n🔹Чем предстоит заниматься:\n-настройка CI/CD\n-инфраструктурная поддержка продакшена - мониторинг, логи, деплой, вот это вот всё :)\n-запаковка SaaS-решения в коробку и развертка на серверах клиентов\n\n🔹Мы ищем человека, который:\n-имеет опыт работы DevOps специалистом от 2-х лет\n-имеет опыт администрирования Ubuntu\n-опыт работы с Docker и Kubernetes\n-навыки в сфере автоматизации процессов настройки и управления серверами (puppet, ansible, chef)\n-системы мониторинга и логинорования \nТакже большим плюсом будет опыт работы с PostgreSQL и Elasticsearch\n\n🔹Условия:\n-индивидуальное обсуждение зарплатных ожиданий \n-честное трудоустройство на 100%\n-классный ДМС\n-график 5/2 в среднем с 10 до 19\n-команду, нацеленную на общий результат и интересные задачи\n-дух стартапа + стабильность большой компании \n\nКонтакты: @yulianka_95\n\n—\n\n👉 Обсуждение вакансии в чате @devops_jobs","markup":[{"type":"hashtag","offset":0,"length":9,"data":"вакансия"},{"type":"hashtag","offset":10,"length":7,"data":"devops"},{"type":"hashtag","offset":18,"length":7,"data":"docker"},{"type":"hashtag","offset":26,"length":11,"data":"kubernetes"},{"type":"link","offset":66,"length":8,"data":"http://Potok.io"},{"type":"handle","offset":1362,"length":12,"data":"yulianka_95"},{"type":"handle","offset":1409,"length":12,"data":"devops_jobs"}],"date":"2020-06-25T11:10:32+00:00","link":"tg://resolve?domain=devops_jobs_feed&post=2152","tags":[{"name":"docker"},{"name":"kubernetes"},{"name":"dotnet"},{"name":"ubuntu"},{"name":"ruby"},{"name":"postgresql"},{"name":"elasticsearch"},{"name":"redis"},{"name":"ansible"}],"cities":[{"code":"moscow"}],"allowsRemote":true}},{"node":{"__typename":"Job","id":"17072914432-1001110946746","title":"Js разработчик","text":"#вакансия  #backend #nodejs #javascript #удаленка #js #remote\n\nПозиция: Backend developer (Middle)\nКомпания: paradigmfund.io - инвестиционный фонд с офисами в Москве и Токио.\nФормат работы: Удаленка \nЗанятость: Полная с графиком работы (в выходные отдыхаем, в будни работаем по графику, гибкое начало рабочего дня)\nЗарплатная вилка: 110 000-150 000 руб. на руки\nЗадача: Участвовать в разработке новых и текущих it продуктов компании (криптовалютный кошелек, торговая биржа, обменник валют). \n\nТребования:\n- Опыт программирования на чистом JS не менее 3-х лет\n- Опыт программирования под Node.js не менее года\n- Опыт работы с серверами на Ubuntu\n- Знание SQL и особенностей PostgreSQL\n- Умение оптимизировать тяжелые запросы к базе\n- Хороший навык чтения чужого кода и модернизации его\n- Навык анализа новых структур данных и чужих API\n- Навык работы с Git\n- Гибкость, отзывчивость и хорошие soft skills, мы ценим дружелюбную и продуктивную среду, которую мы создали в команде, и надеемся, что вы гармонично в нее впишетесь.\n\nЖелательно:\n- Знание html, css, vue.js\n- Навык работы с docker'ами\n- Умение настраивать NGINX\n- Навык написание unit тестов\n- Навык поиска утечек памяти\n\nПомимо всего вышесказанного, у нас вы получите:\n- Работа в дружной команде, как разработчиков так и управленцев. \n- Профессиональное развитие и новые знания касаемо blockchain технологий.\n- Возможность релокации в офис в Москве.\n- Понятные процессы разработки (Agile, двухнедельные спринты, работаем в Jira и Confluence). \n\nКонтакты:\nМы стремимся постоянно автоматизировать и улучшать наши процессы, поэтому отклик на вакансию просим оставлять через форму: https://forms.gle/L9hWmD18Zs9kMo2E8\nС подходящими кандидатами свяжемся в течение недели, если возникли какие то вопросы, с радостью отвечу на них в лс @grshabl\n\n—\n\n👉 Обсуждение вакансии в чате @javascript_jobs","markup":[{"type":"hashtag","offset":0,"length":9,"data":"вакансия"},{"type":"hashtag","offset":11,"length":8,"data":"backend"},{"type":"hashtag","offset":20,"length":7,"data":"nodejs"},{"type":"hashtag","offset":28,"length":11,"data":"javascript"},{"type":"hashtag","offset":40,"length":9,"data":"удаленка"},{"type":"hashtag","offset":50,"length":3,"data":"js"},{"type":"hashtag","offset":54,"length":7,"data":"remote"},{"type":"link","offset":109,"length":15,"data":"http://paradigmfund.io"},{"type":"link","offset":1636,"length":35,"data":"https://forms.gle/L9hWmD18Zs9kMo2E8"},{"type":"handle","offset":1787,"length":8,"data":"grshabl"},{"type":"handle","offset":1830,"length":16,"data":"javascript_jobs"}],"date":"2020-06-19T10:46:36+00:00","link":"tg://resolve?domain=javascript_jobs_feed&post=16282","tags":[{"name":"javascript"},{"name":"nodejs"},{"name":"ubuntu"},{"name":"sql"},{"name":"postgresql"},{"name":"git"},{"name":"html"},{"name":"css"},{"name":"vuejs"},{"name":"docker"},{"name":"nginx"}],"cities":[{"code":"tokyo"}],"allowsRemote":true}},{"node":{"__typename":"Job","id":"2226126848-1001134745498","title":"Devops инженер","text":"#вакансия #удаленно #devops \nВакансия: DevOps/Разработчик бандлов\nЛокация: удаленно\nЗаработная плата: от 120 до 180 тыс. руб. гросс (готовы обсуждать)\n\nArenadata – корпоративная платформа сбора и обработки больших данных на базе open-source проектов https://arenadata.tech/ Является контрибьютором open-source проектов Kafka, Clickhouse, Hadoop, Greenplum и других. Компания входит в ODPi (Linux Foundation).\n\nЧем предстоит заниматься:\n• Активно участвовать в разработке, развитии и поддержке системы управления развертыванием Big Data сервисов (Hadoop, Clickhouse, Greenplum);\n• Cозданием инфраструктурных обвязок для опенсорс проектов для автоматизации их разверток;\n• Работать c системой отслеживания ошибок (Jira);\n• Участвовать в разработке сценариев тестирования;\n• Принимать решения по выбору инструментов;\n• Участвовать в третьей линии поддержки заказчиков сервиса.\n\nЧто ожидаем:\n• Опыт автоматизации работы с помощью Ansible, опыт написания с нуля Ansible playbook;\n• Знание Linux (RHEL, CentOS, Ubuntu) на уровне администратора;\n• Опыт написания bash-скриптов;\n• Опыт работы с Git; \n• Опыт работы со стеком Hadoop.\n\nДополнительным плюсом будет:\n• Опыт работы с системами виртуализации (KVM, VMware, OpenStack);\n• Опыт работы с контейнерами: Docker, OpenShift, Kubernetes;\n• Опыт работы со Clickhouse;\n• Опыт работы со Greenplum;\n• Опыт сопровождения IT-инфраструктуры;\n• Знание Python.\n\nУ нас Вы сможете получить:\n• Работа в молодом, дружном коллективе в атмосфере стартапа, но с бонусами большой устоявшейся компании;\n• Сильная техническая экспертиза в команде;\n• Проекты внедрения в крупнейших компаниях России;\n• Возможность гибкого графика;\n• Участие в крупнейших российских и международных ИТ-конференциях и выставках;\n• Конкурентная заработная плата по результатам собеседования, ежегодный ее пересмотр по итогам аттестации\n\n✉️ Контакты: opankina@ibs.ru @itgig\n\n—\n\n👉 Обсуждение вакансии в чате @devops_jobs","markup":[{"type":"hashtag","offset":0,"length":9,"data":"вакансия"},{"type":"hashtag","offset":10,"length":9,"data":"удаленно"},{"type":"hashtag","offset":20,"length":7,"data":"devops"},{"type":"link","offset":250,"length":23,"data":"https://arenadata.tech/"},{"type":"link","offset":1854,"length":15,"data":"mailto:opankina@ibs.ru"},{"type":"handle","offset":1870,"length":6,"data":"itgig"},{"type":"handle","offset":1911,"length":12,"data":"devops_jobs"}],"date":"2020-06-18T20:27:12+00:00","link":"tg://resolve?domain=devops_jobs_feed&post=2123","tags":[{"name":"kafka"},{"name":"hadoop"},{"name":"linux"},{"name":"ansible"},{"name":"centos"},{"name":"ubuntu"},{"name":"bash"},{"name":"git"},{"name":"docker"},{"name":"kubernetes"},{"name":"python"}],"cities":[],"allowsRemote":true}},{"node":{"__typename":"Job","id":"2220883968-1001134745498","title":"Devops engineer","text":"#вакансия #devops #fulltime #НижнийНовгород\n\nВакансия: DevOps Engineer\nКомпания: Natera  ( www.natera.com)\nЛокация: Нижний Новгород\nФормат работы: офис и удаленный формат\nЗанятость: полная\nЗарплатная вилка: от 2500 до 3200 $ до вычета.  \nКонтакт:@zKITO\n\nВ продуктовую компанию ищем коллегу. \n\n\n      BENEFITS\nSalary $ 2500-3200 gross.  \nStocks\nPossibility of remote work with flexible working hours\nFree lunch, snacks etc in office\nMacbook Pro + monitors\nComfortable and cozy office with table tennis, playstation etc\nPossibility of business trips to the USA California\nFull compliance with labour laws.\n\n\nKNOWLEDGE, SKILLS, AND ABILITIES\n\n  Mandatory\nExperience in Linux Ubuntu administration.\nPractical experience managing applications deployed using AWS/GCP or Docker.\nAbility to read and understand Java code.\nStrong ability to troubleshoot complex issues ranging from system resources to application stack traces.\n\n  Nice to have experience with\nKubernetes, Rancher\nPython/Java\nTerraform\nAtlassian applications stack\ndatabases and SQL\n  \n \nPRIMARY RESPONSIBILITIES\n\nDevelop, configure and manage tools for fast and reliable deployments of our software.\nParticipate in operations efforts and be the point person for infrastructural activities.\nBuild tools for monitoring our infrastructure and resolve any issues with instances running in production. \nDevelop automation and CI/CD processes to enable teams to build, test, deploy, manage, configure, scale and monitor their applications using the latest technologies such as Docker, Kubernetes, Terraform and others.\nParticipate in architectural decisions to help improve reliability and scalability of our software.\nHelp configure and manage development tools such as Atlassian Bitbucket, Bamboo, Artifactory and others.\n\n—\n\n👉 Обсуждение вакансии в чате @devops_jobs","markup":[{"type":"hashtag","offset":0,"length":9,"data":"вакансия"},{"type":"hashtag","offset":10,"length":7,"data":"devops"},{"type":"hashtag","offset":18,"length":9,"data":"fulltime"},{"type":"hashtag","offset":28,"length":15,"data":"НижнийНовгород"},{"type":"link","offset":91,"length":14,"data":"http://www.natera.com"},{"type":"handle","offset":246,"length":6,"data":"zKITO"},{"type":"handle","offset":1810,"length":12,"data":"devops_jobs"}],"date":"2020-06-18T11:25:45+00:00","link":"tg://resolve?domain=devops_jobs_feed&post=2118","tags":[{"name":"linux"},{"name":"ubuntu"},{"name":"amazon-web-services"},{"name":"google-cloud-platform"},{"name":"docker"},{"name":"java"},{"name":"kubernetes"},{"name":"python"},{"name":"sql"}],"cities":[{"code":"nice"},{"code":"nizhny-novgorod"}],"allowsRemote":true}},{"node":{"__typename":"Job","id":"17040408576-1001110946746","title":"Js разработчик","text":"#вакансия  #backend #nodejs #javascript #удаленка #js #remote\n\nПозиция: Backend developer (Middle)\nКомпания: paradigmfund.io - инвестиционный фонд с офисами в Москве и Токио.\nФормат работы: Удаленка \nЗанятость: Полная с графиком работы (в выходные отдыхаем, в будни работаем по графику, гибкое начало рабочего дня)\nЗарплатная вилка: 110 000-150 000 руб. на руки\nЗадача: Участвовать в разработке новых и текущих it продуктов компании (криптовалютный кошелек, торговая биржа, обменник валют). \n\nТребования:\n- Опыт программирования на чистом JS не менее 3-х лет\n- Опыт программирования под Node.js не менее года\n- Опыт работы с серверами на Ubuntu\n- Знание SQL и особенностей PostgreSQL\n- Умение оптимизировать тяжелые запросы к базе\n- Хороший навык чтения чужого кода и модернизации его\n- Навык анализа новых структур данных и чужих API\n- Навык работы с Git\n- Гибкость, отзывчивость и хорошие soft skills, мы ценим дружелюбную и продуктивную среду, которую мы создали в команде, и надеемся, что вы гармонично в нее впишетесь.\n\nЖелательно:\n- Знание html, css, vue.js\n- Навык работы с docker'ами\n- Умение настраивать NGINX\n- Навык написание unit тестов\n- Навык поиска утечек памяти\n\nПомимо всего вышесказанного, у нас вы получите:\n- Работа в дружной команде, как разработчиков так и управленцев. \n- Профессиональное развитие и новые знания касаемо blockchain технологий.\n- Возможность релокации в офис в Москве.\n- Понятные процессы разработки (Agile, двухнедельные спринты, работаем в Jira и Confluence). \n\nКонтакты:\nМы стремимся постоянно автоматизировать и улучшать наши процессы, поэтому отклик на вакансию просим оставлять через форму: https://forms.gle/L9hWmD18Zs9kMo2E8\nС подходящими кандидатами свяжемся в течение недели, если возникли какие то вопросы, с радостью отвечу на них в лс @grshabl\n\n—\n\n👉 Обсуждение вакансии в чате @javascript_jobs","markup":[{"type":"hashtag","offset":0,"length":9,"data":"вакансия"},{"type":"hashtag","offset":11,"length":8,"data":"backend"},{"type":"hashtag","offset":20,"length":7,"data":"nodejs"},{"type":"hashtag","offset":28,"length":11,"data":"javascript"},{"type":"hashtag","offset":40,"length":9,"data":"удаленка"},{"type":"hashtag","offset":50,"length":3,"data":"js"},{"type":"hashtag","offset":54,"length":7,"data":"remote"},{"type":"link","offset":109,"length":15,"data":"http://paradigmfund.io"},{"type":"link","offset":1636,"length":35,"data":"https://forms.gle/L9hWmD18Zs9kMo2E8"},{"type":"handle","offset":1787,"length":8,"data":"grshabl"},{"type":"handle","offset":1830,"length":16,"data":"javascript_jobs"}],"date":"2020-06-18T11:24:11+00:00","link":"tg://resolve?domain=javascript_jobs_feed&post=0","tags":[{"name":"javascript"},{"name":"nodejs"},{"name":"ubuntu"},{"name":"sql"},{"name":"postgresql"},{"name":"git"},{"name":"html"},{"name":"css"},{"name":"vuejs"},{"name":"docker"},{"name":"nginx"}],"cities":[{"code":"tokyo"}],"allowsRemote":true}}]}}},"context":{}}