{"hash":"f5f6bf98bd95e769321482904cbbd488f77922fd","data":{"records":{"id":"linux","name":"linux","belongsTo":{"totalCount":109,"pageInfo":{"totalPages":11,"currentPage":4},"edges":[{"node":{"__typename":"Job","id":"103833141248-1001089317451","title":"Qa инженер","text":"🐞🐞🐞#вакансия #QA #Ульяновск #Саранск #Казань #Самара #Уфа #Краснодар #офис #удаленная_работа\n\n🔍Middle QA-специалист🔎\n\n⚡️Компания: Simbirsoft (более 19 лет на рынке, более 700 сотрудников в штате)\n\nОчень ждем тебя, наш будущий коллега и борец за качественное ПО! :)\n\n📌Твои будущие задачи:\n• тестирование ПО (frontend, backend, API);\n• локализация и документирование найденных дефектов;\n• ведение и оптимизация тестовой документации;\n• контроль качества на всех этапах разработки ПО;\n• выстраивание и оптимизация процессов тестирования ПО.\n\n📌Что мы ждем от тебя:\n• наличие опыта от 2 лет в направлениях QA или тестирования ПО;\n• понимание разницы между QA и тестированием ПО;\n• понимание особенностей гибких методологий;\n• уверенное владение техниками тест-дизайна;\n• знание клиент-серверной архитектуры;\n• понимание особенностей тестирования web, mobile и desktop приложений;\n• навык тестирования API;\n• написание запросов SQL;\n• опыт работы с системами контроля версий (git);\n• знание основных команд работы с консолью (Windows/Linux).\n\n📌Что мы предлагаем:\n• Полностью белая ЗП два раза в месяц;\n• Оформление по ТК РФ;\n• Высокий уровень экспертности внутри компании, которым мы делимся друг с другом;\n• Перспективы вертикального и горизонтального роста;\n• Работа на российских и международных проектах;\n• Оборудованное рабочее место и парк тестовых устройств;\n• Подготовка и прохождение сертификации ISTQB бесплатно;\n• Внутренние и внешние курсы, доклады, конференции;\n• Бесплатные чай, кофе, печеньки в офисе;\n• Корпоративная спортивная программа (оплата тематических секций, частичная компенсация абонемента);\n• Проведение летних и зимних корпоративов, дня именинника, совместные походы и т.д.\n\n📌Зарплата:\n• от 50 000 (Договорная, по итогу собеседования)\n\n☎️Контакты:\n@nataly_max","markup":[{"type":"hashtag","offset":6,"length":9,"data":"вакансия"},{"type":"hashtag","offset":16,"length":3,"data":"QA"},{"type":"hashtag","offset":20,"length":10,"data":"Ульяновск"},{"type":"hashtag","offset":31,"length":8,"data":"Саранск"},{"type":"hashtag","offset":40,"length":7,"data":"Казань"},{"type":"hashtag","offset":48,"length":7,"data":"Самара"},{"type":"hashtag","offset":56,"length":4,"data":"Уфа"},{"type":"hashtag","offset":61,"length":10,"data":"Краснодар"},{"type":"hashtag","offset":72,"length":5,"data":"офис"},{"type":"hashtag","offset":78,"length":17,"data":"удаленная_работа"},{"type":"handle","offset":1779,"length":11,"data":"nataly_max"}],"date":"2020-06-26T14:16:52+00:00","link":"tg://resolve?domain=qa_jobs&post=99023","tags":[{"name":"qa"},{"name":"web"},{"name":"mobile"},{"name":"sql"},{"name":"git"},{"name":"windows"},{"name":"linux"}],"cities":[{"code":"ulyanovsk"},{"code":"saransk"},{"code":"kazan"},{"code":"samara"},{"code":"ufa"},{"code":"krasnodar"}],"allowsRemote":true}},{"node":{"__typename":"Job","id":"1744830464-1001091028994","title":"Java разработчик","text":"#москва #вакансия #java #javateamlead \nВакансия: Lead/Senior java разработчик \nВилка заработной платы: 180 000 – 250 000 net\nФормат: офис\n\nПроекты по созданию/развитию информационных систем в части цифровизации городских сервисов ЖКХ.\nРабота с IoT-системами, проекты по Bigdata, сбору и анализу данных с множества источников.\n\n🔸Мы предлагаем:\n-Высокая заработная плата от 180 000 до 250 000 на руки;\n-Повышение ставки после испытательного срока;\n-13-я зарплата+премии по итогу выполнения проектов;\n-Полностью официальное оформление по ТК РФ;\n\n🔸Требования:\n-Опыт управления командой 6+ человек от 1-го года;\n-Базовые знания Computer Science (алгоритмы, структуры данных);\n-Опыт разработки серверной части приложений на Java;\n-Знание практик и инструментария DevOps;\n-Отличное знание Java 8+ и популярных библиотек (Log4J, Apache Commons, Google Guava);\n-Знание Linux, основы Shell scripts, понимание архитектуры ОС.\n\n🔸Стек технологий:\n-На проектах используются языки: Java, JavaScript(React + Redux);\n-Java-стэк: Java8, Spring, Spring Cloud, Apache Kafka, Apache Spark, Tomcat;\n-Docker, Postgres, HDFS, Apache Hive;\n-Gitlab, Telegram.\n\nКонтакт: @Zarnica_hr","markup":[{"type":"hashtag","offset":0,"length":7,"data":"москва"},{"type":"hashtag","offset":8,"length":9,"data":"вакансия"},{"type":"hashtag","offset":18,"length":5,"data":"java"},{"type":"hashtag","offset":24,"length":13,"data":"javateamlead"},{"type":"handle","offset":1147,"length":11,"data":"Zarnica_hr"}],"date":"2020-06-26T12:01:03+00:00","link":"tg://resolve?domain=jvmjobs&post=1664","tags":[{"name":"java"},{"name":"jvm"},{"name":"dotnet"},{"name":"apache"},{"name":"linux"},{"name":"shell"},{"name":"javascript"},{"name":"reactjs"},{"name":"redux"},{"name":"spring"},{"name":"cloud"},{"name":"kafka"},{"name":"tomcat"},{"name":"docker"},{"name":"postgresql"},{"name":"hdfs"},{"name":"hive"},{"name":"gitlab"},{"name":"react-redux"},{"name":"apache-spark"}],"cities":[{"code":"moscow"}],"allowsRemote":false}},{"node":{"__typename":"Job","id":"26597130240-1001075660570","title":"Php разработчик","text":"PHP- разработчик \n#Drupal #php #вакансия\n\nКрупный Банк России.\n\nОклад: 100-150к net + премия\n\nОбязательно:\n• Опыт работы с Drupal 7/8 \n• Знания php 7 и ООП\n• Знания современного окружения (nginx\\apache, mysql\\pgsql, MQ и т.д) .\n• Понимание ядра Drupal 8\n• Опыт работы с популярным контрибом (views, token, paragraphs, groups и т.д.)\n• Навыки работы с большим объемом унаследованного кода\n• Опыт промышленной эксплуатации высоконагруженных проектов, со сложным релизным циклом и SLA 99,99+\n• Знание протокола HTTP/HTTPS и понимание REST архитектуры\n• Навыки работы с linux (cli)\n• Навыки по настройке и эксплуатация php приложений в контейнерах\nЖелательно:\n• Опыт ведения больших проектов в git с несколькими релизными ветками.\n• Навыки использования PHPUnit в связке с Drupal 8 (unit, kernel, functional тесты)\n• Опыт работы с криптографией, шифрованием, КЭП, ЭЦП, TLS и т.д.\nОбязанности:\n• Участие в разработке высоконагруженных интернет-порталов;\n• Разработка новых и поддержка/доработка существующих проектов компании;\n• Рефакторинг кода и устранение неисправностей/уязвимостей;\n• Интеграция проектов со сторонними сервисами;\n• Чтение ТЗ и разработка согласно его требований;\n• Документирование создаваемого кода;\n\nРезюме в личку.","markup":[{"type":"hashtag","offset":18,"length":7,"data":"Drupal"},{"type":"hashtag","offset":26,"length":4,"data":"php"},{"type":"hashtag","offset":31,"length":9,"data":"вакансия"}],"date":"2020-06-26T07:40:37+00:00","link":"tg://resolve?domain=php_jobs&post=25365","tags":[{"name":"php"},{"name":"drupal"},{"name":"dotnet"},{"name":"nginx"},{"name":"apache"},{"name":"mysql"},{"name":"rest"},{"name":"linux"},{"name":"git"},{"name":"phpunit"}],"cities":[],"allowsRemote":false}},{"node":{"__typename":"Job","id":"1743781888-1001091028994","title":"Java разработчик","text":"#вакансия #java # Senior #middle #Москва \nГород: Москва, метро Тульская\nФормат работы: full-time, офис ( сейчас удаленно)\nЗарплатная вилка: 180 -300к рублей на руки ( + годовой бонус) – в зависимости от вашего опыта\nКонтакты: @vsevkosmo\nКомпания: Сбербанк\nSenior Java Разработчик\nРазвитие функциональности брокерского обслуживания для физических и юридических лиц.\nТехнические требования:\nХорошие знания Java Core\nОпыт работы с ORM(Hibernate/Jooq)\nУмение писать и оптимизировать SQL-запросы\nУверенное знание Spring Framework\nОпыт работы с системой контроля версий: Git/Mercurial\nХорошее понимание принципов ООП\nТехнический английский\n\nПреимуществом будет:\nОпыт работы с Docker/Openshift\nОпыт работы с Spring Boot\nОпыт работы с Istio\nОпыт работы с Kafka\nНавыки работы в Linux системах.\nОпыт разработки высоконагруженных сервисов;\nЗнание Gradle\n\nОбязанности:\nРазработка серверных приложений на Java\nРазработка новой функциональности\nРазработка архитектуры \nНаписание unit-тестов\nОптимизация и рефакторинг кода\nРевью кода","markup":[{"type":"hashtag","offset":0,"length":9,"data":"вакансия"},{"type":"hashtag","offset":10,"length":5,"data":"java"},{"type":"hashtag","offset":25,"length":7,"data":"middle"},{"type":"hashtag","offset":33,"length":7,"data":"Москва"},{"type":"handle","offset":226,"length":10,"data":"vsevkosmo"}],"date":"2020-06-26T06:49:08+00:00","link":"tg://resolve?domain=jvmjobs&post=1663","tags":[{"name":"java"},{"name":"jvm"},{"name":"orm"},{"name":"hibernate"},{"name":"sql"},{"name":"spring"},{"name":"git"},{"name":"mercurial"},{"name":"docker"},{"name":"kafka"},{"name":"linux"},{"name":"gradle"},{"name":"spring-boot"}],"cities":[{"code":"moscow"}],"allowsRemote":true}},{"node":{"__typename":"Job","id":"72025636864-1001054966032","title":"Ios developer","text":"#вакансия #IOS #Senior #Objective-C #Swift #удаленно\n🔥Приглашаем Senior IOS Developer в новый проект от Сбербанка.\n💸Уровень ЗП: 250К-330К net (в зависимости от типа оформления).\n📝Оформление: ИП или штат компании партнера.\n📍Локация: удаленно❗️\n\n🧑‍💻О проекте: фронтальная SDK биометрической платформы. Данный проект занимается разработкой продукта «Фронтальная биометрическая компонента» (Фронтальная БиоSDK) для биометрической идентификации личности на различных ОС и устройствах. Первоочередная задача сейчас – забрать текущие версии SDK у непрофильных подразделений и на их основе разработать Фронтальной БиоSDK для мобильных приложений (iOS). Банку, как высокотехнологичной организации необходима биометрическая идентификация личности. Это позволит перейти к системам без документов, паролей, смс, пинкодов.\n\n🎯Ваши будущие задачи:\n· разработка (с «нуля») и поддержка собственной компоненты фронтального Био SDK по работе с камерами устройств и нейросетями собственной лаборатории (Machine Learning, Data Scientist, Computer Vision) и решений вендоров;\n· интеграция Био SDK с каналами/продуктами Банка мобильных решений\n(iOS), а также прочих систем банка (Linux, Windows, Web, SmartDevices);\n· постоянное повышение качества продукта на фоне постоянно обучающихся нейросетей.\n\n🤝Мы ожидаем от Вас:\n- сильный Swift (опыт от 2 лет), понимание Objective-C (желательно опыт от 2 лет);\n- знание следующих тем: CALayer, viewDidLoad в UIViewController, ARC, CoreData, Корневые классы, Retain-циклы и утечка памяти MRC, Atomic, SOLID, Отрисовка UI, Мультипоточность.\n\nОткликнуться на вакансию и задать вопросы: telegram @anisimovaane4ka","markup":[{"type":"hashtag","offset":0,"length":9,"data":"вакансия"},{"type":"hashtag","offset":10,"length":4,"data":"IOS"},{"type":"hashtag","offset":15,"length":7,"data":"Senior"},{"type":"hashtag","offset":23,"length":10,"data":"Objective"},{"type":"hashtag","offset":36,"length":6,"data":"Swift"},{"type":"hashtag","offset":43,"length":9,"data":"удаленно"},{"type":"handle","offset":1619,"length":16,"data":"anisimovaane4ka"}],"date":"2020-06-25T14:24:48+00:00","link":"tg://resolve?domain=mobile_jobs&post=68689","tags":[{"name":"mobile"},{"name":"ios"},{"name":"objective-c"},{"name":"swift"},{"name":"dotnet"},{"name":"linux"},{"name":"windows"},{"name":"web"},{"name":"machine-learning"}],"cities":[],"allowsRemote":true}},{"node":{"__typename":"Job","id":"1738539008-1001091028994","title":"Java программист","text":"#вакансия #Java #Sofware #Kazan\n\n❗️В команду CloudALly ищем Java Инженера-программиста (Middle). \nГород: Казань\nЗарплатная вилка: до 150.000 руб.\nФормат работы: офис/удаленно\nЗанятость: полная\nПроект: резервное копирование данных CloudALly.com. \n\nЧем предстоит заниматься:\n• проектирование, разработка и оптимизация многопоточной высоконагруженной системы;\n• code review коллег;\n• разработка серверной части системы.\n\nМы ждём от вас:\n• опыт разработки на Java 2+ года;\n• опыт работы в Linux-окружении;\n• знание REST/SOAP API;\n• опыт написания Unit тестирования;\n• знакомство с Agile методологией разработки. \n\nМы предлагаем:\n• официальное трудоустройство по ТК РФ;\n• дружный коллектив;\n• гибкий график;\n• ДМС (на сотрудников и членов семьи);\n• компенсация курсов английского языка.\n\nКонтакты: \nТелеграм: @NailyaKhanipova\ne-mail: nhanipova@cloudally.com","markup":[{"type":"hashtag","offset":0,"length":9,"data":"вакансия"},{"type":"hashtag","offset":10,"length":5,"data":"Java"},{"type":"hashtag","offset":16,"length":8,"data":"Sofware"},{"type":"hashtag","offset":25,"length":6,"data":"Kazan"},{"type":"link","offset":230,"length":13,"data":"http://CloudALly.com"},{"type":"handle","offset":804,"length":16,"data":"NailyaKhanipova"},{"type":"link","offset":829,"length":23,"data":"mailto:nhanipova@cloudally.com"}],"date":"2020-06-25T13:47:09+00:00","link":"tg://resolve?domain=jvmjobs&post=1658","tags":[{"name":"java"},{"name":"jvm"},{"name":"linux"},{"name":"rest"},{"name":"soap"}],"cities":[{"code":"kazan"}],"allowsRemote":true}},{"node":{"__typename":"Job","id":"2257584128-1001134745498","title":"Devops инженер","text":"#вакансия #офис #fulltime #devops #Будва_Черногория\n\nВакансия: DevOps\nКомпания: Alar Studios\nАдрес: Будва, Черногория\nФормат работы: удаленно на время пандемии, далее офис\nЗанятость: full time\nЗ.п вилка: 1700-2300 eur (на руки)\n\nКомпания Alar Studios занимается разработкой крупных технологически тяжелых проектов на заказ для западных заказчиков. Предлагаем возможность развиваться в комфортных условиях мягкого климата Черногории на берегу моря (офис).\n\n📌Требования:\n    • Знание Jenkins, Ansible;\n    • Отличное знание Linux и опыт от 2-х лет;\n    • Кристально ясное понимание TCP/IP;\n    • Общее понимание ИТ-безопасности, зачем нужна и каковы пути ее достижения;\n    • Опыт работы с PostgreSQL или другой open source RDBMS;\n    • Опыт работы в инфраструктуре AWS или подобной;\n    • Отличное знание и понимание RDBMS как такового: в частности, знание SQL, зачем нужны и как работают индексы;\n    • Знание и понимание HTTP;\n    • Хотя бы basic English;\n    • Горячее желание учиться новому!\n📌 Приветствуется:\n    • Знание Python;\n    • Опыт работы с Flask или Django;\n    • Опыт с Amazon VPC и dedicated hosts;\n    • Опыт с Celery, Redis;\n    • Знание git.\n📌Основные задачи:\n    • Разработка архитектуры (в том числе high load, horizontal scalability);\n    • Администрирование инфраструктуры (Linux, Amazon AWS);\n    • Поиск и отладка проблем, работа с серверным кодом;\n    • Написание автоматизации (Ansible);\n    • Быть частью команды и взаимодействовать с командой разработчиков.\n📌 Мы предлагаем\n    • Интересные проекты;\n    • Оплачиваемые отпуска; \n    • Двойную почасовую оплату согласованной переработки сверх рабочего времени (OVERTIME);\n    • Возможность работы в нашем офисе в Черногории, фактически, в раю на берегу Адриатического моря — до моря 10 минут пешком (поможем с переездом вам и семье).\nРазмер зарплат по опыту/знаниям (если хорошо знаете все из списка и есть опыт, то верхняя планка). Рост по производительности.\nДополнительные инструкции: Для интервью будет необходимо сделать тестовое задание.\nВаше CV прошу направлять на pakhomova@alarstudios.com или в @daikirey\n\n—\n\n👉 Обсуждение вакансии в чате @devops_jobs","markup":[{"type":"hashtag","offset":0,"length":9,"data":"вакансия"},{"type":"hashtag","offset":10,"length":5,"data":"офис"},{"type":"hashtag","offset":16,"length":9,"data":"fulltime"},{"type":"hashtag","offset":26,"length":7,"data":"devops"},{"type":"hashtag","offset":34,"length":17,"data":"Будва_Черногория"},{"type":"link","offset":2054,"length":25,"data":"mailto:pakhomova@alarstudios.com"},{"type":"handle","offset":2086,"length":9,"data":"daikirey"},{"type":"handle","offset":2130,"length":12,"data":"devops_jobs"}],"date":"2020-06-25T11:11:19+00:00","link":"tg://resolve?domain=devops_jobs_feed&post=2153","tags":[{"name":"jenkins"},{"name":"ansible"},{"name":"linux"},{"name":"postgresql"},{"name":"amazon-web-services"},{"name":"sql"},{"name":"python"},{"name":"flask"},{"name":"django"},{"name":"redis"},{"name":"git"}],"cities":[],"allowsRemote":true}},{"node":{"__typename":"Job","id":"2254438400-1001134745498","title":"Devops инженер","text":"Инженер DevOps \n#вакансия #Москва #Сколково #DevOps \n\nКомпания: Farzoom (финтех стартап 2016 года, резидент Сколково) \nЛокация: Москва, МЦД Сколково \nФормат работы: частично удаленный формат  \nЗанятость: Полная  \n💰Зарплатная вилка: от 180т.р до 230т.р net, премии \n\nПроект по разработке облачной фронтальной системы для банковского сектора.  \n\nЧто мы используем: микросервисная архитектура, Java 8, Spring Boot, Camunda BPM, Gitlab, Jenkins, Ansible, Docker Swarm, OpenStack, Nexus. Везде стоит Linux CentOS. \n \nСейчас идет переход на стек: Kubernetes, Coreos, Terraform, Podman. \n \n🎯 Что предстоит делать: \nПоддержка инфраструктуры в облаке (порядка 60 серверов/виртуалок) \nРазворачивание новых контуров \nСборка сервисов \nПоддержка CI/CD (в том числе настройка пайплайнов) \nИнтеграция контура и помощь в поддержке решения \n \n🎯  Мы предлагаем: \nОформление по ТК РФ с первого рабочего дня \nЕжегодные премии \nОфис рядом с МЦД Сколково, возможность часть времени работать удаленно \n\n👉 Контакты: @edzyuba\n\n—\n\n👉 Обсуждение вакансии в чате @devops_jobs","markup":[{"type":"hashtag","offset":16,"length":9,"data":"вакансия"},{"type":"hashtag","offset":26,"length":7,"data":"Москва"},{"type":"hashtag","offset":34,"length":9,"data":"Сколково"},{"type":"hashtag","offset":44,"length":7,"data":"DevOps"},{"type":"handle","offset":996,"length":8,"data":"edzyuba"},{"type":"handle","offset":1039,"length":12,"data":"devops_jobs"}],"date":"2020-06-25T07:28:33+00:00","link":"tg://resolve?domain=devops_jobs_feed&post=2150","tags":[{"name":"dotnet"},{"name":"java"},{"name":"spring"},{"name":"gitlab"},{"name":"jenkins"},{"name":"ansible"},{"name":"docker"},{"name":"linux"},{"name":"centos"},{"name":"kubernetes"},{"name":"spring-boot"}],"cities":[{"code":"moscow"}],"allowsRemote":true}},{"node":{"__typename":"Job","id":"2253389824-1001134745498","title":"Devops инженер","text":"#вакансия #Москва #офис #DevOps\n\n▫️ВАКАНСИЯ: Devops engineer\nКомпания: Северсталь-Диджитал\nФормат работы: удаленно на пандемии, далее офис  \nЛокация: Москва Офис на м. Войковская или МЦК Балтийская\nЗанятость: полная \nЗарплатная вилка: до 140-180к gross middle, 180-230к gross senior  + 30% годовой бонус\n\nКомпания занимается внедрением моделей машинного обучение в производстве. Мы ищем devops инженера для поддержки и развития платформы k8s, Kafka, Hadoop, Gitlab. Работа в небольшой команде, где ваши идеи будут быстро находить реализацию.\n\n▫️Обязанности:\n • Настройка, обновление, GitLab, GitlabCI, Nexus/Artifactory; \n • Организация сбора логов с компонентов IoT платформы Северстали (GrayLog); \n • Организация сбора метрик, описывающих состояние IoT платформы; \n • Создание дашбордов и алертов в Grafana; \n • Автоматизированный выпуск релизов. \n\n▫️Требования:\n• Опыт работы в роли DevOps инженера или аналогичной позиции от 1-го года;  \n• Опыт работы с Linux в роли администратора, навыки работы с Docker; \n• Опыт работы с Hadoop, Kafka, Kubernetes. \n\n▫️Желательно:\n• Умение быстро изучать англоязычные технические ресурсы; \n• Экспертные навыки работы с ОС семейства Linux; \n• Навыки работы на языках программирования Bash, Python, Java, Scala.\n• Опыт работы с Prometeus, Zabbix, ELK\n\n▫️Условия:\n•  Гибкое начало рабочего дня\n•  Официальное оформление\n•  Корпоративную мобильную связь, медицинскую страховку и страхование жизни\n•  Участие в профессиональных конференциях\n•  Современное рабочее пространство и уютные зоны отдыха\n\nКонтакты @DaynekoRoman, @ikart\n\n—\n\n👉 Обсуждение вакансии в чате @devops_jobs","markup":[{"type":"hashtag","offset":0,"length":9,"data":"вакансия"},{"type":"hashtag","offset":10,"length":7,"data":"Москва"},{"type":"hashtag","offset":18,"length":5,"data":"офис"},{"type":"hashtag","offset":24,"length":7,"data":"DevOps"},{"type":"handle","offset":1543,"length":13,"data":"DaynekoRoman"},{"type":"handle","offset":1558,"length":6,"data":"ikart"},{"type":"handle","offset":1599,"length":12,"data":"devops_jobs"}],"date":"2020-06-25T07:26:49+00:00","link":"tg://resolve?domain=devops_jobs_feed&post=2149","tags":[{"name":"kafka"},{"name":"hadoop"},{"name":"gitlab"},{"name":"linux"},{"name":"docker"},{"name":"kubernetes"},{"name":"bash"},{"name":"python"},{"name":"java"},{"name":"scala"}],"cities":[{"code":"moscow"}],"allowsRemote":true}},{"node":{"__typename":"Job","id":"2252341248-1001134745498","title":"Devops инженер","text":"#вакансия #DevOps #удаленка \nВакансия: DevOps\nФормат работы: офис или удаленная\nАдрес:  Москва, Боровая 8 (авиамоторная)\nЗанятость: полная\nЗарплатная вилка: от 140к до 190к\nКомпания: EMCD  Tech (emcd.io)\n \nВ связи с расширением бизнеса команда EMCD находится в поиске DevOps инженера. \n\nОсновная задача: развертывание и поддержка приложений на всех этапах разработки, создание и развитие систем непрерывной интеграции, развитие систем мониторинга\n\nЧто требуется:\n- ответственность, аккуратность, внимательность\n- опыт администрирования Linux\n- VMware (на базовом уровне: создание виртуалок, настройка сети)\n- Bash, Nginx, Ansible, Docker\n- CI/CD инструментарий (мы используем Bitbucket Pipelines и Docker Hub)\n- Zabbix, Prometheus, Grafana\n- MySQL, Clickhouse, Redis\n\nБудет плюсом:\n- опыт с AWS (на базовом уровне: создание виртуалок, настройка сети)\n\nУсловия\n- современный технологический стек\n- 4 перспективных продукта, команда больше 30 человек\n- возможность профессионального развития и карьерного роста\n- гибкий график\n\nКонтакты : @irapal, career@emcd.io\n\n—\n\n👉 Обсуждение вакансии в чате @devops_jobs","markup":[{"type":"hashtag","offset":0,"length":9,"data":"вакансия"},{"type":"hashtag","offset":10,"length":7,"data":"DevOps"},{"type":"hashtag","offset":18,"length":9,"data":"удаленка"},{"type":"link","offset":195,"length":7,"data":"http://emcd.io"},{"type":"handle","offset":1037,"length":7,"data":"irapal"},{"type":"link","offset":1046,"length":14,"data":"mailto:career@emcd.io"},{"type":"handle","offset":1095,"length":12,"data":"devops_jobs"}],"date":"2020-06-24T17:14:51+00:00","link":"tg://resolve?domain=devops_jobs_feed&post=2148","tags":[{"name":"linux"},{"name":"bash"},{"name":"nginx"},{"name":"ansible"},{"name":"docker"},{"name":"mysql"},{"name":"redis"},{"name":"amazon-web-services"}],"cities":[{"code":"moscow"}],"allowsRemote":true}}]}}},"context":{}}