{"hash":"f5f6bf98bd95e769321482904cbbd488f77922fd","data":{"records":{"id":"android-studio","name":"android-studio","belongsTo":{"totalCount":14,"pageInfo":{"totalPages":2,"currentPage":1},"edges":[{"node":{"__typename":"Job","id":"72536293376-1001054966032","title":"Android разработчик","text":"#вакансия #москва #офис #android \n\nгород: Москва\nформат работы: офис\nзанятость: полная\nзарплатная вилка: 150-200\nвакансия: Ищу Android-разработчика  middle+, готового возглавить развитие  и поддержку приложения.\n\nо компании: Электронное издательство «Юрайт» Мы работаем со всеми вузами страны и считаем своей главной целью повышение образовательного уровня в России.\nwww.urait.ru\n\nо проекте: Над проектом работает 20 человек. Приложение заказывали на стороне в 2019 г. Теперь решили собрать свою команду для рефакторинга и выведения на новый уровень.\n\nЧто ждет от тебя будущее нашего образования:\nПоддержку и развитие нашего приложения;\nПеренос функционала из web;\nВзаимодействие с командой - аналитиками и тестировщиками;\nУчастие в развитии проекта.\n\nСкажем тебе уверенное “да”, если ты:\nИмеешь успешный опыт разработки и поддержки под Android  (Android Studio, Gradle);\nИмеешь опыт разработки на Kotlin;\nИмеешь успешный опыт разработки клиент-серверных приложений (REST, JSON);\nТрогал архитектуру (MVP, Clean architecture);\nЗнаешь  Android application architecture, Android SDK, Gradle;\nВладеешь паттернами UI;\nЗнаешь, зачем нужен Git, без контроля версий никуда, правда?\nМожешь писать тесты;\nГотов ин-хаус исправлять код от аутсорса. Уверен в том, что ты сделаешь круче, чем исполнители на стороне =)\n\nКак и что по условиям\nОфис с плюшками в 5 минутах от м. Шоссе Энтузиастов, Мск\nГибкое начало дня:  с 8 до 11 \nВсе по ТК РФ + соц.пакет \nАдекватные коллеги и руководство!!!\n\n\nЗаинтересовало?\nДмитрий @tankograin","markup":[{"type":"hashtag","offset":0,"length":9,"data":"вакансия"},{"type":"hashtag","offset":10,"length":7,"data":"москва"},{"type":"hashtag","offset":18,"length":5,"data":"офис"},{"type":"hashtag","offset":24,"length":8,"data":"android"},{"type":"bold","offset":225,"length":32,"data":""},{"type":"bold","offset":270,"length":22,"data":""},{"type":"bold","offset":323,"length":42,"data":""},{"type":"link","offset":367,"length":12,"data":"http://www.urait.ru"},{"type":"bold","offset":552,"length":45,"data":""},{"type":"bold","offset":752,"length":37,"data":""},{"type":"bold","offset":1305,"length":22,"data":""},{"type":"handle","offset":1503,"length":11,"data":"tankograin"}],"date":"2020-07-02T11:44:19+00:00","link":"tg://resolve?domain=mobile_jobs&post=69176","tags":[{"name":"mobile"},{"name":"android"},{"name":"web"},{"name":"gradle"},{"name":"kotlin"},{"name":"rest"},{"name":"json"},{"name":"git"},{"name":"android-studio"}],"cities":[{"code":"moscow"}],"allowsRemote":false}},{"node":{"__typename":"Job","id":"72472330240-1001054966032","title":"Android разработчик","text":"#вакансия #москва #офис #kotlin#Android\n\nгород: Москва\nформат работы: офис\nзанятость: полная\nзарплатная вилка: 150-200\nвакансия: Ищу Android-разработчика  middle+, готового возглавить развитие  и поддержку приложения.\nПодробности: @Jane1204\n\nо компании: Электронное издательство «Юрайт» Мы работаем со всеми вузами страны и считаем своей главной целью повышение образовательного уровня в России.\nwww.urait.ru\n\nо проекте: Над проектом работает 20 человек. Приложение заказывали на стороне в 2019 г. Теперь решили собрать свою команду для рефакторинга и выведения на новый уровень.\n\nЧто ждет от тебя будущее нашего образования:\n-Поддержку и развитие нашего приложения;\n-Перенос функционала из web;\n-Взаимодействие с командой - аналитиками и тестировщиками;\n-Участие в развитии проекта.\n\nСкажем тебе уверенное “да”, если ты:\n-Имеешь успешный опыт разработки и поддержки под Android  (Android Studio, Gradle);\n-Имеешь опыт разработки на Kotlin;\n-Имеешь успешный опыт разработки клиент-серверных приложений (REST, JSON);\n-Трогал архитектуру (MVP, Clean architecture);\n-Знаешь  Android application architecture, Android SDK, Gradle;\n-Владеешь паттернами UI;\n-Знаешь, зачем нужен Git, \n-Можешь писать тесты;\n-Готов ин-хаус исправлять код от аутсорса. Уверен в том, что ты сделаешь круче, чем исполнители на стороне =)\n\nПо  условиям:\nОфис с плюшками в 5 минутах от м. Шоссе Энтузиастов, МСК\nГибкое начало дня:  с 8 до 11 \nВсе по ТК РФ + соц.пакет \nАдекватные коллеги и руководство!!!\n\nСвязь по почте: manuylovaey@gmail.com\nИли тут @Jane1204","markup":[{"type":"hashtag","offset":0,"length":9,"data":"вакансия"},{"type":"hashtag","offset":10,"length":7,"data":"москва"},{"type":"hashtag","offset":18,"length":5,"data":"офис"},{"type":"handle","offset":231,"length":9,"data":"Jane1204"},{"type":"link","offset":396,"length":12,"data":"http://www.urait.ru"},{"type":"link","offset":1493,"length":21,"data":"mailto:manuylovaey@gmail.com"},{"type":"handle","offset":1523,"length":9,"data":"Jane1204"}],"date":"2020-07-01T16:51:34+00:00","link":"tg://resolve?domain=mobile_jobs&post=69115","tags":[{"name":"mobile"},{"name":"android"},{"name":"kotlin"},{"name":"web"},{"name":"gradle"},{"name":"rest"},{"name":"json"},{"name":"git"},{"name":"android-studio"}],"cities":[{"code":"moscow"}],"allowsRemote":false}},{"node":{"__typename":"Job","id":"72234303488-1001054966032","title":"Android разработчик","text":"#вакансия #москва #офис #senior\n\nгород: Москва\nформат работы: офис\nзанятость: полная\nзарплатная вилка: 150-200\nвакансия: Ищу Android-разработчика  middle+, готового возглавить развитие  и поддержку приложения.\n\nо компании: Электронное издательство «Юрайт» Мы работаем со всеми вузами страны и считаем своей главной целью повышение образовательного уровня в России.\nwww.urait.ru\n\nо проекте: Над проектом работает 20 человек. Приложение заказывали на стороне в 2019 г. Теперь решили собрать свою команду для рефакторинга и выведения на новый уровень.\n\nЧто ждет от тебя будущее нашего образования:\nПоддержку и развитие нашего приложения;\nПеренос функционала из web;\nВзаимодействие с командой - аналитиками и тестировщиками;\nУчастие в развитии проекта.\n\nСкажем тебе уверенное “да”, если ты:\nИмеешь успешный опыт разработки и поддержки под Android  (Android Studio, Gradle);\nИмеешь опыт разработки на Kotlin;\nИмеешь успешный опыт разработки клиент-серверных приложений (REST, JSON);\nТрогал архитектуру (MVP, Clean architecture);\nЗнаешь  Android application architecture, Android SDK, Gradle;\nВладеешь паттернами UI;\nЗнаешь, зачем нужен Git, без контроля версий никуда, правда?\nМожешь писать тесты;\nГотов ин-хаус исправлять код от аутсорса. Уверен в том, что ты сделаешь круче, чем исполнители на стороне =)\n\nКак и что по условиям\nОфис с плюшками в 5 минутах от м. Шоссе Энтузиастов, Мск\nГибкое начало дня:  с 8 до 11 \nВсе по ТК РФ + соц.пакет \nАдекватные коллеги и руководство!!!\n\n\nЗаинтересовало?\nДмитрий @tankograin","markup":[{"type":"hashtag","offset":0,"length":9,"data":"вакансия"},{"type":"hashtag","offset":10,"length":7,"data":"москва"},{"type":"hashtag","offset":18,"length":5,"data":"офис"},{"type":"hashtag","offset":24,"length":7,"data":"senior"},{"type":"bold","offset":223,"length":32,"data":""},{"type":"bold","offset":268,"length":22,"data":""},{"type":"bold","offset":321,"length":42,"data":""},{"type":"link","offset":365,"length":12,"data":"http://www.urait.ru"},{"type":"bold","offset":550,"length":45,"data":""},{"type":"bold","offset":750,"length":37,"data":""},{"type":"bold","offset":1303,"length":22,"data":""},{"type":"handle","offset":1501,"length":11,"data":"tankograin"}],"date":"2020-06-29T09:19:13+00:00","link":"tg://resolve?domain=mobile_jobs&post=68888","tags":[{"name":"mobile"},{"name":"android"},{"name":"web"},{"name":"gradle"},{"name":"kotlin"},{"name":"rest"},{"name":"json"},{"name":"git"},{"name":"android-studio"}],"cities":[{"code":"moscow"}],"allowsRemote":false}},{"node":{"__typename":"Job","id":"72094842880-1001054966032","title":"Android разработчик","text":"#вакансия #iOS #android #developer #remote #InStat \n\nГород и адрес офиса: Москва, ст.м. Автозаводская\nФормат работы: удаленка\nЗанятость: полная/проектная\nЗарплатная вилка: от 80 до 130 net\nОписание вакансии:\n\nВсем привет. Ищем разработчиков приложений для Apple TV и Android TV(Box). Мы занимаемся сложными задачами, а также хотим разработать с нуля приложения, а у вас есть возможность поработать в спортивном стартапе и сделать лучшее приложение на рынке.\nЧто главное:\nОпыт разработки приложений Apple TV/Android box обязательно;\nОпыт по созданию продукта для просмотра видео-контента\nЗадачи:\nРазработка OTT приложения для Apple TV/Android box, анализ и оценка задач;\nпроведение code review, участие в SCRUM активностях\nТребования:\nзнание основных паттернов проектирования, REST API; SOLID, GCD, MVP/MVVM, опыт разработки по Apple TV/Android TV, box, знание Android Studio \nМы предлагаем:\nофициальное трудоустройство, полный соц. пакет;удаленное сотрудничество\nПодробнее о вакансиях тут: \nhttps://hh.ru/vacancy/37544424\nhttps://hh.ru/vacancy/37520710\n\nНазвание компании: InStat (https://instatsport.com/)\n\nКонтакты: yana.gurinovich@instatsport.com\n @Yana_Gurinovich","markup":[{"type":"hashtag","offset":0,"length":9,"data":"вакансия"},{"type":"hashtag","offset":10,"length":4,"data":"iOS"},{"type":"hashtag","offset":15,"length":8,"data":"android"},{"type":"hashtag","offset":24,"length":10,"data":"developer"},{"type":"hashtag","offset":35,"length":7,"data":"remote"},{"type":"hashtag","offset":43,"length":7,"data":"InStat"},{"type":"link","offset":991,"length":30,"data":"https://hh.ru/vacancy/37544424"},{"type":"link","offset":1022,"length":30,"data":"https://hh.ru/vacancy/37520710"},{"type":"link","offset":1081,"length":24,"data":"https://instatsport.com/"},{"type":"link","offset":1118,"length":31,"data":"mailto:yana.gurinovich@instatsport.com"},{"type":"handle","offset":1151,"length":16,"data":"Yana_Gurinovich"}],"date":"2020-06-26T13:27:24+00:00","link":"tg://resolve?domain=mobile_jobs&post=68755","tags":[{"name":"mobile"},{"name":"android"},{"name":"ios"},{"name":"dotnet"},{"name":"rest"},{"name":"mvvm"},{"name":"android-studio"}],"cities":[{"code":"moscow"}],"allowsRemote":true}},{"node":{"__typename":"Job","id":"72075968512-1001054966032","title":"Android разработчик","text":"#вакансия #москва #офис #android \n\nгород: Москва\nформат работы: офис\nзанятость: полная\nзарплатная вилка: 150-200\nвакансия: Ищу Android-разработчика  middle+, готового возглавить развитие  и поддержку приложения.\n\nо компании: Электронное издательство «Юрайт» Мы работаем со всеми вузами страны и считаем своей главной целью повышение образовательного уровня в России.\nwww.urait.ru\n\nо проекте: Над проектом работает 20 человек. Приложение заказывали на стороне в 2019 г. Теперь решили собрать свою команду для рефакторинга и выведения на новый уровень.\n\nЧто ждет от тебя будущее нашего образования:\nПоддержку и развитие нашего приложения;\nПеренос функционала из web;\nВзаимодействие с командой - аналитиками и тестировщиками;\nУчастие в развитии проекта.\n\nСкажем тебе уверенное “да”, если ты:\nИмеешь успешный опыт разработки и поддержки под Android  (Android Studio, Gradle);\nИмеешь опыт разработки на Kotlin;\nИмеешь успешный опыт разработки клиент-серверных приложений (REST, JSON);\nТрогал архитектуру (MVP, Clean architecture);\nЗнаешь  Android application architecture, Android SDK, Gradle;\nВладеешь паттернами UI;\nЗнаешь, зачем нужен Git, без контроля версий никуда, правда?\nМожешь писать тесты;\nГотов ин-хаус исправлять код от аутсорса. Уверен в том, что ты сделаешь круче, чем исполнители на стороне =)\n\nКак и что по условиям\nОфис с плюшками в 5 минутах от м. Шоссе Энтузиастов, Мск\nГибкое начало дня:  с 8 до 11 \nВсе по ТК РФ + соц.пакет \nАдекватные коллеги и руководство!!!\n\n\nЗаинтересовало?\nДмитрий @tankograin","markup":[{"type":"hashtag","offset":0,"length":9,"data":"вакансия"},{"type":"hashtag","offset":10,"length":7,"data":"москва"},{"type":"hashtag","offset":18,"length":5,"data":"офис"},{"type":"hashtag","offset":24,"length":8,"data":"android"},{"type":"bold","offset":225,"length":32,"data":""},{"type":"bold","offset":270,"length":22,"data":""},{"type":"bold","offset":323,"length":42,"data":""},{"type":"link","offset":367,"length":12,"data":"http://www.urait.ru"},{"type":"bold","offset":552,"length":45,"data":""},{"type":"bold","offset":752,"length":37,"data":""},{"type":"bold","offset":1305,"length":22,"data":""},{"type":"handle","offset":1503,"length":11,"data":"tankograin"}],"date":"2020-06-26T09:32:59+00:00","link":"tg://resolve?domain=mobile_jobs&post=68737","tags":[{"name":"mobile"},{"name":"android"},{"name":"web"},{"name":"gradle"},{"name":"kotlin"},{"name":"rest"},{"name":"json"},{"name":"git"},{"name":"android-studio"}],"cities":[{"code":"moscow"}],"allowsRemote":false}},{"node":{"__typename":"Job","id":"103550025728-1001089317451","title":"Qa инженер","text":"Специалист по тестированию в Instories \nhttps://instoriesapp.com/\nмобильное приложение для маркетологов, SMM-специалистов и блогеров. \n\n     Тебе предстоит:\nТестировать новые версии продуктов (Android и iOS); \nПроверять качество исправления дефектов;\nПроводить функциональные/smoke/регрессионные тесты;\nПринимать билды перед релизами;\nПроверять дефекты от пользователей на актуальность;\nМониторить отчеты об ошибках и сбоях;\nРаботать над тестовой документацией;\nПредусмотрено активное взаимодействие с командой: разработка, дизайн, продакт-менеджмент, поддержка пользователей.\n\n       Мы ожидаем от успешного кандидата: \n\nОпыт тестирования нативных мобильных приложений от 6 месяцев; \nУмения составлять тестовую документацию;\nПонимание Git-Flow и умение пользоваться git;\nПонимание принципов клиент-серверного взаимодействия;\nРабота с ПО:  Firebase Crashlytics, Android Studio, Xcode, Figma.\n\nЗП от 35к/мес\n#удаленка #вакансия #тестирование #фултайм\n@Instories","markup":[{"type":"link","offset":40,"length":25,"data":"https://instoriesapp.com/"},{"type":"hashtag","offset":907,"length":9,"data":"удаленка"},{"type":"hashtag","offset":917,"length":9,"data":"вакансия"},{"type":"hashtag","offset":927,"length":13,"data":"тестирование"},{"type":"hashtag","offset":941,"length":8,"data":"фултайм"},{"type":"handle","offset":950,"length":10,"data":"Instories"}],"date":"2020-06-23T15:18:30+00:00","link":"tg://resolve?domain=qa_jobs&post=98753","tags":[{"name":"qa"},{"name":"android"},{"name":"ios"},{"name":"git"},{"name":"firebase"},{"name":"xcode"},{"name":"android-studio"}],"cities":[],"allowsRemote":true}},{"node":{"__typename":"Job","id":"103501791232-1001089317451","title":"Qa engineer","text":"#вакансия #Москва #fulltime #офис #qa #mobile\nКомпания: FunCorp\nВакансия:  QA mobile engineer\nОпыт работы: от 2-х лет\nЗарплата: 100 000 - 130 000 р. на руки\nМесторасположение: Москва, м. Белорусская\nЗанятость: fulltime, офис.\nNB! Удаленный вариант работы после выхода из карантина, к сожалению, не рассматриваем\nКонтактные данные: @chrschredinger или kristina@fun.co\n\nТребования\n- опыт тестирования мобильных приложений (iOS, Android) от года\n- опыт использования сниффера (Charles или Fiddler / Wireshark / Mitmproxy)\n- опыт работы с Android Studio / XCode\n- опыт работы с Firebase\n\nОбязанности\n- ручное тестирование (функциональное / регрессионное / исследовательское)\n- написание тестовых сценариев\n- тесная работа с менеджерами и разработчиками проекта\n\nУсловия\n- ДМС, включая стоматологию\n- бонусная система\n- обеды и ужины в офисе\n- бюджет на обучение и на фитнес\n- оплата участия в российских и зарубежных конференциях\n- отличный офис на м. Белорусская (БЦ «Белая площадь)","markup":[{"type":"hashtag","offset":0,"length":9,"data":"вакансия"},{"type":"hashtag","offset":10,"length":7,"data":"Москва"},{"type":"hashtag","offset":18,"length":9,"data":"fulltime"},{"type":"hashtag","offset":28,"length":5,"data":"офис"},{"type":"hashtag","offset":34,"length":3,"data":"qa"},{"type":"hashtag","offset":38,"length":7,"data":"mobile"},{"type":"bold","offset":46,"length":10,"data":""},{"type":"bold","offset":64,"length":10,"data":""},{"type":"bold","offset":94,"length":13,"data":""},{"type":"bold","offset":118,"length":10,"data":""},{"type":"bold","offset":157,"length":19,"data":""},{"type":"bold","offset":199,"length":10,"data":""},{"type":"underline","offset":226,"length":86,"data":""},{"type":"bold","offset":312,"length":19,"data":""},{"type":"handle","offset":331,"length":15,"data":"chrschredinger"},{"type":"link","offset":351,"length":15,"data":"mailto:kristina@fun.co"},{"type":"bold","offset":368,"length":11,"data":""},{"type":"bold","offset":584,"length":12,"data":""},{"type":"bold","offset":758,"length":8,"data":""}],"date":"2020-06-23T07:54:11+00:00","link":"tg://resolve?domain=qa_jobs&post=98707","tags":[{"name":"qa"},{"name":"mobile"},{"name":"ios"},{"name":"android"},{"name":"xcode"},{"name":"firebase"},{"name":"android-studio"}],"cities":[{"code":"moscow"}],"allowsRemote":false}},{"node":{"__typename":"Job","id":"71682752512-1001054966032","title":"Android разработчик","text":"#вакансия #iOS #android #developer #remote #InStat \n\nГород и адрес офиса: Москва, ст.м. Автозаводская\nФормат работы: удаленка\nЗанятость: полная/проектная\nЗарплатная вилка: от 80 до 130 net\nОписание вакансии:\n\nВсем привет. Ищем разработчиков приложений для Apple TV и Android TV(Box). Мы занимаемся сложными задачами, а также хотим разработать с нуля приложения, а у вас есть возможность поработать в спортивном стартапе и сделать лучшее приложение на рынке.\nЧто главное:\nОпыт разработки приложений Apple TV/Android box обязательно;\nОпыт по созданию продукта для просмотра видео-контента\nЗадачи:\nРазработка OTT приложения для Apple TV/Android box, анализ и оценка задач;\nпроведение code review, участие в SCRUM активностях\nТребования:\nзнание основных паттернов проектирования, REST API; SOLID, GCD, MVP/MVVM, опыт разработки по Apple TV/Android TV, box, знание Android Studio \nМы предлагаем:\nофициальное трудоустройство, полный соц. пакет;удаленное сотрудничество\nПодробнее о вакансиях тут: \nhttps://hh.ru/vacancy/37544424\nhttps://hh.ru/vacancy/37520710\n\nНазвание компании: InStat (https://instatsport.com/)\n\nКонтакты: yana.gurinovich@instatsport.com\n @Yana_Gurinovich","markup":[{"type":"hashtag","offset":0,"length":9,"data":"вакансия"},{"type":"hashtag","offset":10,"length":4,"data":"iOS"},{"type":"hashtag","offset":15,"length":8,"data":"android"},{"type":"hashtag","offset":24,"length":10,"data":"developer"},{"type":"hashtag","offset":35,"length":7,"data":"remote"},{"type":"hashtag","offset":43,"length":7,"data":"InStat"},{"type":"link","offset":991,"length":30,"data":"https://hh.ru/vacancy/37544424"},{"type":"link","offset":1022,"length":30,"data":"https://hh.ru/vacancy/37520710"},{"type":"link","offset":1081,"length":24,"data":"https://instatsport.com/"},{"type":"link","offset":1118,"length":31,"data":"mailto:yana.gurinovich@instatsport.com"},{"type":"handle","offset":1151,"length":16,"data":"Yana_Gurinovich"}],"date":"2020-06-20T04:32:51+00:00","link":"tg://resolve?domain=mobile_jobs&post=0","tags":[{"name":"mobile"},{"name":"android"},{"name":"ios"},{"name":"dotnet"},{"name":"rest"},{"name":"mvvm"},{"name":"android-studio"}],"cities":[{"code":"moscow"}],"allowsRemote":true}},{"node":{"__typename":"Job","id":"71617740800-1001054966032","title":"Android разработчик","text":"#вакансия #Android #Java #Kotlin #офис #Москва #fulltime   \n\nГород и адрес офиса: Москва, Кутузовский пр-т;\nФормат работы: офис (на период карантина удаленка)\nЗанятость: полная\nЗарплатная вилка: от 160 000 до 300 000 руб\n\nОписание вакансии: \nКомпания TEAM FORCE ищет в свою команду Android(Java/Kotlin) разработчиков  уровня Middle и выше. Проект в одном из топ-5 банков России. Предстоит разработка нового функционала текущего приложения, а также разработка новых продуктов банка. \n\nТребования:\n🔺 Опыт работы Android (Java/Kotlin) разработчиком от 2-х лет, участие в нескольких проектах.\n🔺 Опыт работы с технологиями: Java, Kotlin, RxJava, Dagger, Android Studio, Git, JIRA, Confluence\n🔺 Знание гайдлайнов мобильных приложений на базе Android\n\nКонтакты: @an_krivochenko","markup":[{"type":"hashtag","offset":0,"length":9,"data":"вакансия"},{"type":"hashtag","offset":10,"length":8,"data":"Android"},{"type":"hashtag","offset":19,"length":5,"data":"Java"},{"type":"hashtag","offset":25,"length":7,"data":"Kotlin"},{"type":"hashtag","offset":33,"length":5,"data":"офис"},{"type":"hashtag","offset":39,"length":7,"data":"Москва"},{"type":"hashtag","offset":47,"length":9,"data":"fulltime"},{"type":"handle","offset":758,"length":15,"data":"an_krivochenko"}],"date":"2020-06-19T09:06:17+00:00","link":"tg://resolve?domain=mobile_jobs&post=0","tags":[{"name":"mobile"},{"name":"android"},{"name":"java"},{"name":"kotlin"},{"name":"git"},{"name":"android-studio"}],"cities":[{"code":"moscow"}],"allowsRemote":true}},{"node":{"__typename":"Job","id":"103253278720-1001089317451","title":"Qa engineer","text":"#вакансия #Москва #fulltime #офис #qa #mobile\nКомпания: FunCorp\nВакансия:  QA mobile engineer\nОпыт работы: от 2-х лет\nЗарплата: 100 000 - 130 000 р. на руки\nМесторасположение: Москва, м. Белорусская\nЗанятость: fulltime, офис.\nNB! Удаленный вариант работы после выхода из карантина, к сожалению, не рассматриваем\nКонтактные данные: @chrschredinger или kristina@fun.co\n\nТребования\n- опыт тестирования мобильных приложений (iOS, Android) от года\n- опыт использования сниффера (Charles или Fiddler / Wireshark / Mitmproxy)\n- опыт работы с Android Studio / XCode\n- опыт работы с Firebase\n\nОбязанности\n- ручное тестирование (функциональное / регрессионное / исследовательское)\n- написание тестовых сценариев\n- тесная работа с менеджерами и разработчиками проекта\n\nУсловия\n- ДМС, включая стоматологию\n- бонусная система\n- обеды и ужины в офисе\n- бюджет на обучение и на фитнес\n- оплата участия в российских и зарубежных конференциях\n- отличный офис на м. Белорусская (БЦ «Белая площадь)","markup":[{"type":"hashtag","offset":0,"length":9,"data":"вакансия"},{"type":"hashtag","offset":10,"length":7,"data":"Москва"},{"type":"hashtag","offset":18,"length":9,"data":"fulltime"},{"type":"hashtag","offset":28,"length":5,"data":"офис"},{"type":"hashtag","offset":34,"length":3,"data":"qa"},{"type":"hashtag","offset":38,"length":7,"data":"mobile"},{"type":"bold","offset":46,"length":10,"data":""},{"type":"bold","offset":64,"length":10,"data":""},{"type":"bold","offset":94,"length":13,"data":""},{"type":"bold","offset":118,"length":10,"data":""},{"type":"bold","offset":157,"length":19,"data":""},{"type":"bold","offset":199,"length":10,"data":""},{"type":"underline","offset":226,"length":86,"data":""},{"type":"bold","offset":312,"length":19,"data":""},{"type":"handle","offset":331,"length":15,"data":"chrschredinger"},{"type":"link","offset":351,"length":15,"data":"mailto:kristina@fun.co"},{"type":"bold","offset":368,"length":11,"data":""},{"type":"bold","offset":584,"length":12,"data":""},{"type":"bold","offset":758,"length":8,"data":""}],"date":"2020-06-19T07:57:04+00:00","link":"tg://resolve?domain=qa_jobs&post=0","tags":[{"name":"qa"},{"name":"mobile"},{"name":"ios"},{"name":"android"},{"name":"xcode"},{"name":"firebase"},{"name":"android-studio"}],"cities":[{"code":"moscow"}],"allowsRemote":false}}]}}},"context":{}}