{"hash":"f5f6bf98bd95e769321482904cbbd488f77922fd","data":{"records":{"id":"mobile","name":"mobile","belongsTo":{"totalCount":307,"pageInfo":{"totalPages":31,"currentPage":17},"edges":[{"node":{"__typename":"Job","id":"71853670400-1001054966032","title":"Android разработчик","text":"#вакансия  #android  #SPb #junior\n\nВ компании HiQo Solutions  мы сосредоточены на разработке целых систем IoT. Мы разрабатываем устройства, пишем программное обеспечение, которое воплощает их в жизнь, и создаем приложения, которые соединяют их с конечными пользователями. Мы решаем технологические задачи со всего мира и делаем это с нуля\n\nГород: Санкт-Петербург (пл. Александра Невского) \nФормат работы: удаленно, можно в офисе \nЗанятость: полная\nЗарплатная вилка: 600-1000$\n \nТребуемые навыки:\n•Знание Java и Kotlin;\n•Хорошее понимание основ Android;\n•Опыт разработки под Android;\n•Знание принципов ООП и шаблонов проектирования;\n•Знакомство с сопрограммами Kotlin, связыванием данных, компонентами архитектуры Android (LiveData, ViewModel, Room, Navigation) и внедрением зависимостей (Koin / Dagger).\n\nЖелательно:\n•Средний уровень английского языка.\n\nУсловия:\n•Гибкий график;\n•Возможность работать удаленно;\n•Полис ДМС;\n•Корпоративные курсы английского языка;\n•Интересные проекты с международными заказчиками;\n•Комфортная рабочая среда и игровые зоны;\n•Прекрасная возможность принять участие в самых современных областях, таких как математическая обработка данных и IoT;\n\n\nИнформацию о компании Вы можете посмотреть здесь - https://www.hiqo-solutions.com/\n\nБуду рада ответить на ваши вопросы.","markup":[{"type":"hashtag","offset":0,"length":9,"data":"вакансия"},{"type":"hashtag","offset":11,"length":8,"data":"android"},{"type":"hashtag","offset":21,"length":4,"data":"SPb"},{"type":"hashtag","offset":26,"length":7,"data":"junior"},{"type":"link","offset":1227,"length":31,"data":"https://www.hiqo-solutions.com/"}],"date":"2020-06-23T10:10:31+00:00","link":"tg://resolve?domain=mobile_jobs&post=68525","tags":[{"name":"mobile"},{"name":"android"},{"name":"java"},{"name":"kotlin"}],"cities":[],"allowsRemote":true}},{"node":{"__typename":"Job","id":"71852621824-1001054966032","title":"Android разработчик","text":"#вакансия #fulltime #freelance #middle #IOS #Swift #СПБ \nВсем привет! \nВ поисках двух IOS разработчиков. Рассматриваем full-time в офис/на удаленку.\nЛокация: Санкт-Петербург\n \nГрафик: 5/2 с гибким началом рабочего дня. \n💶 Зарплатная вилка: от 120 до 180 на руки\n\n🧰Мы: 4xxi.com (разработка разных сложных  технологических проектов-стартапов (веб, мобильные истории IOS/Android)). 90% проектов приходится на зарубежный рынок (США, Англия).\n\n🍩 Плюшки: \n✔️оформление по ТК РФ (мы белые полностью);\n✔️уроки английского языка;\n✔️ДМС;\n✔️спортивные мероприятия;\n✔️обучение и развитие;\n✔️офис в центре города в стиле лофт, м.Горьковская;\n✔️кухня, забитая вкусняхами;\n\nНаши ожидания: \n☑️с опытом работы от 2 лет;\n☑️уверенное знание Swift;\n☑️с опытом использования CoreData и знанием принципов работы баз данных;\n☑️с пониманием жизненного цикла приложения;\n☑️с опытом использования REST, WebSocket, Reactive kit;\n☑️с умением работать с потоками;\n\n\nБудет отлично, если:\n\n☑️у вас опыт больше 2х лет.\n☑️отлично понимаете и можете обосновать применение различных паттернов проектирования;\n☑️есть успешные п1риложения в App Store;\n☑️есть open source проекты на github;\n\n\nПишите и присылайте свои резюме:  vyangurskaya@4xxi.com, @vyangurskaya","markup":[{"type":"hashtag","offset":0,"length":9,"data":"вакансия"},{"type":"hashtag","offset":10,"length":9,"data":"fulltime"},{"type":"hashtag","offset":20,"length":10,"data":"freelance"},{"type":"hashtag","offset":31,"length":7,"data":"middle"},{"type":"hashtag","offset":39,"length":4,"data":"IOS"},{"type":"hashtag","offset":44,"length":6,"data":"Swift"},{"type":"hashtag","offset":51,"length":4,"data":"СПБ"},{"type":"link","offset":270,"length":8,"data":"http://4xxi.com"},{"type":"link","offset":1192,"length":21,"data":"mailto:vyangurskaya@4xxi.com"},{"type":"handle","offset":1215,"length":13,"data":"vyangurskaya"}],"date":"2020-06-23T09:45:18+00:00","link":"tg://resolve?domain=mobile_jobs&post=68524","tags":[{"name":"mobile"},{"name":"android"},{"name":"ios"},{"name":"swift"},{"name":"rest"},{"name":"websocket"},{"name":"github"}],"cities":[],"allowsRemote":false}},{"node":{"__typename":"Job","id":"71851573248-1001054966032","title":"Mobile разработчик","text":"#вакансия #работа #СанктПетербург #iOS #Swift #fulltime #офис\nГород: Санкт-Петербург, м. Чкаловская\nФорма работы: офис\nЗанятость: полная\nЗарплатная вилка: от 150 000 до 250 000 net.\nВсем привет!\nМы – Cardsmobile, петербургская IT-компания, разработчик мобильного приложения «Кошелёк». \n«Кошелёк» заменяет бумажник и избавляет от необходимости носить с собой пластик: пользователи хранят в нем дисконтные и банковские карты. Чтобы получить скидку, достаточно показать на кассе карту с экрана смартфона, а чтобы оплатить покупку – приложить NFC-смартфон к терминалу оплаты.\nНаши партнеры в ритейле – крупнейшие торговые сети страны: Лента, М.Видео, X5 Retail Group, ВкусВилл, Adidas Group и многие другие. Карты этих торговых сетей можно перенести в приложение, сфотографировав пластик, или выпустить новую карту из каталога Кошелька – сразу в мобильном формате.\nПлатформа токенизации Cardsmobile прошла сертификации Visa и MasterCard, что позволяет безопасно переносить банковские карты в приложение \"Кошелёк\" и бесконтактно оплачивать покупки.\n\nВ нашей команде более 150 человек, из которых более 50 человек – техническая команда.\nНашим приложением пользуются более 10 млн. человек в квартал, а в день от 1-го до 2-ух миллионов человек.\n\nНаши стратегические международные партнеры (MasterCard, Visa и Huawei) заинтересованы в расширении географии распространения нашего продукта и, в связи с этим мы усиляем нашу команду и ищем iOS разработчика на одно из направлений. В команде iOS у нас 7 человек.\n\n🔸Технический стек:\nКодовая база: 70% - Objective-C, 30% - Swift (активно переводим проект на Swift);\nМинимальная поддерживаемая версия: iOS 11.\n\n🔸Задачи направлений:\n🔹Performance\n• Искать и рефакторить неоптимально работающие части приложения;\n• Принимать решения о необходимости использования многопоточности, разрабатывать многопоточные механизмы и внедрять их;\n• Измерять скорость работы приложения всеми возможными способами и оценивать эффективность внедряемых изменений;\n• Проводить ревью кода коллег с точки зрения влияния изменений на производительность;\n• Настраивать эффективную фоновую работу всего приложения (различные синхронизации с сервером, загрузка данных и т.п.);\n• Делать приложение энергоэффективным.\n🔹Architecture\n• Работать над качеством многомодульной архитектуры проекта;\n• Предлагать коллегам новые архитектурные подходы для решения различных проблем, возникающих в процессе решения бизнес-задач;\n• Разрабатывать и унифицировать навигацию в многомодульном проекте;\n• Внедрять подходы, позволяющие работать над разными частями приложения максимально изолированно и независимо;\n• Создать простой и понятный для всей команды источник данных о текущей архитектуре и её особенностях;\n• Оценивать корректность решений коллег с точки зрения архитектуры в рамках ревью кода;\n• Пропагандировать преимущества качественной и чистой архитектуры внутри команды.\n🔹Components\n• Разрабатывать динамический UI на основе данных с бэка;\n• Писать нестандартные UI компоненты c анимациями на CALayers;\n• Проектировать новый API вместе с кроссплатформенной командой неравнодушных коллег;\n• Предлагать и использовать различные практики компонентно ориентированного программирования.\n\nМы предлагаем:\n• Участие в развитии полезного и популярного приложения, возможность сделать мир лучше;\n• Оформление по ТК РФ с первого дня работы, конкурентная белая зарплата, ДМС;\n• Оплату мобильной связи, частичную компенсацию оплаты питания;\n• Гибкий график работы;\n• Помощь с переездом для кандидатов из других городов (welcome бонус);\n• Оплата профильных курсов и конференций;\n• Два раза в неделю в офисе занятия йогой;\n• Командные мероприятия и приятные коллеги;\n• Комфортный офис в центре города (5 минут от станции метро Чкаловская).\n\nИнформацию о компании можно найти по ссылке: https://spb.hh.ru/employer/2032205\n\nКонтакты: katerinaziryukova\nПочта: e.ziryukova@cardsmobile.ru","markup":[{"type":"hashtag","offset":0,"length":9,"data":"вакансия"},{"type":"hashtag","offset":10,"length":7,"data":"работа"},{"type":"hashtag","offset":18,"length":15,"data":"СанктПетербург"},{"type":"hashtag","offset":34,"length":4,"data":"iOS"},{"type":"hashtag","offset":39,"length":6,"data":"Swift"},{"type":"hashtag","offset":46,"length":9,"data":"fulltime"},{"type":"hashtag","offset":56,"length":5,"data":"офис"},{"type":"link","offset":3781,"length":34,"data":"https://spb.hh.ru/employer/2032205"},{"type":"link","offset":3852,"length":26,"data":"mailto:e.ziryukova@cardsmobile.ru"}],"date":"2020-06-23T09:26:51+00:00","link":"tg://resolve?domain=mobile_jobs&post=68523","tags":[{"name":"mobile"},{"name":"ios"},{"name":"swift"},{"name":"dotnet"},{"name":"objective-c"}],"cities":[],"allowsRemote":false}},{"node":{"__typename":"Job","id":"71850524672-1001054966032","title":"Ios developer","text":"#вакансия #Москва #офис #релокация #ios #swift\n\n\nВакансия: iOS Developer (Junior/Middle/Senior) в компанию Mafin\n\nО компании: Mafin.ru - это онлайн-платформа персональных страховых сервисов. Insurtech старап компании \"АбсолютТех\", получивний инвестирование в размере $50 млн.\nГео: Москва\nФормат: Офис\nВилка: 60 000 - 240 000 Р/мес\n\nТребования: \n● Опыт разработки приложений под iOS от 1 года\n● Отличное знание Objective-C или Swift\n● Проектирование интерфейса без Xib и StoryBoard\n● Опыт разработки клиент-серверных приложений\n● Опыт разработки многопоточных приложений\n● Опыт работы с Core Data - инструмент для БД\n● Умение работать с CocoaPods (библиотеки для реализации задач)\n● Знание Git\n● Знание HTTP/S, REST API, JSON\n\nДополнительные навыки:\n● Понимание принципов UX/UI и Human Interface Guidelines\n● Опыт работы с Figma\n\nБудет плюсом:\n● Опыт C/С++/Python\n● Наличие приложений, опубликованных в AppStore\n● Опыт написания тестов\n\nУсловия: \n● НС с первого рабочего дня, ДМС по истечении испытательного срока (3 месяца);\n● Skyeng скидка 50% (в том числе занятия с носителями языка);\n● Новый красивый офис в тренде современных IT компаний с капсулами для сна и уютной кухней;\n● Бесплатное обучение; доступ к онлайн-библиотеке;\n● Работа по методологии Agile, scrum\n● Огромное количество корпоративных мероприятий\n● Гибкое начало рабочего дня до 11-00\n● Есть релокационный пакет\n● График работы 5\\2, офис 2 дня в неделю на время ограничительных мер \n\nДля оперативной связи пишите: @rudenko_telegram","markup":[{"type":"hashtag","offset":0,"length":9,"data":"вакансия"},{"type":"hashtag","offset":10,"length":7,"data":"Москва"},{"type":"hashtag","offset":18,"length":5,"data":"офис"},{"type":"hashtag","offset":24,"length":10,"data":"релокация"},{"type":"hashtag","offset":35,"length":4,"data":"ios"},{"type":"hashtag","offset":40,"length":6,"data":"swift"},{"type":"bold","offset":49,"length":9,"data":""},{"type":"bold","offset":114,"length":12,"data":""},{"type":"link","offset":126,"length":8,"data":"http://Mafin.ru"},{"type":"bold","offset":276,"length":4,"data":""},{"type":"bold","offset":288,"length":8,"data":""},{"type":"bold","offset":301,"length":7,"data":""},{"type":"bold","offset":332,"length":13,"data":""},{"type":"bold","offset":726,"length":23,"data":""},{"type":"bold","offset":829,"length":14,"data":""},{"type":"bold","offset":936,"length":7,"data":""},{"type":"handle","offset":1482,"length":17,"data":"rudenko_telegram"}],"date":"2020-06-23T09:25:42+00:00","link":"tg://resolve?domain=mobile_jobs&post=68522","tags":[{"name":"mobile"},{"name":"ios"},{"name":"swift"},{"name":"objective-c"},{"name":"cocoapods"},{"name":"git"},{"name":"rest"},{"name":"json"},{"name":"python"},{"name":"core-data"}],"cities":[{"code":"moscow"}],"allowsRemote":false}},{"node":{"__typename":"Job","id":"71848427520-1001054966032","title":"Android developer","text":"#вакансия #Android #Java #middle #офиc #Москва\n👋Приглашаем Middle Android (Java) Developer в новый проект от Сбербанка.\n\n💸Уровень ЗП: от 220 000 до 280 000 руб. net. (обсуждается!).\n\n✍🏻Оформление: ИП или штат компании партнера.\n\n📍Локация: Офис (Москва Кутузовский пр-т 32/1).\n\n🏢О проекте: Разработка чата и видеозвонка с целью реализовать единое рабочее место оператора для дополнительного канала обслуживания. С помощью чатов клиент сможет переписываться со своим дистанционным клиентским менеджером по премиальному каналу в МП СБОЛ, с возможностью передачи файлов. Видеозвонок позволит установить визуальный контакт клиентом со своим менеджером с возможностью показа презентаций. На базе удаленных каналов обслуживания планируется реализовать возможность удаленного предоставления клиенту всего спектра продуктов банка. В настоящий момент в банке обслуживается порядка 19 млн клиентов.\n\n🤝Мы ожидаем от вас:\n· знание Java;\n· опыт коммерческой разработки Android-приложений не менее года;\n· опыт ООП, потоки и синхронизация, SOLID, clean architecture, LinkedList и ArrayList;\n· умение разбираться и работать с чужим кодом.\n\nЖду Ваши резюме и буду рада ответить на все вопросы. Прекрасного дня!😉\nКонтакты для связи: telegram @anisimovaane4ka","markup":[{"type":"hashtag","offset":0,"length":9,"data":"вакансия"},{"type":"hashtag","offset":10,"length":8,"data":"Android"},{"type":"hashtag","offset":19,"length":5,"data":"Java"},{"type":"hashtag","offset":25,"length":7,"data":"middle"},{"type":"hashtag","offset":33,"length":5,"data":"офиc"},{"type":"hashtag","offset":39,"length":7,"data":"Москва"},{"type":"handle","offset":1231,"length":16,"data":"anisimovaane4ka"}],"date":"2020-06-23T09:13:09+00:00","link":"tg://resolve?domain=mobile_jobs&post=68520","tags":[{"name":"mobile"},{"name":"android"},{"name":"java"},{"name":"dotnet"}],"cities":[{"code":"moscow"}],"allowsRemote":true}},{"node":{"__typename":"Job","id":"71846330368-1001054966032","title":"Android разработчик","text":"#вакансия #Android #Kotlin #spb #спб #офис\n\nГород и адрес: Санкт-Петербург, м.Площадь Ленина \nФормат работы: офис \nЗанятость: полная \nЗарплатная вилка: от 140 до 220 т.р. в месяц \nAndroid developer\n\nВсем привет! Мы — международная IT компания Noveo. Наши главные офисы разработки ПО находятся в Новосибирске и Санкт-Петербурге, представительства — в Париже и на Кипре. \n\nМы занимаемся заказными разработками софта для крупных европейских компаний. И сейчас мы рады пригласить в команду Android-разработчика для работы над проектом нашего зарубежного партнера.\n\nЭто файловый менеджер, который работает с определёнными жесткими дисками. Проект написан на ~90% на Kotlin. Стек проекта: di, Retrofit, RxJava, Room, MVVM.\n\n✅Ожидания от кандидата:\nОпыт разработки коммерческих проектов на Android\nХорошие знание Kotlin, Android SDK, RxJava2, Room, Toothpick/Dagger2, MVP/MVVM + Clean Architecture\nТехнический английский язык (Pre-Intermediate и выше)\n\nДополнительным плюсом будет: \nУмение писать unit тесты\nЗнания SQLite\nОбщее представление о JNI\nОпыт работы с чужим кодом\nMaterial Design guidelines\n\n☕️ Что мы предлагаем: \nДостойный уровень зарплаты и ее пересмотр по результатам performance review\nОфициальное трудоустройство, оплачиваемый отпуск и больничные\nГибкий график, с возможностью работать из дома\nКомфортабельный офис рядом со ст. м. Площадь Ленина (БЦ Петровский форт)\nВнутреннее обучение, митапы, code-review и прокачка твоих технических навыков\nМощный комп для работы + любое количество мониторов по запросу)\nКурсы английского и французского языков в офисе\nИ другие приятные бонусы (чай/кофе/печеньки, оборудованная офисная кухня, кикер, PS и др.)\n\n📩 Жду твоего резюме, если его нет - пиши, все обсудим!\n\nНазвание компании: #Noveo \nКонтакты: Анастасия @stasya_sot","markup":[{"type":"hashtag","offset":0,"length":9,"data":"вакансия"},{"type":"hashtag","offset":10,"length":8,"data":"Android"},{"type":"hashtag","offset":19,"length":7,"data":"Kotlin"},{"type":"hashtag","offset":27,"length":4,"data":"spb"},{"type":"hashtag","offset":32,"length":4,"data":"спб"},{"type":"hashtag","offset":37,"length":5,"data":"офис"},{"type":"bold","offset":180,"length":19,"data":""},{"type":"bold","offset":486,"length":20,"data":""},{"type":"hashtag","offset":1734,"length":6,"data":"Noveo"},{"type":"handle","offset":1762,"length":11,"data":"stasya_sot"}],"date":"2020-06-23T09:04:29+00:00","link":"tg://resolve?domain=mobile_jobs&post=68518","tags":[{"name":"mobile"},{"name":"android"},{"name":"kotlin"},{"name":"mvvm"},{"name":"sqlite"}],"cities":[],"allowsRemote":false}},{"node":{"__typename":"Job","id":"71841087488-1001054966032","title":"Ios разработчик","text":"#вакансия #ios #swift #Москва #офис \nМосква, м. Нагатинская \nОфис, полная занятость \nЗП: 150 - 220к net\n\nВсем привет! \nМеня зовут Марина, я из Туту.ру 🙂 \n\n🔥 Мы считаем, что будущее за мобильными устройствами. И продолжаем активно смещать фокус на разработку приложений и мобильной версии сайта.\n\n🔥 Пользователи нас любят 🙂 Оценка приложения в AppStore 4.9, а количество установок перешагнуло 3 млн.\n\n🔥 У нас масштабный многомодульный проект и 4 приложения. Если вам интересно решать сложные архитектурные задачи - welcome!\n\n🔥 Наш стек: Swift, RxSwift, RxFeedBack, GithubActions.\n\nПодробнее о вакансии здесь: \nhttps://company.tutu.ru/ios_dev\n\nБудем рады ответить на вопросы! \n\nHR (Марина): \n@mandarinka25 \nsavinova@tutu.ru\n\nРуководитель мобильной команды (Станислав): \n@DevAlloy","markup":[{"type":"hashtag","offset":0,"length":9,"data":"вакансия"},{"type":"hashtag","offset":10,"length":4,"data":"ios"},{"type":"hashtag","offset":15,"length":6,"data":"swift"},{"type":"hashtag","offset":22,"length":7,"data":"Москва"},{"type":"hashtag","offset":30,"length":5,"data":"офис"},{"type":"link","offset":615,"length":31,"data":"https://company.tutu.ru/ios_dev"},{"type":"handle","offset":696,"length":13,"data":"mandarinka25"},{"type":"link","offset":711,"length":16,"data":"mailto:savinova@tutu.ru"},{"type":"handle","offset":774,"length":9,"data":"DevAlloy"}],"date":"2020-06-23T08:17:36+00:00","link":"tg://resolve?domain=mobile_jobs&post=68513","tags":[{"name":"mobile"},{"name":"ios"},{"name":"swift"},{"name":"dotnet"}],"cities":[{"code":"moscow"}],"allowsRemote":false}},{"node":{"__typename":"Job","id":"71840038912-1001054966032","title":"Android разработчик","text":"#вакансия #android #java #kotlin #офис #москва\nм.Бауманская, полная занятость\nБелая з/п 150.000 - 200.000 руб. на руки\nAndroid developer\n\n\nМы — команда разработки Level.Travel, сложного продукта в сфере путешествий. За последние 8 лет мы с нуля создали и продолжаем развивать решение для онлайн-продажи путешествий. Нашу платформу используют лидеры рынка – Тинькофф Банк, OneTwoTrip, Сбербанк, TripAdvisor, Kayak, АК Барс Банк, Евросеть и многие другие. Компания Level.Travel является резидентом Инновационного центра «Сколково».\n\n\nОбязанности:\n🔸Разработка приложения со сложным UI в команде разработчиков\n🔸Построение архитектуры\n🔸Реализация клиент-серверного взаимодействия\n🔸Написание тестов\n\nОт Вас:\n🔸От 2-х лет в разработке на Android\n🔸Знание Java/Kotlin на уровне ведущего разработчика\n🔸Знание архитектурных паттернов (MVVM / Clean Architecture), ООП\n🔸Знания цикла работы приложения, управления памятью\n🔸Опыт работы или понимание RxJava, RxAndroid, Retrofit, Dagger2, Android Data Binding\n🔸Понимание Android Architecture Components будет плюсом\n🔸CI / CD\n🔸Все тонкости работы с клиент-серверной архитектурой\n🔸Умение отлаживать приложение, профилирование кода\n\nОт нас: белая зп, официальное трудоустройство, больничные, отпуска. Скидки на изучение английского языка, техника MacBook Pro. Регулярная обратная связь и аттестации. Геймификация процессов и несколько раз в год релокейты поработать в другую страну. Клевый молодой коллектив, интересные ивенты, насыщенная корпоративная жизнь. Пинг-понг, бильярд, кальян и другие развлечения в офисе. Скидки на путешествия)\n\nСвязь по почте : vos@level.travel\nИли тут @Alyask_a","markup":[{"type":"hashtag","offset":0,"length":9,"data":"вакансия"},{"type":"hashtag","offset":10,"length":8,"data":"android"},{"type":"hashtag","offset":19,"length":5,"data":"java"},{"type":"hashtag","offset":25,"length":7,"data":"kotlin"},{"type":"hashtag","offset":33,"length":5,"data":"офис"},{"type":"hashtag","offset":39,"length":7,"data":"москва"},{"type":"bold","offset":78,"length":40,"data":""},{"type":"bold","offset":119,"length":17,"data":""},{"type":"bold","offset":139,"length":76,"data":""},{"type":"bold","offset":533,"length":12,"data":""},{"type":"bold","offset":699,"length":7,"data":""},{"type":"bold","offset":1177,"length":7,"data":""},{"type":"bold","offset":1585,"length":33,"data":""},{"type":"link","offset":1602,"length":16,"data":"mailto:vos@level.travel"},{"type":"bold","offset":1619,"length":17,"data":""},{"type":"handle","offset":1627,"length":9,"data":"Alyask_a"}],"date":"2020-06-23T08:15:27+00:00","link":"tg://resolve?domain=mobile_jobs&post=68512","tags":[{"name":"mobile"},{"name":"android"},{"name":"java"},{"name":"kotlin"},{"name":"mvvm"}],"cities":[{"code":"moscow"}],"allowsRemote":false}},{"node":{"__typename":"Job","id":"103501791232-1001089317451","title":"Qa engineer","text":"#вакансия #Москва #fulltime #офис #qa #mobile\nКомпания: FunCorp\nВакансия:  QA mobile engineer\nОпыт работы: от 2-х лет\nЗарплата: 100 000 - 130 000 р. на руки\nМесторасположение: Москва, м. Белорусская\nЗанятость: fulltime, офис.\nNB! Удаленный вариант работы после выхода из карантина, к сожалению, не рассматриваем\nКонтактные данные: @chrschredinger или kristina@fun.co\n\nТребования\n- опыт тестирования мобильных приложений (iOS, Android) от года\n- опыт использования сниффера (Charles или Fiddler / Wireshark / Mitmproxy)\n- опыт работы с Android Studio / XCode\n- опыт работы с Firebase\n\nОбязанности\n- ручное тестирование (функциональное / регрессионное / исследовательское)\n- написание тестовых сценариев\n- тесная работа с менеджерами и разработчиками проекта\n\nУсловия\n- ДМС, включая стоматологию\n- бонусная система\n- обеды и ужины в офисе\n- бюджет на обучение и на фитнес\n- оплата участия в российских и зарубежных конференциях\n- отличный офис на м. Белорусская (БЦ «Белая площадь)","markup":[{"type":"hashtag","offset":0,"length":9,"data":"вакансия"},{"type":"hashtag","offset":10,"length":7,"data":"Москва"},{"type":"hashtag","offset":18,"length":9,"data":"fulltime"},{"type":"hashtag","offset":28,"length":5,"data":"офис"},{"type":"hashtag","offset":34,"length":3,"data":"qa"},{"type":"hashtag","offset":38,"length":7,"data":"mobile"},{"type":"bold","offset":46,"length":10,"data":""},{"type":"bold","offset":64,"length":10,"data":""},{"type":"bold","offset":94,"length":13,"data":""},{"type":"bold","offset":118,"length":10,"data":""},{"type":"bold","offset":157,"length":19,"data":""},{"type":"bold","offset":199,"length":10,"data":""},{"type":"underline","offset":226,"length":86,"data":""},{"type":"bold","offset":312,"length":19,"data":""},{"type":"handle","offset":331,"length":15,"data":"chrschredinger"},{"type":"link","offset":351,"length":15,"data":"mailto:kristina@fun.co"},{"type":"bold","offset":368,"length":11,"data":""},{"type":"bold","offset":584,"length":12,"data":""},{"type":"bold","offset":758,"length":8,"data":""}],"date":"2020-06-23T07:54:11+00:00","link":"tg://resolve?domain=qa_jobs&post=98707","tags":[{"name":"qa"},{"name":"mobile"},{"name":"ios"},{"name":"android"},{"name":"xcode"},{"name":"firebase"},{"name":"android-studio"}],"cities":[{"code":"moscow"}],"allowsRemote":false}},{"node":{"__typename":"Job","id":"71833747456-1001054966032","title":"Ios разработчик","text":"💪#вакансия #удалёнка #iOS #fulltime  #Middle+/#Senior    \n💵З/П 2200-2400 $/месяц по итогам собеседования\nРабота: удалёнка\n\nЧеловек в среднем больше сотни раз взаимодействует с клавиатурой своего мобильного устройства. Для большинства пользователей нашего приложения мы делаем этот процесс  интереснее и выгодней. Мы также оцениваем эмоциональное состояние пользователя, в процессе его взаимодействия с клавиатурой. Руководство компании из топ-менеджмента крупнейших глобальных игроков мобильного рынка. В данный момент открыта вакансия Middle+/Senior IOS разработчика, в подчинении 2 сотрудника                                                                                                               \n\n📌Обязанности:\n- Разработка кастомной клавиатуры iOS\n- Подключение ML-алгоритмов (TensorFlow) распознавания эмоций к iOS-клавиатуре\n- Разработка кода обработки данных камеры, микрофона\n\n📌Требования:\n- Уверенное знание Swift;\n- Хорошее знание платформы iOS, инструментов разработки, работы UI;\n- Опыт работы с REST API, HTTP, JSON, APNs;\n- Знакомство с библиотеками CoreData, AVFoundation, CoreML и CreateML\n- Желание развиваться и развивать свои знания            \n-Знание английского на уровне от Intermediate желательно                                                                                                               \n\n📌Будет плюсом:\n- Опыт работы c TensorFlow на iOS\n- Опыт работы с OpenCV на iOS\n- Опыт работы с фреймворком SwiftUI\n\n📌Условия:\n- Отсутствие бюрократии\n- Время начала рабочего дня обговариваем индивидуально\n- Come to the Dark Side, we have тёплая ламповая атмосфера стартапа, чай, кофе и печеньки!\n- Крутой инновационный проект - возможность самореализации и профессионального роста\n- Стабильное зарубежное финансирование\n- Десятки миллионов установок и множество глобальных партнёров\n📞 Контакты @SvetikS_hr +7(963)-632-12-36 Cветлана","markup":[{"type":"hashtag","offset":2,"length":9,"data":"вакансия"},{"type":"hashtag","offset":12,"length":9,"data":"удалёнка"},{"type":"hashtag","offset":22,"length":4,"data":"iOS"},{"type":"hashtag","offset":27,"length":9,"data":"fulltime"},{"type":"hashtag","offset":38,"length":7,"data":"Middle"},{"type":"hashtag","offset":47,"length":7,"data":"Senior"},{"type":"handle","offset":1841,"length":11,"data":"SvetikS_hr"},{"type":"link","offset":1853,"length":17,"data":"tel:+7(963)-632-12-36"}],"date":"2020-06-23T07:31:00+00:00","link":"tg://resolve?domain=mobile_jobs&post=68506","tags":[{"name":"mobile"},{"name":"ios"},{"name":"tensorflow"},{"name":"swift"},{"name":"rest"},{"name":"json"},{"name":"opencv"}],"cities":[],"allowsRemote":true}}]}}},"context":{}}