{"hash":"f5f6bf98bd95e769321482904cbbd488f77922fd","data":{"records":{"totalCount":669,"pageInfo":{"totalPages":67,"currentPage":49},"edges":[{"node":{"id":"103149469696-1001089317451","title":"Qa инженер","text":"Юлия Романова, [17.06.20 14:29]\n#вакансия #спб #fulltime #qa #удаленно\n\nКомпания: Smart Design (smddev.com) \n\nДолжность: Инженер по ручному и автоматизированному тестированию (QA & Automation Engineer)\n\nИщем инженера по тестированию BSS сотового оператора.\nБольшая распределенная команда (~30 человек).\nНужно хорошо уметь тестировать вручную и, когда это выгодно, суметь автоматизировать.\n\n\nНаши пожелания к кандидатам:\n✔️Опыт работы с Java или любым другим высокоуровневым языком программирования на уровне, достаточном для самостоятельного написания игры \"Сапёр\"\n✔️Опыт работы в консоли linux на уровне, достаточном для для решения задач:\nпоиск и изменение строк в файле\nуправление системными процессами\n✔️Опыт взаимодействия с REST API на уровне, достаточном для того, чтобы получить из ВКонтакте имя и фамилию своего аккаунта, не используя браузер\n\nПлюсом будет:\n✔️Опыт работы с протоколом SOAP\n✔️Профессиональный опыт функционального тестирования\n✔️Опыт работы с JUnit, Gradle, Oracle\n\nУсловия:\n✔️\"Белая\" зарплата до 110K gross\n✔️ДМС\n✔️ Работа в удаленном режиме на данный момент, далее в уютном офисе.\n\nhttps://spb.hh.ru/vacancy/37540632\n\nМои контакты: @romanovaya iyliia.romanova@smddev.com","markup":[{"type":"hashtag","offset":32,"length":9,"data":"вакансия"},{"type":"hashtag","offset":42,"length":4,"data":"спб"},{"type":"hashtag","offset":47,"length":9,"data":"fulltime"},{"type":"hashtag","offset":57,"length":3,"data":"qa"},{"type":"hashtag","offset":61,"length":9,"data":"удаленно"},{"type":"link","offset":96,"length":10,"data":"http://smddev.com"},{"type":"link","offset":1109,"length":34,"data":"https://spb.hh.ru/vacancy/37540632"},{"type":"handle","offset":1159,"length":11,"data":"romanovaya"},{"type":"link","offset":1171,"length":26,"data":"mailto:iyliia.romanova@smddev.com"}],"date":"2020-06-18T09:08:47+00:00","link":"tg://resolve?domain=qa_jobs&post=0","tags":[{"name":"qa"},{"name":"java"},{"name":"linux"},{"name":"rest"},{"name":"soap"},{"name":"junit"},{"name":"gradle"},{"name":"oracle"}],"cities":[],"allowsRemote":true}},{"node":{"id":"1704984576-1001091028994","title":"Java разработчик","text":"#вакансия  #офис #удалёнка #DevOps #Java\n\nкомпания: #JTSOFT\nгород: #Москва\nвилка: 200-260+ на рук\nконтакты: @reanimatsiya\n\n\n🧑🏻‍💻Я ищу ведущего Java-разработчика со знанием Spring Boot и DevOps практик в компанию JTSOFT.\n\nJTSOFT - это аутсорсинговая IT компания, которая уже 7 лет специализируемся на разработке программных решений в сферах b2b, b2g. \n\nКомпания имеет статус IBM Premier Business Partner и работает практически со всей линейкой IBM. \nКоманды JTSOFT внедряли Универсальную Электронную Карту, разрабатывали приложения и формы для банка «Возрождение», а также реализовали проект по визуализации и контролю системы БД IBM Tivoli.\n\n🤝Вам будут рады при:\n\n✔️Опыте работы не менее 5 лет на Java Core, Java 8+\n✔️Уверенном знании фреймворков Spring\n✔️Знании принципов и шаблонов проектирования\n✔️Опыте профилирования, оптимизации и решения performance-проблем Java-приложений\n✔️Опыте проектирования API (REST, GRPC и т.д.)\n✔️Опыте работы с разными системами оркестрации (Kubernetes, OpenShift, Mesos/Marathon);\n✔️Знании Apache Kafka, MongoDB, Elasticsearch, Docker\n✔️Опыте написания инфраструктурных скриптов на Ansible\n\n\n➕Огромным плюсом будет:\n\n▪️Опыт работы с реляционными БД;\n▪️Опыт работы с SOAP;\n▪️Знакомство с методологией Agile, Scrum.\n\n\n🍪 Компания предоставляет все необходимое:\n\n👌🏻ТК РФ\n👌🏻Ваш вклад в разработку всегда будет учтен, так как работа происходит в небольших автономных группах, обеспечивающих полный цикл разработки.\n👌🏻Компания предоставляет современное и удобное оборудование\n👌🏻Комфортный офис в бизнес-центре \"Технопарк\", в двух минутах ходьбы от м. Технопарк или удаленно при согласовании с командой","markup":[{"type":"hashtag","offset":0,"length":9,"data":"вакансия"},{"type":"hashtag","offset":11,"length":5,"data":"офис"},{"type":"hashtag","offset":17,"length":9,"data":"удалёнка"},{"type":"hashtag","offset":27,"length":7,"data":"DevOps"},{"type":"hashtag","offset":35,"length":5,"data":"Java"},{"type":"hashtag","offset":52,"length":7,"data":"JTSOFT"},{"type":"hashtag","offset":67,"length":7,"data":"Москва"},{"type":"handle","offset":108,"length":13,"data":"reanimatsiya"}],"date":"2020-06-18T08:57:14+00:00","link":"tg://resolve?domain=jvmjobs&post=1626","tags":[{"name":"java"},{"name":"jvm"},{"name":"spring"},{"name":"rest"},{"name":"kubernetes"},{"name":"apache"},{"name":"kafka"},{"name":"mongodb"},{"name":"elasticsearch"},{"name":"docker"},{"name":"ansible"},{"name":"soap"},{"name":"spring-boot"}],"cities":[{"code":"moscow"}],"allowsRemote":true}},{"node":{"id":"103148421120-1001089317451","title":"Qa engineer","text":"#вакансия #удаленка\n\nДолжность : Senior QA Engineer\nКомпания : https://www.bitorb.com/\nФормат работы: удаленная, на полный рабочий день\nЗарплата: 4-5k USD\n\nКто мы?\nBitOrb - биржа на азиатском рынке на стадии бета-тестирования.\n\nЧто делать?\n- Взять на себя тестирование и QA;\n- Написание тестовых сценариев;\n- Самостоятельно выбирать, как их тестировать - автоматизировать или покрывать ручным тестирование;\n- Вместе с командой разработчиков искать возможные проблемы/риски;     \n- Желательно: перфоманс-тестирование;\n- Желательно: security testing.\n\nЧто нужно в обязательном порядке? \n- Разговорный английский;\n- Опыт написания автоматизированных тестов.\n\nПочему это может быть интересно? \n- Свобода в выборе пути достижения результата;\n- Удаленная работа и гибкий график;\n- Сложная система, требовательная к перфомансу, корректности;\n- Можно брать задачи и развиваться в соседних областях;\n- Дружная и многонациональная команда;\n- Опыт работы в международной компании;\n- С течением времени - возможность стать тим лидом команды QA.","markup":[{"type":"hashtag","offset":0,"length":9,"data":"вакансия"},{"type":"hashtag","offset":10,"length":9,"data":"удаленка"},{"type":"link","offset":63,"length":23,"data":"https://www.bitorb.com/"}],"date":"2020-06-18T08:56:19+00:00","link":"tg://resolve?domain=qa_jobs&post=0","tags":[{"name":"qa"}],"cities":[],"allowsRemote":true}},{"node":{"id":"26406289408-1001075660570","title":"Php разработчик","text":"#работа #вакансия #удаленка #job #РНР #Yii #Laravel #Symfony \n\nВсем привет! \n\nСейчас нахожусь в поисках РНР разработчика уровня senior в одну из крупнейших ecommerce компаний России - Bork/Technopark. \nНа текущий  момент внутри идет несколько проектов по поддержке и развитию интернет-площадки по продаже бытовой техники и электроники премиум-класса.\n\nПродукты реализуются на стеке: PHP (Yii2), MySql, JS (Vue), HTML, CSS, Gulp, Webpack, SVG, Canvas. \nЗадачи: разработка серверной части веб-проектов на всех этапах (от участия в проектировании архитектуры, до разработки сервисов), участие в митапах для обсуждения предстоящих задач, вносить вклад в планирование архитектуры и т.д.\n\nОсновные требования:\n\n- Опыт коммерческой разработки от 3 лет на PHP (7.1 или выше);\n\n- Хорошие знания современных фреймворков  (YII, Symfony);\n\n- Знание ООП, базовых алгоритмов, шаблонов проектирования, стандартов написания кода.\n\nУсловия: \n\n- ЗП до 250 000 net;\n\n- Полная УДАЛЁНКА; \n\n- Оформление через ИП или как самозанятый; \n\nКто заинтересовался - пишите в ЛС (@nastyaklassnaya),  буду рада пообщаться :)","markup":[{"type":"hashtag","offset":0,"length":7,"data":"работа"},{"type":"hashtag","offset":8,"length":9,"data":"вакансия"},{"type":"hashtag","offset":18,"length":9,"data":"удаленка"},{"type":"hashtag","offset":28,"length":4,"data":"job"},{"type":"hashtag","offset":33,"length":4,"data":"РНР"},{"type":"hashtag","offset":38,"length":4,"data":"Yii"},{"type":"hashtag","offset":43,"length":8,"data":"Laravel"},{"type":"hashtag","offset":52,"length":8,"data":"Symfony"},{"type":"handle","offset":1049,"length":16,"data":"nastyaklassnaya"}],"date":"2020-06-18T08:54:14+00:00","link":"tg://resolve?domain=php_jobs&post=25183","tags":[{"name":"php"},{"name":"yii"},{"name":"laravel"},{"name":"symfony"},{"name":"mysql"},{"name":"vuejs"},{"name":"html"},{"name":"css"},{"name":"gulp"},{"name":"webpack"},{"name":"svg"},{"name":"canvas"},{"name":"dotnet"}],"cities":[],"allowsRemote":true}},{"node":{"id":"71548534784-1001054966032","title":"Android разработчик","text":"#вакансия #удаленка #remote #JavaScript  #Cordova #Android \n\nФормат: удаленка\nЗанятость: частичная (проектная), от 20 часов в неделю\nОплата: 500-1000/час в зависимости от уровня\n\nИщу JavaScript-разработчика на фриланс . Нужно делать небольшие игровые приложения под упаковку в Cordova на платформу Android.\n\nКонтакт: @LuPomkho","markup":[{"type":"hashtag","offset":0,"length":9,"data":"вакансия"},{"type":"hashtag","offset":10,"length":9,"data":"удаленка"},{"type":"hashtag","offset":20,"length":7,"data":"remote"},{"type":"hashtag","offset":28,"length":11,"data":"JavaScript"},{"type":"hashtag","offset":41,"length":8,"data":"Cordova"},{"type":"hashtag","offset":50,"length":8,"data":"Android"},{"type":"handle","offset":317,"length":9,"data":"LuPomkho"}],"date":"2020-06-18T08:22:21+00:00","link":"tg://resolve?domain=mobile_jobs&post=0","tags":[{"name":"mobile"},{"name":"android"},{"name":"javascript"},{"name":"cordova"}],"cities":[],"allowsRemote":true}},{"node":{"id":"17038311424-1001110946746","title":"Js разработчик","text":"#вакансия #работа #удаленка #backend #node #nodejs #remote\nГород и адрес офиса: Москва, Савеловская\nФормат работы: удаленка\nЗанятость: полная || проектная\nЗарплатная вилка: 100-160 т.р.\n\nОписание вакансии: \nИщем опытного backend-разработчика node.js для разработки высоконадежных транзакционных сервисов интеграции с различными системами\n\nТребования:\n• Опыт работы с унаследованными системами\n• Знание PHP на уровне понимания и чтения кода будет плюсом\n• Знание и понимание работы сетевых протоколов TCP/IP, HTTP, SMTP, IMAP\n• Знание и понимание языка JavaScript и связанных с ним технологий и фреймворков\n• Опыт разработки серверных приложений\n• Понимание основных процессов разработки, умение работать в команде\n• Понимание принципов ООП, подходов в программировании и требований к транзакционным системам\n\nЗадачи:\n• Разработка высоконадежных транзакционных сервисов интеграции с различными системами\n• Поддержка и модернизация существующих систем\n\nНазвание компании: TechPlatforms (https://techpl.net)\nКонтакты:@desych79\n\n—\n\n👉 Обсуждение вакансии в чате @javascript_jobs","markup":[{"type":"hashtag","offset":0,"length":9,"data":"вакансия"},{"type":"hashtag","offset":10,"length":7,"data":"работа"},{"type":"hashtag","offset":18,"length":9,"data":"удаленка"},{"type":"hashtag","offset":28,"length":8,"data":"backend"},{"type":"hashtag","offset":37,"length":5,"data":"node"},{"type":"hashtag","offset":43,"length":7,"data":"nodejs"},{"type":"hashtag","offset":51,"length":7,"data":"remote"},{"type":"link","offset":985,"length":18,"data":"https://techpl.net"},{"type":"handle","offset":1014,"length":9,"data":"desych79"},{"type":"handle","offset":1058,"length":16,"data":"javascript_jobs"}],"date":"2020-06-18T08:18:05+00:00","link":"tg://resolve?domain=javascript_jobs_feed&post=0","tags":[{"name":"javascript"},{"name":"nodejs"},{"name":"php"},{"name":"smtp"},{"name":"dotnet"}],"cities":[{"code":"moscow"}],"allowsRemote":true}},{"node":{"id":"17037262848-1001110946746","title":"Javascript разработчик","text":"#вакансия #angular #москва #релокация #офис #удаленка\n\nГород: Москва (Сокольники или Павелецкая), есть релокационный пакет\n\nФормат работы: офис, также возможна удаленка из Москвы, Питера, Самары\n\nЗанятость: полная\n\nВилка: 180-250 т.р. на руки\n\nИщем коллегу для создания и развития современного сервиса дистанционных банковских услуг.\n\n• SPA на Angular 8\n\n• Пишем на TypeScript, ES6 Modules, SASS\n\n• Собираем в Webpack\n\n• Храним в Git\n\nМы также готовы рассмотреть кандидатов, которые имеют опыт работы на React, но хотели бы перейти на Angular.\n\nНазвание компании: ПСБ\nhttps://www.psbank.ru/\nhttps://hh.ru/vacancy/33110730\n\nКонтакты: @max_gusev\ngusevms@psbank.ru\n\n—\n\n👉 Обсуждение вакансии в чате @javascript_jobs","markup":[{"type":"hashtag","offset":0,"length":9,"data":"вакансия"},{"type":"hashtag","offset":10,"length":8,"data":"angular"},{"type":"hashtag","offset":19,"length":7,"data":"москва"},{"type":"hashtag","offset":27,"length":10,"data":"релокация"},{"type":"hashtag","offset":38,"length":5,"data":"офис"},{"type":"hashtag","offset":44,"length":9,"data":"удаленка"},{"type":"link","offset":568,"length":22,"data":"https://www.psbank.ru/"},{"type":"link","offset":591,"length":30,"data":"https://hh.ru/vacancy/33110730"},{"type":"handle","offset":633,"length":10,"data":"max_gusev"},{"type":"link","offset":644,"length":17,"data":"mailto:gusevms@psbank.ru"},{"type":"handle","offset":696,"length":16,"data":"javascript_jobs"}],"date":"2020-06-18T08:17:37+00:00","link":"tg://resolve?domain=javascript_jobs_feed&post=0","tags":[{"name":"javascript"},{"name":"angularjs"},{"name":"typescript"},{"name":"sass"},{"name":"webpack"},{"name":"git"},{"name":"reactjs"}],"cities":[{"code":"moscow"}],"allowsRemote":true}},{"node":{"id":"71547486208-1001054966032","title":"Android разработчик","text":"#вакансия #android #офис #удаленка\n\nГород: Москва (Сокольники или Павелецкая), есть релокационный пакет\n\nФормат работы: офис, но также возможна удаленка из Москвы, Питера, Самары\n\nЗанятость: полная\n\nВилка: 180-250 т.р. на руки\n\nКоманда разработчиков ищет коллегу для создания и развития функционала мобильного банка.\n\nЧто требуется знать:\n\n• Паттерны GOF\n• Алгоритмы и структуры данных\n• Core Java SE 8\n• Kotlin\n• Android SDK API Level 19-29\n• Android Support Library\n• Dagger 2\n• RxJava 2\n• JUnit, Espresso, Mockito\n\nБудет плюсом:\n\n• Cicerone\n• Moxy\n• FCM\n• Fingerprint Authentication\n• Знание основ криптологии\n• Android Architecture Components\n• Gradle\n• REST API\n• Опыт работы с Google Maps SDK для Android\n\nНазвание компании: ПСБ\nhttps://www.psbank.ru/\nhttps://hh.ru/vacancy/34497271\n\nКонтакты: @max_gusev\ngusevms@psbank.ru","markup":[{"type":"hashtag","offset":0,"length":9,"data":"вакансия"},{"type":"hashtag","offset":10,"length":8,"data":"android"},{"type":"hashtag","offset":19,"length":5,"data":"офис"},{"type":"hashtag","offset":25,"length":9,"data":"удаленка"},{"type":"bold","offset":36,"length":6,"data":""},{"type":"bold","offset":105,"length":14,"data":""},{"type":"bold","offset":180,"length":10,"data":""},{"type":"bold","offset":199,"length":7,"data":""},{"type":"bold","offset":318,"length":20,"data":""},{"type":"bold","offset":518,"length":13,"data":""},{"type":"bold","offset":712,"length":18,"data":""},{"type":"link","offset":735,"length":21,"data":"https://www.psbank.ru/"},{"type":"link","offset":758,"length":30,"data":"https://hh.ru/vacancy/34497271"},{"type":"bold","offset":790,"length":9,"data":""},{"type":"handle","offset":800,"length":10,"data":"max_gusev"},{"type":"link","offset":811,"length":17,"data":"mailto:gusevms@psbank.ru"}],"date":"2020-06-18T08:14:18+00:00","link":"tg://resolve?domain=mobile_jobs&post=0","tags":[{"name":"mobile"},{"name":"android"},{"name":"java"},{"name":"kotlin"},{"name":"junit"},{"name":"gradle"},{"name":"rest"},{"name":"google-maps"}],"cities":[{"code":"moscow"}],"allowsRemote":true}},{"node":{"id":"91179974656-1001067529236","title":"Python разработчик","text":"#job #вакансия  #dataengineer #remote\n\nВсем привет! Мы - PeakData AG ищем Data Engineer.\n\nPosition: Data Engineer\nCompany: Peakdata (http://peakdata.ch/)\nLocation: remote.\nSalary range in USD: 2,500 - 3,200 USD/month (gross)\nSalary range in RUB: 180 000 – 230 000 Rub/month (na ruki)\nContact: mfeldman@peakdata.ch\n\nWe are young and ambitious startup in the field of AI and Data Science looking for a  join our team. We are active in the area of web mining and Language Processing. Are you up for the challenge? \n\nResponsibilities: \n • Be able to process and integrate disparate data from different data sources\n • Be able to think with creativity, propose and lead development of data crunching software modules (mostly text analysis. NLP big plus)\n • Be able to work with version control system (Git)\n • Be able to understand software architecture and the existing workflow\n • Be able to clearly communicate in English\n • Be able to work independently in the remote work setting\n • Be able to overlap with our business hours for a great collaboration. \n\nRequirements:\n • At least 1 year of professional experience in data engineering/machine learning\n • Experienced in the relevant Python and its libraries; Especially appreciated is the knowledge of the following libraries: pandas, request, beatifulsoup, lxml, scrappy, selenium, joblib\n • Experience with backend development in Python - BIG PLUS\n • Bachelor degree in computer science –PLUS\n • Good knowledge of Docker - PLUS\n • Good documentation skills\n • Good written and spoken English\n • Strong sense of ownership and responsibility for code quality that follows best practices\n • Strong coding, problem-solving, and debugging skills\n • Awesome communication, collaboration, and self-management skills. \n\nWhat we offer:\n • Very interesting and innovative data product which includes real-world web data at scale (Tera to Petabytes)\n • Competitive salary\n • Highly professional and innovative team (most of our team members have either Masters or PhD)\n • Flexible work environment with opportunity to work remotely at  pajamas from your kitchen and still be part of interesting and innovative project 🙂 If you feel like you might be a good fit please drop us a message at mfeldman@peakdata.ch","markup":[{"type":"hashtag","offset":0,"length":4,"data":"job"},{"type":"hashtag","offset":5,"length":9,"data":"вакансия"},{"type":"hashtag","offset":16,"length":13,"data":"dataengineer"},{"type":"hashtag","offset":30,"length":7,"data":"remote"},{"type":"link","offset":133,"length":19,"data":"http://peakdata.ch/"},{"type":"link","offset":293,"length":20,"data":"mailto:mfeldman@peakdata.ch"},{"type":"link","offset":2231,"length":20,"data":"mailto:mfeldman@peakdata.ch"}],"date":"2020-06-18T08:10:06+00:00","link":"tg://resolve?domain=python_jobs&post=0","tags":[{"name":"python"},{"name":"web"},{"name":"nlp"},{"name":"git"},{"name":"pandas"},{"name":"selenium"},{"name":"docker"},{"name":"machine-learning"}],"cities":[],"allowsRemote":true}},{"node":{"id":"71544340480-1001054966032","title":"Android разработчик","text":"#вакансия #удаленка #iOS #Android\nФормат работы: Удаленка или офис Екб\nЗанятость: Полная\nЗарплатная вилка от 100 до 150 net (зависит от уровня)\nУровень: middle/middle+\nКомпания: УБРиР\nКонтакты: @vikacrn\n\nСейчас мы в поиске мобильных разработчиков (Android/iOS).📱Для развития основного проекта - мобильного банка и написание нового (приложение для юр/лиц).\n\nПодробнее по вакансиям здесь:\niOS https://ekaterinburg.hh.ru/vacancy/37221491\nAndroid https://ekaterinburg.hh.ru/vacancy/37110186","markup":[{"type":"hashtag","offset":0,"length":9,"data":"вакансия"},{"type":"hashtag","offset":10,"length":9,"data":"удаленка"},{"type":"hashtag","offset":20,"length":4,"data":"iOS"},{"type":"hashtag","offset":25,"length":8,"data":"Android"},{"type":"bold","offset":153,"length":14,"data":""},{"type":"handle","offset":194,"length":8,"data":"vikacrn"},{"type":"bold","offset":358,"length":29,"data":""},{"type":"link","offset":392,"length":43,"data":"https://ekaterinburg.hh.ru/vacancy/37221491"},{"type":"link","offset":444,"length":43,"data":"https://ekaterinburg.hh.ru/vacancy/37110186"}],"date":"2020-06-18T08:05:01+00:00","link":"tg://resolve?domain=mobile_jobs&post=0","tags":[{"name":"mobile"},{"name":"android"},{"name":"ios"},{"name":"dotnet"}],"cities":[],"allowsRemote":true}}]}},"context":{}}