{"hash":"f34fd2c444a074f4e0e67d525015a008ef8e766f","data":{"records":{"id":"java","name":"java","belongsTo":{"totalCount":123,"pageInfo":{"totalPages":13,"currentPage":3},"edges":[{"node":{"__typename":"Job","id":"98274639872-1001089317451","title":"Qa инженер","text":"#QA #вакансия #Москва #fulltime #java\n💥Команда СберТеха  ищет классного QA-инженера!🙌\n💥Проект: тестирование сервисов безопасности технологической платформы Сбербанка.\n💥Задачи: дизайн, разработка и поддержка пакетов автотестов API и UI группы продуктов платформы поддержки развития бизнеса;подготовка тест-кейсов; регистрация и отслеживание дефектов.\n💥Стек: Java,cucumber, Junit, Jenkins, Allure reports, Docker, BPM\n💥Москва, м.Нагатинская/Тульская\n💥зп: 150-250 k\n💥-Оформление ТК РФ;\n     -ДМС;\n     - Белая заработная плата (оклад + годовая премия);\n     -Возможность обучения за счет компании;\n     -   Льготное кредитование;\n      -Бесплатный тренажерный зал на территории офиса;\n       - корпоративная жизнь и спортивные мероприятия;\n       -возможность карьерного роста.\n\nЖдём Вас в нашей команде!\n@TaliaHR","markup":[{"type":"hashtag","offset":0,"length":3,"data":"QA"},{"type":"hashtag","offset":4,"length":9,"data":"вакансия"},{"type":"hashtag","offset":14,"length":7,"data":"Москва"},{"type":"hashtag","offset":22,"length":9,"data":"fulltime"},{"type":"hashtag","offset":32,"length":5,"data":"java"},{"type":"handle","offset":810,"length":8,"data":"TaliaHR"}],"date":"2020-04-09T10:21:23+00:00","link":"tg://resolve?domain=qa_jobs&post=93722","tags":[{"name":"qa"},{"name":"java"},{"name":"cucumber"},{"name":"junit"},{"name":"jenkins"},{"name":"docker"}],"cities":[{"code":"moscow"}],"allowsRemote":false}},{"node":{"__typename":"Job","id":"98273591296-1001089317451","title":"Qa инженер","text":"#вакансия #мтс #стартап #manual #automate #москва #офис #мск #mobile\n🏢Компания: MTC\n🏙Город: Москва, м. Комсомольская\n💰Зп: от 90к (обсуждается по результатам собеседования)\n\nМы отдельный проект новой стриминговой платформы в МТС - WASD.tv. Мы разрабатываем инновационную платформу для стриминга и монетизации для стримеров на территории СНГ, и в скором времени планируем покорять другие страны Европы, Азии и Америки!\nРаботаем преимущественно c REST API, пишем на js и go, полноценные стенды (stage, qa, dev) в kubernetes. Активно внедряем BDD. Команда QA развивает свой инновационный фреймворк автотестирования на Java для всех платформ проекта! На данный момент, нужен в мобильную команду QA Automation/ QA Mobile.\n\nОбязанности\n✔️ проведение ручного тестирования мобильных приложений (iOS, Android);\n✔️ локализация и документирование найденных дефектов;\n✔️написание и поддержка имеющейся документации;\n✔️взаимодействие с разработчиками;\n✔️поддержание и развитие мобильного фреймворка;\n✔️разработка BDD сценариев и их автоматизация.\n\nТребования:\n✔️опыт ручного тестирования мобильных приложений от 2 лет;\n✔️опыт автоматизированного тестирования на Java (Appium+Сucumber) от 1 года;\n✔️знание методологий тестирования;\n✔️опыт работы с системами CI (Jenkins, Teamcity);\n✔️опыт работы с  Charles, Appium, Postman, Chrome DevTools, Kibana.\n\nУсловия:\n✅ работа из офиса 5/2;\n✅ гибкое начало рабочего дня;\n✅ различные спец. предложения для сотрудников МТС;\n✅ полугодовые премии;\n✅ все белое, оформление по ТК РФ.\n\n📲Контакты: daordynt@mts.ru или в лс (в телеге)","markup":[{"type":"hashtag","offset":0,"length":9,"data":"вакансия"},{"type":"hashtag","offset":10,"length":4,"data":"мтс"},{"type":"hashtag","offset":15,"length":8,"data":"стартап"},{"type":"hashtag","offset":24,"length":7,"data":"manual"},{"type":"hashtag","offset":32,"length":9,"data":"automate"},{"type":"hashtag","offset":42,"length":7,"data":"москва"},{"type":"hashtag","offset":50,"length":5,"data":"офис"},{"type":"hashtag","offset":56,"length":4,"data":"мск"},{"type":"hashtag","offset":61,"length":7,"data":"mobile"},{"type":"link","offset":233,"length":7,"data":"http://wasd.tv/"},{"type":"bold","offset":720,"length":12,"data":""},{"type":"bold","offset":1037,"length":12,"data":""},{"type":"bold","offset":1339,"length":9,"data":""},{"type":"link","offset":1521,"length":15,"data":"mailto:daordynt@mts.ru"}],"date":"2020-04-09T09:47:35+00:00","link":"tg://resolve?domain=qa_jobs&post=93721","tags":[{"name":"qa"},{"name":"mobile"},{"name":"rest"},{"name":"kubernetes"},{"name":"java"},{"name":"ios"},{"name":"android"},{"name":"jenkins"}],"cities":[{"code":"moscow"}],"allowsRemote":false}},{"node":{"__typename":"Job","id":"98270445568-1001089317451","title":"Qa инженер","text":"#вакансия #Москва #QA #работа\n❗️Команда Тинькофф ищет талантливых тестировщиков❗️\nА у нас есть позиции в команде, которая разрабатывает продукты для бизнеса, команде, которая разрабатывает мобильное приложение для физ.лиц (он же SuperApp) , а еще есть вакансии в Тинькофф Инвестиции, в Тинькофф Мобайл – все они ищут тестировщика мобильных приложений. \n\n 📍Основные задачи:\n-Проведение функционального, регрессионного, smoke тестирования мобильных приложений на 3-х платформах (iOS, Android, Windows)\n-Использование инструментов разработчиков (Android Studio, Xcode, ITools)\n-Участие в процессе автоматизации: составление тест-кейсов и оценка результатов запуска автокейсов, их актуализация\n-Поддержка/развитие решений автоматизированного тестирования мобильного банка Тинькофф на платформе iOS (swift, xCode, XCTest) / Android (Java, JUnit, Espresso, UIAutomator)\n-Автоматизация регресса мобильного банка Тинькофф                                                                                                                                                                 \n📍Наши ожидания от кандидата:\n-Опыт работы в качестве мобильного тестировщика от 1 года\n-Понимание рынка мобильных технологий (ОС, оболочки и т.д.)\n-Понимание процесса интеграционного тестирования;принципа работы REST и SOAP API\n-Опыт использования сниффера трафика (Charles, Fiddler)\n-Знание SQL на уровне простых запросов\n\n✅Мы предлагаем:\n•Профессиональное развитие: проводим митапы, тренинги и мастер-классы; огромная tech-библиотека\n•Бесплатные и вкусные обеды в уютном Tinkoff.Сafe; чай, кофе и фрукты в кухнях на каждом этаже офиса\n•Заботу о здоровье: полис ДМС и страховку от несчастных случаев, льготные условия страхования для близких\n•Занятия в бесплатном фитнес-зале «Tinkoff.Sport»: есть тренажеры, групповые программы с крутыми тренерами, сауна. Устраиваем турниры по футболу, волейболу и хоккею\n•Работу в комфортном офисе с современной техникой и панорамным видом на город в 5 минутах пешком от м. Водный стадион. Для тех, кто за рулем, есть удобная парковка\n•Заработная плата от 130K, обсуждаем с каждым индивидуально\n\n📌Резюме и вопросы можете присылать на почту a.a.sklyarova@tinkoff.ru","markup":[{"type":"hashtag","offset":0,"length":9,"data":"вакансия"},{"type":"hashtag","offset":10,"length":7,"data":"Москва"},{"type":"hashtag","offset":18,"length":3,"data":"QA"},{"type":"hashtag","offset":22,"length":7,"data":"работа"},{"type":"link","offset":2155,"length":24,"data":"mailto:a.a.sklyarova@tinkoff.ru"}],"date":"2020-04-09T08:36:28+00:00","link":"tg://resolve?domain=qa_jobs&post=93718","tags":[{"name":"qa"},{"name":"ios"},{"name":"android"},{"name":"windows"},{"name":"xcode"},{"name":"swift"},{"name":"java"},{"name":"junit"},{"name":"rest"},{"name":"soap"},{"name":"sql"},{"name":"android-studio"}],"cities":[{"code":"moscow"}],"allowsRemote":false}},{"node":{"__typename":"Job","id":"1430257664-1001091028994","title":"Java разработчик","text":"#вакансия #fullstack #fullstackdeveloper #java  #javascript #jquery #remote #fulltime #удаленно\n\nFullstack Developer\nКомпания: Fplay\nЛокация: remote\nЗанятость: fulltime\nЗ/п: 130-140К net\nКонтакты: @observer69\n\nНаша команда состоит из криптотрейдеров с большим опытом торговли. Деятельность проекта - трейдинг на криптобиржах посредством использования торгового робота. На данный момент уже создан и используется прибыльный торговый робот. В планах проекта расширение возможностей робота путем подключения бОльшего количества криптобирж. Для реализации этих целей мы расширяем штат, ищем разработчика. Мы не создаем продукт для продажи, только для собственного использования.\n\nУсловия\n● Удаленная работа, полная занятость. Территориальные границы часовых поясов: от UTC+2 до UTC+6.\n● Работа в небольшом коллективе криптоэнтузиастов. На данный момент команда состоит из 4-х человек. Все работают на удаленке.\n● Режим работы 8 часов в день + 1 час перерыв на обед. Все выходные и праздничные дни, отпуска предоставляются и оплачиваются в соответствии с трудовым законодательством страны проживания.\n● Выплата заработной платы 2 раза в месяц.\n\nТребования\n● Java 8+, Spring, JavaScript, jQuery;\n● Опыт Java от 3-х лет, опыт JavaScript от 1 года;\n● Опыт разработки многопоточных систем;\n● Знание баз данных PostgreSQL либо MariaDB;\n● Опыт самостоятельной работы (удаленка на дому или ко-воркинг, другие формы работы не по найму).\n \nПриветствуется\n● Опыт работы с API классических или криптобирж;\n● Опыт работы с REST API, WebSocket API.\n● Опыт разработки систем реального времени;\n● Опыт в создании архитектур программ;\n● DevOps навыки;\n● Хорошее знание английского языка.\n● Приверженность open source идеологии.\n\nЗадачи\n1. Сопровождение и улучшение имеющегося торгового робота;\n2. Разработка архитектуры универсального ядра, к которому будут подключаться новые криптобиржи;\n3. Разработка серверной и интерфейсной частей торгового робота;\n4. Реализация автоматического тестирования серверной части;\n5. Администрирование серверной части в Debian/Ubuntu server OS","markup":[{"type":"hashtag","offset":0,"length":9,"data":"вакансия"},{"type":"hashtag","offset":10,"length":10,"data":"fullstack"},{"type":"hashtag","offset":21,"length":19,"data":"fullstackdeveloper"},{"type":"hashtag","offset":41,"length":5,"data":"java"},{"type":"hashtag","offset":48,"length":11,"data":"javascript"},{"type":"hashtag","offset":60,"length":7,"data":"jquery"},{"type":"hashtag","offset":68,"length":7,"data":"remote"},{"type":"hashtag","offset":76,"length":9,"data":"fulltime"},{"type":"hashtag","offset":86,"length":9,"data":"удаленно"},{"type":"bold","offset":97,"length":29,"data":""},{"type":"bold","offset":133,"length":8,"data":""},{"type":"bold","offset":149,"length":10,"data":""},{"type":"bold","offset":169,"length":4,"data":""},{"type":"bold","offset":187,"length":9,"data":""},{"type":"handle","offset":197,"length":11,"data":"observer69"},{"type":"bold","offset":676,"length":8,"data":""},{"type":"bold","offset":722,"length":59,"data":""},{"type":"bold","offset":1140,"length":11,"data":""},{"type":"bold","offset":1426,"length":15,"data":""},{"type":"bold","offset":1708,"length":9,"data":""},{"type":"bold","offset":1773,"length":2,"data":""},{"type":"bold","offset":1869,"length":2,"data":""},{"type":"bold","offset":1933,"length":2,"data":""},{"type":"bold","offset":1993,"length":2,"data":""}],"date":"2020-04-09T08:01:38+00:00","link":"tg://resolve?domain=jvmjobs&post=1364","tags":[{"name":"java"},{"name":"jvm"},{"name":"javascript"},{"name":"jquery"},{"name":"dotnet"},{"name":"spring"},{"name":"postgresql"},{"name":"mariadb"},{"name":"rest"},{"name":"websocket"},{"name":"debian"},{"name":"ubuntu"}],"cities":[],"allowsRemote":true}},{"node":{"__typename":"Job","id":"98258911232-1001089317451","title":"Qa engineer","text":"#qa #automation #java #testng #remote #fulltime #job #jobs #backend #вакансия #remotework #sdet\nVacancy: Test Automation Engineer/SDET\nCompany: Libertex Group\nEmployment: Full-time remote\nSalary: 2,5k$ – 3,5k$ net\nDescription\nOur perfect automation engineer applies appropriate automation technologies to meet the short- and long-term goals of IT development. They are able to fulfill key activities of an Agile QA Tester.\n\nThe automation engineer strive to Automate as much of the testing effort as possible with a minimum set of code/scripts.\n\nThe Automation Engineer focuses on test effort not testing coverage, reducing expensive manual overheads at all times. The Automation engineer is aligned with services teams but is flexible when required to assist with projects.\n\nRequirements\nExperience with test automation frameworks & tools (Essential: Java, TestNG; optional: Cucumber/Gherkin)\nPerformance testing (Gatling)\nDemonstrable experience creating and maintaining automated test suites\nExperience with object-oriented programming language (Java)\nExperience with functional UI testing (Selenium WebDriver)\nExperience with RESTful web services testing\nExperience with Continuous Integration / Continuous Delivery\nPractical experience working with Agile methodologies, Scrum / Kanban\nExperience working in an Agile Scrum team\nExperience with Python and Golang would be a plus\nExperience with Message Brokers (e.g. Kafka, ActiveMQ) would be a plus\nGit basics\nUpper Intermediate is a minimal level, ability to pass an interview in English\nContact: @OlgaVzh","markup":[{"type":"hashtag","offset":0,"length":3,"data":"qa"},{"type":"hashtag","offset":4,"length":11,"data":"automation"},{"type":"hashtag","offset":16,"length":5,"data":"java"},{"type":"hashtag","offset":22,"length":7,"data":"testng"},{"type":"hashtag","offset":30,"length":7,"data":"remote"},{"type":"hashtag","offset":38,"length":9,"data":"fulltime"},{"type":"hashtag","offset":48,"length":4,"data":"job"},{"type":"hashtag","offset":53,"length":5,"data":"jobs"},{"type":"hashtag","offset":59,"length":8,"data":"backend"},{"type":"hashtag","offset":68,"length":9,"data":"вакансия"},{"type":"hashtag","offset":78,"length":11,"data":"remotework"},{"type":"hashtag","offset":90,"length":5,"data":"sdet"},{"type":"bold","offset":96,"length":47,"data":""},{"type":"bold","offset":159,"length":11,"data":""},{"type":"bold","offset":188,"length":6,"data":""},{"type":"bold","offset":214,"length":12,"data":""},{"type":"bold","offset":776,"length":13,"data":""},{"type":"underline","offset":1039,"length":8,"data":""},{"type":"bold","offset":1047,"length":8,"data":""},{"type":"bold","offset":1464,"length":87,"data":""},{"type":"handle","offset":1552,"length":8,"data":"OlgaVzh"}],"date":"2020-04-08T22:34:06+00:00","link":"tg://resolve?domain=qa_jobs&post=93707","tags":[{"name":"qa"},{"name":"java"},{"name":"dotnet"},{"name":"cucumber"},{"name":"selenium"},{"name":"web"},{"name":"python"},{"name":"go"},{"name":"kafka"},{"name":"git"},{"name":"continuous-integration"}],"cities":[],"allowsRemote":true}},{"node":{"__typename":"Job","id":"98255765504-1001089317451","title":"Qa инженер","text":"#вакансия #QA Automation #remote/офис #Limassol \nПозиция: QA Automation Engineer\nГород: Лимассол\nОфис / full-time remote\nПолный день, полная занятость\nЗаработная плата: от 3000 eur\nhttps://exness.bamboohr.com/jobs/view.php?id=221\n\nНаша компания строит финтех-продукты (как B2B, так и B2C) для 70 тысяч активных клиентов, постоянно стремясь к совершенствованию. \nМы приглашаем опытного инженера по автоматизации QA в команду партнерства. \nРаботаем в гибкой среде по методологии scrum, где каждый сотрудник влияет на функциональность продукта/услуги.\n\nОсновные задачи: \n- Автоматизированное тестирование REST API / RPC / Web;\n- Выполнение и анализ результатов автоматизированных тестов;\n- Подготовка и разработка стратегий тестирования и планов тестирования;\n- Наставничество в области методологии, практики и методов контроля качества;\n- Исследование, разработка и применение новых инструментов и функций для автоматизации тестирования.\n\nТребования:\n- 5+ лет в тестировании автоматизации Web/API\n- Хорошие знания в области Selenium/Selenide, TestNG/JUnit, Allure, Selenoid\n- Знание Java\n- Базовые знания системы контроля версий Git\n- Опыт работы с SQL, Docker, CI (GitLab, Jenkins)\n\nМы предлагаем:\n- Стабильную работу с интересными продуктами\n- Заработная плата от 3000 eur netto\n- Возможность работы из любой страны\nЕсли решите переехать, предоставим: \n- Пакет переезда (виза, билеты, корпоративная квартира на 1 месяц)\n- Медицинское страхование сотрудников и членов их семей\n- Корпоративный Mini Cooper Countryman S\n- Фитнес-центр для сотрудников и их супругов\n- Курсы английского/греческого языка\n- Программа компенсации детского сада / школы\n- Отличный офис с лучшим видом на море\n\nРезюме и вопросы задавайте здесь @lyubovblv","markup":[{"type":"hashtag","offset":0,"length":9,"data":"вакансия"},{"type":"hashtag","offset":10,"length":3,"data":"QA"},{"type":"hashtag","offset":25,"length":7,"data":"remote"},{"type":"hashtag","offset":38,"length":9,"data":"Limassol"},{"type":"link","offset":181,"length":48,"data":"https://exness.bamboohr.com/jobs/view.php?id=221"},{"type":"handle","offset":1718,"length":10,"data":"lyubovblv"}],"date":"2020-04-08T20:32:01+00:00","link":"tg://resolve?domain=qa_jobs&post=93704","tags":[{"name":"qa"},{"name":"php"},{"name":"rest"},{"name":"web"},{"name":"selenium"},{"name":"junit"},{"name":"java"},{"name":"git"},{"name":"sql"},{"name":"docker"},{"name":"gitlab"},{"name":"jenkins"}],"cities":[],"allowsRemote":true}},{"node":{"__typename":"Job","id":"98235842560-1001089317451","title":"Qa engineer","text":"#вакансия #QA #fulltime #офис #Кипр\nВсем привет!  В нашу команду высоконагруженного проекта разыскивается Automation QA Engineer Web с переездом на Кипр! \nГород: Лимассол\nФормат работы: офис\nКомпания: Marikit Holdings LTD \nЗанятость: полная\nЗарплатная вилка: от 2500 EUR на руки (обсуждается индивидуально).\n\n💡Основные обязанности: \n-Написание и поддержка автотестов;\n-Анализ отчетов прогонов;\n-Организация и поддержка тестового окружения. \n📌Наши пожелания:\n- Аналогичный опыт работы от 3-х лет;\n- Высшее образование в IT сфере;\n-Понимание принципов разработки и тестирования;\n-Знание методов и технологий тестирования;\n-Опыт разработки\\написания автотестов на Java\\Kotlin;\n-Опыт автоматизации на базе Selenium WebDriver+JUnit+Cucumber (+Gradle/Maven);\n-Опыт работы с баг-трекинговыми системами (Jira, Redmine, YouTrack или др.);\n-Навыки работы с системами контроля версия (Git).\n🏆Плюсы работы у нас:\n- Интересные проекты и отсутствие бюрократии;\n- Возможность гибкого начала рабочего дня;\n- Бесплатные корпоративные обеды;\n- Спортзал в офисе;\n- Помощь при переезде.\n\nБуду рада Вашим вопросам и резюме @hrkaterina","markup":[{"type":"hashtag","offset":0,"length":9,"data":"вакансия"},{"type":"hashtag","offset":10,"length":3,"data":"QA"},{"type":"hashtag","offset":14,"length":9,"data":"fulltime"},{"type":"hashtag","offset":24,"length":5,"data":"офис"},{"type":"hashtag","offset":30,"length":5,"data":"Кипр"},{"type":"underline","offset":309,"length":2,"data":""},{"type":"bold","offset":311,"length":23,"data":""},{"type":"underline","offset":442,"length":2,"data":""},{"type":"bold","offset":444,"length":16,"data":""},{"type":"underline","offset":882,"length":2,"data":""},{"type":"bold","offset":884,"length":20,"data":""},{"type":"handle","offset":1105,"length":11,"data":"hrkaterina"}],"date":"2020-04-08T13:35:26+00:00","link":"tg://resolve?domain=qa_jobs&post=93685","tags":[{"name":"qa"},{"name":"web"},{"name":"java"},{"name":"kotlin"},{"name":"selenium"},{"name":"junit"},{"name":"cucumber"},{"name":"gradle"},{"name":"maven"},{"name":"git"}],"cities":[],"allowsRemote":false}},{"node":{"__typename":"Job","id":"98229551104-1001089317451","title":"Qa engineer","text":"#вакансия \nВакансия: #sdet #QA #automation #fulltime\nКомпания: #нспк #псмир\nЛокация: #томск\nЗ/п: 100к-180к net (после вычета налогов)\n\n«Национальная система платежных карт» ищет QA Automation Engineer.\n\nНСПК - развивающаяся компания, создающая финтех-сервисы, которыми пользуются миллионы людей. \n\nЗа 5 лет нашей истории мы разработали бизнес-продукты, аналоги которых в мире можно пересчитать по пальцам:\n✔️Платежная система \"Мир\";\n✔️Система быстрых платежей;\n✔️Программа лояльности \"Мир\";\n✔️Сервис мобильной оплаты MirPay;\n✔️Система аутентификации пользователей MirAccept.  \n\n⛏ Наш стек: Java, Spring, MySql, Linux, Git, Jenkins, Nexus, Ansible, Groovy, Gradle, Nginx, HAProxy, Kafka, Hazelcast, Prometheus, ELK, Atlassian stack. \n\n🧠 Что нужно будет делать?\n- Разрабатывать автоматизированные тесты;\n- Проводить интеграционное тестирование;\n- Разрабатывать тест-кейсы и регистрировать баги;\n- Разрабатывать собственные платформы для автоматизации тестирования.\n\nВ общем, контролировать качество разрабатываемого решения. \n\n🎁 Мы предлагаем:\n- Работу в команде профессионалов;\n- Обучение за счет компании;\n- Развитую корпоративную культуру;\n- ДМС со стоматологией, официальное трудоустройство; \n- Комфортный офис в центре;\n- Чай, кофе, печеньки. ✌️\n\nХотите поучаствовать в масштабном и сложном проекте?\n\nМои контакты:\n📲 +7-916-051-20-63\n      @Ekaterina1915 \n\n📩 makarovaen@nspk.ru","markup":[{"type":"hashtag","offset":0,"length":9,"data":"вакансия"},{"type":"hashtag","offset":21,"length":5,"data":"sdet"},{"type":"hashtag","offset":27,"length":3,"data":"QA"},{"type":"hashtag","offset":31,"length":11,"data":"automation"},{"type":"hashtag","offset":43,"length":9,"data":"fulltime"},{"type":"hashtag","offset":63,"length":5,"data":"нспк"},{"type":"hashtag","offset":69,"length":6,"data":"псмир"},{"type":"hashtag","offset":85,"length":6,"data":"томск"},{"type":"link","offset":1323,"length":16,"data":"tel:+7-916-051-20-63"},{"type":"handle","offset":1346,"length":14,"data":"Ekaterina1915"},{"type":"link","offset":1366,"length":18,"data":"mailto:makarovaen@nspk.ru"}],"date":"2020-04-08T11:49:39+00:00","link":"tg://resolve?domain=qa_jobs&post=93679","tags":[{"name":"qa"},{"name":"dotnet"},{"name":"java"},{"name":"spring"},{"name":"mysql"},{"name":"linux"},{"name":"git"},{"name":"jenkins"},{"name":"ansible"},{"name":"groovy"},{"name":"gradle"},{"name":"nginx"},{"name":"kafka"}],"cities":[{"code":"tomsk"}],"allowsRemote":false}},{"node":{"__typename":"Job","id":"1429209088-1001091028994","title":"Java разработчик","text":"#java #javascript #spring #middle #senior #кибербезопасность\nКомпания: #bizone #бизон \nЛокация: #москва #мск \nЗ/п: 100 - 220к\nКонтакты: @sokolovaap, d.sokolova@bi.zone\n\n- BI.ZONE (Безопасная информационная зона) -визионер российского рынка кибербезопасности.\nМы создаем инновационные продукты для анализа угроз и активной защиты от мошенничества, автоматизируем и масштабируем экспертизу наших сервисных подразделений и разрабатываем инструменты для внутреннего использования; Являемся международной компанией;\n\nЗадача:\n- Разработка уникальной платформы выявления мошенничества (Fraud Monitoring);\n\nНаш стек:\n- spring, знание maven,postgresql,apache cassandra,docker,apache kafka;\n\nЧто предлагаем?\n- Сложные задачи, прокачивающие уникальные скиллы;\n- Организовываем удаленную работу сейчас, не проблема.\n- Офис м.Комсомольская/Бауманская/Красносельская;\n- Свободный график, капсулы сна, работу на свежем воздухе, игровые приставки;\n- ДМС и фитнес и тд;\n- Профессиональный коллектив, сплошь состоящий из асов разработки сложных систем в области практической ИБ;\n- И дружную семью 24/7.","markup":[{"type":"hashtag","offset":0,"length":5,"data":"java"},{"type":"hashtag","offset":6,"length":11,"data":"javascript"},{"type":"hashtag","offset":18,"length":7,"data":"spring"},{"type":"hashtag","offset":26,"length":7,"data":"middle"},{"type":"hashtag","offset":34,"length":7,"data":"senior"},{"type":"hashtag","offset":42,"length":18,"data":"кибербезопасность"},{"type":"hashtag","offset":71,"length":7,"data":"bizone"},{"type":"hashtag","offset":79,"length":6,"data":"бизон"},{"type":"hashtag","offset":96,"length":7,"data":"москва"},{"type":"hashtag","offset":104,"length":4,"data":"мск"},{"type":"handle","offset":136,"length":11,"data":"sokolovaap"},{"type":"link","offset":149,"length":18,"data":"mailto:d.sokolova@bi.zone"},{"type":"link","offset":171,"length":7,"data":"http://BI.ZONE"}],"date":"2020-04-08T10:59:36+00:00","link":"tg://resolve?domain=jvmjobs&post=1363","tags":[{"name":"java"},{"name":"jvm"},{"name":"javascript"},{"name":"spring"},{"name":"maven"},{"name":"postgresql"},{"name":"apache"},{"name":"cassandra"},{"name":"docker"},{"name":"kafka"}],"cities":[{"code":"moscow"}],"allowsRemote":false}},{"node":{"__typename":"Job","id":"1428160512-1001091028994","title":"Java разработчик","text":"Вакансия: Team Lead Java\n\nПроект: Сервисная шина предприятия (ESB) — связующее программное обеспечение, обеспечивающее централизованный и унифицированный событийно-ориентированный обмен сообщениями между различными информационными системами на принципах микросервисной архитектуры.\n\nТехнологический стек на проекте: core Java 12, Spring Framework, Kafka.\n\nФункционал на проекте:\n\n- Управление процессом разработки внутренней интеграционной платформы и компонентов, постановка задач, контроль исполнения;\n- Проектирование и реализация компонентов: адаптеры получения данных, компоненты сервера приложений, веб сервисы;\n- Реализация интеграционных сценариев и бизнес процессов (BPMS);\n- Проектирование и разработка интерфейсов взаимодействия с системами и сервисами;\n- Написание автоматических модульных тестов (Unit tests);\n- Ведение неформальной технической документации в confluence.\n\nДля этого важно:\n\nОпыт работы Team Lead от 2 лет;\nУверенное знание Core Java: collections, многопоточность;\nОпыт разработки веб-сервисов (REST, HTTP);\nОпыт работы с системами обмена сообщениями (JMS);\nЗнание паттернов проектирования ПО;\nОпыт работы с ESB.\n\nМы предлагаем:\n- Локация офиса: г. Москва, м. Арбатская/Библиотека им. Ленина/Боровицкая/Александровский сад;\n- Занятость: пока полная занятость, официальное оформление в штат Компании (пока работает удаленно из дома, выйдем в офис многое поменяется);\n- ДМС: с первого рабочего дня;\n- Формат работы: современный  офис возле кремля в шаговой доступности от метро (сейчас работаем из дома, возможно, после выхода в офисе многое поменяется);\n- Компания: ПАО Московская биржа (Компания входящая в 500 - лучших работодателей мира по версии Forbes за 2019 год);\n- Уровень з/п:  250- 350 тыс.руб. + годовой бонус;\n- Формат интервью: 1-2 этапа интервью по Skype (60 минут). \n\n\nПишите в личку, отвечу на любые вопросы!\nКонтакты: @Sasha_P92","markup":[{"type":"bold","offset":0,"length":24,"data":""},{"type":"bold","offset":26,"length":8,"data":""},{"type":"bold","offset":283,"length":32,"data":""},{"type":"bold","offset":356,"length":22,"data":""},{"type":"bold","offset":886,"length":17,"data":""},{"type":"bold","offset":1143,"length":15,"data":""},{"type":"bold","offset":1853,"length":9,"data":""},{"type":"handle","offset":1863,"length":10,"data":"Sasha_P92"}],"date":"2020-04-08T10:40:54+00:00","link":"tg://resolve?domain=jvmjobs&post=1362","tags":[{"name":"java"},{"name":"jvm"},{"name":"spring"},{"name":"kafka"},{"name":"rest"}],"cities":[{"code":"moscow"}],"allowsRemote":true}}]}}},"context":{}}