{"hash":"f34fd2c444a074f4e0e67d525015a008ef8e766f","data":{"records":{"id":"ansible","name":"ansible","belongsTo":{"totalCount":59,"pageInfo":{"totalPages":6,"currentPage":2},"edges":[{"node":{"__typename":"Job","id":"1976565760-1001134745498","title":"Devops инженер","text":"#вакансия #vacancy #Москва #Moscow #fulltime #DevOps \nПозиция: DevOps / Инженер внедрения\nЛокация: Москва, м. Калужская\nВилка: 110.000-150.000 RUB net \nЗанятость: Полная\nФормат работы: офис\nКонтакты: @cated_z\nekdzolotareva@gmail.com\n \nОбязанности:\n▫️Проводить деплой;\n▫️Дорабатывать схему деплоя текущих и будущих проектов;\n▫️Перенести текущую инфраструктуру компании в код (две стойки различного оборудования с бородой из патчкордов);\n▫️Поиск проблем: взаимодействие с командой разработчиков по вопросам внедрения системы и исправления найденных в процессе внедрения недостатков;\n▫️Ведение базы знаний (у нас Confluence);\n▫️Ведение отчетной документации;\n▫️Подготовка элементов документации (описания, схемы).\n \nНеобходимые навыки: \n▫️Опыт работы с Docker, Docker-реестром, Docker-swarm (чтение структуры, запуск, конфигурирование, обслуживание, оптимизация);\n▫️Опыт работы с Windows-сервер (установка, удаление сервисов, написание конфигурации для Cocholatey реестра, PowerShell);\n▫️Опыт отладки и оптимизации сетей (просмотр трафика, обнаружение сервисов, потребляющих канал и т.д.);\n▫️Знание основных инструментов CI/CD, IasC, CasC (у нас Jenkins, BitBucket, Ansible, Terraform, Vmware, в процессе переноса инфраструктуры в облако);\n▫️Умение писать  на одном из языков: Bash, Python, Groovy;\n▫️Опыт отладки REST API;\n▫️Опыт работы с PostgreSQL (написание запросов, поиск данных);\n▫️Опыт работы с MongoDB (просмотр, поиск, редактирование данных);\n▫️Способность разбираться в сложных программных алгоритмах, логике и структуре системы.\n \nУсловия: \n▫️Официальное оформление по ТК РФ;\n▫️График работы 5/2, гибкое начало рабочего дня;\n▫️Комфортное рабочее место;\n▫️Пятидневная рабочая неделя с гибким началом рабочего дня;\n▫️Расширенный ДМС;\n▫️Скидки у компаний-партнеров;\n▫️Помощь в релокации: оплата залога + первого месяца проживания;\n▫️Офис в 7 минутах от м. Калужская, БЦ \"Neo Geo\".\n\n—\n\n👉 Обсуждение вакансии в чате @devops_jobs","markup":[{"type":"hashtag","offset":0,"length":9,"data":"вакансия"},{"type":"hashtag","offset":10,"length":8,"data":"vacancy"},{"type":"hashtag","offset":19,"length":7,"data":"Москва"},{"type":"hashtag","offset":27,"length":7,"data":"Moscow"},{"type":"hashtag","offset":35,"length":9,"data":"fulltime"},{"type":"hashtag","offset":45,"length":7,"data":"DevOps"},{"type":"handle","offset":200,"length":8,"data":"cated_z"},{"type":"link","offset":209,"length":23,"data":"mailto:ekdzolotareva@gmail.com"},{"type":"handle","offset":1921,"length":12,"data":"devops_jobs"}],"date":"2020-04-07T11:52:55+00:00","link":"tg://resolve?domain=devops_jobs_feed&post=1885","tags":[{"name":"dotnet"},{"name":"docker"},{"name":"windows"},{"name":"powershell"},{"name":"jenkins"},{"name":"ansible"},{"name":"bash"},{"name":"python"},{"name":"groovy"},{"name":"rest"},{"name":"postgresql"},{"name":"mongodb"}],"cities":[{"code":"moscow"}],"allowsRemote":false}},{"node":{"__typename":"Job","id":"1974468608-1001134745498","title":"Devops engineer","text":"#вакансия #fulltime #Москва #devops\nSenior devops engineer\nМосква, м. Павелецкая. Работа в офисе. Полная занятость.\nЗарплатная вилка: от 200 до 300 тр net, все официально, по ТК РФ.\nОтличный соц пакет. \n \nИщем опытного специалиста devops. Нужен опыт с ansible, kubernetes, debian, mysql, docker, nginх, python. Желательно: kafka, clickhouse и опыт в финтех 🙂\nЭто будет работа в команде.\n \nКомпания: Криптовалютная биржа Exmo (https://exmo.me) зарегистрирована в Великобритании, офисы компании находятся в Лондоне, Москве, Курске, Киеве и Стамбуле. \nКонтакты: @Sofiyka\n\n—\n\n👉 Обсуждение вакансии в чате @devops_jobs","markup":[{"type":"hashtag","offset":0,"length":9,"data":"вакансия"},{"type":"hashtag","offset":10,"length":9,"data":"fulltime"},{"type":"hashtag","offset":20,"length":7,"data":"Москва"},{"type":"hashtag","offset":28,"length":7,"data":"devops"},{"type":"link","offset":427,"length":15,"data":"https://exmo.me"},{"type":"handle","offset":560,"length":8,"data":"Sofiyka"},{"type":"handle","offset":603,"length":12,"data":"devops_jobs"}],"date":"2020-04-07T05:05:17+00:00","link":"tg://resolve?domain=devops_jobs_feed&post=1883","tags":[{"name":"dotnet"},{"name":"ansible"},{"name":"kubernetes"},{"name":"debian"},{"name":"mysql"},{"name":"docker"},{"name":"python"},{"name":"kafka"}],"cities":[{"code":"moscow"}],"allowsRemote":false}},{"node":{"__typename":"Job","id":"1973420032-1001134745498","title":"Devops инженер","text":"#вакансия #devops #НижнийНовгород \nВакансия: DevOps \nГород: Нижний Новгород \nФормат работы: офис, но можно и на удаленке \nЗанятость: полная, можно частично. Готовы обсуждать \nЗарплатная вилка: от 110 до 170 (можно обсуждать)  \n\nЗадачи:\nСоздание и поддержка CI/CD инфраструктуры доставки кода проектов на тестовые и прод окружения;\nУчастие в поиске и внедрении новых технологий, необходимых для стабильной работы и развития инфраструктуры проектов;\nРазвертывание, масштабирование и поддержка инфраструктуры окружений;\nНаписание ролей, playbook, модулей ansible для обеспечения повторяемости инфраструктуры на разных окружениях.\n\nОжидаем:\nОпыт работы с конфигурацией (ansible);\nОпыт работы с docker;\nАдминистрирование Linux на уровне решения сложных задач (Bonding, VLAN, system tuning, etc.);\nОпыт работы с базами данных (PostgreSQL, noSQL);\nПонимание работы систем виртуализации (qemu+KVM);\nПонимание работы сетей передачи данных и модели OSI;\nОпыт администрирования open source приложений (Nginx, PostgreSQL, Redis, etc.);\nБудет плюсом:\nОпыт работы со стеком Hadoop (Spark, HBase, Kafka, Zookeeper)\nОпыт работы с mesos\n\nЕсть: \nУникальные проекты\nДМС, новый офис, обучение за счет компании, по ТК, белая ЗП. \n\nКоманда: Первый ОФД \n\nКонтакты: @IT_HR_OFD, askorobogatov@energocomm.ru\n\n—\n\n👉 Обсуждение вакансии в чате @devops_jobs","markup":[{"type":"hashtag","offset":0,"length":9,"data":"вакансия"},{"type":"hashtag","offset":10,"length":7,"data":"devops"},{"type":"hashtag","offset":18,"length":15,"data":"НижнийНовгород"},{"type":"handle","offset":1242,"length":10,"data":"IT_HR_OFD"},{"type":"link","offset":1254,"length":27,"data":"mailto:askorobogatov@energocomm.ru"},{"type":"handle","offset":1316,"length":12,"data":"devops_jobs"}],"date":"2020-04-06T14:06:59+00:00","link":"tg://resolve?domain=devops_jobs_feed&post=1882","tags":[{"name":"ansible"},{"name":"docker"},{"name":"linux"},{"name":"postgresql"},{"name":"nosql"},{"name":"nginx"},{"name":"redis"},{"name":"hadoop"},{"name":"hbase"},{"name":"kafka"}],"cities":[{"code":"nizhny-novgorod"}],"allowsRemote":false}},{"node":{"__typename":"Job","id":"1972371456-1001134745498","title":"Devops инженер","text":"#вакансия #сбербанк #DevOps Заработная плата 180-220 net. \nЗаинтересованным прошу писать в личку @nas_vas\n\nКто мы?\n\nМы новая группа Agile команд, которая развивает риск-продукты экосистемы Сбербанка. Через API и фронт системы мы предоставляем партнерам и клиентам Банка рейтинги физических и юридических лиц, отчеты и уведомления по кредитной истории.\nМы приглашаем амбициозного инженера, который готов оперативно выстроить DevOps pipeline по нашим новым продуктам в соответствии с лучшими практиками и стандартами.\n\n\nDevOps инженер\n\n Чем предстоит заниматься:\n• Организация DevOps pipeline (CI\\CD) для новых продуктов\n• Настройка, диагностика и использование инструментов автоматизации:\nсборка дистрибутива, Unit-тесты, публикация дистрибутива, доставка и развертывание дистрибутива на среды, работа с результатами анализа кода на качество и безопасность\n• Чтение и понимание реализованных job’ов и pipeline\n• Сопровождение непромышленных стендов приложений (Dev, Test): анализ доступности, мониторинг, применение инструментов обезличивания, разбор дефектов и их локализация/устранение совместно с командами разработки\n• Консультация разработчиков и администраторов по лучшим практикам DevOps\nЧто ожидаем от тебя:\n• Высшее техническое образование\n• Хорошие коммуникационные навыки. Умение работать в команде\n• Опыт работы от 1 года\n• Опыт построения CI\\CD pipeline\n• Опыт работы с инструментами DevOps (Jenkins, Nexus, BitBucket, Ansible);\n• Знание Groovy;\n• Владение SQL, понимание принципов работы RDBMS (PostgreSQL);\n• Опыт поддержки серверных ОС семейства Linux (RHEL);\n\nДополнительным плюсом будет:\n• Опыт работы c Docker контейнерами\n• Опыт работы с SonarQube, Kafka, GridGain, Oracle, Nginx, JBoss/WildFly, Jira, Confluence\n• Знание Java.\n\n—\n\n👉 Обсуждение вакансии в чате @devops_jobs","markup":[{"type":"hashtag","offset":0,"length":9,"data":"вакансия"},{"type":"hashtag","offset":10,"length":9,"data":"сбербанк"},{"type":"hashtag","offset":20,"length":7,"data":"DevOps"},{"type":"handle","offset":97,"length":8,"data":"nas_vas"},{"type":"handle","offset":1781,"length":12,"data":"devops_jobs"}],"date":"2020-04-06T13:26:30+00:00","link":"tg://resolve?domain=devops_jobs_feed&post=1881","tags":[{"name":"dotnet"},{"name":"jenkins"},{"name":"ansible"},{"name":"groovy"},{"name":"sql"},{"name":"postgresql"},{"name":"linux"},{"name":"docker"},{"name":"sonarqube"},{"name":"kafka"},{"name":"oracle"},{"name":"nginx"},{"name":"jboss"},{"name":"java"}],"cities":[],"allowsRemote":false}},{"node":{"__typename":"Job","id":"1971322880-1001134745498","title":"Devops engineer","text":"DevOps engineer\n#вакансия #DevOps #noremote #fulltime \n\nВакансия: DevOps engineer\nКомпания: ДОМ.РФ / ООО «Цифровые технологии»\nГород: Москва. ст.м. Арбатская\nФормат работы: #офис\nЗанятость: #полная\nЗарплата : от 160 до 200 на руки.\n\nТебе предстоит:\n•  Поддержка ETL процессов;\n•  Участие в процессах внедрения ПО;\n•  Администрирование операционных систем *nix и общесистемного ПО;\n•  Развертывание и конфигурирование стендов под различные нужды;\n•  Решение возникающих проблем, устранение нештатных ситуаций;\n•  Участие в разработке конструкторской и эксплуатационной документации;\n•  Формирование требований к системе резервного копирования. \n\nЗдорово если у тебя есть:\n•  Знание серверной операционной системы Linux;\n•  Уверенное понимание принципов работы сетей TCP/IP: адресация, маршрутизация, стек протоколов, сетевые топологии, принципы работы VLAN, VPN, DNS, DHCP;\n•  Практический опыт автоматизации управления средами с применением docker, Kubernetes, ansible;\n•  Практический опыт разработки технологической или эксплуатационной документации;\n•  Практический опыт конфигурирования систем хранения данных (желательно);\n•  Практический опыт конфигурирования и администрирования общесистемного ПО: системы виртуализации, СУБД (PostgreSQL), серверы приложений, системы обработки сообщений, средства мониторинга и управления, elastic search;\n\nМы предлагаем:\n•  Комфортный офис в центре Москвы;\n•  Работа в высокопрофессиональной и эффективной команде, постоянное развитие;\n•  Конкурентный компенсационный пакет (ежеквартальная премия, ДМС, компенсация расходов на фитнес-абонемент до 20 т.р. в год);\n\n\nCV в ЛС плз)\nНа входе опишу, что конкретно нужно будет делать, что и как есть сейчас.\n\nКонтакт:\n@alekseytherecruiter\n\n—\n\n👉 Обсуждение вакансии в чате @devops_jobs","markup":[{"type":"hashtag","offset":16,"length":9,"data":"вакансия"},{"type":"hashtag","offset":26,"length":7,"data":"DevOps"},{"type":"hashtag","offset":34,"length":9,"data":"noremote"},{"type":"hashtag","offset":44,"length":9,"data":"fulltime"},{"type":"link","offset":92,"length":6,"data":"http://ДОМ.РФ"},{"type":"hashtag","offset":173,"length":5,"data":"офис"},{"type":"hashtag","offset":190,"length":7,"data":"полная"},{"type":"handle","offset":1703,"length":20,"data":"alekseytherecruiter"},{"type":"handle","offset":1758,"length":12,"data":"devops_jobs"}],"date":"2020-04-06T13:25:42+00:00","link":"tg://resolve?domain=devops_jobs_feed&post=1880","tags":[{"name":"linux"},{"name":"dns"},{"name":"docker"},{"name":"kubernetes"},{"name":"ansible"},{"name":"postgresql"},{"name":"elasticsearch"}],"cities":[{"code":"moscow"}],"allowsRemote":true}},{"node":{"__typename":"Job","id":"1970274304-1001134745498","title":"Devops engineer","text":"#вакансия #devops\nДобрый день!\nВ компании JTC открыта вакансия на должность DevOps engineer\nОфис: Москва (м. Ленинский проспект), Санкт-Петербург (м. Петроградская), Рязань, Ижевск\nЗанятость: полная\nЗарплатная вилка: от 150 000 до 250 000 рублей на руки\nОбязанности\n- настраивать и поддерживать инфраструктуру текущих и новых проектов \n- поддерживать CI/CD на основе Gerrit/Jenkins/Nexus\n- администрировать парк серверов \nRND - находить и внедрять новые решения\nТребования\n- уверенное администрирование Linux (CentOS)\n- опыт работы с Docker, Elasticsearch, Logstash и Kibana\n- уверенное владение инструментами CI/CD (Jenkis, TeamCity)\n- автоматизация с помощью Ansible\nвладение языками (bash и/или python)\n- опыт работы с системами сбора метрик и мониторинга \nжелательно: Kubernetes\nнавыки администрирования БД (Oracle, PostgreSQL)\nМы предлагаем\n- конкурентная заработная плата по результатам общения\n- соблюдение TK РФ\n- гибкий рабочий график с началом работы с 8:00 до 11:00\n- ДМС с расширенным набором услуг\n- интересные и нетривиальные задачи \n- возможность посещать семинары, тренинги, конференции\n\nКомпания: https://jtc.ooo/\nНа рынке ИТ с 2007.\nСпециализация: разработка систем ДБО и построение информационных экосистем. \n\nКонтакты: @rita_kudryashova\n\n—\n\n👉 Обсуждение вакансии в чате @devops_jobs","markup":[{"type":"hashtag","offset":0,"length":9,"data":"вакансия"},{"type":"hashtag","offset":10,"length":7,"data":"devops"},{"type":"link","offset":1114,"length":16,"data":"https://jtc.ooo/"},{"type":"handle","offset":1239,"length":17,"data":"rita_kudryashova"},{"type":"handle","offset":1291,"length":12,"data":"devops_jobs"}],"date":"2020-04-06T11:21:09+00:00","link":"tg://resolve?domain=devops_jobs_feed&post=1879","tags":[{"name":"jenkins"},{"name":"linux"},{"name":"centos"},{"name":"docker"},{"name":"elasticsearch"},{"name":"logstash"},{"name":"ansible"},{"name":"bash"},{"name":"python"},{"name":"kubernetes"},{"name":"oracle"},{"name":"postgresql"}],"cities":[{"code":"moscow"},{"code":"ryazan"},{"code":"izhevsk"}],"allowsRemote":false}},{"node":{"__typename":"Job","id":"1968177152-1001134745498","title":"Devops engineer","text":"#вакансия #DevOps #fulltime #киев\n\nВакансия: DevOps engineer\nКомпания: Luxena\nГород: Киев, метро Черниговская\nФормат работы: офис, remote - возможен для отдельных дней.\nЗанятость: полная\nЗарплата : от $2500 до $5000 по уровню квалификации.\nПомощь в релокации.\n\nО компании:\n\nLuxena - продуктовая IT-компания полного цикла, предлагаем самореализацию на международных проектах Industry 4.0 в отличной профи-атмосфере с элементами гибкого графика. \n\nЭксперту в построении и управлении платформами разработки и внедрения ПО предлагаем должность DevOps Engineer. \n \nTechnology Stack: \n \nCloud Services \n  - Azure (in use) \n  - AWS \n  - Google \n  \nCI/CD \n  - Azure DevOps (in use) \n  - Jenkins \n  - GitLab \n  \nCluster Orchestration \n  - Docker Swarm (in use) \n  - Kubernetes \n  \nRDBMS \n  - PostgreSQL (in use) \n  - MS SQL \n  - Oracle \n  \nAnalytical Solutions \n  - Clickhouse (in use) \n  - Apache Spark (in use) \n  - Apache Flink \n  - Druid \n  - Pinot \n  - Presto \n  \nStreaming & Message Queues \n  - Apache Pulsar (in use) \n  - Apache Kafka \n  \nDeployment Automation \n  - Ansible \n  - Puppet \n  - Terraform \n  \nProxy & Load balancing \n  - HA proxy (in use) \n  - Nginx \n \nВ каждом виде необходимо иметь практический опыт в production не менее 2-х лет. Часть навыков может быть развита в ходе первого года работы.\n\nКонтакт: @special_forces_recruiter\n\n—\n\n👉 Обсуждение вакансии в чате @devops_jobs","markup":[{"type":"hashtag","offset":0,"length":9,"data":"вакансия"},{"type":"hashtag","offset":10,"length":7,"data":"DevOps"},{"type":"hashtag","offset":18,"length":9,"data":"fulltime"},{"type":"hashtag","offset":28,"length":5,"data":"киев"},{"type":"handle","offset":1314,"length":25,"data":"special_forces_recruiter"},{"type":"handle","offset":1374,"length":12,"data":"devops_jobs"}],"date":"2020-04-05T00:33:02+00:00","link":"tg://resolve?domain=devops_jobs_feed&post=1877","tags":[{"name":"cloud"},{"name":"azure"},{"name":"amazon-web-services"},{"name":"jenkins"},{"name":"gitlab"},{"name":"docker"},{"name":"kubernetes"},{"name":"postgresql"},{"name":"sql"},{"name":"oracle"},{"name":"apache"},{"name":"kafka"},{"name":"deployment"},{"name":"ansible"},{"name":"nginx"},{"name":"azure-devops"},{"name":"apache-spark"}],"cities":[{"code":"kiev"}],"allowsRemote":true}},{"node":{"__typename":"Job","id":"1966080000-1001134745498","title":"Devops инженер","text":"#devops #работа #вакансия #москва #kubernetes #redcode \nИнженер DevOps с сильным Kubernetes\n300 - 400 т.руб. на руки\nКомпания разрабатывает ПО и создаёт программно-аппаратные комплексы анализа данных.\nМосква\n\nОбязанности:\nРазработка плейбуков Ansible для конфигурирования серверов на CentOS 7 и 8.\nРазработка манифестов для развертывания приложений в кластерах Kubernetes.\nУправление и мониторинг кластеров Kubernetes.\nНастройка CI/CD конвейеров на базе Gitlab и Nexus\n\nТребования:\nОпыт администрирования CentOS 7 и/или RedHat Enterprise Linux 7\nОпыт работы с Ansible, в частности - разработка плейбуков и ролей Ansible\nОпыт работы с Docker на Linux\nЗнание принципов построения безопасных, высокодоступных и масштабируемых приложений\nОпыт управления кластером Kubernetes, написания манифестов, разворачивание приложений в кластере Kubernetes\nОпыт использования Helm и разработки Helm charts\nОпыт развертывания кластера Kubernetes при помощи Kubespray\nОпыт работы с:\nGitlab и Gitlab CI (Runner)\nNexus Repository Manager и Gitlab Repository\nсо стеком Elastic (ELK или EFK) для логирования\nPrometheus и Alert Manager для мониторинга\nPostgreSQL и Patroni\nNginx, HAProxy и Keepalived\nHashiCorp Vault\nIstio\n\n\"белое\" трудоустройство, ДМС\n\nКонтакты для связи:\ntelegram: @kristina_jobs \nКА RedCode\n\n—\n\n👉 Обсуждение вакансии в чате @devops_jobs","markup":[{"type":"hashtag","offset":0,"length":7,"data":"devops"},{"type":"hashtag","offset":8,"length":7,"data":"работа"},{"type":"hashtag","offset":16,"length":9,"data":"вакансия"},{"type":"hashtag","offset":26,"length":7,"data":"москва"},{"type":"hashtag","offset":34,"length":11,"data":"kubernetes"},{"type":"hashtag","offset":46,"length":8,"data":"redcode"},{"type":"handle","offset":1262,"length":14,"data":"kristina_jobs"},{"type":"handle","offset":1323,"length":12,"data":"devops_jobs"}],"date":"2020-04-03T17:17:36+00:00","link":"tg://resolve?domain=devops_jobs_feed&post=1875","tags":[{"name":"kubernetes"},{"name":"ansible"},{"name":"centos"},{"name":"gitlab"},{"name":"linux"},{"name":"docker"},{"name":"elasticsearch"},{"name":"postgresql"},{"name":"nginx"}],"cities":[{"code":"moscow"}],"allowsRemote":false}},{"node":{"__typename":"Job","id":"1957691392-1001134745498","title":"Devops инженер","text":"#вакансия #devops #remote\n\nГород: #Новосибирск\nформат работы: #удаленка #remote\nзанятость: #проектная #fulltime\nзарплатная вилка: 700-1000 рублей в час\n\nОписание вакансии:\n\nДобрый день!\n\nМеня зовут Матвей, менеджер проектов в компании The Invaders. Мы занимаемся заказной веб и мобильной разработкой для компаний по всему миру. Основная специализация компании это разработка Web и Mobile проектов, кроме того, в портфеле нашей компании работа с  блокчейн проектами на различных платформах (Waves, Ethereum, EOS, Corda, Hyperledger и тд.)  Наша команда разработки находится в Новосибирске, но у нас так же, на удаленной основе, работают разработчики с разных мест Земного шара.\n\nВ данный момент мы ищем колегу DevOps, который поможет нам периодически настраивать, разворачивать сервера, улучшит нашу ситуацию с CI/CD, покажет путь лучшей жизни с контейнеризацией\n\nЧем предстоит заниматься:\n\n1. Формирование Docker-образов, CI/CD сценариев\n2. Управления контейнеризованными рабочими нагрузками и сервисами (Kubernetes)\n3. Решение сетевых вопросов организации серверов\n4. Решение вопросов хранения данных\n5. Мониторинг систем, сбор, визуализация и анализ логов\n6. Взаимодействие с командой разработчиков и совместное решение задач\n\nТехнические скиллы:\n\n1.  Умение работать с Ansible\n2.  Опыт администрирования баз данных (PostgreSQL, Redis)\n3.  Опыт работы в качестве Инженера DevOps\n\nТехнологический стек:\n\n- Непосредственное взаимодействие и окружение\n\n  - Gitlab CI/CD\n  - Docker\n  - Ansible\n  - Ubuntu\n  - PostgreSQL\n  - Redis\n  - Rabbitmq\n  - Python\n  - Django\n  - Celery\n  - Nginx\n\nТак же будет очень хорошо:\n\n- Увлекаешься программированием\n- Сможешь рассказать о ревалентном опыте работы\n\nНазвание компании: The Invaders\n\nКонтакты: hr@theinvaders.pro @matteslip\n\n—\n\n👉 Обсуждение вакансии в чате @devops_jobs","markup":[{"type":"hashtag","offset":0,"length":9,"data":"вакансия"},{"type":"hashtag","offset":10,"length":7,"data":"devops"},{"type":"hashtag","offset":18,"length":7,"data":"remote"},{"type":"hashtag","offset":34,"length":12,"data":"Новосибирск"},{"type":"hashtag","offset":62,"length":9,"data":"удаленка"},{"type":"hashtag","offset":72,"length":7,"data":"remote"},{"type":"hashtag","offset":91,"length":10,"data":"проектная"},{"type":"hashtag","offset":102,"length":9,"data":"fulltime"},{"type":"link","offset":1737,"length":18,"data":"mailto:hr@theinvaders.pro"},{"type":"handle","offset":1756,"length":10,"data":"matteslip"},{"type":"handle","offset":1801,"length":12,"data":"devops_jobs"}],"date":"2020-04-02T06:34:20+00:00","link":"tg://resolve?domain=devops_jobs_feed&post=1867","tags":[{"name":"web"},{"name":"mobile"},{"name":"docker"},{"name":"kubernetes"},{"name":"ansible"},{"name":"postgresql"},{"name":"redis"},{"name":"gitlab"},{"name":"ubuntu"},{"name":"rabbitmq"},{"name":"python"},{"name":"django"},{"name":"nginx"}],"cities":[{"code":"novosibirsk"}],"allowsRemote":true}},{"node":{"__typename":"Job","id":"1954545664-1001134745498","title":"Devops engineer","text":"#вакансия #devops \nВакансия: DevOps Engineer\nГород: San Jose, Costa Rica\nФормат работы: удаленка\nЗанятость: полная\nЗарплата: 2000 EUR/месяц\n\nОбязанности\nПроектирование, построение, поддержка и развитие в эксплуатации:\n- высокодоступной инфраструктуры в рамках нескольких датацентров (на базе Kubernetes);\n- инструментов жизненного цикла проектов (Docker-образы, CI/CD сценарии, баг-трекеры, инструменты сборки);\n- систем распределенного мониторинга, логирования, трасcировки;\n- распределенных баз данных, файловых хранилищ, шин событий.\n\nТребования:\n- богатый опыт работы с контейнеризацией и Kubernetes (Docker, rkt, CRI), написания Helm-чартов;\n- богатый опыт администрирования Linux, написания shell-скриптов, работы с systemd;\n- умение работать с Ansible;\n- опыт администрирования баз данных (MySQL, PostgreSQL, Redis, Cassandra, ClickHouse, и т.д.);\n- опыт эксплуатации распределенных систем логирования, мониторинга, трассировки (Fluentd, Prometheus, ElasticSearch, Kibana, Grafana, Zipkin, и т.д.);\n- опыт работы с Grafana;\n- владение языками программирования (что-то из Python, Go, Rust, Java, PHP);\n- хорошее понимание фундаментальных основ PKI, DNS, TLS, SSH, OSI, Linux;\n- технический английский;\n- наличие широкого Интернет-канала и Skype.\n\nУсловия:\n- удаленная работа (не фриланс);\n- полная занятость;\n- зарплата 2000 EUR/мес.;\n- возможен переезд за границу.\n\nКанал нашей компании https://t.me/TRlogik\nРезюме присылайте сюда @trlogic\n\n—\n\n👉 Обсуждение вакансии в чате @devops_jobs","markup":[{"type":"hashtag","offset":0,"length":9,"data":"вакансия"},{"type":"hashtag","offset":10,"length":7,"data":"devops"},{"type":"link","offset":1394,"length":20,"data":"https://t.me/TRlogik"},{"type":"handle","offset":1438,"length":8,"data":"trlogic"},{"type":"handle","offset":1481,"length":12,"data":"devops_jobs"}],"date":"2020-04-01T20:19:12+00:00","link":"tg://resolve?domain=devops_jobs_feed&post=1864","tags":[{"name":"kubernetes"},{"name":"docker"},{"name":"linux"},{"name":"shell"},{"name":"ansible"},{"name":"mysql"},{"name":"postgresql"},{"name":"redis"},{"name":"cassandra"},{"name":"elasticsearch"},{"name":"python"},{"name":"rust"},{"name":"java"},{"name":"php"},{"name":"dns"},{"name":"ssh"}],"cities":[{"code":"san-jose"}],"allowsRemote":true}}]}}},"context":{}}