{"hash":"f5f6bf98bd95e769321482904cbbd488f77922fd","data":{"records":{"id":"russia/moscow","country":{"code":"russia","ruName":"Россия","enName":"Russia"},"city":{"code":"moscow","ruName":"Москва","enName":"Moscow"},"belongsTo":{"totalCount":476,"pageInfo":{"totalPages":48,"currentPage":33},"edges":[{"node":{"__typename":"Job","id":"103250132992-1001089317451","title":"Qa инженер","text":"#вакансия #Москва #работаQA #ручное тестирование #офис/удаленная #от года\nУ нас открыта вакансия в штат правообладателя, команда разработки – работает у подрядчика. \nЗанятость: полная в офисе \nЗаработная плата от 70 000 - 90 000 с налогами в зависимости от опыта кандидата\nКомпания https://agregatoreat.ru/  \nЗанятость: полная 50/50 офис и удаленно \nКонтакт: @OlesyaE \nОбязанности:\n•  Тестирование высоконагруженного web-сервиса (в том числе, во время его обновления в нерабочее время - 2 раза в месяц); только ручное тестирование front и back\n•  Ручное тестирование ПО (функциональное, нагрузочное, интеграционное и др.);\n•  Разработка тестовой документации;\n•  написание Unit тестов\n•  Оценка времени на проверку задач;\n•  Создание баг-репортов;\n•  Взаимодействие с разработчиками, аналитиками, службой технической поддержки;\nТребования:\n•  Опыт работы в области тестирования ПО от 1 года;\n•  Знание жизненного цикла ПО, тест-кейсов, багов и т.д.\n•  Знание различных методов тестирования;\n•  Опыт разработки тестовой документации;\n•  Базовые знания языка SQL;\n•  Приветствуется опыт работы с файлами *.xml, *.json;\n•  Опыт работы с баг-трекинговыми системами (Jira, TFS и т.д.);\n•  Внимательность, ответственность, умение работать в команде;\n•  Самостоятельность, стремление к профессиональному и карьерному росту.\nдля этой вакансии","markup":[{"type":"hashtag","offset":0,"length":9,"data":"вакансия"},{"type":"hashtag","offset":10,"length":7,"data":"Москва"},{"type":"hashtag","offset":18,"length":9,"data":"работаQA"},{"type":"hashtag","offset":28,"length":7,"data":"ручное"},{"type":"hashtag","offset":49,"length":5,"data":"офис"},{"type":"hashtag","offset":65,"length":3,"data":"от"},{"type":"link","offset":213,"length":15,"data":"tel:70 000 - 90 000"},{"type":"link","offset":282,"length":24,"data":"https://agregatoreat.ru/"},{"type":"handle","offset":359,"length":8,"data":"OlesyaE"}],"date":"2020-06-19T07:26:36+00:00","link":"tg://resolve?domain=qa_jobs&post=0","tags":[{"name":"qa"},{"name":"web"},{"name":"sql"},{"name":"xml"},{"name":"json"},{"name":"tfs"}],"cities":[{"code":"moscow"}],"allowsRemote":true}},{"node":{"__typename":"Job","id":"91367669760-1001067529236","title":"Python developer","text":"#вакансия #Москва #fulltime #офис #python #machinelearning\nКомпания: FunCorp\nВакансия: Senior Python Backend Developer (Machine Learning)\nОпыт работы: от 3-х лет\nЗарплата: от 250 000 р. на руки\nМесторасположение: Москва, м. Белорусская\nЗанятость: fulltime, офис.\nNB! Удаленный вариант работы после выхода из карантина, к сожалению, не рассматриваем\nКонтактные данные: @chrschredinger или kristina@fun.co\n\nFunCorp — международная компания, которая занимается разработкой развлекательных UGC-сервисов и игр. В работе наших приложений мы активно используем сервисы, построенные на машинном обучении. Значительная часть этих сервисов построена на базе ML-фреймворков и пакетов на Python. \n\nТребования:\n- знание Python 3, фреймворков Flask или Django, а также иметь опыт написания асинхронного кода с использованием AsyncIO;\n- опыт построения и поддержки высоконагруженных систем и сервисов;\n- интерес к Machine Learning как отрасли и быть готовым изучать фреймворки (PyTorch, TensorFlow).\n\nСтек используемых технологий: Docker, Redis, MongoDB, ClickHouse.\n\nОбязанности:\n- создание и поддержка Highload-сервисы на базе обученных моделей;\n- интегрирование ML-сервисов с бизнес-логикой PHP-монолита и Java/Kotlin-сервисов;\n- участие в обучении и доработке существующих моделей, получении и консолидации данных, построении тестовых выборок.\n\nУсловия:\n- ДМС, включая стоматологию;\n- бонусная система;\n- обеды и ужины в офисе;\n- бюджет на обучение и на фитнес;\n- оплата участия в российских и зарубежных конференциях;\n- отличный офис на м. Белорусская (БЦ «Белая площадь).","markup":[{"type":"hashtag","offset":0,"length":9,"data":"вакансия"},{"type":"hashtag","offset":10,"length":7,"data":"Москва"},{"type":"hashtag","offset":18,"length":9,"data":"fulltime"},{"type":"hashtag","offset":28,"length":5,"data":"офис"},{"type":"hashtag","offset":34,"length":7,"data":"python"},{"type":"hashtag","offset":42,"length":16,"data":"machinelearning"},{"type":"bold","offset":59,"length":10,"data":""},{"type":"bold","offset":77,"length":10,"data":""},{"type":"bold","offset":138,"length":13,"data":""},{"type":"bold","offset":162,"length":10,"data":""},{"type":"bold","offset":194,"length":19,"data":""},{"type":"bold","offset":236,"length":11,"data":""},{"type":"underline","offset":263,"length":86,"data":""},{"type":"bold","offset":349,"length":19,"data":""},{"type":"handle","offset":368,"length":15,"data":"chrschredinger"},{"type":"link","offset":388,"length":15,"data":"mailto:kristina@fun.co"},{"type":"bold","offset":686,"length":12,"data":""},{"type":"italic","offset":986,"length":67,"data":""},{"type":"bold","offset":1053,"length":13,"data":""},{"type":"bold","offset":1334,"length":9,"data":""}],"date":"2020-06-19T07:10:14+00:00","link":"tg://resolve?domain=python_jobs&post=0","tags":[{"name":"python"},{"name":"flask"},{"name":"django"},{"name":"tensorflow"},{"name":"docker"},{"name":"redis"},{"name":"mongodb"},{"name":"php"},{"name":"java"},{"name":"kotlin"},{"name":"machine-learning"}],"cities":[{"code":"moscow"}],"allowsRemote":false}},{"node":{"__typename":"Job","id":"17061380096-1001110946746","title":"Js разработчик","text":"Greenatom.ru\n#вакансия #Москва #javascript #React #Typescript #Node.js #Middle #Senior #удаленка #удаленная работа \n\n👨🏼‍💻 Middle/Senior Frontend Developer, Middle/Senior Backend Developer\nГород и адрес офиса: #Москва, БЦ Сириус Парк, метро Нагатинская\n\n✅Формат работы: \nУДАЛЕННАЯ РАБОТА\n\n💻Занятость: полная, гибкое начало трудового дня.\n\nЗарплатная вилка: от 170 000 до 230 000 руб. на руки.\n\n🏢Компания: АО Гринатом\n\nПривет! Мы растём и активно развиваем ряд внутренних проектов: например, корпоративный портал, горячая линия, собственная кадровая система для 400 предприятий! \nМы формируем НЕСКОЛЬКО КОМАНД, общей численностью более 60 человек и ищем классных:\n\n✅ФРОНТЕНД  разработчиков;\n\n✅БЭКЕНД разработчиков. \n\nПроекты в стадии разработки пилота и у тебя есть возможность повлиять на дальнейшее развитие продукта. Если у тебя есть крутые идеи - ты сможешь их здесь реализовать! Откликайся сам и зови друзей! Вирус пройдёт, работа останется!\n\n✅Требуемые знания и навыки:\n- Опыт разработки от двух лет\n- Хорошее знание чистого JS\n- Опыт работы с TypeScript\n- React, MobX, Less/Sass\n- Опыт написания юнит-тестов с помощью Jest, Enzymе очень приветствуется\n\n💡Наш стек:\n      React, TypeScript, Node.js, MobX, Docker\n\nМы работаем по Scrum.\n\n✅Условия:\n- Официальное оформление по ТК, белая зп;\n- Годовой бонус;\n- Возможности профессионального и карьерного роста;\n- Дополнительные 3 дня к отпуску;\n- Плавающее начало дня;\n- ДМС со стоматологией;\n- Полная удаленка \n(Если тебе нравится работать в офисе, мы не против)\n\n☎️Контакты:\nЮлия - YAnZueva@Greenatom.ru\n\n—\n\n👉 Обсуждение вакансии в чате @javascript_jobs","markup":[{"type":"link","offset":0,"length":12,"data":"http://Greenatom.ru"},{"type":"hashtag","offset":13,"length":9,"data":"вакансия"},{"type":"hashtag","offset":23,"length":7,"data":"Москва"},{"type":"hashtag","offset":31,"length":11,"data":"javascript"},{"type":"hashtag","offset":43,"length":6,"data":"React"},{"type":"hashtag","offset":50,"length":11,"data":"Typescript"},{"type":"hashtag","offset":62,"length":5,"data":"Node"},{"type":"hashtag","offset":71,"length":7,"data":"Middle"},{"type":"hashtag","offset":79,"length":7,"data":"Senior"},{"type":"hashtag","offset":87,"length":9,"data":"удаленка"},{"type":"hashtag","offset":97,"length":10,"data":"удаленная"},{"type":"hashtag","offset":212,"length":7,"data":"Москва"},{"type":"link","offset":1540,"length":21,"data":"mailto:YAnZueva@Greenatom.ru"},{"type":"handle","offset":1596,"length":16,"data":"javascript_jobs"}],"date":"2020-06-18T21:15:55+00:00","link":"tg://resolve?domain=javascript_jobs_feed&post=16271","tags":[{"name":"javascript"},{"name":"reactjs"},{"name":"typescript"},{"name":"nodejs"},{"name":"sass"},{"name":"docker"}],"cities":[{"code":"moscow"}],"allowsRemote":true}},{"node":{"__typename":"Job","id":"17050894336-1001110946746","title":"Javascript разработчик","text":"#вакансия #frontend #JavaScript #React #senior #middle #remote #офис #удаленка                                                              \n\nFrontend-разработчик (React)\nГород и адрес офиса: Москва,Пермь\nФормат работы: офис или удаленно, пятидневка\nЗанятость: полный день\nЗарплатная вилка: от 50 000 до 140 000 руб.                                                                                                                                                                       \n\nО компании: GreenData - компания разработчик уникального ПО для финансового сектора. За более чем десять лет автоматизации кредитных процессов, мы выработали оптимальные подходы к решению большого количества конкретных прикладных задач.                                                       \n\nЧто надо делать:                                                                                                                                                                                                    Участие в разработке платформы.\nПроведение code review.                                                                                                                                                                                                   Работа с контролем версий, управление сборками                                                                                                                                                  \n\nМы работаем с:\nReact\nJavaScript/TypeScript\nHTML, CSS\nGitLab\n\nОпыт работы от 1,5 лет React/JavaScript\nОфициальное трудоустройство\nБелая зарплата\n\nКонтакты:@AnastasyiaKustova\n\n—\n\n👉 Обсуждение вакансии в чате @javascript_jobs","markup":[{"type":"hashtag","offset":0,"length":9,"data":"вакансия"},{"type":"hashtag","offset":10,"length":9,"data":"frontend"},{"type":"hashtag","offset":20,"length":11,"data":"JavaScript"},{"type":"hashtag","offset":32,"length":6,"data":"React"},{"type":"hashtag","offset":39,"length":7,"data":"senior"},{"type":"hashtag","offset":47,"length":7,"data":"middle"},{"type":"hashtag","offset":55,"length":7,"data":"remote"},{"type":"hashtag","offset":63,"length":5,"data":"офис"},{"type":"hashtag","offset":69,"length":9,"data":"удаленка"},{"type":"handle","offset":1588,"length":18,"data":"AnastasyiaKustova"},{"type":"handle","offset":1641,"length":16,"data":"javascript_jobs"}],"date":"2020-06-18T21:04:37+00:00","link":"tg://resolve?domain=javascript_jobs_feed&post=0","tags":[{"name":"javascript"},{"name":"reactjs"},{"name":"typescript"},{"name":"html"},{"name":"css"},{"name":"gitlab"}],"cities":[{"code":"moscow"},{"code":"perm"}],"allowsRemote":true}},{"node":{"__typename":"Job","id":"17049845760-1001110946746","title":"Js разработчик","text":"#вакансия #frontend #vue #senior #middle #remote #офис #удаленка\n\nГород: Москва, м. Славянский бульвар\nФормат работы: офис, удаленное сотрудничество\nЗанятость: полная, гибкий график (обсуждаем)\nЗарплатная вилка: от 80 000 рублей до 240 000 рублей на руки\nНазвание компании: ФГБУ «ИАЦ МЧС России»\nКонтакты для связи: @mxrkin\n\nНа данный момент отдел разработки программного обеспечения формирует команду JS-разработчиков для поддержки существующих и реализации новых проектов.\n\nТребования для соискателей:\n— уверенные знания Javascript, знание стандартов ECMAScript;\n— знание и опыт применения фреймворка Vue.js и использование элементов экосистемы фреймворка (vuex, vue-router);\n— опыт использования систем сборки - webpack, gulp, parcel. Опыт написания конфигов для webpack;\n— владение препроцессорами CSS - SASS/LESS;\n— опыт использования Prettier, ESLint;\n— гражданство РФ (местонахождение так же РФ).\n\nПлюсом будет:\n— владение Node.js или знание других языков программирования;\n— активные профили в сообществах habrahabr, habr Q&A, участие в opensource проектах, активный профиль github;\n— опыт работы с библиотекой D3.js;\n— опыт работы с картографическими библиотеками.\n\nТрудоустройство официальное по ТК РФ, социальный пакет.\nНа территории имеется столовая для сотрудников, спортивные площадки, футбольное и баскетбольное поле.\nРабота не является государственной службой.\n\nСобеседование проходит в три этапа — общение с руководителем, выполнение тестового задания (простое задание на 15-30 минут), предложение сотрудничества. \n\nЕсли вас заинтересовала вакансия, обращайтесь в тг @mxrkin. Большим плюсом будет, если первым сообщением прикрепите резюме и поделитесь ссылками на проекты, в которых принимали активное участие, или ссылку на гитхаб с кодом, который, по-вашему мнению, сможет показать все ваши знания и навыки.\n\n—\n\n👉 Обсуждение вакансии в чате @javascript_jobs","markup":[{"type":"hashtag","offset":0,"length":9,"data":"вакансия"},{"type":"hashtag","offset":10,"length":9,"data":"frontend"},{"type":"hashtag","offset":20,"length":4,"data":"vue"},{"type":"hashtag","offset":25,"length":7,"data":"senior"},{"type":"hashtag","offset":33,"length":7,"data":"middle"},{"type":"hashtag","offset":41,"length":7,"data":"remote"},{"type":"hashtag","offset":49,"length":5,"data":"офис"},{"type":"hashtag","offset":55,"length":9,"data":"удаленка"},{"type":"handle","offset":316,"length":7,"data":"mxrkin"},{"type":"handle","offset":1584,"length":7,"data":"mxrkin"},{"type":"handle","offset":1861,"length":16,"data":"javascript_jobs"}],"date":"2020-06-18T21:02:31+00:00","link":"tg://resolve?domain=javascript_jobs_feed&post=0","tags":[{"name":"javascript"},{"name":"vuejs"},{"name":"webpack"},{"name":"gulp"},{"name":"css"},{"name":"sass"},{"name":"nodejs"},{"name":"github"}],"cities":[{"code":"moscow"}],"allowsRemote":true}},{"node":{"__typename":"Job","id":"17044602880-1001110946746","title":"Js разработчик","text":"#вакансия #Москва #nodejs #офис\n\nКомпания Proscom ищет Middle/Senior Backend (Node.js) разработчика\n\nФормат занятости: Офис около м. Серпуховская/Павелецкая.\nЗанятость: полная \nЗарплатная вилка: 130 000 - 240 000 рублей/месяц (по результатам собеседования)\n\nО компании: \n\nС 2013 года создаем интерфейсы, веб-сайты,\nмобильные приложения для крупных\nправительственных организаций и\nкоммерческих предприятий\n\nЗадачи:\n\nВести разработку как новых проектов, так и поддерживать уже существующий код. \n\nСтек:\n\nNode.js, GraphQL, REST, Nest.js, TypeScript, CRDT, MySQL, PostreSQL, Git, Docker\n\nТребования:\n\nОт 1 года опыта работы с Node.js, от 2х лет опыта программирования\n\nКонтакт: @mxm_at\n\n—\n\n👉 Обсуждение вакансии в чате @javascript_jobs","markup":[{"type":"hashtag","offset":0,"length":9,"data":"вакансия"},{"type":"hashtag","offset":10,"length":7,"data":"Москва"},{"type":"hashtag","offset":18,"length":7,"data":"nodejs"},{"type":"hashtag","offset":26,"length":5,"data":"офис"},{"type":"handle","offset":674,"length":7,"data":"mxm_at"},{"type":"handle","offset":716,"length":16,"data":"javascript_jobs"}],"date":"2020-06-18T20:58:51+00:00","link":"tg://resolve?domain=javascript_jobs_feed&post=0","tags":[{"name":"javascript"},{"name":"nodejs"},{"name":"graphql"},{"name":"rest"},{"name":"typescript"},{"name":"mysql"},{"name":"git"},{"name":"docker"}],"cities":[{"code":"moscow"}],"allowsRemote":false}},{"node":{"__typename":"Job","id":"1710227456-1001091028994","title":"Java разработчик","text":"#вакансия #senior #middle #Сбербанк #java #spring #fulltime #офис #agile #backend\nКомпания: ПАО «Сбербанк»\nЛокация: Москва, м. Кутузовская (Agile home)\nЗ/п: от 180-280К на руки (в зависимости от уровня) + достойные годовые премии\nКонтакты: @tdurnicina TVlDurnitsyna@sberbank.ru\n\nДрузья! Мы в поисках Java разработчиков уровня middle и senior в новое небанковское приложение для клиента. Это уникальная возможность присоединиться к разработке серьёзного продукта в командах с атмосферой стартапа🙂 Вас ждут интересные задачи, свежий стек: Java 11, Spring, Hibernate, многомодульность и никакого легаси🔥 \n!Также готовы рассмотреть кандидатов уровня junior+ при наличии опыта коммерческой разработки.\n\nНаш Agile home это: пин понг, пул, кикер, библиотека, кофемашины на этажах, бесплатный спорт зал и подземный паркинг.\nЕсть отличный корпоративный университет, программы обучения в т.ч. за рубежом, конференции, митапы.\n🔥 Льготная ипотека и ДМС. \n\nРассмотрим кандидатов из других городов и стран. И конечно гибкое начало рабочего дня, куда без него.","markup":[{"type":"hashtag","offset":0,"length":9,"data":"вакансия"},{"type":"hashtag","offset":10,"length":7,"data":"senior"},{"type":"hashtag","offset":18,"length":7,"data":"middle"},{"type":"hashtag","offset":26,"length":9,"data":"Сбербанк"},{"type":"hashtag","offset":36,"length":5,"data":"java"},{"type":"hashtag","offset":42,"length":7,"data":"spring"},{"type":"hashtag","offset":50,"length":9,"data":"fulltime"},{"type":"hashtag","offset":60,"length":5,"data":"офис"},{"type":"hashtag","offset":66,"length":6,"data":"agile"},{"type":"hashtag","offset":73,"length":8,"data":"backend"},{"type":"handle","offset":240,"length":11,"data":"tdurnicina"},{"type":"link","offset":252,"length":25,"data":"mailto:TVlDurnitsyna@sberbank.ru"}],"date":"2020-06-18T17:32:56+00:00","link":"tg://resolve?domain=jvmjobs&post=1631","tags":[{"name":"java"},{"name":"jvm"},{"name":"spring"},{"name":"hibernate"}],"cities":[{"code":"moscow"}],"allowsRemote":false}},{"node":{"__typename":"Job","id":"103207141376-1001089317451","title":"Qa engineer","text":"#вакансия #удаленка #Москва #fulltime #qa \nКомпания: «Intelligence Retail» (https://intrtl.com/).\nQA manual engineer\nФормат: удаленно, 5/2\nВилка: до 120 000 т.р\nЖелающим поможем вырасти в автоматизации на python.\n\nКто мы?\nIntelligence Retail входит в число 30 крупнейших поставщиков AI в России (по версии Rusbase). Мы работаем с такими глобальными компаниями по производству CPG, как Danone, Heineken, P & G, Perfetti Van Melle, Red Bull и другими. www.intrtl.com\nIntelligence Retail — молодой стартап в области ИИ. Мы помогаем компаниям в ритейле и FMCG повысить эффективность труда своих сотрудников. Наш продукт это система контроля товаров, использующая передовые алгоритмы компьютерного зрения на базе нейронных сетей.\n\nПожелания к кандидату:\n• Опыт тестирования сложных web программ, включая разработку тестов, тестовых данных, и сценариев тестирования;\n• Опыт тестирования API (Postman, SoapUI)\n• Способность выявлять уязвимые места систем, способность к поиску дефектов;\n• Опыт работы с системами багтрекинга;\n• Базовые знания SQL (на уровне простых запросов);\n• Технический английский.\nПлюсом будет:\n• опыт в автоматизации тестирования;\n• знание Python.\n\nЗадачи:\n• Мы разрабатываем SaaS решение которое содержит следующие компоненты:\n- мобильное приложение под iOS и Android;\n- аналитический web-портал;\n- REST API на python и php;\n- бекенд распознавания с использованием нейронных сетей.\n\nВот что нужно будет делать:\n• Ручное тестирование нового и существующего функционала ПО (Web, API, Mobile);\n• Проведение регрессионного тестирования перед поставкой;\n• Составление тестовых сценариев и поддержка их в актуальном состоянии;\n• Взаимодействие с командой разработки;\n• Обработка ошибок от технической поддержки пользователей;\n• Фиксация дефектов в трекере задач и последующий контроль их исправления.\n\nУсловия работы:\n• Достойная белая ЗП и полное соблюдение трудового законодательства РФ;\n• Удаленная работа с гибким графиком 5/2;\n• Команда крутых разработчиков и учёных, интересные задачи и перспективные продукты.\nИ ещё:\n• Тестировщик является частью скрам-команды, которая работает с 2-х недельными спринтами;\n• Ежедневные стендапы примерно в 11:30;\n• Задачи ведем в youtrack;\n• Мы — один из немногих Российских стартапов, который работает сразу на международном рынке, у нас уже есть зарубежные клиенты;\nВ компании работает порядка 40 человек, тех команда примерно 25.\n\nКонтакты: @DariaYugova","markup":[{"type":"hashtag","offset":0,"length":9,"data":"вакансия"},{"type":"hashtag","offset":10,"length":9,"data":"удаленка"},{"type":"hashtag","offset":20,"length":7,"data":"Москва"},{"type":"hashtag","offset":28,"length":9,"data":"fulltime"},{"type":"hashtag","offset":38,"length":3,"data":"qa"},{"type":"link","offset":76,"length":19,"data":"https://intrtl.com/"},{"type":"bold","offset":98,"length":18,"data":""},{"type":"link","offset":450,"length":14,"data":"http://www.intrtl.com"},{"type":"bold","offset":726,"length":22,"data":""},{"type":"bold","offset":1165,"length":7,"data":""},{"type":"bold","offset":1400,"length":27,"data":""},{"type":"bold","offset":1813,"length":15,"data":""},{"type":"handle","offset":2396,"length":12,"data":"DariaYugova"}],"date":"2020-06-18T16:31:41+00:00","link":"tg://resolve?domain=qa_jobs&post=0","tags":[{"name":"qa"},{"name":"python"},{"name":"web"},{"name":"sql"},{"name":"ios"},{"name":"android"},{"name":"rest"},{"name":"php"},{"name":"mobile"}],"cities":[{"code":"moscow"}],"allowsRemote":true}},{"node":{"__typename":"Job","id":"103205044224-1001089317451","title":"Qa инженер","text":"***\n\nТребуется Middle QA для ручного тестирования банковского ПО.\nРабота удаленно. \nОплата – часовая ставка с занятостью ~6-8 часов в день, от 500\\час. \nЗанятость по московскому времени, в рабочие часы. \n\nТребования к соискателю:\n1. Опыт ручного тестирования от года;\n2. Опыт тестирования UI;\n3. Опыт интеграционного тестирования;\n4. Знание SQL;\n5. Опыт работы по Agile;\n6. Высокий уровень самоорганизации и коммуникативных навыков;\n7. Опыт написания тест-кейсов.\n\nЖду резюме и информацию о себе – личным сообщением, с пометкой «Банковское ПО». Каждому из соискателей я отвечу до 22 июня. \n\n\n🎱QA\n🎱Devquality\n🎱Тестирование бэкенда, фронта, автоматизация\n🎱 Часовой рейт, удаленное сотрудничество. #россия #москва #подмосковье #удаленное #вакансия #работавит #работаврегионах\n\nБлагодарю.","markup":[{"type":"bold","offset":0,"length":3,"data":""},{"type":"hashtag","offset":699,"length":7,"data":"россия"},{"type":"hashtag","offset":707,"length":7,"data":"москва"},{"type":"hashtag","offset":715,"length":12,"data":"подмосковье"},{"type":"hashtag","offset":728,"length":10,"data":"удаленное"},{"type":"hashtag","offset":739,"length":9,"data":"вакансия"},{"type":"hashtag","offset":749,"length":10,"data":"работавит"},{"type":"hashtag","offset":760,"length":16,"data":"работаврегионах"}],"date":"2020-06-18T15:56:41+00:00","link":"tg://resolve?domain=qa_jobs&post=0","tags":[{"name":"qa"},{"name":"sql"}],"cities":[{"code":"moscow"}],"allowsRemote":true}},{"node":{"__typename":"Job","id":"103203995648-1001089317451","title":"Qa инженер","text":"Всем привет! \n\nТребуется Middle QA или Senior QA\nдля ручного тестирования мобильных приложений.\n\nРабота удаленно. \nОплата – часовая ставка с занятостью ~6-8 часов в день, от 500\\час. \nЗанятость по московскому времени, в рабочие часы. \n\nТребования к соискателю:\n1. Опыт ручного тестирование мобильных приложений от 1 года;\n2. Знание особенностей версий OS;\n3. Знание инструментов разработчика под Android;\n4. Понимание различий тестирования веб \\ мобайл;\n5. Опыт тестирования api;\n6. Опыт работы с БД;\n7. Высокий уровень самоорганизации и коммуникативных навыков.\n\nВ процессе работы возможно обучение автоматизации тестирования. \n\nЖду резюме и информацию о себе – личным сообщением, с пометкой «mobile qa». \nКаждому из соискателей я отвечу до 22 июня. \n\n\n🎱QA\n🎱Devquality\n🎱Тестирование бэкенда, фронта, автоматизация\n🎱 Часовой рейт, удаленное сотрудничество. #россия #москва #подмосковье #удаленное #вакансия #работавит #работаврегионах\n\nЕще одна вакансия ниже.","markup":[{"type":"hashtag","offset":861,"length":7,"data":"россия"},{"type":"hashtag","offset":869,"length":7,"data":"москва"},{"type":"hashtag","offset":877,"length":12,"data":"подмосковье"},{"type":"hashtag","offset":890,"length":10,"data":"удаленное"},{"type":"hashtag","offset":901,"length":9,"data":"вакансия"},{"type":"hashtag","offset":911,"length":10,"data":"работавит"},{"type":"hashtag","offset":922,"length":16,"data":"работаврегионах"}],"date":"2020-06-18T15:53:14+00:00","link":"tg://resolve?domain=qa_jobs&post=0","tags":[{"name":"qa"},{"name":"android"},{"name":"mobile"}],"cities":[{"code":"moscow"}],"allowsRemote":true}}]}}},"context":{}}