{"hash":"f5f6bf98bd95e769321482904cbbd488f77922fd","data":{"records":{"totalCount":669,"pageInfo":{"totalPages":67,"currentPage":10},"edges":[{"node":{"id":"363855872-1001352129329","title":"Golang разработчик","text":"#вакансия #fulltime #Golang #Go #удаленка \n\nНанимаем специалистов по Golang\nЗарплатная вилка: от 130 000 до 180 000 рублей ($1900-$2600)\nТребуемый опыт работы: 3-6 лет\nПолная занятость, полный день\nФормат работы: #удаленная работа либо в #офисе в Казани\n\n🔸 Необходимые навыки:\n• Уверенные знания Golang (GIN, GORM)\n• Опыт командной разработки и системой контроля версий\n• Понимание принципов построения веб-приложений\n• Опыт написания тестов\n• Английский язык на уровне чтения тех документации\n\n🔸 Обязанности:\n• Написание качественного, стабильного и поддерживаемого кода (понимание и использование SOLID принципов)\n• Участие в проектировании системы\n• Написание автотестов\n• Написание документации\n\n🔸 Будет плюсом:\n• Опыт построения высоконагруженных систем\n• Понимание принципов построения распределенных систем\n• Опыт работы с микросеривсной архитектурой\n\n🔸 Условия работы:\n• Компенсация в виде заработной платы + доля в компании\n• Удаленная работа либо работа в офисе компании\n• Интересные задачи, работу над востребованным продуктом\n\nНазвание компании: Mouselive\nКонтакты telegram: @iliadc\nEmail: ilia@mouselive.com\n\nДополнительную информацию о проекте смотрите на нашем сайте: www.mouselive.com","markup":[{"type":"hashtag","offset":0,"length":9,"data":"вакансия"},{"type":"hashtag","offset":10,"length":9,"data":"fulltime"},{"type":"hashtag","offset":20,"length":7,"data":"Golang"},{"type":"hashtag","offset":28,"length":3,"data":"Go"},{"type":"hashtag","offset":32,"length":9,"data":"удаленка"},{"type":"hashtag","offset":213,"length":10,"data":"удаленная"},{"type":"hashtag","offset":238,"length":6,"data":"офисе"},{"type":"handle","offset":1091,"length":7,"data":"iliadc"},{"type":"link","offset":1106,"length":18,"data":"mailto:ilia@mouselive.com"},{"type":"link","offset":1187,"length":17,"data":"http://www.mouselive.com"}],"date":"2020-07-01T17:45:49+00:00","link":"tg://resolve?domain=gogetajobfeed&post=347","tags":[{"name":"go"}],"cities":[],"allowsRemote":true}},{"node":{"id":"26927431680-1001075660570","title":"Php разработчик","text":"#php #вакансия #удалёнка \n\nPHP Engineer\nФормат работы: #fulltime #remote\nЗарплата: $ 40 000 - 50 000 в год\nГород: удаленно\n\nНебольшая, но быстро растущая студия разработки из Лондона ищет PHP-ниндзю. На нашем счету много успешных проектов, большая часть которых — британские. \n\nТребования:\n— Опыт в разработке не менее 3 лет;\n— Знание PHP как родного,\n— Знание SQL, особенно MySQL или PostgreSQL \n— Понимание HTML/CSS;\n— Быть знакомым с PHP MVC Framework, JavaScript (and jQuery);\n— Опыт в Version Control (Git);\n— Опыт с Bash and Unix (обычно мы используем Ubuntu 16.04) \n— Уровень английского С2;\n— Опыт с алгоритмами приветствуется;\n— Большим плюсом будет знание Laravel (или хотя бы Symfony), фреймворки CakePHP, Zend, CodeIgniter тоже ок, но все равно потребуется освоить Laravel.\n\nЧтобы откликнуться, необходимо пройти короткий отбор по ссылке https://6nomads.com/ (обязательное условие найма🤷‍♀️)\n\nКонтакт для связи @temnik_sofya","markup":[{"type":"hashtag","offset":0,"length":4,"data":"php"},{"type":"hashtag","offset":5,"length":9,"data":"вакансия"},{"type":"hashtag","offset":15,"length":9,"data":"удалёнка"},{"type":"hashtag","offset":55,"length":9,"data":"fulltime"},{"type":"hashtag","offset":65,"length":7,"data":"remote"},{"type":"link","offset":85,"length":15,"data":"tel:40 000 - 50 000"},{"type":"link","offset":850,"length":20,"data":"https://6nomads.com/"},{"type":"handle","offset":924,"length":13,"data":"temnik_sofya"}],"date":"2020-07-01T17:36:31+00:00","link":"tg://resolve?domain=php_jobs&post=25680","tags":[{"name":"php"},{"name":"sql"},{"name":"mysql"},{"name":"postgresql"},{"name":"html"},{"name":"css"},{"name":"javascript"},{"name":"jquery"},{"name":"git"},{"name":"bash"},{"name":"unix"},{"name":"ubuntu"},{"name":"laravel"},{"name":"symfony"},{"name":"cakephp"},{"name":"zend-framework"},{"name":"codeigniter"}],"cities":[],"allowsRemote":true}},{"node":{"id":"17302552576-1001110946746","title":"Javascript developer","text":"#вакансия\n\nГород: Москва\nФормат: удаленка\nЗанятость: полная\nВилка: 100-200к на руки\n\nПривет! Я основатель Дневника - клиент для электронных дневников\nМы ищем Senior/Middle Full Stack Developer. Особый бонус, если ты крут в React Native\n\nПочему мы:\n🇷🇺 Твой код будет влиять на сотни тысяч людей. У нас 600 тысяч пользователей (в следующем году будет 1.2М), большая часть пользуется продуктом каждый день. Мы тестируем 4+ гипотез в месяц и получаем результаты очень быстро. Ты сможешь видеть, как твой код помогает приложению расти ещё больше.\n\n📈 Дневник прибылен и развивается на свои деньги — это максимализирует свободу и принцип \"шкура на кону\". Мы нашли product-market fit и растем каждый год в 3 раза. Прекрасный момент, чтобы присоединиться к команде.\n\n🔥 Мы не боимся. У Дневника насыщенная история: нас блокировало государство, но мы продолжили работать. Нас даже упомянули в статье Голунова. Сегодня все хорошо, мы можем спокойно идти к нашей миссии\n\n\nПолное описание компани и вакансии тут ->\nhttps://www.notion.so/Senior-Middle-Full-Stack-Developer-439a011d96df47809ed4ffc089d18b09\n\n\nКонтакты:\n@levan","markup":[{"type":"hashtag","offset":0,"length":9,"data":"вакансия"},{"type":"link","offset":1005,"length":89,"data":"https://www.notion.so/Senior-Middle-Full-Stack-Developer-439a011d96df47809ed4ffc089d18b09"},{"type":"handle","offset":1107,"length":6,"data":"levan"}],"date":"2020-07-01T16:27:00+00:00","link":"tg://resolve?domain=javascript_jobs_feed&post=16501","tags":[{"name":"javascript"},{"name":"reactjs"},{"name":"react-native"}],"cities":[{"code":"moscow"}],"allowsRemote":true}},{"node":{"id":"104146665472-1001089317451","title":"Qa engineer","text":"#вакансия #Москва #офис #QA #тестировщик #fulltime\n\nГород и адрес офиса: Москва, м. Новокузнецкая/Павелецкая\nФормат работы: #офис\nЗанятость: #полная\nЗП: от 90к до 120к руб. нетт\n\nSports.ru - провайдер развлечений для любителей спорта.\nЕсть спорт. Есть болельщики. Мы заполняем среду между ними, оживляем ее, наполняем общением и другими развлечениями. Мы делаем не «сайты» или «приложения», а мультиплатформенные продукты, с учетом актуальной технологической парадигмы.\n\nМы ищем QA Engineer'а в наш флагманский проект Sports.ru.\nЭто главное медиа о спорте на русском языке с аудиторией 18 млн пользователей в месяц. Highload-проект с десятками тысяч RPS, состоящий из самых разных продуктов – сайтов, мобильных приложений, email-рассылок, чат-ботов и многого другого.\n\nВ данный момент мы заняты активным внедрением процесса тестирования. Под капотом - нативный js на фронте, php+perl на бэке. Все новые сервисы разрабатываем на новом стеке: vue.js+ssr+golang+graphql. Да, легаси есть - иногда попадается, но в тестирование всё же большинство задач идут на новом стеке.\n\nО задачах\nВы будете заниматься приёмкой фич и проведением регресса, написанием тестовой документации, разработкой автотестов и регистрацией ошибок в баг-трекере.\n\nО наших ожиданиях\nМы ждем, что вы уже пару лет как в профессии и имеете хороший опыт ручного тестирования. Знаете различные инструменты и подходы к тестированию, обладаете навыками тест-дизайна и умеете их применять.\nПонимаете процессы разработки и тестирования, а также, что процессы не могут быть идеальными, но к этому необходимо стремиться.\nМы также ждем, что вы уже попробовали свои силы в автоматизации тестирования и хотите дальше развиваться в этом направлении (у нас автоматизация на JavaScript).\n\nБудет плюсом\nЕсли вы уже пробовали себя в нагрузочном тестировании и автоматизации мобильных устройств.\n\nОб условиях:\nПросторный стильный офис возле м. Новокузнецкая/Третьяковская.\n“Белая” заработная плата.\nБесплатная медстраховка со стоматологией после испытательного срока.\nГибкий график работы с возможностью день-два в неделю работать удаленно,\nФрукты, снеки, чай, кофе, какао 24/7.\nКорпоративная скидка в спортзал и на занятия английским языком.\nКорпоративный футбол с тренером.\nФинансовая помощь при переезде из другого города.\nВозможности для профессионального развития.\n\nНазвание компании: Sports.ru (Tribuna Digital)\nЕсли заинтересовало, пишите мне в личку (@pbuyatova), рада буду поделиться подробностями 😌","markup":[{"type":"hashtag","offset":0,"length":9,"data":"вакансия"},{"type":"hashtag","offset":10,"length":7,"data":"Москва"},{"type":"hashtag","offset":18,"length":5,"data":"офис"},{"type":"hashtag","offset":24,"length":3,"data":"QA"},{"type":"hashtag","offset":28,"length":12,"data":"тестировщик"},{"type":"hashtag","offset":41,"length":9,"data":"fulltime"},{"type":"hashtag","offset":124,"length":5,"data":"офис"},{"type":"hashtag","offset":141,"length":7,"data":"полная"},{"type":"link","offset":179,"length":9,"data":"http://Sports.ru"},{"type":"bold","offset":179,"length":9,"data":""},{"type":"bold","offset":479,"length":13,"data":""},{"type":"link","offset":518,"length":9,"data":"http://Sports.ru"},{"type":"bold","offset":1070,"length":10,"data":""},{"type":"bold","offset":1233,"length":18,"data":""},{"type":"bold","offset":1740,"length":13,"data":""},{"type":"bold","offset":1845,"length":13,"data":""},{"type":"link","offset":2338,"length":9,"data":"http://Sports.ru"},{"type":"handle","offset":2407,"length":10,"data":"pbuyatova"}],"date":"2020-07-01T15:51:57+00:00","link":"tg://resolve?domain=qa_jobs&post=99322","tags":[{"name":"qa"},{"name":"php"},{"name":"perl"},{"name":"vuejs"},{"name":"go"},{"name":"graphql"},{"name":"javascript"}],"cities":[{"code":"moscow"}],"allowsRemote":true}},{"node":{"id":"26920091648-1001075660570","title":"Php developer","text":"#вакансия #удаленно #php\n\nСтабильная растущая IT компания (не стартап) ищет в свою ламповую команду Middle/Senior Backend PHP Developer (или Fullstack с уклоном в Backend) на fulltime.\n\nКлючевые навыки:\n– SQL (PostgreSQL),\n– PHP 7,\n– Symfony 2,\n– умение ориентироваться в базах данных и их проектировании,\n– умение преобразовывать техническое задание в план работ.\n\nБудет плюсом:\n– MySQL,\n– MSSQL,\n– PHP 5,\n– опыт оценки временных затрат на выполнение задач.\n\nСтек технологий:\n– PHP 7.2,\n– PostgreSQL,\n– JS,\n– Bootstrap,\n– Symfony 2.\n\nОт нас:\n– удалённая работа,\n– свободный график,\n– гибкость в профессиональном росте,\n– ламповое общение внутри команды,\n– возможность переключения между проектами,\n– сложные и интересные задачи,\n– поддержка в развитии профессиональных навыков и обучении перспективным для проектов технологиям,\n– возможность влиять на стек технологий проектов,\n– зарплатная вилка в зависимости от прохождения собеседования $12 - $15 в час,\n– полная занятость.\n\nКратко о нас:\n– компания с выстроенным процессом управления, коммуникацией и delivery,\n– специализация: бизнес анализ, развитие, модернизация и поддержка авторских приложений,\n– мы более 10 лет на рынке IT США и Европы,\n– проекты с надёжными заказчиками,\n– русскоязычная команда, которая любит своё дело,\n– основное направление работы – развитие, модернизация и поддержка авторского web-приложения.\n\nЖдём твоего резюме на career@tomita.pro!","markup":[{"type":"hashtag","offset":0,"length":9,"data":"вакансия"},{"type":"hashtag","offset":10,"length":9,"data":"удаленно"},{"type":"hashtag","offset":20,"length":4,"data":"php"},{"type":"link","offset":1401,"length":17,"data":"mailto:career@tomita.pro"}],"date":"2020-07-01T15:47:46+00:00","link":"tg://resolve?domain=php_jobs&post=25673","tags":[{"name":"php"},{"name":"sql"},{"name":"postgresql"},{"name":"symfony"},{"name":"mysql"},{"name":"sql-server"},{"name":"bootstrap"},{"name":"web"}],"cities":[],"allowsRemote":true}},{"node":{"id":"72467087360-1001054966032","title":"Android разработчик","text":"#вакансия #android #remote #удаленка \n\nФормат работы: удаленка\nЗанятость: проектная\nОплата:\n+ Отдельные проекты (сдельная оплата) в среднем 60-150 $\n+ Партнёрские условия (получаете процент от выручки)\n\nОписание вакансии:\nТребуется разработчик Face Swap и подобных приложений на различные проекты.\n\nВ ближайшее время планируем реализовать несколько проектов посредством подключения готовых Face Swap модулей по api или через внедрения отдельных готовых блоков кода. Есть много различных идей.\n\n🧠 Требования:\n\n+ Общий опыт работы от 2-х лет\n+ Опыт работы с различными api, с внедрением готовых модулей в приложение\n+ Опыт работы с Face Swap или дополненной реальностью и т.п.\n\nКонтакты: телеграм @makar_abraam","markup":[{"type":"hashtag","offset":0,"length":9,"data":"вакансия"},{"type":"hashtag","offset":10,"length":8,"data":"android"},{"type":"hashtag","offset":19,"length":7,"data":"remote"},{"type":"hashtag","offset":27,"length":9,"data":"удаленка"},{"type":"handle","offset":696,"length":13,"data":"makar_abraam"}],"date":"2020-07-01T15:26:25+00:00","link":"tg://resolve?domain=mobile_jobs&post=69110","tags":[{"name":"mobile"},{"name":"android"}],"cities":[],"allowsRemote":true}},{"node":{"id":"2270167040-1001134745498","title":"Devops инженер","text":"#вакансия удаленно, полная занятость\nЗарплатная вилка: от 200 до 250\nОписание вакансии: Разработка универсальной системы управления облачными сервисами на основе кластера Kubernetes и методологии CI/CD\nХорошо, если у Вас есть опыт работы с Azure (или GCE или AWS ), знание Kubernetes, опыт работы в enterprise и/или продуктовой компании и хороший разговорный английский.\nНазвание компании: Virtocommerce\nКонтакты: lr@virtoway.com\n\n—\n\n👉 Обсуждение вакансии в чате @devops_jobs","markup":[{"type":"hashtag","offset":0,"length":9,"data":"вакансия"},{"type":"link","offset":414,"length":15,"data":"mailto:lr@virtoway.com"},{"type":"handle","offset":464,"length":12,"data":"devops_jobs"}],"date":"2020-07-01T14:20:36+00:00","link":"tg://resolve?domain=devops_jobs_feed&post=2165","tags":[{"name":"kubernetes"},{"name":"azure"},{"name":"amazon-web-services"}],"cities":[],"allowsRemote":true}},{"node":{"id":"17296261120-1001110946746","title":"Javascript разработчик","text":"#вакансия #удаленка #полная #react #reactnative\n\n🔹 Город и адрес офиса: Воронеж\n🔹 Формат работы: Удаленка\n🔹 Занятость: полная, проектно на 1 месяц\n🔹 Зарплатная вилка: от 60 до 100 тыс руб/месяц\n\n🔥 Описание вакансии: Ищем Middle React Native разработчика. Разрабатываем мобильное приложение - месенджер, для iOS и Android устройств, нужен еще один программист для усиления команды, проект готов на 80%. Нужно, вместе с текущим прогером, параллельно  донастроить логику в некоторых экранах/модулях и подключить к API.\n\n💻 Название компании: http://glowingcube.com \n\n☎️ Контакты, Telegram: @ShemetVlad","markup":[{"type":"hashtag","offset":0,"length":9,"data":"вакансия"},{"type":"hashtag","offset":10,"length":9,"data":"удаленка"},{"type":"hashtag","offset":20,"length":7,"data":"полная"},{"type":"hashtag","offset":28,"length":6,"data":"react"},{"type":"hashtag","offset":35,"length":12,"data":"reactnative"},{"type":"link","offset":544,"length":22,"data":"http://glowingcube.com"},{"type":"handle","offset":592,"length":11,"data":"ShemetVlad"}],"date":"2020-07-01T13:04:47+00:00","link":"tg://resolve?domain=javascript_jobs_feed&post=16495","tags":[{"name":"javascript"},{"name":"reactjs"},{"name":"ios"},{"name":"android"},{"name":"react-native"}],"cities":[{"code":"voronezh"}],"allowsRemote":true}},{"node":{"id":"72458698752-1001054966032","title":"Android developer","text":"#вакансия #fulltime  #vacancy  #remote #ремоут  #IOSdeveloper #IOS \n\n💻 IOS Developer\n🕐 Fulltime remote\n👩🏻‍💻2 year of commercial development on IOS\n💰from 10 $/hour to 17 $/hour\n\nВсем привет!🙋🏻‍♀️\nAMS ищет IOS dev на ремоут. Мы занимаемся разработкой мобильных приложений под Android и IOS.\n\nУсловия:\n-проектная занятость;\n-долгосрочный проект;\n-фуллтайм.\n\nТребования :\n-коммерческий опыт разработки от 2 лет;\n-разговорный английский B2+.\n\n📝 За подробностями по вакансии и по всем вопросам  пишите:\ndarya.matsyas@ams-apps.com\nDarya \nLinkedIn","markup":[{"type":"hashtag","offset":0,"length":9,"data":"вакансия"},{"type":"hashtag","offset":10,"length":9,"data":"fulltime"},{"type":"hashtag","offset":21,"length":8,"data":"vacancy"},{"type":"hashtag","offset":31,"length":7,"data":"remote"},{"type":"hashtag","offset":39,"length":7,"data":"ремоут"},{"type":"hashtag","offset":48,"length":13,"data":"IOSdeveloper"},{"type":"hashtag","offset":62,"length":4,"data":"IOS"},{"type":"link","offset":446,"length":2,"data":"http://darya.matsyas@ams-apps.com/"},{"type":"link","offset":506,"length":27,"data":"http://darya.matsyas@ams-apps.com/"},{"type":"link","offset":540,"length":8,"data":"https://www.linkedin.com/in/darya-matyas-12ba33158/"}],"date":"2020-07-01T11:46:07+00:00","link":"tg://resolve?domain=mobile_jobs&post=69102","tags":[{"name":"mobile"},{"name":"android"},{"name":"ios"}],"cities":[],"allowsRemote":true}},{"node":{"id":"17295212544-1001110946746","title":"Javascript разработчик","text":"#вакансия #удаленка #полная #react #reactnative\nГород: Ростов-на-Дону\nФормат работы: удаленка\nЗанятость: полная \nЗарплатная вилка: от 110000 до 160000\n\nОписание вакансии: \nРебята, ищем Senior React Native разработчика. Удаленно, полная занятость.\n\nТребования:\n- Опыт разработки мобильных приложений на React Native от 1 года;\n- Опыт разработки мобильных приложений от 3 лет;\n- Знания различных подводных камней ReactNative и их решение.\n\nУсловия:\n- Гео - любое\n- ЗП по результатам собеседования;\n- Мы предлагаем вам расти вместе с компанией Storiesgain. Наши амбиции огромны, возможности для развития и творчества безграничны;\n- Работа над HighLoad проектом в дружном коллективе; Удаленная занятость, полный рабочий день;\n- Испытательный срок один месяц.\n\nНазвание компании: Storiesgain www.storiesgain.com\n\nБуду рада сконнектить с командой 🎈\nКонтакты: @Olga_hr_it","markup":[{"type":"hashtag","offset":0,"length":9,"data":"вакансия"},{"type":"hashtag","offset":10,"length":9,"data":"удаленка"},{"type":"hashtag","offset":20,"length":7,"data":"полная"},{"type":"hashtag","offset":28,"length":6,"data":"react"},{"type":"hashtag","offset":35,"length":12,"data":"reactnative"},{"type":"link","offset":787,"length":19,"data":"http://www.storiesgain.com"},{"type":"handle","offset":854,"length":11,"data":"Olga_hr_it"}],"date":"2020-07-01T11:41:42+00:00","link":"tg://resolve?domain=javascript_jobs_feed&post=16494","tags":[{"name":"javascript"},{"name":"reactjs"},{"name":"react-native"}],"cities":[{"code":"rostov"}],"allowsRemote":true}}]}},"context":{}}