{"hash":"f34fd2c444a074f4e0e67d525015a008ef8e766f","data":{"records":{"id":"docker","name":"docker","belongsTo":{"totalCount":130,"pageInfo":{"totalPages":13,"currentPage":1},"edges":[{"node":{"__typename":"Job","id":"16263413760-1001110946746","title":"Js developer","text":"#вакансия #офис\n\nTeam Lead (Node.js/React)\n\nГород: Мюнхен, Германия\nФормат занятости: офис\nТип занятости: полная \nЗаплата: 6000-7000 евро в месяц.\nКалькулятор налогов:\nkaiser-estate.ru/raschet-nalogov-i-socialnih-otchisleniy-po-zarplate-v-germanii.html\nРелокейт пакет \n\nОписание компании: \nCHECK24\nCompany is the leading price comparison platform in Germany. The company employs over a 2000 employees in 7 offices around the Germany with HQ in Munich \n\nRequirements\nYou have extensive experience in backend development using following languages (Node.js, C#, Java, Python or similar). You have experience of leading a team or ready to develop your management skills. You have proficient English or German level.\nExperience as a Full Stack Web Developer\nNode.js, or other OOP languages (Java, .NET, PHP, etc)\nDocker or knowledge of other containers\nCloud providers (the client is using AWS)\nUnit Testing and precise tools\nDevOps tools\nFrameworks as React, Angular / general knowledge of JavaScript\nConsiderable knowledge of MongoDB and experience with other databases\nBenefits\nVisa sponsorship and relocation budget\nYou will also be part of a company that values teamwork and life balance\nYou will get the chance to immerse yourself in German culture fully, with language courses and the opportunity to live in Munich, one of the most cultural and international cities in Germany\nWhat is more, you will have the chance to work with cutting edge technologies in one of the largest tech companies in Germany\nКонтакты:\n\nКомпания КА Zero to One search \nzerotoonesearch.com\nНаталья natalya@zerotoonesearch.com\nSkype: na.yarkova\n\n—\n\n👉 Обсуждение вакансии в чате @javascript_jobs","markup":[{"type":"hashtag","offset":0,"length":9,"data":"вакансия"},{"type":"hashtag","offset":10,"length":5,"data":"офис"},{"type":"link","offset":168,"length":84,"data":"http://kaiser-estate.ru/raschet-nalogov-i-socialnih-otchisleniy-po-zarplate-v-germanii.html"},{"type":"link","offset":1548,"length":19,"data":"http://zerotoonesearch.com"},{"type":"link","offset":1576,"length":27,"data":"mailto:natalya@zerotoonesearch.com"},{"type":"handle","offset":1656,"length":16,"data":"javascript_jobs"}],"date":"2020-04-10T12:01:17+00:00","link":"tg://resolve?domain=javascript_jobs_feed&post=15510","tags":[{"name":"javascript"},{"name":"nodejs"},{"name":"reactjs"},{"name":"html"},{"name":"java"},{"name":"python"},{"name":"web"},{"name":"dotnet"},{"name":"php"},{"name":"docker"},{"name":"cloud"},{"name":"amazon-web-services"},{"name":"angularjs"},{"name":"mongodb"},{"name":"unit-testing"}],"cities":[{"code":"munich"}],"allowsRemote":false}},{"node":{"__typename":"Job","id":"1992294400-1001134745498","title":"Devops engineer","text":"#вакансия #devops #linux #москва #senior\n\nКомпания OOMA (ooma.com) ищет  Senior Kubernetes/Java Engineer \n - Город и адрес офиса: Москва (Москва Сити, м. Деловой Центр)\n - Формат работы: в офисе (не удаленка), на время коронавируса удаленка\n - Занятость: полный день \n - Зарплатная вилка: от 220 000 руб до 280 000 руб. на руки\n\nОписание вакансии:\n - Стек: K8S, Docker, Java, Spring\nТребования: \n - Твердые познания в Kubernetes, Docker, etc.\n - Желателен опыт программирования на Java с использованием Spring, Hibernate\n - Опыт программирования на Java и/или C++ от 5 лет\n - Знание основных подходов к разработке архитектур микросервисных приложений\n - Знaние Linux, bash, etc.\n - Знание сетевых протоколов: TCP/IP\n - Знание сетей: Ethernet и Wi-Fi\n - Знание разговорного английского языка (предстоит много общения с американцами)\n\nОбязанности\n - Развертывать микросервисные приложения в Kubernetes\n - Писать и/или дорабатывать существующие Dockerfile'ы для микросервисов, разработанных на Java, C++, Python, Ruby\n - Разрабатывать микросервисные приложения, по большей части их дорабатывать с целью миграции в контейнеры\n - Разрешать проблемы совместимости между различными приложениями в OOMA инфраструктуре\n\nУсловия труда:\n - Белая ЗП от 220 000 руб до 280 000 руб. на руки\n - Годовой персональный бюджет $1500 на поездки на конференции\n - 1 день в неделю можно работать удаленно\n - Командировки в US\n - Работа в офисе в Москва Сити, м. Деловой Центр. Не удалёнка.  \n - Оплачиваются занятия английским языком\n - Решение интересных, зачастую нестандартных, задач\n - Apple техника (MacBook Pro + 4K монитор)\n - ДМС\n - Компенсация расходов на занятия спортом\n - Гибкий рабочий график\n - Фрукты, кофе, чай, шоколадки, печенье\n \nНазвание компании: OOMA \n\nКонтакты:\n@u35tpus\noleg.levchenko@ooma.com\n\n—\n\n👉 Обсуждение вакансии в чате @devops_jobs","markup":[{"type":"hashtag","offset":0,"length":9,"data":"вакансия"},{"type":"hashtag","offset":10,"length":7,"data":"devops"},{"type":"hashtag","offset":18,"length":6,"data":"linux"},{"type":"hashtag","offset":25,"length":7,"data":"москва"},{"type":"hashtag","offset":33,"length":7,"data":"senior"},{"type":"link","offset":57,"length":8,"data":"http://ooma.com"},{"type":"handle","offset":1763,"length":8,"data":"u35tpus"},{"type":"link","offset":1772,"length":23,"data":"mailto:oleg.levchenko@ooma.com"},{"type":"handle","offset":1830,"length":12,"data":"devops_jobs"}],"date":"2020-04-10T11:42:06+00:00","link":"tg://resolve?domain=devops_jobs_feed&post=1900","tags":[{"name":"linux"},{"name":"kubernetes"},{"name":"java"},{"name":"docker"},{"name":"spring"},{"name":"hibernate"},{"name":"bash"},{"name":"python"},{"name":"ruby"}],"cities":[{"code":"moscow"}],"allowsRemote":true}},{"node":{"__typename":"Job","id":"1434451968-1001091028994","title":"Java developer","text":"Вакансия: Senior Java developer \n\nБольшой интергационный проект: разработка платформы финансового маркетплейса для физических лиц, проект  стартует в сентябре-декабре 2020 г. \n\nЗадачи на новый проект:\n\nНачать разработку и отладку BPM-слоя платформы, основанной на микросервисной архитектуре с использованием - Java 8; Spring Framework (Core, MVC, Boot); Camunda BPM; Apache Kafka; Hibernate; Docker; PostgreSQL. \n\nВзаимодействие со смежными командами и определение зон ответственности при реализации задач.\n\nПодготовка рекомендаций по внедрению новых технологии, решений, подходов.\n\nНастройка CI/CD процессов. \n\nТребования:\n\nГлубокие знание java core.\nОпыт в java от 3-х лет.\nЗнание подходов CI/CD. \nОтличные организационные и коммуникативные навыки. \n\nЛокация офиса: г. Москва, м. Арбатская/Библиотека им. Ленина/Боровицкая/Александровский сад. \nЗанятость: полная, официальное оформление в штат Компании. \nДМС: с первого рабочего дня. \nФормат работы: современный  офис возле кремля в шаговой доступности от метро (сейчас работаем из дома, возможно, после выхода в офисе многое поменяется))).\nКомпания: ПАО Московская биржа (Компания входящая в 500 - лучших работодателей мира по версии Forbes за 2019 год). \nУровень з/п:  230- 300 тыс.руб. + годовой бонус.\nФормат интервью: один этап интервью по Skype (60 минут). \nКоманда: абсолютно новая команда, почти (3 вакансии senior developer) сформирована за период февраль - март 2020 г. \n\n\nПишите в личку, отвечу на любые вопросы!\nКонтакты: @Sasha_P92","markup":[{"type":"handle","offset":1486,"length":10,"data":"Sasha_P92"}],"date":"2020-04-10T10:34:17+00:00","link":"tg://resolve?domain=jvmjobs&post=1368","tags":[{"name":"java"},{"name":"jvm"},{"name":"spring"},{"name":"apache"},{"name":"kafka"},{"name":"hibernate"},{"name":"docker"},{"name":"postgresql"}],"cities":[{"code":"moscow"}],"allowsRemote":false}},{"node":{"__typename":"Job","id":"66352840704-1001054966032","title":"Mobile разработчик","text":"#вакансия #работа #СанктПетербург #Android #CICD #Kotlin #Java #fulltime #офис\nГород: Санкт-Петербург, м. Чкаловская\nФорма работы: офис\nЗанятость: полная\nЗарплатная вилка: от 120 000 до 270 000 net.\nВсем привет!\nМы петербургская IT-компания, разработчик мобильного приложения «Кошелёк». \n«Кошелёк» заменяет бумажник и избавляет от необходимости носить с собой пластик: пользователи хранят в нем дисконтные и банковские карты. Чтобы получить скидку, достаточно показать на кассе карту с экрана смартфона, а, чтобы оплатить покупку – приложить NFC-смартфон к терминалу оплаты.\nВ сфере платежей мы сотрудничаем с банками (ВТБ, Альфа Банк, Почта Банк, Райффайзенбанк, Открытие и другие) и международными платежными системами Mastercard и Visa.\nНаши результаты:\n9 млн + зарегистрированных пользователей,\n180 млн + оцифрованных карт.\n\nМы ищем мобильного инженера в инфраструктурную часть core команды. Данная позиция подходит для специалиста с опытом в мобильном девопсе. Основная часть работы будет связана с тем, чтобы помогать остальной мобильной команде повышать автоматизацию, для ускорения скорости создания и тестирования новых фич. Дополнительно в работу будет входить всё что связано с мониторингом, автоматическими проверками и автоматизацией в целом. Ищем изначально любознательного человека, который на определенном этапе сможет помогать в сборе бэклога для инфраструктурной команды и активно предлагать идеи.\n\n🔸Чем предстоит заниматься:\n•  На первых этапах есть описанный бэклог требований, что необходимо реализовать для развития инфраструктуры - CI/CD, интеграций с JIRA/Slack, и т.д. В дальнейшем предстоит помогать формировать данный бэклог, помогая остальной команде и решая их запросы;\n•  Создавать автоматические проверки и подключать системы мониторинга;\n•  Создавать CI/CD и отвечать за инфраструктуру;\n•  Улучшать время сборки и стабильность билдов;\n•  Администрировать Google Developer Console + Firebase;\n•  Автоматизировать ручные задачи.\n\n🔸 Требования:\n•  Опыт работы Android разработчиком;\n•  Опыт работы с Gradle;\n•  Опыт работы с CI/CD такими как Jenkins/TeamCity/Bitrise/Gitlab;\n•  Опыт работы с Fastlane;\n•  Опыт работы и интеграции с системами контроля версий (у нас Gitlab);\n•  Опыт публикации приложений. Опыт администрирования Google Developer Console + Firebase.\n 🔸 Будет плюсом:\n•  Опыт работы с Upsource - используется для code review;\n•  Опыт работы с Docker;\n•  Опыт интеграции таких тулзов как SonarQube;\n•  Опыт работы над платформенными задачами или в core команде;\n•  Опыт работы с UI тестами;\n•  Опыт работы с *nix консолью использования и скриптовых языков.\n\n🔸Мы предлагаем:\n•  Гибкий график и высокую степень самостоятельности;\n•  Оплату мобильной связи, компенсацию оплаты питания;\n•  Оформление по ТК РФ с первого дня, ДМС после испытательного срока.\nИнформацию о компании можно найти по ссылке: https://cardsmobile.ru/ \n\nКонтакты: katerinaziryukova\nПочта: e.ziryukova@cardsmobile.ru","markup":[{"type":"hashtag","offset":0,"length":9,"data":"вакансия"},{"type":"hashtag","offset":10,"length":7,"data":"работа"},{"type":"hashtag","offset":18,"length":15,"data":"СанктПетербург"},{"type":"hashtag","offset":34,"length":8,"data":"Android"},{"type":"hashtag","offset":43,"length":5,"data":"CICD"},{"type":"hashtag","offset":49,"length":7,"data":"Kotlin"},{"type":"hashtag","offset":57,"length":5,"data":"Java"},{"type":"hashtag","offset":63,"length":9,"data":"fulltime"},{"type":"hashtag","offset":73,"length":5,"data":"офис"},{"type":"link","offset":2844,"length":23,"data":"https://cardsmobile.ru/"},{"type":"link","offset":2905,"length":26,"data":"mailto:e.ziryukova@cardsmobile.ru"}],"date":"2020-04-09T12:52:54+00:00","link":"tg://resolve?domain=mobile_jobs&post=63279","tags":[{"name":"mobile"},{"name":"android"},{"name":"kotlin"},{"name":"java"},{"name":"dotnet"},{"name":"firebase"},{"name":"gradle"},{"name":"jenkins"},{"name":"gitlab"},{"name":"docker"},{"name":"sonarqube"}],"cities":[],"allowsRemote":false}},{"node":{"__typename":"Job","id":"1431306240-1001091028994","title":"Java разработчик","text":"#scala #teamlead #senior #офис #удаленно #fulltime #Москва\n\nПриглашаем Scala-разработчика уровня senior-teamlead, 220-270 тыс. на руки.\n\nТребования:\nлидировать и развивать команду разработчиков\nразвивать backend приложение на Akka HTTP\nпрорабатывать интеграции для сервисов на Java (Spring Cloud)\nинтегрироваться со стеком Kafka, MQ, Redis, Orcale SQL, Postgres\nfrontend разработка (React, Redux, Typescript, собственная библиотека компонентов)\nработать с витринами на Spark, Hadoop\nразработать web-scraper на Akka Streams\nподдерживать процесс сборки и тестирования (git, Ansible, Jenkins, Docker, OpenShift)\n\nСбербанк, Москва, Кутузовская\n\nКонтакты: @MikeTurchenkov","markup":[{"type":"hashtag","offset":0,"length":6,"data":"scala"},{"type":"hashtag","offset":7,"length":9,"data":"teamlead"},{"type":"hashtag","offset":17,"length":7,"data":"senior"},{"type":"hashtag","offset":25,"length":5,"data":"офис"},{"type":"hashtag","offset":31,"length":9,"data":"удаленно"},{"type":"hashtag","offset":41,"length":9,"data":"fulltime"},{"type":"hashtag","offset":51,"length":7,"data":"Москва"},{"type":"handle","offset":651,"length":15,"data":"MikeTurchenkov"}],"date":"2020-04-09T11:58:52+00:00","link":"tg://resolve?domain=jvmjobs&post=1365","tags":[{"name":"java"},{"name":"jvm"},{"name":"scala"},{"name":"akka"},{"name":"spring"},{"name":"cloud"},{"name":"kafka"},{"name":"redis"},{"name":"sql"},{"name":"postgresql"},{"name":"reactjs"},{"name":"redux"},{"name":"typescript"},{"name":"hadoop"},{"name":"web"},{"name":"git"},{"name":"ansible"},{"name":"jenkins"},{"name":"docker"},{"name":"react-redux"}],"cities":[{"code":"moscow"}],"allowsRemote":true}},{"node":{"__typename":"Job","id":"1991245824-1001134745498","title":"Devops инженер","text":"#вакансия #devops #remote \nКомпания Imhio Ltd ищет инженера инфраструктуры, обладающего навыками конфигурирования и поддержки аппаратных и облачных платформ, организации работы отказоустойчивых систем, а также автоматизации доставки программного обеспечения. \nВ составе нашей инфраструктуры мы используем Digital Ocean и AWS, Oracle Linux, Νginx, Consul, RabbitMQ, ScyllaDB, Redis, PostgreSQL, GoLang, GoCD и Docker.\nАктуальная цель, которая стоит перед нами, переход к полностью автоматизированному конфигурированию и эксплуатации всех элементов нашей инфраструктуры.\n\nОбязанности:\n- автоматизация конфигурирования и обслуживания элементов инфраструктуры\n- участие в процессах CI/CD\n- мониторинг работоспособности\n- планирование использования ресурсов\n- оптимизация инфраструктуры\n- документирование инфраструктуры\n\nТребования:\n - Минимальный опыт работы по специальности от 3 лет.\n\nДля соответствия нашей команде, ваши личные качества должны включать:\n - коммуникабельность, умение находить точки соприкосновения\nцелеустремленность, ответственность, внимательность и аккуратность\n- умение и желание решать комплексные, нестандартные проблемы и задачи\n- понятное формулирование своих мыслей и идей\n- умение отстаивать свою позицию\n- понимание технической документации на английском языке\n- поддержка принципов DevOPS методологии\n\nДля соответствия нашим задачам, у вас должен быть опыт промышленной эксплуатации:\n- Linux \n- Digital Ocean или AWS\n- Terraform и Ansible\n- CI/CD инструментов\n- Docker или Kubernetes\n- Nginx, SQL, MQ, Redis, Consul\n- Prometheus и Grafana, Graylog или ELK\n- Python или Bash\nУ вас будет дополнительное преимущество при наличии\nопыта использования:\n- ScyllaDB или Cassandra\n- системы мониторинга DataDog\n- системы доставки GoCD\n- (микро)сервисов, разработанных с использованием Golang\n\nУсловия:\n- полностью удаленная работа\n- оплачиваемый отпуск и больничный\n- заработная плата в евро, определяется вашей компетенцией (1850-2900 Евро)\n- гибкий график и широкая автономия - мы оцениваем результаты работы\n- интересные задачи, способствующие профессиональному развитию\n- работа в команде профессионалов\n- отсутствие бюрократических процедур\nКонтакты: @yanalyakhova, jane@imhio.com\n\n—\n\n👉 Обсуждение вакансии в чате @devops_jobs","markup":[{"type":"hashtag","offset":0,"length":9,"data":"вакансия"},{"type":"hashtag","offset":10,"length":7,"data":"devops"},{"type":"hashtag","offset":18,"length":7,"data":"remote"},{"type":"handle","offset":2176,"length":13,"data":"yanalyakhova"},{"type":"link","offset":2191,"length":14,"data":"mailto:jane@imhio.com"},{"type":"handle","offset":2240,"length":12,"data":"devops_jobs"}],"date":"2020-04-09T11:57:04+00:00","link":"tg://resolve?domain=devops_jobs_feed&post=1899","tags":[{"name":"amazon-web-services"},{"name":"oracle"},{"name":"linux"},{"name":"rabbitmq"},{"name":"redis"},{"name":"postgresql"},{"name":"go"},{"name":"docker"},{"name":"ansible"},{"name":"kubernetes"},{"name":"nginx"},{"name":"sql"},{"name":"python"},{"name":"bash"},{"name":"cassandra"}],"cities":[],"allowsRemote":true}},{"node":{"__typename":"Job","id":"98274639872-1001089317451","title":"Qa инженер","text":"#QA #вакансия #Москва #fulltime #java\n💥Команда СберТеха  ищет классного QA-инженера!🙌\n💥Проект: тестирование сервисов безопасности технологической платформы Сбербанка.\n💥Задачи: дизайн, разработка и поддержка пакетов автотестов API и UI группы продуктов платформы поддержки развития бизнеса;подготовка тест-кейсов; регистрация и отслеживание дефектов.\n💥Стек: Java,cucumber, Junit, Jenkins, Allure reports, Docker, BPM\n💥Москва, м.Нагатинская/Тульская\n💥зп: 150-250 k\n💥-Оформление ТК РФ;\n     -ДМС;\n     - Белая заработная плата (оклад + годовая премия);\n     -Возможность обучения за счет компании;\n     -   Льготное кредитование;\n      -Бесплатный тренажерный зал на территории офиса;\n       - корпоративная жизнь и спортивные мероприятия;\n       -возможность карьерного роста.\n\nЖдём Вас в нашей команде!\n@TaliaHR","markup":[{"type":"hashtag","offset":0,"length":3,"data":"QA"},{"type":"hashtag","offset":4,"length":9,"data":"вакансия"},{"type":"hashtag","offset":14,"length":7,"data":"Москва"},{"type":"hashtag","offset":22,"length":9,"data":"fulltime"},{"type":"hashtag","offset":32,"length":5,"data":"java"},{"type":"handle","offset":810,"length":8,"data":"TaliaHR"}],"date":"2020-04-09T10:21:23+00:00","link":"tg://resolve?domain=qa_jobs&post=93722","tags":[{"name":"qa"},{"name":"java"},{"name":"cucumber"},{"name":"junit"},{"name":"jenkins"},{"name":"docker"}],"cities":[{"code":"moscow"}],"allowsRemote":false}},{"node":{"__typename":"Job","id":"24342691840-1001075660570","title":"Php разработчик","text":"#вакансия #Новосибирск #офис #удаленно#FullStack#Middle #Senior#PHP#JavaScript\n\nГород: Новосибирск\nФормат работы: в офисе/удаленно\nЗанятость: полная\nЗарплатная вилка: от 100 000 до 200 000 руб. на руки\nНазвание компании: ВилайнТВ\n\nНужен FullStack разработчик для создания и развития нового проекта видео- тематики. Данная компания разрабатывает и поддерживает облачные хранилища. Проекту уже более 7 лет, в своей нише занимает второе место в мире, аналог на рынке России turbobit, аналог в мире rapidgator, основные рынки это США, Европа, сейчас выходят на Азию, в России не работают. \n\nСтек технологий: Хранилище - OpenStack Swift, BackEnd - Nodejs, PHP (Yii1, Yii2, Laravel), FrontEnd - React, BD - MySql, Postgres, Mongo, Elastic, Доставка - Jenkins, Docker, Kubernetes.\n\nЧто хотят:\n• программирование на JS хотя бы 1 год.\n• программирование на PHP хотя бы 2 года\n• решение любой front-задачи начинать с составления модели данных.\n• уметь работать со сложными SQL-запросами.\n• самостоятельно уметь планировать свою работу.\n• опыт создания сайтов «под ключ»\n• навыки работы с системами контроля версий\n• обязательное понимание валидной, кросс-браузерной и адаптивной верстки.\n\nЧто дают:\n• Работа в офисе или возможность работать удаленно на полный рабочий день;\n• Трудоустройство в соответствии с ТК РФ;\n• График работы с Пн по Пт;\n• Просторный офис в центре Новосибирска либо удаленно;\n• Гибкое начало рабочего дня.\n\nБудет плюсом, если работали с большими проектами.\n\nВопросы : @juliajudina2810\njuliajudina2810@gmail.com","markup":[{"type":"hashtag","offset":0,"length":9,"data":"вакансия"},{"type":"hashtag","offset":10,"length":12,"data":"Новосибирск"},{"type":"hashtag","offset":23,"length":5,"data":"офис"},{"type":"handle","offset":1481,"length":16,"data":"juliajudina2810"},{"type":"link","offset":1498,"length":25,"data":"mailto:juliajudina2810@gmail.com"}],"date":"2020-04-09T10:05:09+00:00","link":"tg://resolve?domain=php_jobs&post=23215","tags":[{"name":"php"},{"name":"javascript"},{"name":"swift"},{"name":"nodejs"},{"name":"yii"},{"name":"laravel"},{"name":"reactjs"},{"name":"mysql"},{"name":"postgresql"},{"name":"elasticsearch"},{"name":"jenkins"},{"name":"docker"},{"name":"kubernetes"},{"name":"sql"}],"cities":[{"code":"novosibirsk"}],"allowsRemote":true}},{"node":{"__typename":"Job","id":"1990197248-1001134745498","title":"Devops инженер","text":"#вакансия  #Мск #Москва #офис #devops #fulltime\nГород: Москва \nФормат работы: офис\nЗанятость: полная\n\nПозиция: DevOps \nЗарплатная вилка: от 170 000 до 200 000 net. (после налогов) \n\nОписание вакансии: \nИщу DevOps инженера в европейскую компанию, которая открыла офис в Москве.\n\nОсновные задачи - поддержка сред разработки, прода, администрирование.\n\nТочно нужно: \nразговорный английский – обязательно,\nLinux (CentOS), Ansible, Jenkins, CI/CD, Docker\nKubernetes как плюс\n\nПредлагаем: интересный проект, медицинское страхование, обучение, комфортный офис.\n\nНазвание компании: SPICE IT\nРезюме отправлять: achistyakova@spice-agency.ru или @AlinaChist\n\n—\n\n👉 Обсуждение вакансии в чате @devops_jobs","markup":[{"type":"hashtag","offset":0,"length":9,"data":"вакансия"},{"type":"hashtag","offset":11,"length":4,"data":"Мск"},{"type":"hashtag","offset":16,"length":7,"data":"Москва"},{"type":"hashtag","offset":24,"length":5,"data":"офис"},{"type":"hashtag","offset":30,"length":7,"data":"devops"},{"type":"hashtag","offset":38,"length":9,"data":"fulltime"},{"type":"link","offset":602,"length":28,"data":"mailto:achistyakova@spice-agency.ru"},{"type":"handle","offset":635,"length":11,"data":"AlinaChist"},{"type":"handle","offset":681,"length":12,"data":"devops_jobs"}],"date":"2020-04-09T10:02:31+00:00","link":"tg://resolve?domain=devops_jobs_feed&post=1898","tags":[{"name":"dotnet"},{"name":"linux"},{"name":"centos"},{"name":"ansible"},{"name":"jenkins"},{"name":"docker"},{"name":"kubernetes"}],"cities":[{"code":"moscow"}],"allowsRemote":false}},{"node":{"__typename":"Job","id":"98262056960-1001089317451","title":"Qa engineer","text":"#вакансия #СПБ #fulltime #office\n\nГород: Санкт-Петербург\nПозиция: Senior QA Engineer\nКомпания: Antal Russia\nФормат работы: офис, полная занятость \nЗарплатная вилка: до 150k gross + ежемесячные и квартальные бонусы (З/П обсуждаем индивидуально)\n\nО проекте:\nРабота в команде разрабатывающей интерфейсы сервиса обновления, сервиса метаданных и VOD-контента (video-on-demand).\nНа проекте используется микросервисная архитектура.\n \nОсновной стек проекта:\nJIRA, Confluence, Python, JavaScript, Selenium, Linux, docker, kubernetes.\n\n\nКого мы ищем?\n- Опыт тестирования от 3-х лет;\n- Опыт тестирования веб сервисов (UI+backend);\n- Знание реляционных СУБД (Postgres);\n- Умение работать с ОС Linux в консоли;\n- Знание Python, JavaScript, опыт программирования приветствуется;\n- Опыт автоматизации Selenium;\n- Опыт наставничества/управления небольшой командой.\n\nМы предлагаем:\n- Современный офис в Петербурге\n- Иногда можно работать удалённо;\n- ДМС и врач в офисе;\n- Оплата спорта и проф. курсов;\n- Помощь с переездом семьи из любого региона России.\n\nКонтакты куда слать СV резюме: kristina.shaburova@antalrussia.com\ntelegram @hello_intelligence","markup":[{"type":"hashtag","offset":0,"length":9,"data":"вакансия"},{"type":"hashtag","offset":10,"length":4,"data":"СПБ"},{"type":"hashtag","offset":15,"length":9,"data":"fulltime"},{"type":"hashtag","offset":25,"length":7,"data":"office"},{"type":"italic","offset":34,"length":6,"data":""},{"type":"italic","offset":57,"length":8,"data":""},{"type":"bold","offset":66,"length":19,"data":""},{"type":"italic","offset":85,"length":9,"data":""},{"type":"italic","offset":108,"length":14,"data":""},{"type":"italic","offset":147,"length":17,"data":""},{"type":"bold","offset":245,"length":11,"data":""},{"type":"bold","offset":427,"length":23,"data":""},{"type":"bold","offset":527,"length":14,"data":""},{"type":"bold","offset":850,"length":15,"data":""},{"type":"bold","offset":1070,"length":63,"data":""},{"type":"link","offset":1070,"length":34,"data":"mailto:kristina.shaburova@antalrussia.com"},{"type":"handle","offset":1114,"length":19,"data":"hello_intelligence"}],"date":"2020-04-09T06:57:36+00:00","link":"tg://resolve?domain=qa_jobs&post=93710","tags":[{"name":"qa"},{"name":"python"},{"name":"javascript"},{"name":"selenium"},{"name":"linux"},{"name":"docker"},{"name":"kubernetes"},{"name":"postgresql"}],"cities":[],"allowsRemote":true}}]}}},"context":{}}