{"hash":"f34fd2c444a074f4e0e67d525015a008ef8e766f","data":{"records":{"id":"linux","name":"linux","belongsTo":{"totalCount":103,"pageInfo":{"totalPages":11,"currentPage":2},"edges":[{"node":{"__typename":"Job","id":"16225665024-1001110946746","title":"Js разработчик","text":"#вакансия #nodejs #backend #remote #postgres #rabbitmq #redis #docker #linux #удаленно\n\nВакансия Node.JS разработчик\nФормат работы: удаленно\nЗанятость: полная\nЗарплатная вилка: \nMiddle 160000-190000₽, \nSenior 200000-230000₽\nКомпания: ЕasyPay\n\nПлатежная система для мгновенной оплаты по счетам за сотовый телефон, коммунальные услуги, услуги денежных переводов, игры и тд.\n\n🔹Наши продукты сейчас особенно актуальны и востребованы\n\n🔹Почти вся команда работает удалённо. Это молодые, веселые и целеустремлённые ребята. У нас очень дружная команда👍🏽\n\n🔹Компания постоянно увеличивает количество предоставляемых услуг, и сейчас нужны два разработчика, Senior и Middle\n\n♦️На проекте используем такие технологии: Postgres, Rabbitmq, Redis, Docker и все это работает на Linux \n\nИ это только 10% всей информации, пишите, буду рада рассказать подробнее о условиях работы, проекте и бонусах @Julia_Nikolova","markup":[{"type":"hashtag","offset":0,"length":9,"data":"вакансия"},{"type":"hashtag","offset":10,"length":7,"data":"nodejs"},{"type":"hashtag","offset":18,"length":8,"data":"backend"},{"type":"hashtag","offset":27,"length":7,"data":"remote"},{"type":"hashtag","offset":35,"length":9,"data":"postgres"},{"type":"hashtag","offset":45,"length":9,"data":"rabbitmq"},{"type":"hashtag","offset":55,"length":6,"data":"redis"},{"type":"hashtag","offset":62,"length":7,"data":"docker"},{"type":"hashtag","offset":70,"length":6,"data":"linux"},{"type":"hashtag","offset":77,"length":9,"data":"удаленно"},{"type":"handle","offset":884,"length":15,"data":"Julia_Nikolova"}],"date":"2020-04-09T06:38:38+00:00","link":"tg://resolve?domain=javascript_jobs_feed&post=15474","tags":[{"name":"javascript"},{"name":"nodejs"},{"name":"postgresql"},{"name":"rabbitmq"},{"name":"redis"},{"name":"docker"},{"name":"linux"}],"cities":[],"allowsRemote":true}},{"node":{"__typename":"Job","id":"16221470720-1001110946746","title":"Js разработчик","text":"#вакансия #удаленка #remote #angular #javascript #киров #томск #уфа #брест #белгород #новгород\nЛокация: удаленно или офис (Н.Новгород, Томск, Киров, Уфа, Белгород, Брест)\n\nЗанятость: полная\n\nЗарплатная вилка: от 120 т.р. до 150т.р. на руки\n\nКомпания: Colvir Software Solutions\n\nТребуется senior или middle разработчик на удаленную работу\n\nЗадачи:\n\nРазработка/доработка одностраничных Web-приложений (SPA) дистанционного банковского обслуживания (на базе Angular 2+)\n\n\nПожелания к опыту соискателя:\n\nОпыт коммерческой разработки Angular 2+\n\nОпыт работы с Angular 2+ от 2 лет\n\nОпыт разработки Apache Сordova приложений;\n\nОпыт использования CSS-препроцессоров (LESS, SASS);\n\nОтличные знания JavaScript/HTML/CSS,\n\n\nСущественным плюсом будет:\n\nОпыт использования библиотек функционального программирования (Lodash);\n\nПрограммирование на платформе NodeJS;\n\nОпыт программирования по спецификации ECMAScript 6\n\nУмение читать SQL код;\n\nОпыт работы с Mercurial и(или) Git;\n\nБазовые знания администрирования Linux;\n\nАнглийский язык - на уровне чтения документации.\nМы предлагаем:\nОфициальное трудоустройство, оплачиваемые больничные и отпуск\n\nКорпоративное обучение и библиотека\n\nБесплатные медицинские онлайн-консультации «Онлайн Доктор»\n\nКорпоративные скидки на изучение английского языка\n\nКонтакты: @CTatyana или почта tchertykova@colvir.ru","markup":[{"type":"hashtag","offset":0,"length":9,"data":"вакансия"},{"type":"hashtag","offset":10,"length":9,"data":"удаленка"},{"type":"hashtag","offset":20,"length":7,"data":"remote"},{"type":"hashtag","offset":28,"length":8,"data":"angular"},{"type":"hashtag","offset":37,"length":11,"data":"javascript"},{"type":"hashtag","offset":49,"length":6,"data":"киров"},{"type":"hashtag","offset":56,"length":6,"data":"томск"},{"type":"hashtag","offset":63,"length":4,"data":"уфа"},{"type":"hashtag","offset":68,"length":6,"data":"брест"},{"type":"hashtag","offset":75,"length":9,"data":"белгород"},{"type":"hashtag","offset":85,"length":9,"data":"новгород"},{"type":"handle","offset":1291,"length":9,"data":"CTatyana"},{"type":"link","offset":1311,"length":21,"data":"mailto:tchertykova@colvir.ru"}],"date":"2020-04-09T06:37:28+00:00","link":"tg://resolve?domain=javascript_jobs_feed&post=15470","tags":[{"name":"javascript"},{"name":"angularjs"},{"name":"web"},{"name":"apache"},{"name":"css"},{"name":"sass"},{"name":"html"},{"name":"nodejs"},{"name":"sql"},{"name":"mercurial"},{"name":"git"},{"name":"linux"}],"cities":[{"code":"kirov"},{"code":"tomsk"},{"code":"ufa"},{"code":"brest"},{"code":"belgorod"}],"allowsRemote":true}},{"node":{"__typename":"Job","id":"1988100096-1001134745498","title":"Devops engineer","text":"#вакансия \nУдаленно\nГ. Казань ул. Петербургская д. 52 офис 41\nЗанятость: проектная\nЗарплатная вилка: от 100 000 до 200 000\n\nОписание вакансии: Мы делаем курс для начинающих DevOPS и нам нужен блок по Google Cloud. Пример нашего курса по Linux тут: https://sipteco.ru/onboard_win_to_lin\n\nЕсть англоязычный курс: https://www.udemy.com/course/google-certified-associate-cloud-engineer/\nЯ куплю этот курс. От вас нужно сделать по нему курса в боте. Бот настраивается так: https://youtu.be/0Yz06diB6gw\n\nМне нужно чтобы вы сделали практические примеры, которые включают всю программу по ссылке.\n\nНазвание компании:  Sipteco.ru \n\nКонтакты:  +79872745052 Михаил @mezhirnov\n\n—\n\n👉 Обсуждение вакансии в чате @devops_jobs","markup":[{"type":"hashtag","offset":0,"length":9,"data":"вакансия"},{"type":"link","offset":248,"length":37,"data":"https://sipteco.ru/onboard_win_to_lin"},{"type":"link","offset":311,"length":71,"data":"https://www.udemy.com/course/google-certified-associate-cloud-engineer/"},{"type":"link","offset":468,"length":28,"data":"https://youtu.be/0Yz06diB6gw"},{"type":"link","offset":610,"length":10,"data":"http://Sipteco.ru"},{"type":"link","offset":634,"length":12,"data":"tel:+79872745052"},{"type":"handle","offset":654,"length":10,"data":"mezhirnov"},{"type":"handle","offset":699,"length":12,"data":"devops_jobs"}],"date":"2020-04-09T06:30:15+00:00","link":"tg://resolve?domain=devops_jobs_feed&post=1896","tags":[{"name":"cloud"},{"name":"linux"},{"name":"google-cloud-platform"}],"cities":[{"code":"kazan"}],"allowsRemote":false}},{"node":{"__typename":"Job","id":"98229551104-1001089317451","title":"Qa engineer","text":"#вакансия \nВакансия: #sdet #QA #automation #fulltime\nКомпания: #нспк #псмир\nЛокация: #томск\nЗ/п: 100к-180к net (после вычета налогов)\n\n«Национальная система платежных карт» ищет QA Automation Engineer.\n\nНСПК - развивающаяся компания, создающая финтех-сервисы, которыми пользуются миллионы людей. \n\nЗа 5 лет нашей истории мы разработали бизнес-продукты, аналоги которых в мире можно пересчитать по пальцам:\n✔️Платежная система \"Мир\";\n✔️Система быстрых платежей;\n✔️Программа лояльности \"Мир\";\n✔️Сервис мобильной оплаты MirPay;\n✔️Система аутентификации пользователей MirAccept.  \n\n⛏ Наш стек: Java, Spring, MySql, Linux, Git, Jenkins, Nexus, Ansible, Groovy, Gradle, Nginx, HAProxy, Kafka, Hazelcast, Prometheus, ELK, Atlassian stack. \n\n🧠 Что нужно будет делать?\n- Разрабатывать автоматизированные тесты;\n- Проводить интеграционное тестирование;\n- Разрабатывать тест-кейсы и регистрировать баги;\n- Разрабатывать собственные платформы для автоматизации тестирования.\n\nВ общем, контролировать качество разрабатываемого решения. \n\n🎁 Мы предлагаем:\n- Работу в команде профессионалов;\n- Обучение за счет компании;\n- Развитую корпоративную культуру;\n- ДМС со стоматологией, официальное трудоустройство; \n- Комфортный офис в центре;\n- Чай, кофе, печеньки. ✌️\n\nХотите поучаствовать в масштабном и сложном проекте?\n\nМои контакты:\n📲 +7-916-051-20-63\n      @Ekaterina1915 \n\n📩 makarovaen@nspk.ru","markup":[{"type":"hashtag","offset":0,"length":9,"data":"вакансия"},{"type":"hashtag","offset":21,"length":5,"data":"sdet"},{"type":"hashtag","offset":27,"length":3,"data":"QA"},{"type":"hashtag","offset":31,"length":11,"data":"automation"},{"type":"hashtag","offset":43,"length":9,"data":"fulltime"},{"type":"hashtag","offset":63,"length":5,"data":"нспк"},{"type":"hashtag","offset":69,"length":6,"data":"псмир"},{"type":"hashtag","offset":85,"length":6,"data":"томск"},{"type":"link","offset":1323,"length":16,"data":"tel:+7-916-051-20-63"},{"type":"handle","offset":1346,"length":14,"data":"Ekaterina1915"},{"type":"link","offset":1366,"length":18,"data":"mailto:makarovaen@nspk.ru"}],"date":"2020-04-08T11:49:39+00:00","link":"tg://resolve?domain=qa_jobs&post=93679","tags":[{"name":"qa"},{"name":"dotnet"},{"name":"java"},{"name":"spring"},{"name":"mysql"},{"name":"linux"},{"name":"git"},{"name":"jenkins"},{"name":"ansible"},{"name":"groovy"},{"name":"gradle"},{"name":"nginx"},{"name":"kafka"}],"cities":[{"code":"tomsk"}],"allowsRemote":false}},{"node":{"__typename":"Job","id":"98227453952-1001089317451","title":"Qa инженер","text":"#вакансия #офиc  #QA #Москва #ручноетестирование #гибкийграфик #relocation\n\nГород и адрес офиса: Москва, м. Тверская, 3 минуты от метро\nФормат работы: офис.\nЗарплата: до 100 000 net\n\nИщу manual QA с хорошим письменным английским в калифорнийскую продуктовую компанию. \nМы разрабатываем удобный call-center, который уже умеет синтезировать речь, обучатся и распознавать настроение пользователей, создавать аналитические отчеты, строить сложные сценарии с использованием чат-ботов, поддерживать омниканальные соединения.\n\nОжидаем:\nопыт работы QA, опыт работы с Linux, знание SQL. Cупер, если у вас будет опыт с IP телефонией.\n\nПредлагаем:\nГибкий график, ламповая атмосфера в офисе с бесплатными ланчами (2 раза в неделю), на самом деле классный и интересный продукт, командировки в Сан-Франциско за счет компании. \nВозможен рост в QA team leader.\n\nКонтакт для связи - @o_kuzi","markup":[{"type":"hashtag","offset":0,"length":9,"data":"вакансия"},{"type":"hashtag","offset":10,"length":5,"data":"офиc"},{"type":"hashtag","offset":17,"length":3,"data":"QA"},{"type":"hashtag","offset":21,"length":7,"data":"Москва"},{"type":"hashtag","offset":29,"length":19,"data":"ручноетестирование"},{"type":"hashtag","offset":49,"length":13,"data":"гибкийграфик"},{"type":"hashtag","offset":63,"length":11,"data":"relocation"},{"type":"bold","offset":76,"length":20,"data":""},{"type":"bold","offset":136,"length":15,"data":""},{"type":"bold","offset":157,"length":9,"data":""},{"type":"link","offset":258,"length":8,"data":"https://www.brightpattern.com/"},{"type":"bold","offset":520,"length":9,"data":""},{"type":"bold","offset":625,"length":12,"data":""},{"type":"handle","offset":866,"length":7,"data":"o_kuzi"}],"date":"2020-04-08T10:59:56+00:00","link":"tg://resolve?domain=qa_jobs&post=93677","tags":[{"name":"qa"},{"name":"dotnet"},{"name":"linux"},{"name":"sql"}],"cities":[{"code":"moscow"}],"allowsRemote":false}},{"node":{"__typename":"Job","id":"1987051520-1001134745498","title":"Devops инженер","text":"#вакансия #DevOps #Москва\nMiddle DevOps\nФормат работы: офис\\удаленно, Занятость: полная\nКомпания: SnegirSoft - вендор ITSM-платформы «4it».\nРазрабатываем и поддерживаем платформу для управления it-процессами больших компаний.\n\nЗадачи:\n⚙️Развитие и поддержка инфраструктуры;\n⚙️Автоматизация сборки и доставки кода;\n⚙️Поддержка разработчиков;\n⚙️Анализ и устранение инцидентов на продуктовых контурах;\n⚙️Обеспечение работоспособности и отказоустойчивости сервисов;\n⚙️Внедрение новых инструментов администрирования;\n\nНаши хотелки:\n🛠Системы контроля версий Git (Bitbucket, Gitlab);\n🛠Управление конфигурациями (Ansible);\n🛠CI\\CD: Teamcity \\ Gitlab \\ Jenkins;\n🛠Опыт администрирования Windows, IIS;\n🛠Умение хорошо писать на Powershell;\n🛠Cистемы мониторинга (Zabbix \\ Prometheus);\n🛠ELK – стек (Elasticsearch, Kibana);\n🛠Сообщения, очереди: RabbitMQ, Kafka;\nБудет круто если:\n🛠Опыт администрирования Apache \\ Nginx;\n🛠Опыт администрирования Linux;\n🛠Контейнеризация (Docker);\n🛠Умение писать SQL-запросы, понимание принципов работы СУБД;\n🛠Опыт работы с монолитными и микросервисными архитектурами;\n🛠Навыки написание скриптов на bash;\n\nПредлагаем:\n🏢м. Нововкузнецкая 3(!) мин. пешком,\n🚑  ДМС (почти all inclusive)\n💰  Доход: 140 000 – 180 000 нетт\n⏰Начало дня гибко с 9-10-11, как договоримся.\n🖥ПК: i7 8-gen, 24Gb, SSD 512Gb, 2 хороших монитора.\n🚀  Стэк актуальный: .Net Core, Angular, Elasticsearch, RabbitMQ, MS SQL->Postgres, Almost SCRUM ^)\nКонтакты: @aastaf  a.astafev@snegirsoft.com\n\n—\n\n👉 Обсуждение вакансии в чате @devops_jobs","markup":[{"type":"hashtag","offset":0,"length":9,"data":"вакансия"},{"type":"hashtag","offset":10,"length":7,"data":"DevOps"},{"type":"hashtag","offset":18,"length":7,"data":"Москва"},{"type":"handle","offset":1457,"length":7,"data":"aastaf"},{"type":"link","offset":1466,"length":24,"data":"mailto:a.astafev@snegirsoft.com"},{"type":"handle","offset":1525,"length":12,"data":"devops_jobs"}],"date":"2020-04-08T10:14:42+00:00","link":"tg://resolve?domain=devops_jobs_feed&post=1895","tags":[{"name":"git"},{"name":"gitlab"},{"name":"ansible"},{"name":"jenkins"},{"name":"windows"},{"name":"iis"},{"name":"powershell"},{"name":"elasticsearch"},{"name":"rabbitmq"},{"name":"kafka"},{"name":"apache"},{"name":"nginx"},{"name":"linux"},{"name":"docker"},{"name":"sql"},{"name":"bash"},{"name":"dotnet"},{"name":"angularjs"},{"name":"postgresql"},{"name":"net-core"}],"cities":[{"code":"moscow"}],"allowsRemote":true}},{"node":{"__typename":"Job","id":"1986002944-1001134745498","title":"Devops engineer","text":"#вакансия #Казань #офис #Linux  #DevOps\n🌎Город и адрес офиса: Казань, м. Суконная Слобода, ул. Спартаковская д. 6 \n🏙Формат работы: офис (на время карантина удаленно)\n🕗Занятость: полная\n💰Зарплатная вилка: от 150 000 до 250 000 рублей gross\n\nОписание вакансии: \nПолная занятость, гибкий график\n\nStream – дочерняя компания ПАО МТС, задача которой – вывести мобильную и веб-разработку холдинга на новый уровень.\nИщем Lead DevOps engineer, который:\n- не боится новых технологий, но и не забывает старые (уметь руками поднять и настроить);\n- выбирает решения и стек исходя из требований и эффективности;\n- готов быть наставником для менее опытных ребят (наставничество, менторство);\n- возглавит группу DevOps (в первые месяцы 2-3 человека, в будущем будет больше);\n- сможет курировать много проектов и распределять задачи между членами команд (потребуются навыки планирования, оценки задач и общения с внутренними заказчиками – техлидами проектов);\n- готов быть на связи в экстренных случаях в любое время.\nНаша цель – развивать лучшие DevOps практики и наращивать экспертизу в компании.\n\nНаш стек достаточно разнообразен, не обязательно быть экспертом во всем, но если вдруг есть хороший опыт с чем-то из этого списка: Kubernates, Kafka, Bamboo, Jenkins, Ansible, Prometheus, Postgres, vmware, то будет плюсом.\n\n🍩🍭Мы предлагаем:\n- оформление по ТК РФ, гибкий график работы;\n- \"Белая\" заработная плата + полугодовые бонусы;\n- ДМС со стоматологией, страхование жизни после испытательного срока;\n- обучение и посещение профильных конференций;\n- корпоративная мобильная связь;\n- просторный офис в центре Казани.\nНазвание компании: Stream https://stream.ru/\nКонтакты: @askamasaska\n\n—\n\n👉 Обсуждение вакансии в чате @devops_jobs","markup":[{"type":"hashtag","offset":0,"length":9,"data":"вакансия"},{"type":"hashtag","offset":10,"length":7,"data":"Казань"},{"type":"hashtag","offset":18,"length":5,"data":"офис"},{"type":"hashtag","offset":24,"length":6,"data":"Linux"},{"type":"hashtag","offset":32,"length":7,"data":"DevOps"},{"type":"link","offset":1635,"length":18,"data":"https://stream.ru/"},{"type":"handle","offset":1664,"length":12,"data":"askamasaska"},{"type":"handle","offset":1711,"length":12,"data":"devops_jobs"}],"date":"2020-04-08T09:52:24+00:00","link":"tg://resolve?domain=devops_jobs_feed&post=1894","tags":[{"name":"linux"},{"name":"kafka"},{"name":"jenkins"},{"name":"ansible"},{"name":"postgresql"}],"cities":[{"code":"kazan"}],"allowsRemote":true}},{"node":{"__typename":"Job","id":"1984954368-1001134745498","title":"Devops инженер","text":"#вакансия #DevOps #docker #удалёнка\nГород: офис – Ростов-на-Дону, Ульяновск, распределенная команда\nФормат работы: удалённая \nЗанятость: полная, гибкий график\nЗарплатная вилка: от 100 000 до 120 000 р\nОписание вакансии:\nНаложка.рф – интернет сервис безопасных сделок . Мы призваны помочь незнакомым людям и молодым интернет-магазинам без опаски торговать товарами и оказывать услуги дистанционно.\nМы внедряем микросервисную архитектуру, заменяющую монолитное приложение. Используем контейнеризацию сервисов в Docker (Docker Swarm Mode оркестрацию, но не исключаем переход на Kubernetes). Сервера работают под управлением ОС Ubuntu Linux. Для сбора логов используем ElasticSearch+Fluentd+Kibana. Программный код микросервисов пишем на PHP7 и NodeJS. В качестве хранилищ данных - MySQL и Redis. В качестве механизма распространения событий и очередей задач используем RabbitMQ. HTTP-запросы принимаем через Nginx. Конфигурацию Docker Swarm пишем в формате Docker Compose, а скрипты автоматизации – на Bash. Код хостим в BitBucket, там же проводим code review. Сборки и деплоймент делаем при помощи Jenkins. Задачи ведем в JetBrains Youtrack. Для внутрикомандного взаимодействия используем Skype.\nИщем инициативного, привычного к командной работе специалиста для дистанционной работы (мы – географически распределенная команда), готового взять на себя ответственность за бесперебойную работу сервисов и контроль над развитием серверной архитектуры. У нас есть что улучшать и в процессах и в инструментах, и мы ждем от кандидата готовности вникнуть в потребности и предлагать улучшения.\nПомимо Наложка.рф, под нашим контролем находится несколько сайтов на CMS (LAMP стек), которые также необходимо поддерживать.\nВажные качества:\n• Критический взгляд с прицелом на улучшение имеющейся инфраструктуры (гипотеза, эксперимент, вывод);\n• Умение делать наглядными прогресс выполнения задач и результаты;\n• Малое время отклика (не можешь отреагировать сам, передай кому-то);\n• Умение объяснить свое решение;\n• Уважительное отношение к коллегам.\nОбязанности:\n• Поддержка системы мониторинга потребления ресурсов и живучести микросервисов. Определение новых метрик и нотификаций;\n• Поддержка системы непрерывной интеграции. Конфигурирование новых сборок совместно с разработчиками;\n• Поддержка конфигурации имеющихся микросервисов и развертывание новых;\n• Контроль работоспособности микросервисов и системы в целом;\n• Организация системных обновлений и обновления инструментов командной работы;\n• Совершенствование механизмов резервного копирования и восстановления;\n• Анализ проблем в production и staging окружениях. Поиск решений этих проблем совместно с разработчиками.\nМинимальные требования:\n• Прочные навыки работы с Linux;\n• Понимание принципов работы сетей, знание сетевых протоколов;\n• Понимание принципов контейнеризации приложений;\n• Знание возможностей Docker. Разнообразный опыт сборки образов. Опыт работы с Docker (swarm/kubernetes) в production;\n• Опыт мониторинга микросервисной системы;\n• Представления о рисках безопасности и возможных атаках на инфраструктуру приложений;\n• Умение читать и составлять скрипты автоматизации на Bash;\n• Чтение простых SQL запросов.\nЖелательные требования:\n• Понимание особенностей Swarm режима в Docker. Опыт работы со Swarm;\n• Опыт работы с Kubernetes. Понимание плюсов и минусов в сравнении со Swarm;\n• Опыт настройки и поддержки кластеров MySQL и Redis серверов;\n• Работа с MySQL на уровне, достаточном для выяснения причин ошибок выполнения запросов, а также причин медленной работы запросов;\n• Опыт отражения атак на инфраструктуру приложения;\n• Опыт проведения нагрузочного тестирования.\nЧто мы предлагаем:\n• Дистанционную работу с гибким графиком;\n• Трудоустройство согласно ТК РФ;\n• Взаимоотношения, построенные на честности и уважении.\nhttps://spb.hh.ru/vacancy/36523783\nКонтакты: @so_vasileva, Светлана Васильева\n\n—\n\n👉 Обсуждение вакансии в чате @devops_jobs","markup":[{"type":"hashtag","offset":0,"length":9,"data":"вакансия"},{"type":"hashtag","offset":10,"length":7,"data":"DevOps"},{"type":"hashtag","offset":18,"length":7,"data":"docker"},{"type":"hashtag","offset":26,"length":9,"data":"удалёнка"},{"type":"link","offset":220,"length":10,"data":"http://Наложка.рф"},{"type":"link","offset":1590,"length":10,"data":"http://Наложка.рф"},{"type":"link","offset":3784,"length":34,"data":"https://spb.hh.ru/vacancy/36523783"},{"type":"handle","offset":3829,"length":12,"data":"so_vasileva"},{"type":"handle","offset":3896,"length":12,"data":"devops_jobs"}],"date":"2020-04-08T09:52:00+00:00","link":"tg://resolve?domain=devops_jobs_feed&post=1893","tags":[{"name":"docker"},{"name":"kubernetes"},{"name":"ubuntu"},{"name":"linux"},{"name":"elasticsearch"},{"name":"php"},{"name":"nodejs"},{"name":"mysql"},{"name":"redis"},{"name":"rabbitmq"},{"name":"nginx"},{"name":"bash"},{"name":"jenkins"},{"name":"sql"},{"name":"docker-compose"}],"cities":[{"code":"rostov"},{"code":"ulyanovsk"}],"allowsRemote":true}},{"node":{"__typename":"Job","id":"98216968192-1001089317451","title":"Qa инженер","text":"#вакансия #fulltime #офис #Москва #Саратов #testautomation #middle #senior #TS\n\nКомпания: Техносерв https://technoserv.com/ \nВакансия: QA-ИНЖЕНЕР ПО АВТОМАТИЗАЦИИ ТЕСТИРОВАНИЯ\nДля работы на проектах в крупном банке (T&M)\nЗП: 60 000 - 220 000 (несколько позиций)\nГрафик работы: фултайм, 10:00-19:00 (по договоренности)\nМесто работы: офис, г. Москва или г. Саратов\n\nО проекте:\nСоздание системы, упрощающей работу операционистов в отделениях банка.\nРелизы выпускаются несколько раз в день\nQA активно участвуют в DevOps и CI/CD.\n\nКого мы ищем:\nИщем опытного QA-автоматизатора, разбирающегося в ключевых моментах автотестирования ПО. Основной его задачей будет увеличение покрытия автотестами существующего/нового функционала.\n\nЧем будете заниматься:\n• Разрабатывать автотесты на C# (Rest API / Rabbit MQ), поддерживать как новые, так и существующие тесты\n• Разрабатывать тестовые заглушки и сервисы (.net)\n• Конфигурировать сборки на CI-сервере (TeamCity)\n• Конфигурировать тестовые стенды (Helm, ArgoCD, Kubernetes, Docker)\n\nТребуемый опыт и знание технологий:\n• Опыт написания автотестов на C# (от года);\n• Опыт работы с NUnit / xUnit;\n• Умение разбираться с деплоймент-тулами и понимание принципов DevOps;\n• SQL на уровне написания запросов;\n• Знание методологий тестирования;\n• Умение написать чек-лист / тест-кейсы для функционала, покрываемого автотестами.\n\nБудет плюсом:\n• Работа с .net Core;\n• Опыт конфигурирования CI-серверов (мы используем TeamCity);\n• Знание PL-SQL и опыт работы c Oracle;\n• Навыки работы в консоли Linux (CentOS).\n\nРезюме сюда: QAResume@technoserv.com\n\nP.S. Если вы слабы в C#, но уверенно знаете java и Selenium, не стесняйтесь присылать резюме - варианты и возможности есть.","markup":[{"type":"hashtag","offset":0,"length":9,"data":"вакансия"},{"type":"hashtag","offset":10,"length":9,"data":"fulltime"},{"type":"hashtag","offset":20,"length":5,"data":"офис"},{"type":"hashtag","offset":26,"length":7,"data":"Москва"},{"type":"hashtag","offset":34,"length":8,"data":"Саратов"},{"type":"hashtag","offset":43,"length":15,"data":"testautomation"},{"type":"hashtag","offset":59,"length":7,"data":"middle"},{"type":"hashtag","offset":67,"length":7,"data":"senior"},{"type":"hashtag","offset":75,"length":3,"data":"TS"},{"type":"link","offset":100,"length":23,"data":"https://technoserv.com/"},{"type":"link","offset":1554,"length":23,"data":"mailto:QAResume@technoserv.com"}],"date":"2020-04-08T09:15:43+00:00","link":"tg://resolve?domain=qa_jobs&post=93667","tags":[{"name":"qa"},{"name":"rest"},{"name":"rabbitmq"},{"name":"dotnet"},{"name":"kubernetes"},{"name":"docker"},{"name":"sql"},{"name":"oracle"},{"name":"linux"},{"name":"centos"},{"name":"java"},{"name":"selenium"},{"name":"net-core"}],"cities":[{"code":"moscow"},{"code":"saratov"}],"allowsRemote":false}},{"node":{"__typename":"Job","id":"98199142400-1001089317451","title":"Qa engineer","text":"QA automation engineer (OpenStack)\n\nВсем привет!\n\n#вакансия #sbercloud #тестировщик # QAautomationengineer #QA #OpenStack #автоматизация #москва #офис #мск  #auto\n\n🏢Компания: SberCloud\n🏙Город: Москва, м. Боровицкая, м. Библиотека им Ленина, м. Александровский сад\n💰Зп: от 110к (обсуждается по результатам собеседования)\n\nФормат работы: офис \nЗанятость: полная\n\nSberCloud – облачный провайдер Группы Сбербанк, предоставляющий услуги для бизнес-клиентов на базе технологий Группы Сбербанк, одной из крупнейших технологических экосистем в России. Предоставляя клиентам передовые облачные технологии, совместимые с привычной для их бизнеса архитектурой ИТ-приложений, мы делаем возможным технологический прорыв. Мы создаем облачную платформу SberCloud, используя многолетний опыт развития ИТ-инфраструктуры Группы Сбербанк, обеспечения ее надежности, безопасности и эффективности в условиях стремительно растущих нагрузок и темпа изменений.\n\nОбязанности:\n✔️ Разрабатывать автотесты\n✔️ Участвовать в разработке и поддержке CI процесса\n✔️ Участвовать в функциональном, интеграционном, системном тестировании\n✔️ Проводить ручное и автоматизированное тестирование\n✔️ Анализировать результаты выполнения тестов\n✔️ Разрабатывать и поддерживать в актуальном состоянии тестовую документацию\n✔️ Работать с дефектами (обнаружение, анализ, контроль исправления)\n✔️ Взаимодействовать с другими отделами и членами команды для решения поставленных задач\n\nТребования:\n✔️ Понимание теории тестирования\n✔️ Опыт администрирования Linux/Windows серверов\n✔️ Опыт использования платформ виртуализации\n✔️ Опыт использования облачных платформ (OpenStack)\n✔️ Понимание сетевых технологий и протоколов (DNS, DHCP, VPN)\n✔️ Знание Python/других языков\n\nБудет плюсом:\n✔️ Знание фреймворков для автоматизации тестирования WEB UI\n✔️ Знание инструментов для тестирования REST API\n\nУсловия:\n✔️ Офис у м. Боровицкая, м. Библиотека им Ленина, м. Александровский сад\n✔️ ДМС + стоматология;\n✔️ Корпоративные скидки для сотрудников Группы Сбербанк;\n✔️ Льготные условия для кредитования;\n✔️ Гибкое начало рабочего дня.\n\n📲Контакты: aosamarov@sbercloud.ru или в лс (в телеге)","markup":[{"type":"hashtag","offset":50,"length":9,"data":"вакансия"},{"type":"hashtag","offset":60,"length":10,"data":"sbercloud"},{"type":"hashtag","offset":71,"length":12,"data":"тестировщик"},{"type":"hashtag","offset":107,"length":3,"data":"QA"},{"type":"hashtag","offset":111,"length":10,"data":"OpenStack"},{"type":"hashtag","offset":122,"length":14,"data":"автоматизация"},{"type":"hashtag","offset":137,"length":7,"data":"москва"},{"type":"hashtag","offset":145,"length":5,"data":"офис"},{"type":"hashtag","offset":151,"length":4,"data":"мск"},{"type":"hashtag","offset":157,"length":5,"data":"auto"},{"type":"link","offset":2093,"length":22,"data":"mailto:aosamarov@sbercloud.ru"}],"date":"2020-04-08T07:19:20+00:00","link":"tg://resolve?domain=qa_jobs&post=93650","tags":[{"name":"qa"},{"name":"linux"},{"name":"windows"},{"name":"dns"},{"name":"python"},{"name":"web"},{"name":"rest"}],"cities":[{"code":"moscow"}],"allowsRemote":false}}]}}},"context":{}}