{"hash":"f34fd2c444a074f4e0e67d525015a008ef8e766f","data":{"records":{"id":"spring","name":"spring","belongsTo":{"totalCount":54,"pageInfo":{"totalPages":6,"currentPage":2},"edges":[{"node":{"__typename":"Job","id":"1427111936-1001091028994","title":"Java developer","text":"#вакансия #java #backend #spring \nКомпания OpenDev\nЛокация #мск #москва \nЗП 170-230 gross\n\n🔵 Middle / Senior Java Developer\nТендеция  бесконтактных услуг и удаленных сервисов набирает обороты. Присоединийся к нам!\nПроект: SMARTBRANCH \nРазработка и поддержка ПО банковских терминалов нового поколения. Все услуги банка и интерактивное общение с менеджером  - в одном устройстве. Больше никаких очередей и \"возьмите талончик\" :) \n\nСтек:\n🔹 Java core, Java 8+\n🔹  Spring Framework, Spring boot, Spring Cloud\n🔹 Docker\n🔹 БД: NoSQL\n\nУсловия\n- Белая ЗП + ДМС\n- Продуктовые Scrum команды\n- Performance review\n- Релокация кандидатов из регионов ✈  \n\nЗадать вопрос / прислать CV / просто поздороваться @xenia_agv","markup":[{"type":"hashtag","offset":0,"length":9,"data":"вакансия"},{"type":"hashtag","offset":10,"length":5,"data":"java"},{"type":"hashtag","offset":16,"length":8,"data":"backend"},{"type":"hashtag","offset":25,"length":7,"data":"spring"},{"type":"hashtag","offset":59,"length":4,"data":"мск"},{"type":"hashtag","offset":64,"length":7,"data":"москва"},{"type":"handle","offset":695,"length":10,"data":"xenia_agv"}],"date":"2020-04-08T07:16:44+00:00","link":"tg://resolve?domain=jvmjobs&post=1361","tags":[{"name":"java"},{"name":"jvm"},{"name":"spring"},{"name":"cloud"},{"name":"docker"},{"name":"nosql"},{"name":"spring-boot"}],"cities":[{"code":"moscow"}],"allowsRemote":false}},{"node":{"__typename":"Job","id":"1425014784-1001091028994","title":"Java разработчик","text":"#java #вакансия #Москва #fulltime #middle #senior \nГород и адрес офиса: Москва, между метро Нагатинская и Тульская, мцк Верхние котлы \nФормат работы: офис\nЗанятость: полная\nОплата: 180-300 тыс. рублей\n\nОписание вакансии:\nКоманда Sber Product Catalog  ищет сильного Java-разработчика!🙌\nПроект Product Catalog-это облачное решение, которое позволяет бизнесу вести все свои продукты (карты, вклады, продукты партнеров и и.п) в едином месте, гибко управлять всеми элементами 4P (product,price, promotion, place) и мгновенно выводить все изменения на рынок. Архитектура системы состоит из 11 модулей, половина из них в Production, другая половина требует проектирования и разработки. Продукт активно развивается, поэтому мы хотим усилить нашу команду. От нас вы получите опыт и развитие компетенций, амбициозные задачи, карьерный рост и открытость к инновациям!\nСтек: Spring core/Security/Batch/Rest/HateOAS, ABACUSES,BPM,Versioning, Hibernate Envers/ORM/OGM, Apache Kafka, Jasper reports, Oracle/PostgreeSQL.\nПроцесс разработки : Scrum, Jira, Gitflow,Devops до Production (переход на OpenShift)\n-Оформление ТК РФ;\n     -ДМС;\n     - Белая заработная плата (оклад + годовая премия);\n     -Возможность обучения за счет компании;\n     -   Льготное кредитование;\n      -Бесплатный тренажерный зал на территории офиса;\n       - корпоративная жизнь и спортивные мероприятия;\n       -возможность карьерного роста.\n\nЖдём Вас в нашей команде!\n@TaliaHR","markup":[{"type":"hashtag","offset":0,"length":5,"data":"java"},{"type":"hashtag","offset":6,"length":9,"data":"вакансия"},{"type":"hashtag","offset":16,"length":7,"data":"Москва"},{"type":"hashtag","offset":24,"length":9,"data":"fulltime"},{"type":"hashtag","offset":34,"length":7,"data":"middle"},{"type":"hashtag","offset":42,"length":7,"data":"senior"},{"type":"handle","offset":1430,"length":8,"data":"TaliaHR"}],"date":"2020-04-07T14:08:33+00:00","link":"tg://resolve?domain=jvmjobs&post=1359","tags":[{"name":"java"},{"name":"jvm"},{"name":"spring"},{"name":"batch"},{"name":"rest"},{"name":"hibernate"},{"name":"orm"},{"name":"apache"},{"name":"kafka"},{"name":"oracle"}],"cities":[{"code":"moscow"}],"allowsRemote":false}},{"node":{"__typename":"Job","id":"1422917632-1001091028994","title":"Java разработчик","text":"#java #spring \nКомпания: #техносервконсалтинг #тск\nЛокация: #москва\nЗ/п: 130 - 250\nКонтакты: @Alenhr, akarmakulova@tsconsulting.ru\n\nМы создаём ипотечную экосистему для Банка Топ - 3 \"с нуля\". \nРазрабатываем новую высоконагруженную систему кредитования с использованием современного стека и микросервисной архитектуры на основе Kubernetes. \nСтек: Java 8, Spring Boot, Spring Data, Spring Security, PostgreSQL, Kubernetes, Docker, Git, Jira, Confluence, Zeplin, REST, SOAP, MQ. \n\nЧто нужно делать:\nРазрабатывать северную часть на Java\nУчаствовать в развитии проекта и сервисов\nРегулярно проводить code-review\nРасти и развиваться в рамках команды\n\nЧто важно для нас:\nОпыт программирования на Java от 3 лет\nЗнание и понимание принципов Spring\nОпыт работы с базами данных, знание SQL\n\nМы предлагаем: \nAgile команду, общий штат разработки 50+ человек\nСоциальный пакет (ДМС, фитнес)\nОфис в центре Москвы (Чистые пруды/ Тургеневская / Сретенский бульвар) \nГибкое начало и окончание рабочего дня","markup":[{"type":"hashtag","offset":0,"length":5,"data":"java"},{"type":"hashtag","offset":6,"length":7,"data":"spring"},{"type":"hashtag","offset":25,"length":20,"data":"техносервконсалтинг"},{"type":"hashtag","offset":46,"length":4,"data":"тск"},{"type":"hashtag","offset":60,"length":7,"data":"москва"},{"type":"handle","offset":93,"length":7,"data":"Alenhr"},{"type":"link","offset":102,"length":28,"data":"mailto:akarmakulova@tsconsulting.ru"}],"date":"2020-04-06T14:51:47+00:00","link":"tg://resolve?domain=jvmjobs&post=1357","tags":[{"name":"java"},{"name":"jvm"},{"name":"spring"},{"name":"kubernetes"},{"name":"postgresql"},{"name":"docker"},{"name":"git"},{"name":"rest"},{"name":"soap"},{"name":"sql"},{"name":"spring-boot"},{"name":"spring-data"},{"name":"spring-security"}],"cities":[{"code":"moscow"}],"allowsRemote":false}},{"node":{"__typename":"Job","id":"1421869056-1001091028994","title":"Java разработчик","text":"#backend #java #spring #hibernate #docker #git #linix #moscow #office #fulltime #москва #фуллтайм #офис\n\nКомпания: #АОДанные\nВилка 250-280тр Net\n\nНаша работа — обеспечение безопасности и функционирования сетей операторов связи и крупных корпораций\n\n♦️Spring, Hibernate, Docker\n♦️Знать требования к SOLID, DRY, WET, ACID\n♦️Git, linix-подобныe консоли\nПлюсом будет:\n♦️Angular, JavaScript, html, css\n\n Наша команда - это веселые и целеустремлённые ребята, настоящие профессионалы своего дела. У нас очень дружная команда👍🏽\n\n   Присоединяясь к нашей команде вы:\n🔹Получаете поддержку в профессиональном развитии и росте\n🔹Становитесь частью большого и важного дела - безопасности каждого из нас\n\nИ это только 10% всей информации, пишите, буду рада рассказать подробнее о условиях работы, проекте и бонусах @Julia_Nikolovag","markup":[{"type":"hashtag","offset":0,"length":8,"data":"backend"},{"type":"hashtag","offset":9,"length":5,"data":"java"},{"type":"hashtag","offset":15,"length":7,"data":"spring"},{"type":"hashtag","offset":23,"length":10,"data":"hibernate"},{"type":"hashtag","offset":34,"length":7,"data":"docker"},{"type":"hashtag","offset":42,"length":4,"data":"git"},{"type":"hashtag","offset":47,"length":6,"data":"linix"},{"type":"hashtag","offset":54,"length":7,"data":"moscow"},{"type":"hashtag","offset":62,"length":7,"data":"office"},{"type":"hashtag","offset":70,"length":9,"data":"fulltime"},{"type":"hashtag","offset":80,"length":7,"data":"москва"},{"type":"hashtag","offset":88,"length":9,"data":"фуллтайм"},{"type":"hashtag","offset":98,"length":5,"data":"офис"},{"type":"hashtag","offset":115,"length":9,"data":"АОДанные"},{"type":"link","offset":805,"length":15,"data":"https://t.me/Julia_Nikolova"}],"date":"2020-04-06T14:28:08+00:00","link":"tg://resolve?domain=jvmjobs&post=1356","tags":[{"name":"java"},{"name":"jvm"},{"name":"spring"},{"name":"hibernate"},{"name":"docker"},{"name":"git"},{"name":"dotnet"},{"name":"angularjs"},{"name":"javascript"},{"name":"html"},{"name":"css"}],"cities":[{"code":"moscow"}],"allowsRemote":false}},{"node":{"__typename":"Job","id":"1420820480-1001091028994","title":"Java разработчик","text":"Вакансия: #Java #TeamLead                                           \nКомпания: #Утконос                                                                  \nЛокация: #Москва                                                                         \nЗ/п: 320 000 Net                                                                             \nКонтакт: @RecruiterTatianaK                                                   \nJava TeamLead в Утконос Онлайн\n📍Наш проект:\nВ компании разрабатывается комплексная система по управлению складом. Систему пишем сами «с нуля», на микросервисной архитектуре\n📍Что нужно делать?   \nУправление командой разработки   \nРазработка алгоритмов по оптимизации хранения и комплектации                                                                                       \nУчастие в проработке архитектурных решений                   \n📍Наш стек:\n Java 11, Spring 5, Kubernetes, ELK, Grafana, Prometheus, Kafka                                                                                               \n📍Что предлагаем?                                                                        \nОформление по ТК РФ, ДМС   \nГибкий график                                                                     \nКорпоративные скидки на utkonos.ru, tui.ru, фитнес, кино и др.                                                                                      \nОфис - 10 минут  от м. Краснопресненская/ м.Улица 1905 года","markup":[{"type":"hashtag","offset":10,"length":5,"data":"Java"},{"type":"hashtag","offset":16,"length":9,"data":"TeamLead"},{"type":"hashtag","offset":79,"length":8,"data":"Утконос"},{"type":"hashtag","offset":163,"length":7,"data":"Москва"},{"type":"handle","offset":347,"length":18,"data":"RecruiterTatianaK"},{"type":"link","offset":1254,"length":10,"data":"http://utkonos.ru"},{"type":"link","offset":1266,"length":6,"data":"http://tui.ru"}],"date":"2020-04-06T14:27:06+00:00","link":"tg://resolve?domain=jvmjobs&post=1355","tags":[{"name":"java"},{"name":"jvm"},{"name":"dotnet"},{"name":"spring"},{"name":"kubernetes"},{"name":"kafka"}],"cities":[{"code":"moscow"}],"allowsRemote":false}},{"node":{"__typename":"Job","id":"16186867712-1001110946746","title":"Js разработчик","text":"#frontend #вакансия #Москва #fulltime #middle #senior #react #работа\nГород и адрес офиса: Москва, между метро Нагатинская и Тульская, мцк Верхние котлы \nФормат работы: офис\nЗанятость:полная\nОплата: 150- 250 Net\nОписание вакансии:\n💥Команда Product Catalog  ищет сильного Frontend-разработчика!🙌\n💥Проект Product Catalog-это облачное решение, которое позволяет бизнесу вести все свои продукты (карты, вклады, продукты партнеров и и.п) в едином месте, гибко управлять всеми элементами 4P (product,price, promotion, place) и мгновенно выводить все изменения на рынок. Архитектура системы состоит из 11 модулей, половина из них в Production, другая половина требует проектирования и разработки. Продукт активно развивается, поэтому мы хотим усилить нашу команду. От нас вы получите опыт и развитие компетенций, амбициозные задачи, карьерный рост и открытость к инновациям!\n💥Стек: React JS, react-redux, webPack, CSS, HTML, Java, Spring, Git, Maven.\n💥 Процесс разработки : Scrum, Jira, Gitfliw, Devops до Production (переход на OpenShift)\n💥-Оформление ТК РФ;\n     -ДМС;\n     - Белая заработная плата (оклад + годовая премия);\n     -Возможность обучения за счет компании;\n     -   Льготное кредитование;\n      -Бесплатный тренажерный зал на территории офиса;\n       - корпоративная жизнь и спортивные мероприятия;\n       -возможность карьерного роста.\nКомпания: СберТех\nКонтакты: @TaliaHR\n\n—","markup":[{"type":"hashtag","offset":0,"length":9,"data":"frontend"},{"type":"hashtag","offset":10,"length":9,"data":"вакансия"},{"type":"hashtag","offset":20,"length":7,"data":"Москва"},{"type":"hashtag","offset":28,"length":9,"data":"fulltime"},{"type":"hashtag","offset":38,"length":7,"data":"middle"},{"type":"hashtag","offset":46,"length":7,"data":"senior"},{"type":"hashtag","offset":54,"length":6,"data":"react"},{"type":"hashtag","offset":61,"length":7,"data":"работа"},{"type":"handle","offset":1378,"length":8,"data":"TaliaHR"}],"date":"2020-04-06T09:46:48+00:00","link":"tg://resolve?domain=javascript_jobs_feed&post=15437","tags":[{"name":"javascript"},{"name":"reactjs"},{"name":"dotnet"},{"name":"redux"},{"name":"webpack"},{"name":"css"},{"name":"html"},{"name":"java"},{"name":"spring"},{"name":"git"},{"name":"maven"},{"name":"react-redux"}],"cities":[{"code":"moscow"}],"allowsRemote":false}},{"node":{"__typename":"Job","id":"1418723328-1001091028994","title":"Java разработчик","text":"Вакансия: #java #spring #kotlin #middle #senior\nКомпания: #сбербанк\nЛокация: #москва\nЗ/п: от 160 до 250 net \nКонтакты: @Sooreyn\n \nВ команду разработки систем управления кредитными рисками и рисками на финансовых рынках ищем Java-разработчика. Мы — амбициозная и дружная команда. Ежедневно совершаем подвиги, являем чудеса инженерной мысли и покоряем новые технологические высоты. Выпускаем не имеющий аналогов в России «риск-менеджмент» продукт.\n \nИспользуем: Kotlin, Spring Cloud, Service Discovery (Eureka), API Gateway (Zuul), Feign client, Circuit breaker.\n \nМы предлагаем:\nГрафик работы с гибким подходом, в пятницу короткий день;\nОфис - метро Тульская; ДМС, фитнес;\nВозможность проходить обучение в лучшем Корпоративном Университете (Европы);\nИ еще много всего интересного и \"вкусного\".","markup":[{"type":"hashtag","offset":10,"length":5,"data":"java"},{"type":"hashtag","offset":16,"length":7,"data":"spring"},{"type":"hashtag","offset":24,"length":7,"data":"kotlin"},{"type":"hashtag","offset":32,"length":7,"data":"middle"},{"type":"hashtag","offset":40,"length":7,"data":"senior"},{"type":"hashtag","offset":58,"length":9,"data":"сбербанк"},{"type":"hashtag","offset":77,"length":7,"data":"москва"},{"type":"handle","offset":119,"length":8,"data":"Sooreyn"}],"date":"2020-04-06T09:17:30+00:00","link":"tg://resolve?domain=jvmjobs&post=1353","tags":[{"name":"java"},{"name":"jvm"},{"name":"spring"},{"name":"kotlin"},{"name":"dotnet"},{"name":"cloud"}],"cities":[{"code":"moscow"}],"allowsRemote":false}},{"node":{"__typename":"Job","id":"1417674752-1001091028994","title":"Java разработчик","text":"#java #middle #москва #офис #fulltime частично #remote \n\nКомпания: BPC, проект \"Рунет Бизнес Системы\"\nформат работы: офис\nзанятость: full time, есть возможность частично работать remote \nлокация: Москва, (м. Курская/Чкаловская) \nЗ/п: 150 - 200к Net \n\n🌏Компания \"Рунет Бизнес Системы\" входит в группу компаний BPC Банковские Технологии и специализируется на предоставлении услуг интернет-эквайринга.  \nКлиенты РБС - это крупнейшие банки и компании России: Сбербанк РФ, Альфа-Банк, Аэрофлот, Открытие, группа ВТБ и многие другие. На текущий момент у РБС полтора десятка экземпляров платёжного шлюза для банков, где топовые инстансы дают в среднем 250 транзакций в секунду. \n\nРебята постоянно развивают внутренние процессы, сохраняя гибкость в управлении растущим числом проектов. Код-ревью всех изменений, agile-подход к разработке (примерно Scrumban), continuous integration и автоматизация тестирования помогают им контролировать и синхронизировать работу команд разработки, тестирования и внедрения.\n\nВ данный момент команды в поисках Middle Java разработчиков, коллеги готов гибко рассматривать кандидатов с опытом от 2 лет. \n\n🔸Технологический стэк команды:\nJava 11 (Stream API), java.util.concurrent, Stream REST API, Spring (boot, MVC, JDBC), Hibernate, Gradle, Kafka, Git, Maven. \n\n🔹Взамен компания готова предоставить:\n- оформление трудовых отношений в соответствии с ТК РФ: \"белую\" конкурентоспособную зарплату, оплату больничных и отпусков;\n- ДМС, включая стоматологию, участие в программах корпоративного кредитования и страхования;\n- возможность карьерного роста, обучения в корпоративном Университете и посещения внешних тренингов;\n- гибкое начало рабочего дня и крутые корпоративные мероприятия;\n- комфортный офис в шаговой доступности от метро Курская/Чкаловская. Бонусом - красивый вид из окна, тишина, чай и сэндвичи, пятница – фруктовый день 🙂 \n\nКонтакты: \ne-mail: valeriya@luckyhunter.io\ntelegram: @sobolevavalery\nБуду рада ответить на все вопросы и рассказать подробнее о компании 😊","markup":[{"type":"hashtag","offset":0,"length":5,"data":"java"},{"type":"hashtag","offset":6,"length":7,"data":"middle"},{"type":"hashtag","offset":14,"length":7,"data":"москва"},{"type":"hashtag","offset":22,"length":5,"data":"офис"},{"type":"hashtag","offset":28,"length":9,"data":"fulltime"},{"type":"hashtag","offset":47,"length":7,"data":"remote"},{"type":"link","offset":1885,"length":23,"data":"mailto:valeriya@luckyhunter.io"},{"type":"handle","offset":1919,"length":15,"data":"sobolevavalery"}],"date":"2020-04-03T15:11:11+00:00","link":"tg://resolve?domain=jvmjobs&post=1352","tags":[{"name":"java"},{"name":"jvm"},{"name":"dotnet"},{"name":"rest"},{"name":"spring"},{"name":"jdbc"},{"name":"hibernate"},{"name":"gradle"},{"name":"kafka"},{"name":"git"},{"name":"maven"},{"name":"continuous-integration"},{"name":"spring-boot"}],"cities":[{"code":"moscow"}],"allowsRemote":true}},{"node":{"__typename":"Job","id":"1965031424-1001134745498","title":"Devops инженер","text":"#вакансия \nГород: Amsterdam\nФормат работы: удаленка / remote\nЗанятость: проектная\nЗарплатная вилка: от 15 до 25 USD в час\n\nОписание вакансии: \nПредоставить инструкцию и/или скрипты по разворачиванию Kubernetes с Istio поверх, на котором необходимо :\n- задеплоить docker с Spring Java REST приложением (имеющим доступ извне кластера, для того чтобы внешнии клиенты могли к нему подключаться)\n- задеплоить docker с MongoDB (не имеющим доступ извне  кластера, но иметь доступ с других инстанций кластера, в частности с Spring Java REST приложения\n- подключить Keycloak к Istio для авторизации через JWT token в Spring Java REST приложении\n- подключить TLS в Istio и допускать только SSL трафик в кластер\nУсловия:\n* уже имеется конфигурация Keycloak с помощью которой есть Spring Java REST приложение осуществляет регистрацию  пользователей и получение JWT token, необходимо использовать эту конфигурацию для доступа к Spring Java REST приложению\n* не все методы в Spring Java REST приложении необходимо обезопасить JWT токеном\n\nНазвание компании: Take it Personally BV\nКонтакт: @takeitpersonally\nEmail: konstantin@mytip.app\n\n—\n\n👉 Обсуждение вакансии в чате @devops_jobs","markup":[{"type":"hashtag","offset":0,"length":9,"data":"вакансия"},{"type":"handle","offset":1075,"length":17,"data":"takeitpersonally"},{"type":"link","offset":1100,"length":20,"data":"mailto:konstantin@mytip.app"},{"type":"handle","offset":1155,"length":12,"data":"devops_jobs"}],"date":"2020-04-03T15:05:06+00:00","link":"tg://resolve?domain=devops_jobs_feed&post=1874","tags":[{"name":"kubernetes"},{"name":"docker"},{"name":"spring"},{"name":"java"},{"name":"rest"},{"name":"mongodb"},{"name":"jwt"},{"name":"ssl"}],"cities":[{"code":"amsterdam"}],"allowsRemote":true}},{"node":{"__typename":"Job","id":"1416626176-1001091028994","title":"Java разработчик","text":"#офис #Москва #Java #RedCode\n\nСобеседования и работа в период карантина осуществляются дистанционно\n\nВакансия: Java разработчик\nЛокация: Москва, офис, м. Павелецкая \nЗарплатная вилка: 250 - 400 т.р. (обсуждается)\nТребуемый опыт: 3-6 лет \n\nВ крупную и стабильную компанию, уважающую трудовое законодательство и умеющую ценить своих сотрудников, требуется квалифицированный и опытный Java разработчик\n\n🔹Требования к кандидатам: \n- Высокий уровень знаний Java и опыт объектно-ориентированного программирования.\n- Знание современных библиотек, фреймворков (Spring, Hibernate...) и шаблонов проектирования.\n- Опыт работы с инфраструктурой микросервисов (Docker)\n- Необходимо понимать процесс разработки, уметь его организовывать и оптимизировать\n- Знать принципы ООП, подходы в программировании и требования к транзакционным системам (SOLID, DRY, WET, ACID)\n- Иметь обширный опыт работы с различными фреймворками, опыт работы с большими проектами\n- Понимать как работает git, уметь работать с linix-подобными консолями\n- Уметь аргументировать и договариваться \n\n🔹Также приветствуются:\n- Опыт разработки высокопроизводительных и высоконадёжных приложений.\n- Практика с Golang \n\n🔹О приятном: \n- белая зарплата.; \n- Соцпакет + ДМС (после испытательного срока).\n- стабильная компания\n- Шаговая доступность ст.м. \"Павелецкая\".\n- Coffee-Room в офисе + много где поесть в любое время дня. \n\nРезюме и вопросы: @Tatiana_Litvak","markup":[{"type":"hashtag","offset":0,"length":5,"data":"офис"},{"type":"hashtag","offset":6,"length":7,"data":"Москва"},{"type":"hashtag","offset":14,"length":5,"data":"Java"},{"type":"hashtag","offset":20,"length":8,"data":"RedCode"},{"type":"handle","offset":1400,"length":15,"data":"Tatiana_Litvak"}],"date":"2020-04-03T13:54:58+00:00","link":"tg://resolve?domain=jvmjobs&post=1351","tags":[{"name":"java"},{"name":"jvm"},{"name":"spring"},{"name":"hibernate"},{"name":"docker"},{"name":"git"},{"name":"go"}],"cities":[{"code":"moscow"}],"allowsRemote":false}}]}}},"context":{}}