{"hash":"f5f6bf98bd95e769321482904cbbd488f77922fd","data":{"records":{"id":"git","name":"git","belongsTo":{"totalCount":273,"pageInfo":{"totalPages":28,"currentPage":20},"edges":[{"node":{"__typename":"Job","id":"103199801344-1001089317451","title":"Qa инженер","text":"#вакансия #релокация #Кипр #Лимассол #fulltime \n✔️Developer in Test\n✔️Spotware Systems Ltd (fintech)\n✔️от 2700 евро на руки\n✔️релокация по окончанию карантина и после открытия границ обязательна\n\nТребуется человек который будет заниматься автоматизированным тестированием форекс веб приложения, написанного на  React/ Redux / TypeScript.\n\nОбязанности:\nПрогон автотестов, анализ результатов, заведение / контроль дефектов\nПоддержка и расширение функциональных тестов написанных на TestCafe / Typescript\nПоддержка и расширение перфоманс тестов написанных на Puppeteer / Typescript\nВедение и оптимизация тестовой документации совместно с QA командой в TestRail\nОптимизация процессов тестирования\n\nТребования:\nОтличное знание JS (ES6+), желательно TypeScript\nУмение составлять сложные локаторы на CSS / XPath\nПонимание принципов работы  React/ Redux приложения\nПонимание и опыт работы с Git\nЗнание фундаментальных основ программирования и клиент-серверной архитектуры\n\nБудет плюсом:\n\nОпыт разработки на TypeScript\nОпыт разработки на React + Redux\nЗнание и опыт использования паттернов проектирования\nПонимание методологий тестирования \n\nЗа подробностями в личку 🙂","markup":[{"type":"hashtag","offset":0,"length":9,"data":"вакансия"},{"type":"hashtag","offset":10,"length":10,"data":"релокация"},{"type":"hashtag","offset":21,"length":5,"data":"Кипр"},{"type":"hashtag","offset":27,"length":9,"data":"Лимассол"},{"type":"hashtag","offset":37,"length":9,"data":"fulltime"},{"type":"bold","offset":339,"length":11,"data":""},{"type":"bold","offset":694,"length":10,"data":""},{"type":"bold","offset":965,"length":12,"data":""}],"date":"2020-06-18T14:49:56+00:00","link":"tg://resolve?domain=qa_jobs&post=0","tags":[{"name":"qa"},{"name":"reactjs"},{"name":"redux"},{"name":"typescript"},{"name":"css"},{"name":"git"},{"name":"react-redux"}],"cities":[],"allowsRemote":false}},{"node":{"__typename":"Job","id":"71577894912-1001054966032","title":"Ios разработчик","text":"#вакансия #iOS #developer #moscow #офис #fulltime\n\n🔸Адрес: Москва, Новокузнецкая\n🔸Формат работы: офис \n🔸Занятость: полная \n🔸ЗП: 180 000-250 000\n\n📣Middle/Senior iOS Разработчик\n\nна один из наших проектов-социальная сеть нового поколения на базе блокчейн-технологий.\n\n🔶Компания Freedom Group International \n\nЧем придётся заниматься:\n🔶Разработка нового функционала в рамках существующего приложения;\n🔶Рефакторинг и апгрейд ранее сделанного функционала\n\nЧто для этого потребуется:\n🔶Опыт разработки мобильных приложений от трех лет;\n🔶Отличные знания ООП, алгоритмов и структур данных;\n🔶Отличное знание Swift;\n🔶Знание Objective-C для правки старого кода;\n🔶Понимание REST API, взаимодействие с backend;\n🔶Опыт работы с GIT\n\nЖелательно знание следующих библиотек:\n   • RxSwift\n   • AFNetworking\n\nМы готовы предложить:\n🔷Уютный, современный офис;\n🔷Гибкий график;\n🔷Дружный коллектив и лояльное руководство;\n🔷Все плюсы работы в «белой» компании\n\n🔶Контакт для связи: @AnutaF","markup":[{"type":"hashtag","offset":0,"length":9,"data":"вакансия"},{"type":"hashtag","offset":10,"length":4,"data":"iOS"},{"type":"hashtag","offset":15,"length":10,"data":"developer"},{"type":"hashtag","offset":26,"length":7,"data":"moscow"},{"type":"hashtag","offset":34,"length":5,"data":"офис"},{"type":"hashtag","offset":40,"length":9,"data":"fulltime"},{"type":"bold","offset":312,"length":24,"data":""},{"type":"bold","offset":458,"length":26,"data":""},{"type":"bold","offset":730,"length":38,"data":""},{"type":"bold","offset":801,"length":21,"data":""},{"type":"handle","offset":972,"length":7,"data":"AnutaF"}],"date":"2020-06-18T13:33:21+00:00","link":"tg://resolve?domain=mobile_jobs&post=0","tags":[{"name":"mobile"},{"name":"ios"},{"name":"swift"},{"name":"objective-c"},{"name":"rest"},{"name":"git"}],"cities":[{"code":"moscow"}],"allowsRemote":false}},{"node":{"__typename":"Job","id":"71573700608-1001054966032","title":"Mobile разработчик","text":"#вакансия #москва #офис #senior #unity #developer #gamedev #csharp c#\n\nГород и адрес офиса: Москва, м.Автозаводская \nФормат работы: офис \nЗанятость: полная \nЗарплатная вилка: от 200 000 до 250 000 на руки \n\n📣 Senior Unity 3D Developer (mobile game)\n\n\n✅ Описание вакансии:\n\nМы - успешная команда из 110 человек, которая занимается: \n• разработкой собственных мобильных игр и приложений \n• паблишингом мобильных игр \n• рекламой и маркетингом мобильных приложений (реклама на Facebook, Google и т.д.) \nЗа последние 3 года мы привлекли более 100 млн пользователей в наши собственные мобильные приложения и приложения наших клиентов и партнеров, потратив на это более $80 млн. \nУ нас есть все составляющие чтобы делать готовые продукты известными и популярными. Мы ищем сильного Unity разработчика уровня Senior, для работы над нашим главным тайтлом Dragon Champions (крупным хардкорным проектом в жанре Фэнтези, с тактической боевой системой).\n\n\n✅ Задачи:\n\n-Разработка клиентской части игры\n-Разработка клиент-серверного взаимодействия и общей игровой логики\n-Вёрстка UI по макетам от художников\n-Интеграция различных сторонних SDK\n\n\n✅ Требования:\n\n-Опыт работы на Unity3D (С#) от 3х лет\n-Отличное знание Unity и всех её подсистем\n-Отличное знание C#, умение писать чёткий, понятный, структурированный код\n-Отличное знание паттернов проектирования\n-Умение отлаживать и оптимизировать проекты под мобильные платформы iOS/Android\n-Умение верстать адаптивные интерфесы в uGUI\n-Умение разбираться в чужом коде, проводить рефакторинг\n-Уверенные знания по работе с системой контроля версий git\n-Дисциплинированность и ответственность\n\n\n✅ Плюсом будет:\n\n-Участие в разработке выпущенных игр под мобильные платформы на аналогичной должности\n-Умение работать с шейдерами\n-Опыт работы с нативными плагинами (In-Apps, PUSH notifications, аналитика, реклама, социальное взаимодействие)\n-Умение разрабатывать и поддерживать стабильную архитектуру\n-Коммуникабельность, умение чётко доносить свою точку зрения и принимать точку зрения остальных участников команды\n\n\n✅ Для вас:\n\n•  Конкурентная заработная плата, выплачивается 2 раза в месяц\n•  Необходимое оборудование для работы\n•  Бонусы по итогам выполнения KPI и запуска проектов\n•  Коллектив творческих и позитивных людей\n\n\n✅ О нас:\n\n• Просторный офис 600 метров на м. Автозаводская (3 минуты от метро и от ТТК на машине) с ультра современным дизайном и кучей ништяков (кухня с вкусняшками, кальяны каждый вечер в дружной кампании, PS4 Pro + 4K TV, аркадные автоматы с Pac-Man, Metal Slug и другими хитами геймдизайна, просторная зона отдыха, 5 переговорных комнат и т д) \n• Команда из 80 человек занимающаяся паблишингом и маркетингом, готовая сделать продукт успешным после его готовности \n• Возможность обучаться английскому языку с носителями каждый будний день по утрам \n• Менторы и инвесторы, создавшие большое количество успешных IT компаний \nПрисоединяйтесь к нашей команде уже сегодня! \n\nНазвание компании: AppQuantum \n\nКонтакты: \ne-mail: bm@adquantum.com\ntelegram: @MishaBarinov","markup":[{"type":"hashtag","offset":0,"length":9,"data":"вакансия"},{"type":"hashtag","offset":10,"length":7,"data":"москва"},{"type":"hashtag","offset":18,"length":5,"data":"офис"},{"type":"hashtag","offset":24,"length":7,"data":"senior"},{"type":"hashtag","offset":32,"length":6,"data":"unity"},{"type":"hashtag","offset":39,"length":10,"data":"developer"},{"type":"hashtag","offset":50,"length":8,"data":"gamedev"},{"type":"hashtag","offset":59,"length":7,"data":"csharp"},{"type":"bold","offset":254,"length":18,"data":""},{"type":"bold","offset":945,"length":7,"data":""},{"type":"bold","offset":1133,"length":11,"data":""},{"type":"bold","offset":1629,"length":13,"data":""},{"type":"bold","offset":2050,"length":8,"data":""},{"type":"bold","offset":2263,"length":6,"data":""},{"type":"link","offset":2985,"length":16,"data":"mailto:bm@adquantum.com"},{"type":"handle","offset":3012,"length":13,"data":"MishaBarinov"}],"date":"2020-06-18T12:40:59+00:00","link":"tg://resolve?domain=mobile_jobs&post=0","tags":[{"name":"mobile"},{"name":"android"},{"name":"ios"},{"name":"unity3d"},{"name":"csharp"},{"name":"git"}],"cities":[{"code":"moscow"}],"allowsRemote":false}},{"node":{"__typename":"Job","id":"71571603456-1001054966032","title":"Ios разработчик","text":"#вакансия IOS developer\n\n🏙Город:  в г. Москве (м. Сокольники) или в г. Санкт-Петербурге (м. Адмиралтейская)\n\n🧰Формат: офис\n\n⏳Занятость: полная\n\n💸Зарплатная вилка: 170 000- 190 000 руб.\n\n🔺Описание вакансии: \nВ один из крупнейших банков РФ ищем IOS разработчика. \n\n🔺Мы ждём от вас:\n➖Разработка мобильного приложения для платформы iOS\n➖Два проекта на выбор: мобильный банк для физических лиц и для юридических лиц;\n➖Разработка unit-тестов, рефакторинг, code review;\n➖Формирование принципов командной разработки.\n\n 🔺Для нас важно:\n➖Опыт разработки мобильных приложений от двух лет;\n➖Отличные знания платформы iOS и Swift;\n➖Опыт применения архитектурных паттернов: MV*, VIPER;\n➖Опыт разработки клиент-серверных приложений (HTTP(S), XML, JSON);\n➖Опыт написания unit-тестов;\n➖Опыт работы с GIT.\n\n🔺Будет Вашим преимуществом: \n      \n➖Отличные знания ООП, алгоритмов и структур данных;\n➖Знание Objective-C.   \n\n🔺Мы предлагаем:\n\n➖Официальное оформление по ТК РФ;\n➖График 5/2, гибкое начало и окончание рабочего дня;\n➖Конкурентный уровень дохода: оклад+премии (по итогам собеседования)\n➖Медицинская страховка для себя и членов семьи на особых условиях, страховка для выезжающих за рубеж.\n➖Большое количество льгот\n\n‼️Для переезжающих в Москву или Санкт-Петербург компания предоставляет \n“Релокационный пакет” (компенсация затрат на переезд и съем жилья первые 3 месяца).              \n  \nHR компания: Unicorn Search\n\nПо вакансии обращаться: @olgapivneva","markup":[{"type":"hashtag","offset":0,"length":9,"data":"вакансия"},{"type":"bold","offset":9,"length":14,"data":""},{"type":"bold","offset":27,"length":6,"data":""},{"type":"bold","offset":112,"length":6,"data":""},{"type":"bold","offset":127,"length":9,"data":""},{"type":"bold","offset":148,"length":16,"data":""},{"type":"bold","offset":191,"length":17,"data":""},{"type":"bold","offset":266,"length":17,"data":""},{"type":"bold","offset":518,"length":13,"data":""},{"type":"bold","offset":794,"length":28,"data":""},{"type":"bold","offset":908,"length":16,"data":""},{"type":"bold","offset":1214,"length":45,"data":""},{"type":"bold","offset":1284,"length":21,"data":""},{"type":"bold","offset":1382,"length":14,"data":""},{"type":"handle","offset":1438,"length":12,"data":"olgapivneva"}],"date":"2020-06-18T12:34:40+00:00","link":"tg://resolve?domain=mobile_jobs&post=0","tags":[{"name":"mobile"},{"name":"ios"},{"name":"swift"},{"name":"xml"},{"name":"json"},{"name":"git"},{"name":"objective-c"}],"cities":[],"allowsRemote":false}},{"node":{"__typename":"Job","id":"71570554880-1001054966032","title":"Ios разработчик","text":"#вакансия #swift #objective-C #ios\n\nГород : Санкт-Петербург\nФормат работы: офис или удаленно\nЗанятость: Полная\nЗарплатная вилка:  90 000 - 300 000 руб\n\nОписание компании:\nВ Blogman мы занимаемся разработкой собственного приложения – платформа для блогеров и рекламодателей. В нашей команде уже более 50 разработчиков и мы продолжаем расти. Сейчас мы ищем инженера с опытом коммерческой разработки под iOS.\nОсновной стек технологий — Swift, Realm, Alamofire. Сейчас мы разрабатываем бизнес-функционал и будем рады новому специалисту в нашей команде, вместе с которым мы будем делать быстрое приложение с отзывчивым и плавным интерфейсом.\n\nМы ожидаем, что у вас есть:\n— Опыт коммерческой разработки мобильных приложений под iOS;\n— Хорошие знания Swift, UIKit;\n— Опыт работы с мобильными БД;\n— Умение работать с Git, Cocoapods.\n\nБудет плюсом, если вы:\n— Разрабатывали клиент-серверные приложения;\n— Умеете работать с WebSocket;\n— Знаете и понимаете архитектуру VIPER;\n— Командный игрок без яркого эгоцентризма;\n— Готовы активно принимать участие в жизни компании и продукта.\n\nРады предложить:\n– Удаленное сотрудничество или комфортный офис на Невском проспекте в 5 минутах ходьбы от ст. м. Маяковская и Владимирская;\n– Желаемый оклад по результатам собеседования;\n– Понятную систему роста зарплаты каждые 6 месяцев, в которой все зависит только от вас;\n– Все необходимые офисные блага вроде вкусного кофе и т.д.\nВас будут окружать адекватные люди, с которыми комфортно решать поставленные задачи. У сотрудников есть общие ценности, такие как стремление к качественному результату, забота о продукте и желание двигаться вперед. Также у нас нет “Начальства”, а есть коллеги. Все взаимодействуют горизонтально и в команде равенство между инженерами, стейкхолдером, продактом и т.д. Все работают бок о бок и делают одно общее дело.\nНазвание компании: Blogman\nКонтакты: @maria_golovina","markup":[{"type":"hashtag","offset":0,"length":9,"data":"вакансия"},{"type":"hashtag","offset":10,"length":6,"data":"swift"},{"type":"hashtag","offset":17,"length":10,"data":"objective"},{"type":"hashtag","offset":30,"length":4,"data":"ios"},{"type":"bold","offset":173,"length":8,"data":""},{"type":"bold","offset":438,"length":2,"data":""},{"type":"bold","offset":445,"length":2,"data":""},{"type":"bold","offset":638,"length":27,"data":""},{"type":"bold","offset":826,"length":22,"data":""},{"type":"bold","offset":1073,"length":16,"data":""},{"type":"handle","offset":1862,"length":15,"data":"maria_golovina"}],"date":"2020-06-18T12:32:34+00:00","link":"tg://resolve?domain=mobile_jobs&post=0","tags":[{"name":"mobile"},{"name":"ios"},{"name":"swift"},{"name":"objective-c"},{"name":"realm"},{"name":"uikit"},{"name":"git"},{"name":"cocoapods"},{"name":"websocket"}],"cities":[],"allowsRemote":true}},{"node":{"__typename":"Job","id":"17040408576-1001110946746","title":"Js разработчик","text":"#вакансия  #backend #nodejs #javascript #удаленка #js #remote\n\nПозиция: Backend developer (Middle)\nКомпания: paradigmfund.io - инвестиционный фонд с офисами в Москве и Токио.\nФормат работы: Удаленка \nЗанятость: Полная с графиком работы (в выходные отдыхаем, в будни работаем по графику, гибкое начало рабочего дня)\nЗарплатная вилка: 110 000-150 000 руб. на руки\nЗадача: Участвовать в разработке новых и текущих it продуктов компании (криптовалютный кошелек, торговая биржа, обменник валют). \n\nТребования:\n- Опыт программирования на чистом JS не менее 3-х лет\n- Опыт программирования под Node.js не менее года\n- Опыт работы с серверами на Ubuntu\n- Знание SQL и особенностей PostgreSQL\n- Умение оптимизировать тяжелые запросы к базе\n- Хороший навык чтения чужого кода и модернизации его\n- Навык анализа новых структур данных и чужих API\n- Навык работы с Git\n- Гибкость, отзывчивость и хорошие soft skills, мы ценим дружелюбную и продуктивную среду, которую мы создали в команде, и надеемся, что вы гармонично в нее впишетесь.\n\nЖелательно:\n- Знание html, css, vue.js\n- Навык работы с docker'ами\n- Умение настраивать NGINX\n- Навык написание unit тестов\n- Навык поиска утечек памяти\n\nПомимо всего вышесказанного, у нас вы получите:\n- Работа в дружной команде, как разработчиков так и управленцев. \n- Профессиональное развитие и новые знания касаемо blockchain технологий.\n- Возможность релокации в офис в Москве.\n- Понятные процессы разработки (Agile, двухнедельные спринты, работаем в Jira и Confluence). \n\nКонтакты:\nМы стремимся постоянно автоматизировать и улучшать наши процессы, поэтому отклик на вакансию просим оставлять через форму: https://forms.gle/L9hWmD18Zs9kMo2E8\nС подходящими кандидатами свяжемся в течение недели, если возникли какие то вопросы, с радостью отвечу на них в лс @grshabl\n\n—\n\n👉 Обсуждение вакансии в чате @javascript_jobs","markup":[{"type":"hashtag","offset":0,"length":9,"data":"вакансия"},{"type":"hashtag","offset":11,"length":8,"data":"backend"},{"type":"hashtag","offset":20,"length":7,"data":"nodejs"},{"type":"hashtag","offset":28,"length":11,"data":"javascript"},{"type":"hashtag","offset":40,"length":9,"data":"удаленка"},{"type":"hashtag","offset":50,"length":3,"data":"js"},{"type":"hashtag","offset":54,"length":7,"data":"remote"},{"type":"link","offset":109,"length":15,"data":"http://paradigmfund.io"},{"type":"link","offset":1636,"length":35,"data":"https://forms.gle/L9hWmD18Zs9kMo2E8"},{"type":"handle","offset":1787,"length":8,"data":"grshabl"},{"type":"handle","offset":1830,"length":16,"data":"javascript_jobs"}],"date":"2020-06-18T11:24:11+00:00","link":"tg://resolve?domain=javascript_jobs_feed&post=0","tags":[{"name":"javascript"},{"name":"nodejs"},{"name":"ubuntu"},{"name":"sql"},{"name":"postgresql"},{"name":"git"},{"name":"html"},{"name":"css"},{"name":"vuejs"},{"name":"docker"},{"name":"nginx"}],"cities":[{"code":"tokyo"}],"allowsRemote":true}},{"node":{"__typename":"Job","id":"17039360000-1001110946746","title":"Js разработчик","text":"#вакансия #react #redux #москва #офис #javascript\n\nГород: Москва (ст.м. Аэропорт).\n\nФормат работы: офис,на текущий период частично существует удалёнка.\n\nЗанятость: полная\n\nВилка: 100-250 т.р. на руки\nВ связи с увеличением проектов, Коммерческий Банк ищет в свою команду Frontend-разработчика.\nФункционал:\n\n• Разработка WEB приложений;\n\n• Рефакторинг Legacy кода;\n\n• Написание и поддержка сложных модулей, реализованных на стеке технологий React;\n\n• Участие в оценке сроков, трудоёмкости и проектирование приложений.\n\nПрофессиональные знания: знание JavaScript и его особенностей; знание React / Redux, Node.js, пакетных менеджеров (Yarn / npm); умение работать с Git; понимание стратегий оптимизации web-приложения.\n\nНазвание компании: Локо-Банк\nhttps://www.lockobank.ru//\nhttps://hh.ru/vacancy/37365811\n\nКонтакты: @hrlocko\n\n—\n\n👉 Обсуждение вакансии в чате @javascript_jobs","markup":[{"type":"hashtag","offset":0,"length":9,"data":"вакансия"},{"type":"hashtag","offset":10,"length":6,"data":"react"},{"type":"hashtag","offset":17,"length":6,"data":"redux"},{"type":"hashtag","offset":24,"length":7,"data":"москва"},{"type":"hashtag","offset":32,"length":5,"data":"офис"},{"type":"hashtag","offset":38,"length":11,"data":"javascript"},{"type":"link","offset":746,"length":26,"data":"https://www.lockobank.ru//"},{"type":"link","offset":773,"length":30,"data":"https://hh.ru/vacancy/37365811"},{"type":"handle","offset":815,"length":8,"data":"hrlocko"},{"type":"handle","offset":858,"length":16,"data":"javascript_jobs"}],"date":"2020-06-18T11:23:19+00:00","link":"tg://resolve?domain=javascript_jobs_feed&post=0","tags":[{"name":"javascript"},{"name":"reactjs"},{"name":"redux"},{"name":"web"},{"name":"nodejs"},{"name":"npm"},{"name":"git"},{"name":"react-redux"}],"cities":[{"code":"moscow"}],"allowsRemote":true}},{"node":{"__typename":"Job","id":"71565312000-1001054966032","title":"Ios разработчик","text":"#вакансия #iOS #москва\n\nНа проект от крупного российского банка требуется Middle iOS разработчик\n\nФормат: офис\n\nВилка ЗП: 150-180К\n\nЛокация: Москва\n\nТребования:\n\n- Опыт разработки под IOS (Objective-C или Swift) от 2 лет\n- Уверенное знание iOS SDK, Xcode\n- Опыт использования одной из архитектур: MVP, MVVM, VIPER\n- Знание особенностей: Collections, Optionals, Protocol Oriented, Generics\n- Понимание, как происходит управление памятью в iOS\n- Понимание принципов проектирования SOLID и желание придерживаться их\n- Наличие опыта работы с REST API, HTTP, JSON, APNs\n- Опыт работы с Git, знание git flow\n\nБудет плюсом:\n\n- Умение писать UI тесты\n- Опыт работы в команде\n\nКонтакт: @mxm_at","markup":[{"type":"hashtag","offset":0,"length":9,"data":"вакансия"},{"type":"hashtag","offset":10,"length":4,"data":"iOS"},{"type":"hashtag","offset":15,"length":7,"data":"москва"},{"type":"bold","offset":73,"length":23,"data":""},{"type":"bold","offset":98,"length":7,"data":""},{"type":"bold","offset":112,"length":9,"data":""},{"type":"bold","offset":132,"length":8,"data":""},{"type":"bold","offset":149,"length":11,"data":""},{"type":"bold","offset":603,"length":13,"data":""},{"type":"bold","offset":668,"length":8,"data":""},{"type":"handle","offset":677,"length":7,"data":"mxm_at"}],"date":"2020-06-18T11:11:25+00:00","link":"tg://resolve?domain=mobile_jobs&post=0","tags":[{"name":"mobile"},{"name":"ios"},{"name":"objective-c"},{"name":"swift"},{"name":"xcode"},{"name":"mvvm"},{"name":"rest"},{"name":"json"},{"name":"git"}],"cities":[{"code":"moscow"}],"allowsRemote":false}},{"node":{"__typename":"Job","id":"91275395072-1001067529236","title":"Python разработчик","text":"#вакансия #python #fulltime #office #remote #спб #Senior #Middle #backend #офис #удаленка #работа\nЗп 120 000-160 000 net \n\nПривет! Компания e-Legion в поисках Python-разработчика в офис в Санкт-Петербург или удаленно.\n\nНеобходимые навыки:\n🔹 Python 3,6+, \n🔹 Django Framework и сопутствующие ему библиотеки и утилиты,\n🔹 asyncio, aiohttp и другие асинхронные библиотеки,\n🔹 PostgreSQL или другие реляционные БД,\nхорошее знание принципов работы HTTP и смежных сетевых протоколов,\n🔹 английский язык на уровне чтения и написания технической документации,\n🔹 Git.\n\nПреимуществом будет:\n🔹 знание SQL и реляционной алгебры,\n🔹 знакомство с Redis, RabbitMQ,\n🔹 опыт работы с Ansible,\n🔹 основы администрирования Linux,\n🔹 знание других языков программирования, фреймворков и технологий.\n🔹 понимание микросервисной архитектуры, опыт разработки высоконагруженных систем\n\nОт нас:\n🔹 гибкий график работы,\n🔹 компенсацию спорта, обучения и медицины,\n🔹 обучение и систему наставничества,\nвозможность писать статьи для отраслевых медиа и выступать на конференциях и митапах.\n\nОписание вакансии: https://www.e-legion.ru/vacancies/spb/python/\nКонтакты: @alexandrashirokina или на почту: hr@e-legion.com","markup":[{"type":"hashtag","offset":0,"length":9,"data":"вакансия"},{"type":"hashtag","offset":10,"length":7,"data":"python"},{"type":"hashtag","offset":18,"length":9,"data":"fulltime"},{"type":"hashtag","offset":28,"length":7,"data":"office"},{"type":"hashtag","offset":36,"length":7,"data":"remote"},{"type":"hashtag","offset":44,"length":4,"data":"спб"},{"type":"hashtag","offset":49,"length":7,"data":"Senior"},{"type":"hashtag","offset":57,"length":7,"data":"Middle"},{"type":"hashtag","offset":65,"length":8,"data":"backend"},{"type":"hashtag","offset":74,"length":5,"data":"офис"},{"type":"hashtag","offset":80,"length":9,"data":"удаленка"},{"type":"hashtag","offset":90,"length":7,"data":"работа"},{"type":"link","offset":1086,"length":45,"data":"https://www.e-legion.ru/vacancies/spb/python/"},{"type":"handle","offset":1142,"length":19,"data":"alexandrashirokina"},{"type":"link","offset":1176,"length":15,"data":"mailto:hr@e-legion.com"}],"date":"2020-06-18T10:31:37+00:00","link":"tg://resolve?domain=python_jobs&post=0","tags":[{"name":"python"},{"name":"dotnet"},{"name":"django"},{"name":"postgresql"},{"name":"git"},{"name":"sql"},{"name":"redis"},{"name":"rabbitmq"},{"name":"ansible"},{"name":"linux"}],"cities":[],"allowsRemote":true}},{"node":{"__typename":"Job","id":"103155761152-1001089317451","title":"Qa инженер","text":"#вакансия #москва #полнаязанятость #мегафон #bigdata #покаработаемиздомапотомвофис\n\nМы ищем QA-инженера в команду для тестирования внутренних и внешних сервисов.\n\nЧем предстоит заниматься:\n\n- Разработка модулей интеграционных тестов для наших сервисов;\n- Подготовка тестовых данных (работа с hive/oracle);\nРабота с SQL/HiveQL (Oracle/Hive);\n- Написание алгоритмов работы с данными, в рамках тестирования;\n- Взаимодействие с разработчиками и аналитиками в процессе проектирования и развития;\n- Выявление, фиксация и контроль багов в баг-трекере (Jira);\n- Ведение документации по тестированию (confluence);\n\nИспользуемые технологии:\nДля разработки – Play, Spring, Flask, Scala, Java (8+), Python(3+);\nДля тестирования: Java/Scala & Maven + TestNG + Google Guice;\nДля работы сервисов – Docker;\nДля работы с кодом – GitLab;\nДля работы с задачами – Jira.\n\nМы ожидаем от вас:\n- Опыт работы в автоматизации тестирования от 1 года;\n- Знание структур данных и алгоритмов;\n- Уверенное знание Java;\n- Уверенное знание фреймворков TestNG/JUnit;\n- Опыт работы в автоматизации тестирования;\n- Опыт работы с реляционными СУБД (Oracle/PostgreSQL);\n- Умение писать хорошо читаемый код;\n- Умение работать с VCS (Git) и сборщиками (maven).\n\nБудет плюсом:\n- Опыт в области тестирования приложений по работе с большими данными;\n- Опыт в нагрузочном тестировании;\n- Опыт работы с Spring/Google Guice;\n- Опыт конфигурирования CI/CD (GitLab);\n- Умение писать код на Scala;\n- Опыт работы с Hadoop/Spark.\n\nЧто мы предлагаем:\n- Внутреннее и внешнее обучение в России (Coursera, New Prolab, Geek Brains и др.);\n- Новый офис в центре: 7 минут пешком от м. Маяковская/Новослободская;\n- Компенсация затрат на мобильную связь;\nДМС (включая стоматологию);\n- Частичная компенсация спорта;\n- Возможность участия в корпоративных спортивных командах: футбол, волейбол, баскетбол, хоккей и бег\n- Регулярные митапы в офисе с внешними спикерами из разных областей.\n\n#мегафон #bigdata\nКонтакты: Svetlana.stakanova@megafon.ru или @svetastakanova","markup":[{"type":"hashtag","offset":0,"length":9,"data":"вакансия"},{"type":"hashtag","offset":10,"length":7,"data":"москва"},{"type":"hashtag","offset":18,"length":16,"data":"полнаязанятость"},{"type":"hashtag","offset":35,"length":8,"data":"мегафон"},{"type":"hashtag","offset":44,"length":8,"data":"bigdata"},{"type":"hashtag","offset":53,"length":29,"data":"покаработаемиздомапотомвофис"},{"type":"hashtag","offset":1926,"length":8,"data":"мегафон"},{"type":"hashtag","offset":1935,"length":8,"data":"bigdata"},{"type":"link","offset":1954,"length":29,"data":"mailto:Svetlana.stakanova@megafon.ru"},{"type":"handle","offset":1988,"length":15,"data":"svetastakanova"}],"date":"2020-06-18T09:58:49+00:00","link":"tg://resolve?domain=qa_jobs&post=0","tags":[{"name":"qa"},{"name":"hive"},{"name":"oracle"},{"name":"sql"},{"name":"playframework"},{"name":"spring"},{"name":"flask"},{"name":"scala"},{"name":"java"},{"name":"python"},{"name":"maven"},{"name":"docker"},{"name":"gitlab"},{"name":"junit"},{"name":"postgresql"},{"name":"git"},{"name":"hadoop"}],"cities":[{"code":"moscow"}],"allowsRemote":false}}]}}},"context":{}}