{"hash":"f5f6bf98bd95e769321482904cbbd488f77922fd","data":{"records":{"id":"css","name":"css","belongsTo":{"totalCount":116,"pageInfo":{"totalPages":12,"currentPage":2},"edges":[{"node":{"__typename":"Job","id":"17313038336-1001110946746","title":"Js разработчик","text":"#вакансия #frontEnd  #удаленка\nИщем frontend developer в компанию Датурум - разработчик и поставщик платформы WikiVote, которую мы внедряем в крупные организации. Платформа создает среду, в которой сотрудники делятся идеями по совершенствованию своей компании, улучшению рабочих процессов, а руководство прислушивается к идеям и внедряет их. \n\n🚩Заработная плата: от 80 000 до 150 000 руб\nЛокация: РФ, удаленно\nРежим работы: полная занятость, 8 часовой рабочий день\n\n🚩Требования: опыт от 2х лет\nCSS3, HTML5, JavaScript\nVue.js второй версии, webpack\nопыт в работе с REST или GraphQL\nумение верстать или писать JS код с учетом возможностей IE11\nуверенное использование Git\n\n🚩Чем заниматься: внедрением платформы в гос и частные крупные учреждения, исследовательские штуки типа разработки всяких умных алгоритмов для платформы.\nТакже примерно раз в год мы делаем крупный проект по заказной разработке ПО, у нас в портфолио: Windows-приложение рабочий блокнот УИК для помощи участковым избирательным комиссиям, чтобы лучше проводить выборы,  MVP банка на блокчейне, и тд.\n\n🚩Что предлагаем: Испытательный срок 3 месяца, белое оформление в штат, своевременную оплату\n\nРезюме @irensergeeva","markup":[{"type":"hashtag","offset":0,"length":9,"data":"вакансия"},{"type":"hashtag","offset":10,"length":9,"data":"frontEnd"},{"type":"hashtag","offset":21,"length":9,"data":"удаленка"},{"type":"handle","offset":1172,"length":13,"data":"irensergeeva"}],"date":"2020-07-02T09:44:12+00:00","link":"tg://resolve?domain=javascript_jobs_feed&post=16511","tags":[{"name":"javascript"},{"name":"css"},{"name":"html"},{"name":"vuejs"},{"name":"webpack"},{"name":"rest"},{"name":"graphql"},{"name":"git"},{"name":"windows"}],"cities":[],"allowsRemote":true}},{"node":{"__typename":"Job","id":"17309892608-1001110946746","title":"Js разработчик","text":"#удаленка #fullstack #middle #вакансия\nПривет! ✌ Мы ищем full stack специалиста для постоянной работы. \nФормат работы: Удалёнка. Занятость:полная.\nЗП: от 80 до 100 к\n\nУровень middle\n\nКомпания:https://arkonsa.ru/\n💁 Описание компании: Мы работаем в двух направлениях: 1) Своя CRM система (oko сrm), которую планируем продавать на внешний рынок + запускать мобильное приложение для IOS и Android;\n2) Свой учебный центр (продажи).\n\nОт тебя мы ждем:\n\n- Уверенное знание: HTML4/5, CSS2/3, JavaScript ES5(ES6), HTML, JQuery, Ajax, React, VUE.js, Laravel\n\n💡 Требования:\nопыт разработки по данному стеку от 2+лет.\n\n📠 За подробностями по вакансии и по всем вопросам:\n@elena_hr_tmn \n89129125591 Viber\n\n—\n\n👉 Обсуждение вакансии в чате @javascript_jobs","markup":[{"type":"hashtag","offset":0,"length":9,"data":"удаленка"},{"type":"hashtag","offset":10,"length":10,"data":"fullstack"},{"type":"hashtag","offset":21,"length":7,"data":"middle"},{"type":"hashtag","offset":29,"length":9,"data":"вакансия"},{"type":"link","offset":192,"length":19,"data":"https://arkonsa.ru/"},{"type":"handle","offset":660,"length":13,"data":"elena_hr_tmn"},{"type":"link","offset":675,"length":11,"data":"tel:89129125591"},{"type":"handle","offset":727,"length":16,"data":"javascript_jobs"}],"date":"2020-07-02T07:31:15+00:00","link":"tg://resolve?domain=javascript_jobs_feed&post=16508","tags":[{"name":"javascript"},{"name":"ios"},{"name":"android"},{"name":"html"},{"name":"css"},{"name":"jquery"},{"name":"ajax"},{"name":"reactjs"},{"name":"vuejs"},{"name":"laravel"}],"cities":[],"allowsRemote":true}},{"node":{"__typename":"Job","id":"26927431680-1001075660570","title":"Php разработчик","text":"#php #вакансия #удалёнка \n\nPHP Engineer\nФормат работы: #fulltime #remote\nЗарплата: $ 40 000 - 50 000 в год\nГород: удаленно\n\nНебольшая, но быстро растущая студия разработки из Лондона ищет PHP-ниндзю. На нашем счету много успешных проектов, большая часть которых — британские. \n\nТребования:\n— Опыт в разработке не менее 3 лет;\n— Знание PHP как родного,\n— Знание SQL, особенно MySQL или PostgreSQL \n— Понимание HTML/CSS;\n— Быть знакомым с PHP MVC Framework, JavaScript (and jQuery);\n— Опыт в Version Control (Git);\n— Опыт с Bash and Unix (обычно мы используем Ubuntu 16.04) \n— Уровень английского С2;\n— Опыт с алгоритмами приветствуется;\n— Большим плюсом будет знание Laravel (или хотя бы Symfony), фреймворки CakePHP, Zend, CodeIgniter тоже ок, но все равно потребуется освоить Laravel.\n\nЧтобы откликнуться, необходимо пройти короткий отбор по ссылке https://6nomads.com/ (обязательное условие найма🤷‍♀️)\n\nКонтакт для связи @temnik_sofya","markup":[{"type":"hashtag","offset":0,"length":4,"data":"php"},{"type":"hashtag","offset":5,"length":9,"data":"вакансия"},{"type":"hashtag","offset":15,"length":9,"data":"удалёнка"},{"type":"hashtag","offset":55,"length":9,"data":"fulltime"},{"type":"hashtag","offset":65,"length":7,"data":"remote"},{"type":"link","offset":85,"length":15,"data":"tel:40 000 - 50 000"},{"type":"link","offset":850,"length":20,"data":"https://6nomads.com/"},{"type":"handle","offset":924,"length":13,"data":"temnik_sofya"}],"date":"2020-07-01T17:36:31+00:00","link":"tg://resolve?domain=php_jobs&post=25680","tags":[{"name":"php"},{"name":"sql"},{"name":"mysql"},{"name":"postgresql"},{"name":"html"},{"name":"css"},{"name":"javascript"},{"name":"jquery"},{"name":"git"},{"name":"bash"},{"name":"unix"},{"name":"ubuntu"},{"name":"laravel"},{"name":"symfony"},{"name":"cakephp"},{"name":"zend-framework"},{"name":"codeigniter"}],"cities":[],"allowsRemote":true}},{"node":{"__typename":"Job","id":"17293115392-1001110946746","title":"Js разработчик","text":"#вакансия #СПБ #Питер #frontend #developer #middle #react #angular #remote #фултайм  \n\nВсем привет. Мы - компания Useidpro , разрабатываем и улучшаем свой IT продукт, сервис для крупнейших мировых digital агентств с 2017 года и у нас крутая и дружная команда. Приглашаем к нам в команду Питерского офиса Front-end разработчика уровня middle. В работе будет разработка и доработка IT сервиса компании.\n\n⚡️Важно по опыту: \n• Опыт коммерческой разработки на Front-end - от 2х лет\nИ уверенный опыт работы с:\n• React.js / Angular 5+\n• Html5\n• Css3\n• UI Material / Angular Material\n• Selenoid / Selenium\n• e2e testing experience.\n\n💻Условия работы:\n• Удаленный формат работы, с возможностью иногда приезжать на встречи в офис \n• Гибкий график, пятидневная рабочая неделя (5/2), с загрузкой на 25-30 часов в неделю\n• Комфортный офис в Питере, недалеко от м. Чернышевская (соответственно по локации вы можете быть: Питер - пригород)\n• ЗП - от 80-100 тыс +, готовы услышать Ваши ожидания и обсудить итоговую сумму на интервью, от опыта кандидата \n• Интересные задачи и возможность профессионального роста\n• Сильная и дружная команда.\n\n👍 Отправить резюме и задать вопросы можно тут: @Irina_Poddubnaya и на i.poddubnaya@looking4.ru","markup":[{"type":"hashtag","offset":0,"length":9,"data":"вакансия"},{"type":"hashtag","offset":10,"length":4,"data":"СПБ"},{"type":"hashtag","offset":15,"length":6,"data":"Питер"},{"type":"hashtag","offset":22,"length":9,"data":"frontend"},{"type":"hashtag","offset":32,"length":10,"data":"developer"},{"type":"hashtag","offset":43,"length":7,"data":"middle"},{"type":"hashtag","offset":51,"length":6,"data":"react"},{"type":"hashtag","offset":58,"length":8,"data":"angular"},{"type":"hashtag","offset":67,"length":7,"data":"remote"},{"type":"hashtag","offset":75,"length":8,"data":"фултайм"},{"type":"handle","offset":1174,"length":17,"data":"Irina_Poddubnaya"},{"type":"link","offset":1197,"length":24,"data":"mailto:i.poddubnaya@looking4.ru"}],"date":"2020-07-01T11:40:48+00:00","link":"tg://resolve?domain=javascript_jobs_feed&post=16492","tags":[{"name":"javascript"},{"name":"reactjs"},{"name":"angularjs"},{"name":"html"},{"name":"css"},{"name":"selenium"}],"cities":[],"allowsRemote":true}},{"node":{"__typename":"Job","id":"17281581056-1001110946746","title":"Javascript разработчик","text":"#вакансия #javascript #typescript \n\nFrontend-разработчик (удаленно или в офисе)\n\nBlogman\n\nГород и адрес офиса: \n— Санкт-Петербург\nФормат работы:           \n— офис в Санкт-Петербурге или удаленка по России \nЗанятость:                     \n— полная / full time\nЗарплатная вилка:       \n— от 80 000 до 300 000 рублей\n\nОсновной стек технологий — JavaScript, TypeScript, HTML/CSS. Сейчас мы разрабатываем бизнес-функционал приложения и будем рады новому специалисту в нашей команде, который вольется в проект и мы вместе будем делать frontend с нативным кодом и отзывчивым интерфейсом.\n\nМы ожидаем, что у вас есть:\n🔹Опыт коммерческой разработки от 3 лет\n🔹Хорошее знание JavaScript, TypeScript, HTML/CSS;\n\nРады предложить:\n🔹Возможность работать удаленно;\n🔹Желаемый оклад по результатам собеседования;\n🔹Cистему роста зарплаты каждые 6 месяцев\n\nКонтакт: @alinablogman\nhttps://spb.hh.ru/employer/3069197?customDomain=","markup":[{"type":"hashtag","offset":0,"length":9,"data":"вакансия"},{"type":"hashtag","offset":10,"length":11,"data":"javascript"},{"type":"hashtag","offset":22,"length":11,"data":"typescript"},{"type":"handle","offset":851,"length":13,"data":"alinablogman"},{"type":"link","offset":865,"length":48,"data":"https://spb.hh.ru/employer/3069197?customDomain="}],"date":"2020-07-01T07:49:17+00:00","link":"tg://resolve?domain=javascript_jobs_feed&post=16481","tags":[{"name":"javascript"},{"name":"typescript"},{"name":"html"},{"name":"css"}],"cities":[],"allowsRemote":true}},{"node":{"__typename":"Job","id":"17274241024-1001110946746","title":"Js разработчик","text":"Всем привет! \n\nИщу Frontend-разработчика в крупную инвестиционно-строительную компанию, реализующую свои проекты на рынке Москвы и Московской области. Топ-5 среди застройщиков Москвы и МО.\n\nНеобходимо будет разрабатывать проекты по управлению стройкой и её оптимизацией (планирование, распределение бюджетов, управление процессами на стройке и т.д.), а также для внешних пользователей сервис по покупке недвижимости (web и mobile-версии). Команда пока собрана небольшая - 12 человек. \nСтек: JavaScript (ES6) React +Redux + CSS + SCSS на фронтенде, Python (Django) на бекенде, React-Native - на мобильной разработке. \n\nПо требованиям: \n- опыт с React (от 1,5 лет)\n- опыт с JS (от 2-х лет)\n\nВилка ЗП 150-220k руб. на руки, офис в пяти минутах от ст. м. Кунцевская (г. Москва), есть возможность работать удаленно, отсутствие бюрократии, лояльное руководство, ДМС, возможность посещения конференций, курсов по повышению квалификации за счет работодателя.\n\nТип занятости: полная, офис, удаленка\nНазвание компании: Самолет Девелопмент\n\nКто заинтересовался - пишите в ЛС (@eivanova17),  буду оперативно отвечать 🙂 \n\n#работа #Москва #вакансия #job #react #reactjs #js #офис #удаленка","markup":[{"type":"handle","offset":1065,"length":11,"data":"eivanova17"},{"type":"hashtag","offset":1110,"length":7,"data":"работа"},{"type":"hashtag","offset":1118,"length":7,"data":"Москва"},{"type":"hashtag","offset":1126,"length":9,"data":"вакансия"},{"type":"hashtag","offset":1136,"length":4,"data":"job"},{"type":"hashtag","offset":1141,"length":6,"data":"react"},{"type":"hashtag","offset":1148,"length":8,"data":"reactjs"},{"type":"hashtag","offset":1157,"length":3,"data":"js"},{"type":"hashtag","offset":1161,"length":5,"data":"офис"},{"type":"hashtag","offset":1167,"length":9,"data":"удаленка"}],"date":"2020-06-30T16:39:47+00:00","link":"tg://resolve?domain=javascript_jobs_feed&post=16474","tags":[{"name":"javascript"},{"name":"web"},{"name":"mobile"},{"name":"reactjs"},{"name":"redux"},{"name":"css"},{"name":"python"},{"name":"django"},{"name":"react-redux"},{"name":"react-native"}],"cities":[{"code":"moscow"}],"allowsRemote":true}},{"node":{"__typename":"Job","id":"17266900992-1001110946746","title":"Js разработчик","text":"Добрый день\n\n#вакансия #работа #parttime #JavaScript #vuejs #Frontend #Web\n\nГород и адрес офиса: Москва\nКомпания: Enlighted\nФормат работы: удаленка\nЗанятость: частичная, не менее 20-30 часов в неделю\nЗарплатная вилка: от 7-10$ в час либо сдельная\n\n\nМакеты в Sketch, задачи в Трекере\n\nСтек:\nVue2 + Vuex\n\nТребования:\nУмение верстать по макетам из Sketch/Figma\nПонимание принципа работы Vuex, уметь рассказать зачем он вообще нужен.\nvue+vuex, es6, vue-cli\nЗнание html, css3, BEM-методологии\nУмение работать с git, знание процесса git flow будет плюсом.\nОпыт интеграции Google/OSM maps будет плюсом.\nОпыт настройки CI/CD или хотя бы понимание как устроен процесс сборки Vue проекта.\n\nВам предстоит:\nРазрабатывать фронтенд-часть проекта по предоставленным макетам, никакого legacy, проект начинается с нуля.\nКомандная работа, утренние стендапы и еженедельные релизы.\n\nПисать мне в личку @westarakagrek или на почту ra@enlighted.ru","markup":[{"type":"hashtag","offset":13,"length":9,"data":"вакансия"},{"type":"hashtag","offset":23,"length":7,"data":"работа"},{"type":"hashtag","offset":31,"length":9,"data":"parttime"},{"type":"hashtag","offset":41,"length":11,"data":"JavaScript"},{"type":"hashtag","offset":53,"length":6,"data":"vuejs"},{"type":"hashtag","offset":60,"length":9,"data":"Frontend"},{"type":"hashtag","offset":70,"length":4,"data":"Web"},{"type":"handle","offset":882,"length":14,"data":"westarakagrek"},{"type":"link","offset":910,"length":15,"data":"mailto:ra@enlighted.ru"}],"date":"2020-06-30T16:06:01+00:00","link":"tg://resolve?domain=javascript_jobs_feed&post=16467","tags":[{"name":"javascript"},{"name":"vuejs"},{"name":"web"},{"name":"html"},{"name":"css"},{"name":"git"}],"cities":[{"code":"moscow"}],"allowsRemote":true}},{"node":{"__typename":"Job","id":"17260609536-1001110946746","title":"Javascript разработчик","text":"#вакансия #javascript #typescript \n\nFrontend-разработчик (удаленно или в офисе)\n\nBlogman\n\nГород и адрес офиса: \n— Санкт-Петербург\nФормат работы:           \n— офис в Санкт-Петербурге или удаленка по России \nЗанятость:                     \n— полная / full time\nЗарплатная вилка:       \n— от 80 000 до 300 000 рублей\n\nОсновной стек технологий — JavaScript, TypeScript, HTML/CSS. Сейчас мы разрабатываем бизнес-функционал приложения и будем рады новому специалисту в нашей команде, который вольется в проект и мы вместе будем делать frontend с нативным кодом и отзывчивым интерфейсом.\n\nМы ожидаем, что у вас есть:\n🔹Опыт коммерческой разработки от 3 лет\n🔹Хорошее знание JavaScript, TypeScript, HTML/CSS;\n\nРады предложить:\n🔹Возможность работать удаленно;\n🔹Желаемый оклад по результатам собеседования;\n🔹Cистему роста зарплаты каждые 6 месяцев\n\nКонтакт: @alinablogman\nhttps://spb.hh.ru/employer/3069197?customDomain=","markup":[{"type":"hashtag","offset":0,"length":9,"data":"вакансия"},{"type":"hashtag","offset":10,"length":11,"data":"javascript"},{"type":"hashtag","offset":22,"length":11,"data":"typescript"},{"type":"handle","offset":851,"length":13,"data":"alinablogman"},{"type":"link","offset":865,"length":48,"data":"https://spb.hh.ru/employer/3069197?customDomain="}],"date":"2020-06-30T11:57:37+00:00","link":"tg://resolve?domain=javascript_jobs_feed&post=16461","tags":[{"name":"javascript"},{"name":"typescript"},{"name":"html"},{"name":"css"}],"cities":[],"allowsRemote":true}},{"node":{"__typename":"Job","id":"17258512384-1001110946746","title":"Js разработчик","text":"#вакансия #remote #frontend #Angularjs #Angular #middle #senior #удаленка \n\nФормат работы: remote \nЗанятость: fulltime\nВилка: 120-180k net \n\nНа протяжении 14 лет наша команда создает кастомные веб/мобильные приложения и дизайн. \nПриглашаем к сотрудничеству на удаленной постоянной основе опытного разработчика front-end со знанием Angular (Angular.js/Angular 9). \nПроект:  продукт для крупного бизнеса (USA) \n\nЗадачи: разработка front-end части на Anagular. \n\nНазвание компании: Softlight \n\nТребования: \nОпыт в разработке front-end на Angular.js обязательный;\nОпыт работы с  Angular 9 \n JavaScript, HTML5/CSS3 \nработа в распределенной команде \n\nМы предлагаем:\n- Полностью удаленную работу\n- Участие в разработке зарубежных продуктов (USA)\n- Пятидневная рабочая неделя ( с 9-10 до 18-19 МСК), госпраздники - выходные\n- Оформление ИП\n- Оплачиваемый отпуск и больничный \n- Работу в слаженной опытной команде \n\nP.S. рассмотрим парт-тайм занятость 20ч в неделю \n\nКонтакты: @MikeHR или mzaharov@softlightllc.com","markup":[{"type":"hashtag","offset":0,"length":9,"data":"вакансия"},{"type":"hashtag","offset":10,"length":7,"data":"remote"},{"type":"hashtag","offset":18,"length":9,"data":"frontend"},{"type":"hashtag","offset":28,"length":10,"data":"Angularjs"},{"type":"hashtag","offset":39,"length":8,"data":"Angular"},{"type":"hashtag","offset":48,"length":7,"data":"middle"},{"type":"hashtag","offset":56,"length":7,"data":"senior"},{"type":"hashtag","offset":64,"length":9,"data":"удаленка"},{"type":"handle","offset":968,"length":7,"data":"MikeHR"},{"type":"link","offset":980,"length":25,"data":"mailto:mzaharov@softlightllc.com"}],"date":"2020-06-30T11:56:03+00:00","link":"tg://resolve?domain=javascript_jobs_feed&post=16459","tags":[{"name":"javascript"},{"name":"angularjs"},{"name":"dotnet"},{"name":"html"},{"name":"css"}],"cities":[],"allowsRemote":true}},{"node":{"__typename":"Job","id":"17254318080-1001110946746","title":"Js developer","text":"#вакансия #FrontendDeveloper #AngularJS #JavaScript #HTML5 #CSS3 #Senior #Middle \nГород: Минск \nФормат работы: офис \nЗанятость: полная занятость, полный день\nЗарплатная вилка: 2000 - 4000$\nОписание вакансии: Front-end Developer (AngularJS)\nПроект - Web-сайт\nНеобходимый стек:\n- Глубокие знания JavaScript, AngularJS (1) и принципов работы современных браузеров\n- Отличный уровень знаний HTML5/CSS3\n- Опыт работы с пре- и пост-процессорами (SCSS/LESS/Stylus/PostCSS)\n- Очень желателен опыт работы с React\n- Понимание особенностей кроссбраузерности и адаптивности, умение создавать сложные адаптивные интерфейсы без использования фреймворков.\nНазвание компании: WakeApp (https://wakeapp.ru)\nКонтакты: Telegram - @Katherine_Faleichik","markup":[{"type":"hashtag","offset":0,"length":9,"data":"вакансия"},{"type":"hashtag","offset":10,"length":18,"data":"FrontendDeveloper"},{"type":"hashtag","offset":29,"length":10,"data":"AngularJS"},{"type":"hashtag","offset":40,"length":11,"data":"JavaScript"},{"type":"hashtag","offset":52,"length":6,"data":"HTML5"},{"type":"hashtag","offset":59,"length":5,"data":"CSS3"},{"type":"hashtag","offset":65,"length":7,"data":"Senior"},{"type":"hashtag","offset":73,"length":7,"data":"Middle"},{"type":"link","offset":669,"length":18,"data":"https://wakeapp.ru"},{"type":"handle","offset":710,"length":20,"data":"Katherine_Faleichik"}],"date":"2020-06-30T11:54:45+00:00","link":"tg://resolve?domain=javascript_jobs_feed&post=16455","tags":[{"name":"javascript"},{"name":"angularjs"},{"name":"html"},{"name":"css"},{"name":"web"},{"name":"reactjs"}],"cities":[{"code":"minsk"}],"allowsRemote":false}}]}}},"context":{}}