{"hash":"f5f6bf98bd95e769321482904cbbd488f77922fd","data":{"records":{"id":"qa","name":"qa","belongsTo":{"totalCount":208,"pageInfo":{"totalPages":21,"currentPage":18},"edges":[{"node":{"__typename":"Job","id":"103016300544-1001089317451","title":"Qa engineer","text":"#вакансия #Москва #офис #QA #тестировщик #fulltime\n\nГород и адрес офиса: Москва, м. Новокузнецкая/Павелецкая\nФормат работы: #офис\nЗанятость: #полная\nЗП: от 80к до 120к руб. нетт\n\nSports.ru - провайдер развлечений для любителей спорта.\nЕсть спорт. Есть болельщики. Мы заполняем среду между ними, оживляем ее, наполняем общением и другими развлечениями. Мы делаем не «сайты» или «приложения», а мультиплатформенные продукты, с учетом актуальной технологической парадигмы.\n\nМы ищем Middle QA Engineer'а в наш флагманский проект Sports.ru.\nЭто главное медиа о спорте на русском языке с аудиторией 18 млн пользователей в месяц. Highload-проект с десятками тысяч RPS, состоящий из самых разных продуктов – сайтов, мобильных приложений, email-рассылок, чат-ботов и многого другого.\n\nВ данный момент мы заняты активным внедрением процесса тестирования. Под капотом - нативный js на фронте, php+perl на бэке. Все новые сервисы разрабатываем на новом стеке: vue.js+ssr+golang+graphql. Да, легаси есть - иногда попадается, но в тестирование всё же большинство задач идут на новом стеке.\n\nО задачах\nВы будете заниматься приёмкой фич и проведением регресса, написанием тестовой документации, разработкой автотестов и регистрацией ошибок в баг-трекере.\n\nО наших ожиданиях\nМы ждем, что вы уже минимум пару лет как в профессии и имеете хороший опыт ручного тестирования. Знаете различные инструменты и подходы к тестированию, обладаете навыками тест-дизайна и умеете их применять.\nПонимаете процессы разработки и тестирования, а также, что процессы не могут быть идеальными, но к этому необходимо стремиться.\nМы также ждем, что вы уже имеете навыки автоматизации и не ограничились одним инструментом.\n\nБудет плюсом\nЕсли вы уже пробовали себя в нагрузочном тестировании и автоматизации мобильных устройств.\n\nОб условиях:\nПросторный стильный офис возле м. Новокузнецкая/Третьяковская.\n“Белая” заработная плата.\nБесплатная медстраховка со стоматологией после испытательного срока.\nГибкий график работы с возможностью день-два в неделю работать удаленно.\nФрукты, снеки, чай, кофе, какао 24/7.\nКорпоративная скидка в спортзал и на занятия английским языком.\nКорпоративный футбол с тренером.\nФинансовая помощь при переезде из другого города.\nВозможности для профессионального развития.\n\nНазвание компании: Sports.ru (Tribuna Digital)\n\nКого заинтересовало, пишите мне в личку (@pbuyatova), рада буду поделиться подробностями:)","markup":[{"type":"hashtag","offset":0,"length":9,"data":"вакансия"},{"type":"hashtag","offset":10,"length":7,"data":"Москва"},{"type":"hashtag","offset":18,"length":5,"data":"офис"},{"type":"hashtag","offset":24,"length":3,"data":"QA"},{"type":"hashtag","offset":28,"length":12,"data":"тестировщик"},{"type":"hashtag","offset":41,"length":9,"data":"fulltime"},{"type":"hashtag","offset":124,"length":5,"data":"офис"},{"type":"hashtag","offset":141,"length":7,"data":"полная"},{"type":"link","offset":179,"length":9,"data":"http://Sports.ru"},{"type":"bold","offset":179,"length":9,"data":""},{"type":"bold","offset":479,"length":20,"data":""},{"type":"link","offset":525,"length":9,"data":"http://Sports.ru"},{"type":"bold","offset":1077,"length":10,"data":""},{"type":"bold","offset":1240,"length":18,"data":""},{"type":"bold","offset":1686,"length":13,"data":""},{"type":"bold","offset":1791,"length":13,"data":""},{"type":"link","offset":2284,"length":9,"data":"http://Sports.ru"},{"type":"handle","offset":2354,"length":10,"data":"pbuyatova"}],"date":"2020-06-17T07:41:47+00:00","link":"tg://resolve?domain=qa_jobs&post=0","tags":[{"name":"qa"},{"name":"php"},{"name":"perl"},{"name":"vuejs"},{"name":"go"},{"name":"graphql"}],"cities":[{"code":"moscow"}],"allowsRemote":true}},{"node":{"__typename":"Job","id":"103006863360-1001089317451","title":"Qa инженер","text":"🐞🐞🐞#вакансия #QA #Ульяновск #Саранск #Казань #Самара #Уфа #Краснодар #офис #удаленная_работа\n\n🔍Middle QA-специалист🔎\n\n⚡️Компания: Simbirsoft (более 19 лет на рынке, более 700 сотрудников в штате)\n\nОчень ждем тебя, наш будущий коллега и борец за качественное ПО! :)\n\n📌Твои будущие задачи:\n• тестирование ПО (frontend, backend, API);\n• локализация и документирование найденных дефектов;\n• ведение и оптимизация тестовой документации;\n• контроль качества на всех этапах разработки ПО;\n• выстраивание и оптимизация процессов тестирования ПО.\n\n📌Что мы ждем от тебя:\n• наличие опыта от 2 лет в направлениях QA или тестирования ПО;\n• понимание разницы между QA и тестированием ПО;\n• понимание особенностей гибких методологий;\n• уверенное владение техниками тест-дизайна;\n• знание клиент-серверной архитектуры;\n• понимание особенностей тестирования web, mobile и desktop приложений;\n• навык тестирования API;\n• написание запросов SQL;\n• опыт работы с системами контроля версий (git);\n• знание основных команд работы с консолью (Windows/Linux).\n\n📌Что мы предлагаем:\n• Полностью белая ЗП два раза в месяц;\n• Оформление по ТК РФ;\n• Высокий уровень экспертности внутри компании, которым мы делимся друг с другом;\n• Перспективы вертикального и горизонтального роста;\n• Работа на российских и международных проектах;\n• Оборудованное рабочее место и парк тестовых устройств;\n• Подготовка и прохождение сертификации ISTQB бесплатно;\n• Внутренние и внешние курсы, доклады, конференции;\n• Бесплатные чай, кофе, печеньки в офисе;\n• Корпоративная спортивная программа (оплата тематических секций, частичная компенсация абонемента);\n• Проведение летних и зимних корпоративов, дня именинника, совместные походы и т.д.\n\n📌Зарплата:\n• от 50 000 (Договорная, по итогу собеседования)\n\n☎️Контакты: @nataly_max","markup":[{"type":"hashtag","offset":6,"length":9,"data":"вакансия"},{"type":"hashtag","offset":16,"length":3,"data":"QA"},{"type":"hashtag","offset":20,"length":10,"data":"Ульяновск"},{"type":"hashtag","offset":31,"length":8,"data":"Саранск"},{"type":"hashtag","offset":40,"length":7,"data":"Казань"},{"type":"hashtag","offset":48,"length":7,"data":"Самара"},{"type":"hashtag","offset":56,"length":4,"data":"Уфа"},{"type":"hashtag","offset":61,"length":10,"data":"Краснодар"},{"type":"hashtag","offset":72,"length":5,"data":"офис"},{"type":"hashtag","offset":78,"length":17,"data":"удаленная_работа"},{"type":"handle","offset":1779,"length":11,"data":"nataly_max"}],"date":"2020-06-17T05:07:15+00:00","link":"tg://resolve?domain=qa_jobs&post=0","tags":[{"name":"qa"},{"name":"web"},{"name":"mobile"},{"name":"sql"},{"name":"git"},{"name":"windows"},{"name":"linux"}],"cities":[{"code":"ulyanovsk"},{"code":"saransk"},{"code":"kazan"},{"code":"samara"},{"code":"ufa"},{"code":"krasnodar"}],"allowsRemote":true}},{"node":{"__typename":"Job","id":"102977503232-1001089317451","title":"Qa engineer","text":"#вакансия #работа #удалёнка #fulltime #qa\nДолжность : QA Engineer\nКомпания : 6nomads.com\nФормат работы: #fulltime #remote\nЗарплата: $ 40 000 в год\n\nМолодой стартап из Сан-Франциско, призванный упростить онлайн-коммуникации для бизнеса, недавно привлек $ 4 млн инвестиций и теперь ищет удаленного QA на фул-тайм. \n\nТребования: \n•  Опыт разработки тест кейсов от 2 лет;\n•  Опыт тестирования WEB, API и мобильных iOS/Android приложений;\n•  Умение анализировать логи серверов приложений и локализовать причину сбоя;\n• Опыт интеграционного тестирования систем;\n• Знание PL/SQL;\n• Уровень английского не ниже В2.\n\nБудет плюсом:\n• Опыт работы с Rest Assured, Selenium;\n• Опыт работы с WAS, WildFly и Nginx;\n• Умение работать в Redmine или Jira.\n\nКонтакт для связи: @nastya_stret","markup":[{"type":"hashtag","offset":0,"length":9,"data":"вакансия"},{"type":"hashtag","offset":10,"length":7,"data":"работа"},{"type":"hashtag","offset":18,"length":9,"data":"удалёнка"},{"type":"hashtag","offset":28,"length":9,"data":"fulltime"},{"type":"hashtag","offset":38,"length":3,"data":"qa"},{"type":"link","offset":77,"length":11,"data":"http://6nomads.com"},{"type":"hashtag","offset":104,"length":9,"data":"fulltime"},{"type":"hashtag","offset":114,"length":7,"data":"remote"},{"type":"handle","offset":758,"length":13,"data":"nastya_stret"}],"date":"2020-06-16T18:31:08+00:00","link":"tg://resolve?domain=qa_jobs&post=0","tags":[{"name":"qa"},{"name":"web"},{"name":"ios"},{"name":"android"},{"name":"sql"},{"name":"rest"},{"name":"selenium"},{"name":"nginx"}],"cities":[],"allowsRemote":true}},{"node":{"__typename":"Job","id":"102971211776-1001089317451","title":"Qa engineer","text":"#вакансия #QA #Java #Python #HighLoad #backend #СанктПетербург #Спб #fulltime #Bercut\n\nПривет! Мы команда компании Bercut.\nУже 25 лет разрабатываем высоконагруженное ПО для ведущих игроков на рынке операторов сотовой связи.\nНашими решениями, реально, пользуется каждый 5 человек в мире! \nОчень ждем в команду гениев тестирования #QA Engineer\nКто испытывает страсть к высоконагруженному backend – welcome!!!\nУмеешь тестить руками – отлично! Автоматизировать – огонь! Не умеешь, но хочешь - научим!)\n\nMust Have:\n- Базы данных: Oracle/Postgre\n- ОС Linux/Solaris\n- Sql/PL/Sql\n- SOAP\n- Python/Java\n\nНаходимся в Санкт-Петербурге, рядом с метро Пионерская.\nЖдем, как в офис, так и на удаленку.\nЗарплата: от 100 000 до 150 000net + годовой бонус до 2х окладов.\n\nЧто в проекте:\n•  тестирование многокомпонентной OLTP систему 24/7 (API);\n•  нагрузка;\n•  регрессия;\n•  настройка CD;\n•  тест-планы, тест-кейсы, чек-листы и тд.\n\nПиши мне в личку, отправляй письмо, звони – буду рада рассказать все  подробности!\n\nhttps://www.bercut.com/\nКонтакты @Mari_Kupaeva или почта maria.kupaeva@bercut.co","markup":[{"type":"hashtag","offset":0,"length":9,"data":"вакансия"},{"type":"hashtag","offset":10,"length":3,"data":"QA"},{"type":"hashtag","offset":14,"length":5,"data":"Java"},{"type":"hashtag","offset":20,"length":7,"data":"Python"},{"type":"hashtag","offset":28,"length":9,"data":"HighLoad"},{"type":"hashtag","offset":38,"length":8,"data":"backend"},{"type":"hashtag","offset":47,"length":15,"data":"СанктПетербург"},{"type":"hashtag","offset":63,"length":4,"data":"Спб"},{"type":"hashtag","offset":68,"length":9,"data":"fulltime"},{"type":"hashtag","offset":78,"length":7,"data":"Bercut"},{"type":"hashtag","offset":329,"length":3,"data":"QA"},{"type":"link","offset":1000,"length":23,"data":"https://www.bercut.com/"},{"type":"handle","offset":1033,"length":13,"data":"Mari_Kupaeva"},{"type":"link","offset":1057,"length":23,"data":"mailto:maria.kupaeva@bercut.co"}],"date":"2020-06-16T17:01:11+00:00","link":"tg://resolve?domain=qa_jobs&post=0","tags":[{"name":"qa"},{"name":"java"},{"name":"python"},{"name":"oracle"},{"name":"linux"},{"name":"sql"},{"name":"soap"},{"name":"dotnet"}],"cities":[],"allowsRemote":false}},{"node":{"__typename":"Job","id":"102969114624-1001089317451","title":"Qa engineer","text":"#Москва #вакансия #QA #ручное тестирование #тестировщик #manual  #python\n\nДолжность: QA Engineer \nКомпания: Get IT, Москва\nЗП: до 120 000 \nФормат работы: офис, гибкое начало дня\nЗанятость: полная\n\n☘️Задачи:\n- Тестирование ERP-системы;\n- Создание тест-кейсов, чек-листов и т.д. \n\n☘️Ожидания:\n- Понимание жизненного цикла разработки продукта\n- Знание теории и видов тестирования,  умение вести тестовую документацию;\n- Умение локализовать баги и оформлять баг репорты\n- Понимание и умение применять техники тест-дизайна\n- Тестирование API\n- Опыт использование Postman\n- Понимание мобильного тестирования \n- Знание и умение пользования командной строкой UNIX\n- Знание SQL (простые запросы), Git\n- Умение использовать снифферы (Charles,Fiddler и т.д.)\n- Опыт работы 1-3 года\nЖелательно:\n- Умение работать с Docker\n- Python\n\n☘️Предлагаем:\n- белая зп (до 120 000, зависит от опыта);\n- офис в центре Москвы;\n- ДМС,  курсы английского, участие в конференциях. \n\nКонтакт: @Olga11019","markup":[{"type":"hashtag","offset":0,"length":7,"data":"Москва"},{"type":"hashtag","offset":8,"length":9,"data":"вакансия"},{"type":"hashtag","offset":18,"length":3,"data":"QA"},{"type":"hashtag","offset":22,"length":7,"data":"ручное"},{"type":"hashtag","offset":43,"length":12,"data":"тестировщик"},{"type":"hashtag","offset":56,"length":7,"data":"manual"},{"type":"hashtag","offset":65,"length":7,"data":"python"},{"type":"handle","offset":963,"length":10,"data":"Olga11019"}],"date":"2020-06-16T16:53:06+00:00","link":"tg://resolve?domain=qa_jobs&post=0","tags":[{"name":"qa"},{"name":"python"},{"name":"unix"},{"name":"sql"},{"name":"git"},{"name":"docker"}],"cities":[{"code":"moscow"}],"allowsRemote":false}},{"node":{"__typename":"Job","id":"102963871744-1001089317451","title":"Qa engineer","text":"#Москва #вакансия #QA #fulltime #test #office\n\n💻Компания: СберТех.\n🧰Вакансия: QA Engineer.\n🏢Офис: Москва, м. Нагатинская/м. Тульская/ м. Верхние Котлы.\n💰ЗП: от 150 000 Net.\n\n📂Проект: Разработка платформы для управления бизнес-процессами Банка и Цифровой Платформы Sber.\n\n🗓Задачи:\n• Работа в роли тестировщика в scrum команде.\n• Написание, актуализация тестовых сценариев и их прохождение (API, UI).\n• Проведение функционального, регрессионного, интеграционного и других видов тестирования.\n• Регистрация, отслеживание и верификация дефектов.\n• Участие в развитии команды и процессов тестирования.\n\n📌Требования: \n• Опыт написания тестовых сценариев, чек-листов, составления сложных интеграционных сценариев.\n• Знание теории тестирования, понимание видов тестирования и необходимости их применения на различных этапах реализации проекта.\n• Опыт анализа и тестирования требований.\n• Опыт тестирования rest/soap сервисов.\n• Опыт работы с BPM системами, понимание нотации BPMN 2.0.\n\n📎Cтек: REST, XML, XSD, JSON, SQL, BPMN 2.0, Docker, Kubernetes, Openshift, Kafka.\n\n🔰Условия:\n• Оформление ТК РФ.\n• ДМС для сотрудников и скидки на медицинскую страховку для родственников;\n• Высокая белая заработная плата (оклад + годовая премия).\n• Возможность обучения за счет компании, посещения IT-конференций.\n• Бесплатный тренажерный зал на территории офиса.\n• Корпоративная жизнь и спортивные мероприятия.\n\n📩Готов ответить на интересующие вопросы - @Dmiryy","markup":[{"type":"hashtag","offset":0,"length":7,"data":"Москва"},{"type":"hashtag","offset":8,"length":9,"data":"вакансия"},{"type":"hashtag","offset":18,"length":3,"data":"QA"},{"type":"hashtag","offset":22,"length":9,"data":"fulltime"},{"type":"hashtag","offset":32,"length":5,"data":"test"},{"type":"hashtag","offset":38,"length":7,"data":"office"},{"type":"handle","offset":1443,"length":7,"data":"Dmiryy"}],"date":"2020-06-16T16:02:50+00:00","link":"tg://resolve?domain=qa_jobs&post=0","tags":[{"name":"qa"},{"name":"dotnet"},{"name":"rest"},{"name":"soap"},{"name":"xml"},{"name":"xsd"},{"name":"json"},{"name":"sql"},{"name":"docker"},{"name":"kubernetes"},{"name":"kafka"}],"cities":[{"code":"moscow"}],"allowsRemote":false}},{"node":{"__typename":"Job","id":"102953385984-1001089317451","title":"Qa инженер","text":"#уфа #вакансия #офис #QA #Java \n\nВакансия: 🔹Разработчик автотестов🔹\nКомпания: ИнфоТеКС\nЗ/п: до 100 000 руб. гросс\n\n🔻Что нужно делать?\n- Написание и запуск автотестов для сетевого оборудования;\n- Установка и настройка оборудования в серверной стойке;\n- Установка и настройка ПО;\n\n🔻Мы ожидаем, что у тебя есть:\n- Знание языка программирования Java (знания Java Core будет достаточно), либо любой другой ООП-язык + желание изучить Java;\n- Знание сетевых технологий (понимание того, как сетевые узлы обмениваются трафиком);\n- Знание Linux на уровне администратора;\n- Навыки работы с Selenium WebDriver будут очень большим плюсом;\n\n🔻Что предлагаем?\n- Работа в офисе в Уфе (ул.Карла Маркса)\n- Официальное трудоустройство, \"белая\" з/п.\n- Гибкое утро (8:00-11:00)\n- Бесплатные обеды в офисе или кафе.\n- Занятия в фитнес клубе.\n- ДМС.\n- Обучение внутреннее и внешнее.\n\n📲 Контакты:\nЮсупова Елена @iusupovahr\nили можно просто откликнуться на вакансию здесь: https://ufa.hh.ru/vacancy/36889979","markup":[{"type":"hashtag","offset":0,"length":4,"data":"уфа"},{"type":"hashtag","offset":5,"length":9,"data":"вакансия"},{"type":"hashtag","offset":15,"length":5,"data":"офис"},{"type":"hashtag","offset":21,"length":3,"data":"QA"},{"type":"hashtag","offset":25,"length":5,"data":"Java"},{"type":"handle","offset":892,"length":11,"data":"iusupovahr"},{"type":"link","offset":953,"length":34,"data":"https://ufa.hh.ru/vacancy/36889979"}],"date":"2020-06-16T11:28:31+00:00","link":"tg://resolve?domain=qa_jobs&post=0","tags":[{"name":"qa"},{"name":"java"},{"name":"linux"},{"name":"selenium"}],"cities":[{"code":"ufa"}],"allowsRemote":false}},{"node":{"__typename":"Job","id":"102951288832-1001089317451","title":"Qa engineer","text":"#вакансия #QA #ФТ #Москва #офис \n\nВакансия: QA Engineer (с возможностью автоматизации)\nГород: Москва м. Чистые пруды\nЗарплата: от 100 000 до 150 000 рублей на руки \nФормат: офис, полный день, полная занятость\nКомпания Innovative People \n\nПроект в банке, agile-команда.\n\n➡ Требования:\n• Опыт тестирование веб-приложений от 3х лет\n• Практический опыт применения практик тест-дизайна\n• Рабочие знания клиент-серверной архитектуры\n• Умение проектировать тест-кейсы и подготавливать тестовые данные для тестирования\n• SQL от базового уровня\n\n➡ Предлагаем:\n• все по ТК РФ, белое и официальное\n• ДМС со стоматологией, программа лояльности\n• адекватное руководство (сейчас мы на удаленке и собеседования по скайпу)\n• большое комьюнити, новый проект\n• ноутбук\n\nРезюме и вопросы @Priboch","markup":[{"type":"hashtag","offset":0,"length":9,"data":"вакансия"},{"type":"hashtag","offset":10,"length":3,"data":"QA"},{"type":"hashtag","offset":14,"length":3,"data":"ФТ"},{"type":"hashtag","offset":18,"length":7,"data":"Москва"},{"type":"hashtag","offset":26,"length":5,"data":"офис"},{"type":"handle","offset":769,"length":8,"data":"Priboch"}],"date":"2020-06-16T11:27:39+00:00","link":"tg://resolve?domain=qa_jobs&post=0","tags":[{"name":"qa"},{"name":"sql"}],"cities":[{"code":"moscow"}],"allowsRemote":false}},{"node":{"__typename":"Job","id":"102946045952-1001089317451","title":"Qa инженер","text":"#вакансия #москва #qa_auto #android #swift  #kotlin #java #tinkoff\n\n📣Команда автоматизированного тестирования Тинькофф ищет талантливого коллегу, готового взяться за решение нетривиальных задач.\n\nЕсли у тебя есть: \n✔️опыт автоматизации тестирования мобильных приложений;\n✔️высокий уровень владения языком программирования (Java/Kotlin или Swift);\n✔️опыт работы с фреймворками тестирования (JUnit/TestNG или XCTest);\n✔️опыт настройки CI/CD;\n✔️и желание развиваться в сфере, тестирования,\nмы ждем тебя в команду автоматизации Tinkoff.ru!\n\nЗ/п от 100 до 200 т.р. на руки.\n\n✏️По вопросам сотрудничества пиши:\nTelegram @galcian\nE-mail g.barsukova@tinkoff.ru","markup":[{"type":"hashtag","offset":0,"length":9,"data":"вакансия"},{"type":"hashtag","offset":10,"length":7,"data":"москва"},{"type":"hashtag","offset":18,"length":8,"data":"qa_auto"},{"type":"hashtag","offset":27,"length":8,"data":"android"},{"type":"hashtag","offset":36,"length":6,"data":"swift"},{"type":"hashtag","offset":44,"length":7,"data":"kotlin"},{"type":"hashtag","offset":52,"length":5,"data":"java"},{"type":"hashtag","offset":58,"length":8,"data":"tinkoff"},{"type":"link","offset":511,"length":24,"data":"https://www.tinkoff.ru/career/vacancies/testirovanie/qa-automation-engineer-ios-android/"},{"type":"handle","offset":615,"length":8,"data":"galcian"},{"type":"link","offset":631,"length":22,"data":"mailto:g.barsukova@tinkoff.ru"}],"date":"2020-06-16T10:15:14+00:00","link":"tg://resolve?domain=qa_jobs&post=0","tags":[{"name":"qa"},{"name":"android"},{"name":"swift"},{"name":"kotlin"},{"name":"java"},{"name":"junit"}],"cities":[{"code":"moscow"}],"allowsRemote":false}},{"node":{"__typename":"Job","id":"102944997376-1001089317451","title":"Qa инженер","text":"#вакансия #remote #fulltime #qa #python#autotest#aurgajob\n\nКомпания: Auriga\nВакансия:  Инженер по автотестированию (Python) \nОпыт работы: от 1 года (нужны специалисты от junior до senior)\nЗарплата: до 130 000 р. на руки\nМесторасположение: Возможна полностью удаленная работа или любая из локаций Ауриги (Москва, Санкт-Петербург, Нижний Новгород, Ростов-на-Дону, Новосибирск)\nЗанятость: fulltime\n\n✅Задача команды – разработка и рефакторинг автотестов на Python для десктопных Windows приложений, которые работают с 3D моделями и позволяют врачам-ортодонтам создавать и отслеживать планы лечения пациентов.\n✅Наша цель - переработать текущий устоявшийся подход к автотестам, обеспечить масштабируемость и включить все тесты в автоматический процесс CI/CD.\n✅У нас гибкий график + адекватный руководитель = баланс работы и личной жизни, получится решать проектные задачи и проводить время с семьей, ходить на тренировки или заниматься хобби. \n✅Да-да,  на проекте можно работать из дома, даже после завершения самоизоляции, а если хочется общества - велком в любой из наших офисов (Москва, Питер, Нижний, Ростов, Новосибирск)\n✅Аурига разрабатывает ПО на заказ уже 30 лет, у компании много проектов - у вас гарантия занятости и возможность выбора. \n✅Будем радовать белой з/п, щедрой ДМС с прямым доступом и стоматологией за счет компании, дружескими посиделками на занятиях английского.\n\nРасскажу о вакансии и познакомлю с менеджером, пишите maria.babushkina@auriga.com или в телеграм @Maria_Auriga","markup":[{"type":"hashtag","offset":0,"length":9,"data":"вакансия"},{"type":"hashtag","offset":10,"length":7,"data":"remote"},{"type":"hashtag","offset":18,"length":9,"data":"fulltime"},{"type":"hashtag","offset":28,"length":3,"data":"qa"},{"type":"bold","offset":59,"length":10,"data":""},{"type":"bold","offset":76,"length":11,"data":""},{"type":"bold","offset":125,"length":13,"data":""},{"type":"bold","offset":188,"length":10,"data":""},{"type":"bold","offset":220,"length":18,"data":""},{"type":"bold","offset":375,"length":11,"data":""},{"type":"link","offset":1435,"length":27,"data":"mailto:maria.babushkina@auriga.com"},{"type":"handle","offset":1478,"length":13,"data":"Maria_Auriga"}],"date":"2020-06-16T09:46:43+00:00","link":"tg://resolve?domain=qa_jobs&post=0","tags":[{"name":"qa"},{"name":"python"},{"name":"windows"}],"cities":[{"code":"moscow"},{"code":"rostov"},{"code":"novosibirsk"},{"code":"nizhny-novgorod"}],"allowsRemote":true}}]}}},"context":{}}