{"hash":"f34fd2c444a074f4e0e67d525015a008ef8e766f","data":{"records":{"id":"javascript","name":"javascript","belongsTo":{"totalCount":84,"pageInfo":{"totalPages":9,"currentPage":9},"edges":[{"node":{"__typename":"Job","id":"52428800-1001375797688","title":".net программист","text":"Всем добрый день, у нас в агентстве  есть #вакансия Программист С#\n, #вилка от 140 000р до 200 000р в зависимости от опыта и тех.собеседования.\n\nЛокация: #Москва, офис в #«Москва-Сити»,\n\nОбязанности: \n\n- Проектирование и разработка приложений для ритейла \n- Проектирование БД, написание запросов и хранимых процедур MSSQL\n- Доработка, поддержка существующих бизнес приложений компании\n\nТребования: \n\nОпыт коммерческой разработки на C#, ASP.NET от 1 года \nОпыт с БД: MSSQL, T-SQL, \nЗнание шаблонов и паттернов проектирования\nVue.js, JavaScript\n\n\nУсловия:\n\nОфициальное оформление, хороший компенсационный пакет при переезде. \nГрафик: 8:00-17:00\nКорпоративное питание\nКорпоративные мероприятия\nСпортивные секции в рамках корпоративного отдыха\n\nЕсли наше предложение заинтересовало Вас, пишите мне)","markup":[{"type":"hashtag","offset":42,"length":9,"data":"вакансия"},{"type":"hashtag","offset":69,"length":6,"data":"вилка"},{"type":"hashtag","offset":154,"length":7,"data":"Москва"},{"type":"link","offset":436,"length":7,"data":"http://ASP.NET"}],"date":"2019-11-18T13:33:50+00:00","link":"tg://resolve?domain=DotNetRuJobsFeed&post=50","tags":[{"name":"dotnet"},{"name":"csharp"},{"name":"sql-server"},{"name":"sql"},{"name":"vuejs"},{"name":"javascript"},{"name":"asp-net"}],"cities":[{"code":"moscow"}],"allowsRemote":false}},{"node":{"__typename":"Job","id":"50331648-1001375797688","title":".net developer","text":"#вакансия #минск #офис #minsk #fulltime #csharp #core #middle #senior\n\nВакансия: Middle/Senior .NET Developer\nКомпания: Amaryllis Solutions\nЛокация: Минск \nФормат: #офис #фуллтайм\nВилка з/п: 2000-3200 USD net в зависимости от уровня\n\nПроект: Amaryllis Payment Solutions (инновационная платежная платформа).\n\nТребования:\n- практический опыт в .NET, .NET Core, ASP.NET Web API, MS SQL Server, JavaScript, Angular 2+;\n- не менее чем 3-летний стаж бэкенд либо фуллстек разработки.\n\nПредлагаем:\n- конкурентную компенсацию за ваш труд;\n- специальные учебные программы (тренинги и семинары в области передового опыта в области разработки программного обеспечения, управления проектами, управления);\n- индивидуальный план профессионального развития каждого сотрудника;\n- социальный пакет (курсы английского языка и спорт для сотрудников);\n- гибкий график работы;\n- 100% белую заработную плату – компания резидент ПВТ\n- помощь с релокацией для иногородних.\n\nКонтакты: @steelRunner","markup":[{"type":"hashtag","offset":0,"length":9,"data":"вакансия"},{"type":"hashtag","offset":10,"length":6,"data":"минск"},{"type":"hashtag","offset":17,"length":5,"data":"офис"},{"type":"hashtag","offset":23,"length":6,"data":"minsk"},{"type":"hashtag","offset":30,"length":9,"data":"fulltime"},{"type":"hashtag","offset":40,"length":7,"data":"csharp"},{"type":"hashtag","offset":48,"length":5,"data":"core"},{"type":"hashtag","offset":54,"length":7,"data":"middle"},{"type":"hashtag","offset":62,"length":7,"data":"senior"},{"type":"hashtag","offset":164,"length":5,"data":"офис"},{"type":"hashtag","offset":170,"length":9,"data":"фуллтайм"},{"type":"link","offset":359,"length":7,"data":"http://ASP.NET"},{"type":"handle","offset":959,"length":12,"data":"steelRunner"}],"date":"2019-11-15T17:17:33+00:00","link":"tg://resolve?domain=DotNetRuJobsFeed&post=48","tags":[{"name":"dotnet"},{"name":"csharp"},{"name":"web"},{"name":"sql"},{"name":"javascript"},{"name":"angularjs"},{"name":"net-core"},{"name":"asp-net"},{"name":"sql-server"}],"cities":[{"code":"minsk"}],"allowsRemote":false}},{"node":{"__typename":"Job","id":"45088768-1001375797688","title":".net разработчик","text":"#вакансия #с#  #.NET #офис #Минск\n\nВакансии Middle/Senior .net разработчики.\nГород и адрес офиса: Минск\nФормат работы: офис\nЗанятость: полная\nЗарплатная вилка: от 2300 до 3500\n\nAmaryllis Payment Solutions – это компания из списка «20 самых перспективных поставщиков платежных решений 2018 года», ищет .Net / C # разработчиков, готовых присоединиться к нашей профессиональной команде, чтобы участвовать в создании инновационной платежной платформы Amaryllis.\n\nТребования:\n\n* Практический опыт в .NET, .NET Core, ASP.NET Web API, MS SQL Server, JavaScript, Angular 2+;\n* 3+ летний опыт работы в ИТ-индустрии;\n\nМы готовы предложить вам:\n\n* Конкурентную компенсацию за ваш труд;\n* Специальные учебные программы (тренинги и семинары в области передового опыта в области разработки программного обеспечения, управления проектами, управления);\n* Индивидуальный план профессионального развития каждого сотрудника;\n* Социальный пакет (курсы английского языка и спорт для сотрудников);\n* Гибкий график работы.\n* 100% белая заработная плата – компания резидент ПВТ\n\n@veroneko","markup":[{"type":"hashtag","offset":0,"length":9,"data":"вакансия"},{"type":"hashtag","offset":21,"length":5,"data":"офис"},{"type":"hashtag","offset":27,"length":6,"data":"Минск"},{"type":"link","offset":511,"length":7,"data":"http://ASP.NET"},{"type":"handle","offset":1055,"length":9,"data":"veroneko"}],"date":"2019-11-07T10:08:54+00:00","link":"tg://resolve?domain=DotNetRuJobsFeed&post=43","tags":[{"name":"dotnet"},{"name":"csharp"},{"name":"web"},{"name":"sql"},{"name":"javascript"},{"name":"angularjs"},{"name":"net-core"},{"name":"asp-net"},{"name":"sql-server"}],"cities":[{"code":"minsk"}],"allowsRemote":false}},{"node":{"__typename":"Job","id":"38797312-1001375797688","title":".net developer","text":"#офис #вакансия \nНижний Новгород\nMiddle C# Developer Full Stack\nЗп 80-120к руб на руки\n\nРассматриваем иногородних!\n\nОбязанности:\n• участие в разработке новых сервисов на C# / .NET Core\n• поддержка и развитие существующих продуктов и сервисов на C# / WPF / .NET Core\n• участие в проектировании архитектуры, планировании релизов, совершенствовании процессов разработки\n• участие во всех этапах разработки продуктов (от идеи/прототипа до релиза)\n\nТребования:\n• высшее техническое образование \n• работа только в офисе полный рабочий день, дистанционная работа не рассматривается (но оказываем материальную и другую поддержку для тех, кто готов к переезду в Нижний Новгород)\n\nПриветствуются:\n• собственный проект или участие в opensource\n• опыт работы по Agile (Scrum, Kanban, XP).\n• умение находить нестандартные, простые технические решения\n• опыт разработки Web-сервисов,\n• опыт работы с Doсker, Kubernetes\n• опыт написания unit-тестов и разработки по TDD\n\nКлючевые навыки\nC#.NET Framework WPF AgileExtreme Programming Unit Testing.NET Core ASP.NET LINQ MVC ООП MySQL JavaScript HTML SQL CSS\n\nВопросы/отклики писать сюда: @hr_rodnaya, enn369347@gmail.com","markup":[{"type":"hashtag","offset":0,"length":5,"data":"офис"},{"type":"hashtag","offset":6,"length":9,"data":"вакансия"},{"type":"link","offset":1022,"length":11,"data":"http://Testing.NET"},{"type":"link","offset":1039,"length":7,"data":"http://ASP.NET"},{"type":"handle","offset":1120,"length":11,"data":"hr_rodnaya"},{"type":"link","offset":1133,"length":19,"data":"mailto:enn369347@gmail.com"}],"date":"2019-11-04T13:41:16+00:00","link":"tg://resolve?domain=DotNetRuJobsFeed&post=37","tags":[{"name":"dotnet"},{"name":"csharp"},{"name":"wpf"},{"name":"web"},{"name":"kubernetes"},{"name":"linq"},{"name":"mysql"},{"name":"javascript"},{"name":"html"},{"name":"sql"},{"name":"css"},{"name":"net-core"},{"name":"unit-testing"},{"name":"asp-net"}],"cities":[{"code":"nizhny-novgorod"}],"allowsRemote":false}}]}}},"context":{}}